       IDENTIFICATION DIVISION.
       PROGRAM-ID. FAPDU01J.
       AUTHOR.
       INSTALLATION. UCSD - USDFINSYS.
       DATE-WRITTEN.  DEC 04,2000.
       DATE-COMPILED. DEC 04,2000.
      *%***************************************************************
      ****----------------------------------------------------------***
      **  AUTHOR    DATE    DESCRIPTION
      **  ------- --------  ----------------------------------------
      **  DEVMLJ  07/24/04  NEW
      *%****************************************************************

       ENVIRONMENT DIVISION.
       CONFIGURATION SECTION.
       SOURCE-COMPUTER.  IBM-3090.
       OBJECT-COMPUTER.  IBM-3090.
       INPUT-OUTPUT SECTION.

       FILE-CONTROL.
       I-O-CONTROL.

       DATA DIVISION.

       WORKING-STORAGE SECTION.
       01  DBLINK-USER-CD   PIC X(8) VALUE SPACES.
       01  FILLER  PIC X(32) VALUE '** FAPDU01J WORKING STRG BEGINS'.
       01  WS-JLD-TRANS-DESC.
           03  WS-VENDOR-NAME           PIC X(21).
           03  WS-JLD-TRANS-DESC-FIL    PIC X(06) VALUE
                                        'DOC # '.
           03  WS-INV-NBR               PIC X(08) VALUE SPACES.

       01  WS-TRADE-DEBIT-AMT           PIC S9(10)V99 COMP-3
                                                      VALUE +0.
       01  WS-TRADE-CREDIT-AMT          PIC S9(10)V99 COMP-3
                                                      VALUE +0.
       01  WS-TOTAL-TRADE-AMT           PIC S9(10)V99  COMP-3
                                                      VALUE +0.
       01 WS-OFFSET-AMT                 PIC S9(10)V99 VALUE +0.
       01 WS-DEBIT-AMT                  PIC S9(10)V99 VALUE +0.
       01 WS-CREDIT-AMT                 PIC S9(10)V99 VALUE +0.

       01 WS-END-OF-APA-SW              PIC X(01) VALUE SPACE.
       01 WS-END-OF-IVA-SW              PIC X(01) VALUE SPACE.
       01 WS-END-OF-IVD-SW              PIC X(01) VALUE SPACE.
       01 WS-SEQ-NMBR                   PIC S9(04) COMP-3 VALUE +0.
       01 WS-IVA-SEQ-NBR                PIC S9(04) COMP-3 VALUE +0.
       01 INV-DCMNT-NBR                 PIC X(08)  VALUE SPACES.
       01 AC99W.
           COPY AC99W.
      *%****************************************************************
      *%              AC99W FIELDS UNIQUE TO THIS PROGRAM              *
      *%****************************************************************
AC99W      10  AC99W-PROGRAM-NAME         PIC X(8) VALUE 'FAPDU01J'.
AC99W      10  AC99W-TRANSID              PIC X(4) VALUE '@   '.
           10  AC99W-FAPWD40C-F             PIC X(1)
                                VALUE 'N'.

           COPY ONLWS.

      *%****************************************************************
      *%              STANDARD CICS COPIES                             *
      *%****************************************************************

CPYNME     COPY ACMSGHT.
      *%****************************************************************
      *%               IDMS RECORD COPIES                              *
      *%****************************************************************

      *%****************************** *
      *% TXD_TXT_DTL_V DATA VIEW AREAS
      *%****************************** *
           COPY R4121.
      *%****************************** *
      *%
      *%****************************** *
           COPY R4068.
      *%****************************** *
      *% JLH_JRNL_HDR_V
      *%****************************** *
           COPY R4069.

      *%****************************** *
      *% JLH_JRNL_HDR_V
      *%****************************** *
           EXEC SQL
               INCLUDE HVJLH
           END-EXEC.

      *%****************************** *
      *%APH_APRVL_HDR_V AREAS(HOST VAR INCLUDE)
      *%****************************** *
           EXEC SQL
               INCLUDE HVAPH
           END-EXEC.

      *%****************************** *
      *%APD_APRVL_AUD_V AREAS(HOST VAR INCLUDE)
      *%****************************** *
      *%   EXEC SQL
      *%       INCLUDE CBHV4214
CPYNME     EXEC SQL
CPYNME         INCLUDE HVAPD
CPYNME     END-EXEC.

      *%****************************** *
      *% JLD_JRNL_DTL_D
      *%****************************** *
           EXEC SQL
               INCLUDE HVJLD
           END-EXEC.

      *%****************************** *
      *%VDR_VENDOR_V AREAS(HOST VAR INCLUDE)
      *%****************************** *
           EXEC SQL
               INCLUDE HVVDR
           END-EXEC.

      *%****************************** *
      *%IVH_INV_HDR_V AREAS(HOST VAR INCLUDE)
      *%****************************** *
           EXEC SQL
               INCLUDE HVIVH
           END-EXEC.

      *%****************************** *
      *%IVD_INV_DTL_V AREAS(HOST VAR INCLUDE)
      *%****************************** *
           EXEC SQL
               INCLUDE HVIVD
           END-EXEC.

      *%****************************** *
      *%IVA_INV_ACCT_V AREAS(HOST VAR INCLUDE)
      *%****************************** *
           EXEC SQL
               INCLUDE HVIVA
           END-EXEC.

UCSD1      EXEC SQL
UCSD1          INCLUDE HVMSL
UCSD1      END-EXEC.

           EXEC SQL
               INCLUDE CBCVDBCA
           END-EXEC.

      /
      *%-------------------------------------------------------------- *
      *%          STANDARD CONVERT/DB COMMUNICATION AREAS              *
      *%-------------------------------------------------------------- *
           COPY CBCVDBDD.
           COPY CBCVDBXD.
      /
      *%-------------------------------------------------------------- *
      *%                  CONTROL AREAS AND VIEWS                      *
      *%-------------------------------------------------------------- *

      *%****************************** *
      *%CONVERT/DB COMMAREA
      *%****************************** *
           EXEC SQL
               INCLUDE SQLCA
           END-EXEC.

       LINKAGE SECTION.
           COPY FAPWM01.
           COPY FAPWD01.
           COPY FAPWK01.

      *%-------------------------------------------------------------- *
      *%                                                               *
      *%                    CURSOR DECLARATIONS                        *
      *%                                                               *
      *%-------------------------------------------------------------- *
      *%****************************** *
      *%CURSOR FOR FORWARD SUBSET OF APD_APRVL_AUD_V
      *%****************************** *
           EXEC SQL
               DECLARE S_4212_4214_N CURSOR FOR
               SELECT
                  USER_CD
                 ,LAST_ACTVY_DT
                 ,LEVEL_SEQ_NBR
                 ,APRVL_CD
                 ,ALT_APRVL_CD
                 ,APRVL_DT
                 ,APRVL_TIME
                 ,SRC_IND
                 ,PAN_IND
                 ,FK_APH_FSCL_YR
                 ,FK_APH_SEQ_NBR
                 ,FK_APH_DOC_NBR
                 ,FK_APH_CHG_SEQ_NBR
               FROM APD_APRVL_AUD_V
               WHERE FK_APH_FSCL_YR = ' '
                 AND FK_APH_SEQ_NBR = 3
                 AND FK_APH_DOC_NBR = :INV-DCMNT-NBR
                 AND FK_APH_CHG_SEQ_NBR = ' '
               OPTIMIZE FOR 1 ROW
           END-EXEC.


      *%****************************** *
      *%CURSOR FOR FORWARD SUBSET OF IVD_INV_DTL_V
      *%****************************** *
           EXEC SQL
               DECLARE S_4150_4151_N CURSOR FOR
               SELECT
                  USER_CD
                 ,LAST_ACTVY_DT
                 ,ITEM_NBR
                 ,CMDTY_CD
                 ,OPN_CLS_HLD_IND
                 ,ACCPT_QTY
                 ,ACCPT_UNIT_PRC
                 ,PO_NBR
                 ,CMDTY_DESC
                 ,UNIT_MEA_CD
                 ,DTL_CNTR_ACCT
                 ,DTL_ERROR_IND
                 ,DSCNT_AMT
                 ,TAX_AMT
                 ,APRVD_QTY
                 ,APRVD_UNT_PRC
                 ,INVD_QTY
                 ,INVD_UNIT_PRC
                 ,PO_ITEM_NBR
                 ,TLRNC_OVRD_IND
                 ,PREV_PAID_AMT
                 ,FK_IVH_DOC_NBR
                 ,POD_SETF
                 ,FK_POD_PO_NBR
                 ,FK_POD_CHG_SEQ_NBR
                 ,FK_POD_ITEM_NBR
                 ,POD_SET_TS
MLJTST           ,TRD_IN_IND
                 ,TRD_IN_AMT
FP5665           ,PROD_DSCNT_AMT
               FROM IVD_INV_DTL_V
               WHERE FK_IVH_DOC_NBR = :IVD-FK-IVH-DOC-NBR
                 AND TRD_IN_IND     = 'Y'
               ORDER BY ITEM_NBR  ASC
               OPTIMIZE FOR 1 ROW
           END-EXEC.

      *%****************************** *
      *%CURSOR FOR FORWARD SUBSET OF IVA_INV_ACCT_V
      *%****************************** *
           EXEC SQL
               DECLARE S_4151_4152_N CURSOR FOR
               SELECT
                  USER_CD
                 ,LAST_ACTVY_DT
                 ,SEQ_NBR
                 ,NSF_OVRDE
                 ,ADDL_CHRG_PCT
                 ,INVD_AMT
                 ,DSCNT_AMT
                 ,LIQDTN_IND
                 ,COA_CD
                 ,ACCT_INDX_CD
                 ,FUND_CD
                 ,ORGN_CD
                 ,ACCT_CD
                 ,PRGRM_CD
                 ,ACTVY_CD
                 ,LCTN_CD
                 ,ACCT_ERROR_IND
                 ,FSCL_YR
                 ,BANK_ACCT_CD
                 ,APRVD_AMT
                 ,TAX_AMT
                 ,INVD_PCT
                 ,DSCNT_PCT
                 ,ADDL_CHRG
                 ,INCM_TYP_SEQ_NBR
                 ,PAID_AMT
                 ,RULE_CLS_CD
                 ,DSCNT_RULE_CLS
                 ,TAX_RULE_CLS
                 ,ADDL_CHRG_RUL_CLS
                 ,PSTNG_PRD
                 ,PRJCT_CD
                 ,PO_NBR
                 ,PO_ITEM_NBR
                 ,PO_SEQ_NBR
                 ,FK_IVD_DOC_NBR
                 ,FK_IVD_ITEM_NBR
                 ,TRD_IN_IND
                 ,TRD_IN_AMT
                 ,TRD_RULE_CLS
FP5665           ,PROD_DSCNT_AMT
FP5665           ,PROD_DSCNT_RULE_CLS
               FROM IVA_INV_ACCT_V
               WHERE FK_IVD_DOC_NBR  = :IVA-FK-IVD-DOC-NBR
                 AND FK_IVD_ITEM_NBR = :IVA-FK-IVD-ITEM-NBR
                 AND TRD_IN_IND      = 'Y'
                 AND ACCT_CD        LIKE '649%'

               ORDER BY SEQ_NBR  ASC
               OPTIMIZE FOR 1 ROW
           END-EXEC.


       PROCEDURE DIVISION USING  FAPWM01 FAPWD01 FAPWK01.
      /
      *%-------------------------------------------------------------- *
      *%              000-SQL-INITIALIZATION ROUTINE                   *
      *%-------------------------------------------------------------- *

      *%---------------------------------------------------------------*
      *%                 000-RUN-CONTROL ROUTINE                       *
      *%---------------------------------------------------------------*
       000-RUN-CONTROL.
           PERFORM 010-INITIALIZE
              THRU 010-INITIALIZE-EXIT.
           PERFORM 020-MAINLINE
              THRU 020-MAINLINE-EXIT
           GOBACK.
       000-RUN-CONTROL-EXIT.
           EXIT.

      *%---------------------------------------------------------------*
      *%                                                               *
      *%                 010-INITIALIZE ROUTINE                        *
      *%                                                               *
      *%---------------------------------------------------------------*
       010-INITIALIZE.

            MOVE 0001 TO DBLINK-CURR-IO-NUM
            MOVE ZERO TO ERROR-STATUS
                         SQLCODE.

            MOVE DCMNT-NMBR-4150-AP01
                         TO IVH-DOC-NBR.
            PERFORM 906-05-R4150-INV-HDR
               THRU 906-05-R4150-INV-HDR-EXIT.
            PERFORM 999-SQL-STATUS
               THRU 999-SQL-STATUS-EXIT.

            MOVE IVH-DOC-NBR  TO IVD-FK-IVH-DOC-NBR
                                 WS-JLD-DOC-NBR.
            IF IVH-CNCL-IND = 'N'
               MOVE 'X' TO       WS-DOC-PREFIX
            ELSE
               MOVE 'R' TO       WS-DOC-PREFIX.

       010-INITIALIZE-EXIT.
           EXIT.

      *%---------------------------------------------------------------*
      *%                   020-MAINLINE ROUTINE                        *
      *%---------------------------------------------------------------*
       020-MAINLINE.

            MOVE 'N' TO WS-END-OF-IVD-SW

            MOVE 0010 TO DBLINK-CURR-IO-NUM
            MOVE ZERO TO ERROR-STATUS
                         SQLCODE.
            PERFORM 990-OPEN-S-4150-4151-N
               THRU 990-OPEN-S-4150-4151-N-EXIT.

            MOVE 0015 TO DBLINK-CURR-IO-NUM
            MOVE ZERO TO ERROR-STATUS
                         SQLCODE.
            PERFORM 906-FETCH-4150-4151
               THRU 906-FETCH-4150-4151-EXIT.

            PERFORM 30-CREATE-TRADEIN-JV
               THRU 30-CREATE-TRADEIN-JV-EXIT
               UNTIL WS-END-OF-IVD-SW = 'Y'

            MOVE 0020 TO DBLINK-CURR-IO-NUM
            MOVE ZERO TO ERROR-STATUS
                         SQLCODE.
            PERFORM 991-CLOSE-S-4150-4151-N
               THRU 991-CLOSE-S-4150-4151-N-EXIT

            PERFORM 30-CREATEJV-HEADER
               THRU 30-CREATEJV-HEADER-EXIT.

            PERFORM 30-CREATEAPH-S01
               THRU 30-CREATEAPH-S01-EXIT.
      *
      ******************************************************************

       020-MAINLINE-EXIT.
           EXIT.



      *%---------------------------------------------------------------
      *%
      *%           30-CREATE-TRADEIN-JV ROUTINE
      *%
      *%---------------------------------------------------------------

       30-CREATE-TRADEIN-JV.
           IF IVD-TRD-IN-IND = 'Y'
               MOVE IVD-FK-IVH-DOC-NBR   TO IVA-FK-IVD-DOC-NBR
               MOVE IVD-ITEM-NBR         TO IVA-FK-IVD-ITEM-NBR
               MOVE 0030 TO DBLINK-CURR-IO-NUM
               PERFORM 990-OPEN-S-4151-4152-N
                  THRU 990-OPEN-S-4151-4152-N-EXIT

               MOVE 'N' TO   WS-END-OF-IVA-SW
               PERFORM 30-CREATE-DTLS
                  THRU 30-CREATE-DTLS-EXIT UNTIL
                      WS-END-OF-IVA-SW = 'Y'

               MOVE 0035 TO DBLINK-CURR-IO-NUM
               PERFORM 991-CLOSE-S-4151-4152-N
                  THRU 991-CLOSE-S-4151-4152-N-EXIT

            MOVE 0040 TO DBLINK-CURR-IO-NUM
            PERFORM 906-FETCH-4150-4151
               THRU 906-FETCH-4150-4151-EXIT.

       30-CREATE-TRADEIN-JV-EXIT.
            EXIT.

       30-CREATEJV-HEADER.
           INITIALIZE JLH-JLH-JRNL-HDR.

           MOVE  WS-JLD-DOC-NBR      TO JLH-DOC-NBR
           MOVE '01'                 TO JLH-UNVRS-CD
           MOVE 'FAPDU01J'           TO JLH-SUBSYSTEM-ID
           MOVE 'APT'                TO JLH-SUB-DOC-TYP
           MOVE 'TRADE IN FROM INVOICE           '
                                     TO JLH-DOC-DESC
           MOVE 'Y'                  TO JLH-CMPLT-IND
           MOVE 'Y'                  TO JLH-APRVL-IND
           MOVE 'I'                  TO JLH-PSTNG-IND
           MOVE IVA-PSTNG-PRD        TO JLH-ACTG-PRD
           MOVE WS-TRADE-DEBIT-AMT   TO JLH-JV-DEBIT-AMT
           MOVE WS-TRADE-CREDIT-AMT  TO JLH-JV-CRDT-AMT
           MOVE WS-TOTAL-TRADE-AMT   TO JLH-DOC-AMT
           MOVE IVH-TRANS-DT         TO JLH-TRANS-DT
           MOVE DBLINK-LOW-TIMESTAMP TO JLH-AJL-SET-TS
           MOVE 'N' TO JLH-AJL-SETF
           MOVE 'N' TO JLH-IDX-SETF

      *% STORE R4069-JRNL-HDR
           MOVE 0045 TO DBLINK-CURR-IO-NUM
           MOVE DBLINK-STORE TO DBLINK-TYPE-SELECT
           MOVE DBLINK-STORE TO DBLINK-TYPE-GET
           PERFORM 904-ISRT-R4069-JRNL-HDR
              THRU 904-ISRT-R4069-JRNL-HDR-EXIT
            PERFORM 999-SQL-STATUS
              THRU 999-SQL-STATUS-EXIT.

       30-CREATEJV-HEADER-EXIT.
           EXIT.

      *%---------------------------------------------------------------
      *%
      *%                   30-CREATE-DTLS
      *%
      *%---------------------------------------------------------------
       30-CREATE-DTLS.

           MOVE 0050 TO DBLINK-CURR-IO-NUM
           MOVE +0   TO SQLCODE
           MOVE ZEROS TO ERROR-STATUS
           PERFORM 906-FETCH-4151-4152
              THRU 906-FETCH-4151-4152-EXIT

           IF SQLCODE = +100
              MOVE 'Y'  TO WS-END-OF-IVA-SW
              GO TO 30-CREATE-DTLS-EXIT.

           IF IVA-TRD-IN-IND NOT = 'Y'
              GO TO 30-CREATE-DTLS-EXIT.

           INITIALIZE JLD-JLD-JRNL-DTL.
           IF IVH-CNCL-IND   = 'Y'
                MOVE 'TRJC'              TO JLD-JRNL-TYP                78400000
           ELSE
                MOVE 'TRDJ'              TO JLD-JRNL-TYP
           END-IF.

           MOVE IVA-SEQ-NBR          TO JLD-SEQ-NBR
           MOVE WS-JLD-DOC-NBR       TO JLD-FK-JLH-DOC-NBR.
           MOVE ' '                  TO JLD-FK-JLH-RVRSL-IND
           MOVE IVH-DOC-REF-NBR      TO JLD-DOC-REF-NBR                 78410000

           MOVE SPACES               TO WS-JLD-TRANS-DESC
           MOVE VNDR-NAME-GNRC-AP01  TO WS-VENDOR-NAME
           MOVE 'DOC #'              TO WS-JLD-TRANS-DESC-FIL
           MOVE IVH-DOC-NBR          TO WS-INV-NBR.


           MOVE WS-JLD-TRANS-DESC   TO JLD-TRANS-DESC.
           MOVE IVA-COA-CD          TO JLD-COA-CD                       78220000
           MOVE IVA-ACCT-INDX-CD                                        78230000
                                    TO JLD-ACCT-INDX-CD                 78240000
           MOVE IVA-FUND-CD         TO JLD-FUND-CD                      78250000
           MOVE IVA-ORGN-CD         TO JLD-ORGN-CD                      78260000
           MOVE IVA-PRGRM-CD        TO JLD-PRGRM-CD                     78280000
           MOVE IVA-ACTVY-CD        TO JLD-ACTVY-CD                     78290000
           MOVE IVA-LCTN-CD         TO JLD-LCTN-CD                      78300000

           MOVE IVA-FSCL-YR         TO JLD-FSCL-YR
           MOVE IVA-PSTNG-PRD       TO JLD-PSTNG-PRD                    78310000
           MOVE IVA-TRD-IN-AMT      TO JLD-TRANS-AMT                    78500000

           MOVE IVA-ACCT-CD         TO JLD-ACCT-CD                      78270000
           COMPUTE JLD-TRANS-AMT =  IVA-TRD-IN-AMT

           IF IVH-CNCL-IND   = 'N'
                MOVE 'D'                 TO JLD-DEBT-CRDT-IND           78390000
           ELSE
                MOVE 'C'                 TO JLD-DEBT-CRDT-IND           78390000
           END-IF.

           IF JLD-DEBT-CRDT-IND  = 'D'
                COMPUTE WS-TRADE-DEBIT-AMT  =
                                        WS-TRADE-DEBIT-AMT  +
                                        JLD-TRANS-AMT
           ELSE
                COMPUTE WS-TRADE-CREDIT-AMT  =
                                        WS-TRADE-CREDIT-AMT  +
                                        JLD-TRANS-AMT.

           MOVE 0055 TO DBLINK-CURR-IO-NUM

           PERFORM 904-ISRT-R4068-JRNL-DTL
              THRU 904-ISRT-R4068-JRNL-DTL-EXIT
           PERFORM 999-SQL-STATUS
              THRU 999-SQL-STATUS-EXIT.

DMWCMP*    MOVE '649300'                 TO JLD-ACCT-CD                 78270000
DMWCMP*    IF IVH-CNCL-IND   = 'N'
DMWCMP*         MOVE 'C'                 TO JLD-DEBT-CRDT-IND           78390000
DMWCMP*    ELSE
DMWCMP*         MOVE 'D'                 TO JLD-DEBT-CRDT-IND           78390000
DMWCMP*    END-IF.

DMWCMP*    IF JLD-DEBT-CRDT-IND  = 'D'
DMWCMP*         COMPUTE WS-TRADE-DEBIT-AMT  =
DMWCMP*                                 WS-TRADE-DEBIT-AMT  +
DMWCMP*                                 JLD-TRANS-AMT
DMWCMP*    ELSE
DMWCMP*         COMPUTE WS-TRADE-CREDIT-AMT  =
DMWCMP*                                 WS-TRADE-CREDIT-AMT  +
DMWCMP*                                 JLD-TRANS-AMT.
DMWCMP*
DMWCMP*    ADD 1 TO WS-IVA-SEQ-NBR.
DMWCMP*    MOVE WS-IVA-SEQ-NBR           TO JLD-SEQ-NBR
DMWCMP*    PERFORM 904-ISRT-R4068-JRNL-DTL
DMWCMP*       THRU 904-ISRT-R4068-JRNL-DTL-EXIT
DMWCMP*    PERFORM 999-SQL-STATUS
DMWCMP*       THRU 999-SQL-STATUS-EXIT.

           COMPUTE  WS-TOTAL-TRADE-AMT  =   WS-TOTAL-TRADE-AMT
                                         +  WS-TRADE-CREDIT-AMT
                                         +  WS-TRADE-DEBIT-AMT.


       30-CREATE-DTLS-EXIT.
           EXIT.
      *%--------------------------------------------------------------
      *%
      *%
      *%
      *%---------------------------------------------------------------
       30-CREATEAPH-S01.

           MOVE 0060  TO DBLINK-CURR-IO-NUM
           MOVE ZERO  TO ERROR-STATUS
                         SQLCODE.
           MOVE SPACES                TO APH-FSCL-YR
           MOVE 3                     TO APH-SEQ-NBR
           MOVE DCMNT-NMBR-4150-AP01  TO APH-DOC-NBR
           MOVE SPACES                TO APH-CHNG-SEQ-NBR

           PERFORM 906-05-R4212-APRVL-HDR
              THRU 906-05-R4212-APRVL-HDR-EXIT.

           IF SQLCODE NOT = +0
               MOVE DBLINK-DB2-ERROR TO ERROR-STATUS
               PERFORM 999-SQL-STATUS
                  THRU 999-SQL-STATUS-EXIT
           END-IF.

           MOVE 0065 TO DBLINK-CURR-IO-NUM
           MOVE  0   TO SQLCODE
           MOVE ZEROS TO ERROR-STATUS
           MOVE ' '          TO APH-FSCL-YR
           MOVE 7            TO APH-SEQ-NBR
           MOVE WS-JLD-DOC-NBR  TO APH-DOC-NBR.

           PERFORM 904-ISRT-R4212-APRVL-HDR
              THRU 904-ISRT-R4212-APRVL-HDR-EXIT.
           IF SQLCODE = +0 OR -803
              CONTINUE
           ELSE
              MOVE DBLINK-DB2-ERROR TO ERROR-STATUS
              PERFORM 999-SQL-STATUS
                 THRU 999-SQL-STATUS-EXIT.

           MOVE 'N' TO WS-END-OF-APA-SW
           MOVE 0070 TO DBLINK-CURR-IO-NUM
           MOVE SPACES                TO  APD-FK-APH-FSCL-YR
           MOVE DCMNT-NMBR-4150-AP01  TO  INV-DCMNT-NBR
           MOVE SPACES                TO  APD-FK-APH-CHG-SEQ-NBR
           PERFORM 990-OPEN-S-4212-4214-N
              THRU 990-OPEN-S-4212-4214-N-EXIT.

           PERFORM 30-CREATE-APD-S20
              THRU 30-CREATE-APD-S20-EXIT
                   UNTIL WS-END-OF-APA-SW = 'Y'.

           MOVE 0075 TO DBLINK-CURR-IO-NUM
           PERFORM 991-CLOSE-S-4212-4214-N
              THRU 991-CLOSE-S-4212-4214-N-EXIT.

       30-CREATEAPH-S01-EXIT.
           EXIT.


      *%---------------------------------------------------------------
      *%
      *%                   30-CREATE-APD-S20
      *%
      *%---------------------------------------------------------------
       30-CREATE-APD-S20.
           MOVE ZEROS            TO ERROR-STATUS
                                    SQLCODE
           MOVE 0080 TO DBLINK-CURR-IO-NUM
           PERFORM 906-FETCH-S-4212-4214
              THRU 906-FETCH-S-4212-4214-EXIT
           IF SQLCODE = +0
               MOVE ZEROS            TO ERROR-STATUS
                                        SQLCODE
               MOVE 0085 TO DBLINK-CURR-IO-NUM

               MOVE 7               TO APD-FK-APH-SEQ-NBR
               MOVE WS-JLD-DOC-NBR  TO APD-FK-APH-DOC-NBR
               PERFORM 904-ISRT-R4214-APRVL-AUD
                  THRU 904-ISRT-R4214-APRVL-AUD-EXIT.

           IF SQLCODE = +100 OR +0
                 NEXT SENTENCE
           ELSE
               MOVE DBLINK-DB2-ERROR       TO ERROR-STATUS
               PERFORM 999-SQL-STATUS
                  THRU 999-SQL-STATUS-EXIT.
       30-CREATE-APD-S20-EXIT.
           EXIT.

      /
      *%-------------------------------------------------------------- *
      *%                                                               *
      *%             904-ISRT-R4212-APRVL-HDR ROUTINE                  *
      *%                                                               *
      *%-------------------------------------------------------------- *
       904-ISRT-R4212-APRVL-HDR.
           MOVE '904-ISRT-R4212-APRVL-HDR' TO DBLINK-CURR-PARAGRAPH.
           MOVE 'R4212-APRVL-HDR' TO ERROR-RECORD.
           MOVE ZERO TO ERROR-STATUS.
           MOVE ' ' TO DBLINK-SET-NAME-WORK.
           MOVE ' ' TO DBLINK-CURSOR-NAME-WORK.
           EXEC SQL
               INSERT INTO APH_APRVL_HDR_V
                 (USER_CD
                 ,LAST_ACTVY_DT
                 ,UNVRS_CD
                 ,FSCL_YR
                 ,SEQ_NBR
                 ,DOC_NBR
                 ,CHNG_SEQ_NBR
                 ,APRVL_IND
                 ,APRVL_ID
                 ,DOC_AMT
                 ,USER_ID
                 ,APV_TPLT_CD
                 ,ACTG_PRD
                 ,DOC_DT
                 ,PURGE_DT
                 ,IDX_UNAPRVD_SETF
                 ,IDX_APRVL_SETF
                 ,IDX_APRVL_TS
                 ,APL_SETF
                 ,FK_APL_SEQ_NBR
                 ,FK_APL_USER_ID
                 ,FK_APL_APV_TPLT_CD
                 ,FK_APL_LVL_SEQ_NBR
                 ,APL_SET_TS
               )
               VALUES
                 (:APH-USER-CD
                 ,:APH-LAST-ACTVY-DT
                 ,:APH-UNVRS-CD
                 ,:APH-FSCL-YR
                 ,:APH-SEQ-NBR
                 ,:APH-DOC-NBR
                 ,:APH-CHNG-SEQ-NBR
                 ,:APH-APRVL-IND
                 ,:APH-APRVL-ID
                 ,:APH-DOC-AMT
                 ,:APH-USER-ID
                 ,:APH-APV-TPLT-CD
                 ,:APH-ACTG-PRD
                 ,:APH-DOC-DT
                 ,:APH-PURGE-DT
                 ,:APH-IDX-UNAPRVD-SETF
                 ,:APH-IDX-APRVL-SETF
                 ,:APH-IDX-APRVL-TS
                 ,:APH-APL-SETF
                 ,:APH-FK-APL-SEQ-NBR
                 ,:APH-FK-APL-USER-ID
                 ,:APH-FK-APL-APV-TPLT-CD
                 ,:APH-FK-APL-LVL-SEQ-NBR
                 ,:APH-APL-SET-TS
               )
           END-EXEC.
           IF SQLCODE = -803
               MOVE DBLINK-STORE-DUP TO ERROR-STATUS
               GO TO 904-ISRT-R4212-APRVL-HDR-EXIT
           END-IF.
           IF SQLCODE NOT = 0
               MOVE DBLINK-DB2-ERROR TO ERROR-STATUS
               GO TO 904-ISRT-R4212-APRVL-HDR-EXIT
           END-IF.
           MOVE 'R4212-APRVL-HDR' TO DBLINK-RECORD-MADE-CURRENT.


       904-ISRT-R4212-APRVL-HDR-EXIT.
           EXIT.
      /
      *%-------------------------------------------------------------- *
      *%                                                               *
      *%             904-ISRT-R4214-APRVL-AUD ROUTINE                  *
      *%                                                               *
      *%-------------------------------------------------------------- *
       904-ISRT-R4214-APRVL-AUD.
           MOVE '904-ISRT-R4214-APRVL-AUD' TO DBLINK-CURR-PARAGRAPH.
           MOVE 'R4214-APRVL-AUD' TO ERROR-RECORD.
           MOVE ZERO TO ERROR-STATUS.
           MOVE ' ' TO DBLINK-SET-NAME-WORK.
           MOVE ' ' TO DBLINK-CURSOR-NAME-WORK.
           EXEC SQL
               INSERT INTO APD_APRVL_AUD_V
                 (USER_CD
                 ,LAST_ACTVY_DT
                 ,LEVEL_SEQ_NBR
                 ,APRVL_CD
                 ,ALT_APRVL_CD
                 ,APRVL_DT
                 ,APRVL_TIME
                 ,SRC_IND
                 ,PAN_IND
                 ,FK_APH_FSCL_YR
                 ,FK_APH_SEQ_NBR
                 ,FK_APH_DOC_NBR
                 ,FK_APH_CHG_SEQ_NBR
               )
               VALUES
                 (:APD-USER-CD
                 ,:APD-LAST-ACTVY-DT
                 ,:APD-LEVEL-SEQ-NBR
                 ,:APD-APRVL-CD
                 ,:APD-ALT-APRVL-CD
                 ,:APD-APRVL-DT
                 ,:APD-APRVL-TIME
                 ,:APD-SRC-IND
                 ,:APD-PAN-IND
                 ,:APD-FK-APH-FSCL-YR
                 ,:APD-FK-APH-SEQ-NBR
                 ,:APD-FK-APH-DOC-NBR
                 ,:APD-FK-APH-CHG-SEQ-NBR
               )
           END-EXEC.
           IF SQLCODE = -803
               MOVE DBLINK-STORE-DUP TO ERROR-STATUS
               GO TO 904-ISRT-R4214-APRVL-AUD-EXIT
           END-IF.
           IF SQLCODE NOT = 0
               MOVE DBLINK-DB2-ERROR TO ERROR-STATUS
               GO TO 904-ISRT-R4214-APRVL-AUD-EXIT
           END-IF.
           MOVE 'R4214-APRVL-AUD' TO DBLINK-RECORD-MADE-CURRENT.

       904-ISRT-R4214-APRVL-AUD-EXIT.
           EXIT.
      /
      *
      *%-------------------------------------------------------------- *
      *%              904-ISRT-R4068-JRNL-DTL ROUTINE                  *
      *%-------------------------------------------------------------- *
       904-ISRT-R4068-JRNL-DTL.
           MOVE '904-ISRT-R4068-JRNL-DTL' TO DBLINK-CURR-PARAGRAPH.
           MOVE ZERO TO ERROR-STATUS.
           MOVE ' ' TO DBLINK-SET-NAME-WORK.
           MOVE ' ' TO DBLINK-CURSOR-NAME-WORK.
           EXEC SQL
               INSERT INTO JLD_JRNL_DTL_V
                 (USER_CD
                 ,LAST_ACTVY_DT
                 ,SEQ_NBR
                 ,ACTVY_DT
                 ,JRNL_TYP
                 ,TRANS_AMT
                 ,TRANS_DESC
                 ,DEBT_CRDT_IND
                 ,COA_CD
                 ,FUND_CD
                 ,ORGN_CD
                 ,ACCT_CD
                 ,PRGRM_CD
                 ,ACTVY_CD
                 ,LCTN_CD
                 ,ACCT_INDX_CD
                 ,DOC_REF_NBR
                 ,VNDR_ID_DGT_ONE
                 ,VNDR_ID_LST_NINE
                 ,ENCMB_NBR
                 ,ENCMB_TYP
                 ,BDGT_DSPSN
                 ,CMTMNT_TYP
                 ,CMTMNT_PCT
                 ,DPST_NBR
                 ,ENCMB_ACTN_IND
                 ,PRJCT_CD
                 ,DSTBN_PCT
                 ,TIME_STMP
                 ,ACCT_ERROR_IND
                 ,ACRL_IND
                 ,NSF_OVRDE
                 ,BDGT_PRD
                 ,BDGT_ID
                 ,PSTNG_PRD
                 ,ENCMB_ITEM_NBR
                 ,ENCMB_SEQ_NBR
                 ,RSRV_BDGT_IND
                 ,FSCL_YR
                 ,BANK_ACCT_CD
                 ,UPDT_ACTVY_DT
                 ,UPDT_TIME_STMP
                 ,ENC_DOC_TYPSEQ_NBR
                 ,FK_JLH_DOC_NBR
                 ,FK_JLH_RVRSL_IND
               )
               VALUES
                 (:JLD-USER-CD
                 ,:JLD-LAST-ACTVY-DT
                 ,:JLD-SEQ-NBR
                 ,CURRENT DATE
                 ,:JLD-JRNL-TYP
                 ,:JLD-TRANS-AMT
                 ,:JLD-TRANS-DESC
                 ,:JLD-DEBT-CRDT-IND
                 ,:JLD-COA-CD
                 ,:JLD-FUND-CD
                 ,:JLD-ORGN-CD
                 ,:JLD-ACCT-CD
                 ,:JLD-PRGRM-CD
                 ,:JLD-ACTVY-CD
                 ,:JLD-LCTN-CD
                 ,:JLD-ACCT-INDX-CD
                 ,:JLD-DOC-REF-NBR
                 ,:JLD-VNDR-ID-DGT-ONE
                 ,:JLD-VNDR-ID-LST-NINE
                 ,:JLD-ENCMB-NBR
                 ,:JLD-ENCMB-TYP
                 ,:JLD-BDGT-DSPSN
                 ,:JLD-CMTMNT-TYP
                 ,:JLD-CMTMNT-PCT
                 ,:JLD-DPST-NBR
                 ,:JLD-ENCMB-ACTN-IND
                 ,:JLD-PRJCT-CD
                 ,:JLD-DSTBN-PCT
                 , CURRENT TIME
                 ,:JLD-ACCT-ERROR-IND
                 ,:JLD-ACRL-IND
                 ,:JLD-NSF-OVRDE
                 ,:JLD-BDGT-PRD
                 ,:JLD-BDGT-ID
                 ,:JLD-PSTNG-PRD
                 ,:JLD-ENCMB-ITEM-NBR
                 ,:JLD-ENCMB-SEQ-NBR
                 ,:JLD-RSRV-BDGT-IND
                 ,:JLD-FSCL-YR
                 ,:JLD-BANK-ACCT-CD
                 , CURRENT DATE
                 , CURRENT TIME
                 ,:JLD-ENC-DOC-TYPSEQ-NBR
                 ,:JLD-FK-JLH-DOC-NBR
                 ,:JLD-FK-JLH-RVRSL-IND
               )
           END-EXEC.
           IF SQLCODE = -803
               MOVE DBLINK-STORE-DUP TO ERROR-STATUS
               GO TO 904-ISRT-R4068-JRNL-DTL-EXIT
           END-IF.
           IF SQLCODE NOT = 0
               MOVE DBLINK-DB2-ERROR TO ERROR-STATUS
               GO TO 904-ISRT-R4068-JRNL-DTL-EXIT
           END-IF.
           MOVE 'R4068-JRNL-DTL' TO DBLINK-RECORD-MADE-CURRENT.
       904-ISRT-R4068-JRNL-DTL-EXIT.
           EXIT.
      /
      *%-------------------------------------------------------------- *
      *%              904-ISRT-R4069-JRNL-HDR ROUTINE                  *
      *%-------------------------------------------------------------- *
       904-ISRT-R4069-JRNL-HDR.
           MOVE '904-ISRT-R4069-JRNL-HDR' TO DBLINK-CURR-PARAGRAPH.
           MOVE ZERO TO ERROR-STATUS.
           MOVE ' ' TO DBLINK-SET-NAME-WORK.
           MOVE ' ' TO DBLINK-CURSOR-NAME-WORK.
           EXEC SQL
               INSERT INTO JLH_JRNL_HDR_V
                 (USER_CD
                 ,LAST_ACTVY_DT
                 ,UNVRS_CD
                 ,DOC_NBR
                 ,RVRSL_IND
                 ,ACTVY_DT
                 ,DOC_DESC
                 ,DOC_AMT
                 ,HDR_ERROR_IND
                 ,HDR_CNTR_ACCT
                 ,APRVL_IND
                 ,PSTNG_IND
                 ,TRANS_DT
                 ,CMPLT_IND
                 ,DSTBN_IND
                 ,UPDT_ACTVY_DT
                 ,UPDT_TIME_STMP
                 ,JV_DEBIT_AMT
                 ,JV_CRDT_AMT
                 ,SUBSYSTEM_ID
                 ,ACTG_PRD
                 ,SUB_DOC_TYP
                 ,REEDIT_STATUS
                 ,AJL_SETF
                 ,FK_AJL_AUTO_JRNLID
                 ,AJL_SET_TS
                 ,IDX_SETF
               )
               VALUES
                 (:JLH-USER-CD
                 ,:JLH-LAST-ACTVY-DT
                 ,:JLH-UNVRS-CD
                 ,:JLH-DOC-NBR
                 ,:JLH-RVRSL-IND
                 , CURRENT DATE
                 ,:JLH-DOC-DESC
                 ,:JLH-DOC-AMT
                 ,:JLH-HDR-ERROR-IND
                 ,:JLH-HDR-CNTR-ACCT
                 ,:JLH-APRVL-IND
                 ,:JLH-PSTNG-IND
                 ,:JLH-TRANS-DT
                 ,:JLH-CMPLT-IND
                 ,:JLH-DSTBN-IND
                 , CURRENT DATE
                 , CURRENT TIME
                 ,:JLH-JV-DEBIT-AMT
                 ,:JLH-JV-CRDT-AMT
                 ,:JLH-SUBSYSTEM-ID
                 ,:JLH-ACTG-PRD
                 ,:JLH-SUB-DOC-TYP
                 ,:JLH-REEDIT-STATUS
                 ,:JLH-AJL-SETF
                 ,:JLH-FK-AJL-AUTO-JRNLID
                 ,:JLH-AJL-SET-TS
                 ,:JLH-IDX-SETF
               )
           END-EXEC.
           IF SQLCODE = -803
               MOVE DBLINK-STORE-DUP TO ERROR-STATUS
               GO TO 904-ISRT-R4069-JRNL-HDR-EXIT
           END-IF.
           IF SQLCODE NOT = 0
               MOVE DBLINK-DB2-ERROR TO ERROR-STATUS
               GO TO 904-ISRT-R4069-JRNL-HDR-EXIT
           END-IF.
           MOVE 'R4069-JRNL-HDR' TO DBLINK-RECORD-MADE-CURRENT.
       904-ISRT-R4069-JRNL-HDR-EXIT.
           EXIT.
      /
      *%-------------------------------------------------------------- *
      *%                                                               *
      *%              906-05-R4212-APRVL-HDR ROUTINE                   *
      *%                                                               *
      *%-------------------------------------------------------------- *
       906-05-R4212-APRVL-HDR.
           MOVE '906-05-R4212-APRVL-HDR' TO DBLINK-CURR-PARAGRAPH.
           MOVE 'R4212-APRVL-HDR' TO ERROR-RECORD.
           MOVE ZERO TO ERROR-STATUS.
           EXEC SQL
               SELECT
                  USER_CD
                 ,LAST_ACTVY_DT
                 ,UNVRS_CD
                 ,FSCL_YR
                 ,SEQ_NBR
                 ,DOC_NBR
                 ,CHNG_SEQ_NBR
                 ,APRVL_IND
                 ,APRVL_ID
                 ,DOC_AMT
                 ,USER_ID
                 ,APV_TPLT_CD
                 ,ACTG_PRD
                 ,DOC_DT
                 ,PURGE_DT
                 ,IDX_UNAPRVD_SETF
                 ,IDX_APRVL_SETF
                 ,IDX_APRVL_TS
                 ,APL_SETF
                 ,FK_APL_SEQ_NBR
                 ,FK_APL_USER_ID
                 ,FK_APL_APV_TPLT_CD
                 ,FK_APL_LVL_SEQ_NBR
                 ,APL_SET_TS
               INTO
                  :APH-USER-CD
                 ,:APH-LAST-ACTVY-DT
                 ,:APH-UNVRS-CD
                 ,:APH-FSCL-YR
                 ,:APH-SEQ-NBR
                 ,:APH-DOC-NBR
                 ,:APH-CHNG-SEQ-NBR
                 ,:APH-APRVL-IND
                 ,:APH-APRVL-ID
                 ,:APH-DOC-AMT
                 ,:APH-USER-ID
                 ,:APH-APV-TPLT-CD
                 ,:APH-ACTG-PRD
                 ,:APH-DOC-DT
                 ,:APH-PURGE-DT
                 ,:APH-IDX-UNAPRVD-SETF
                 ,:APH-IDX-APRVL-SETF
                 ,:APH-IDX-APRVL-TS
                 ,:APH-APL-SETF
                 ,:APH-FK-APL-SEQ-NBR
                 ,:APH-FK-APL-USER-ID
                 ,:APH-FK-APL-APV-TPLT-CD
                 ,:APH-FK-APL-LVL-SEQ-NBR
                 ,:APH-APL-SET-TS
               FROM APH_APRVL_HDR_V
               WHERE FSCL_YR = :APH-FSCL-YR
                 AND SEQ_NBR = :APH-SEQ-NBR
                 AND DOC_NBR = :APH-DOC-NBR
                 AND CHNG_SEQ_NBR = :APH-CHNG-SEQ-NBR
           END-EXEC.
           IF SQLCODE = +100
               EVALUATE DBLINK-TYPE-GET
                   WHEN DBLINK-CALC
                       MOVE DBLINK-NOT-FOUND TO ERROR-STATUS
                   WHEN DBLINK-CURR
                       MOVE DBLINK-NO-CURRENCY TO ERROR-STATUS
                   WHEN DBLINK-DBKEY
                       MOVE DBLINK-DBKEY-ERROR TO ERROR-STATUS
                   WHEN OTHER
                       MOVE DBLINK-DB2-ERROR TO ERROR-STATUS
               END-EVALUATE
               GO TO 906-05-R4212-APRVL-HDR-EXIT
           END-IF.
           IF SQLCODE NOT = 0
               MOVE DBLINK-DB2-ERROR TO ERROR-STATUS
               GO TO 906-05-R4212-APRVL-HDR-EXIT
           END-IF.

       906-05-R4212-APRVL-HDR-EXIT.
           EXIT.
      /
      *%-------------------------------------------------------------- *
      *%                                                               *
      *%                906-FETCH-4212-4214 ROUTINE                    *
      *%                                                               *
      *%-------------------------------------------------------------- *
       906-FETCH-S-4212-4214.
           EXEC SQL
               FETCH S_4212_4214_N
               INTO
                  :APD-USER-CD
                 ,:APD-LAST-ACTVY-DT
                 ,:APD-LEVEL-SEQ-NBR
                 ,:APD-APRVL-CD
                 ,:APD-ALT-APRVL-CD
                 ,:APD-APRVL-DT
                 ,:APD-APRVL-TIME
                 ,:APD-SRC-IND
                 ,:APD-PAN-IND
                 ,:APD-FK-APH-FSCL-YR
                 ,:APD-FK-APH-SEQ-NBR
                 ,:APD-FK-APH-DOC-NBR
                 ,:APD-FK-APH-CHG-SEQ-NBR
           END-EXEC.
           IF SQLCODE = + 100
              MOVE 'Y' TO WS-END-OF-APA-SW
              GO TO 906-FETCH-S-4212-4214-EXIT
           END-IF.
           IF SQLCODE NOT = 0
               MOVE DBLINK-DB2-ERROR TO ERROR-STATUS
               GO TO 906-FETCH-S-4212-4214-EXIT
           END-IF.
       906-FETCH-S-4212-4214-EXIT.
           EXIT.
      /
      *%-------------------------------------------------------------- *
      *%                                                               *
      *%               906-05-R4150-INV-HDR ROUTINE                    *
      *%                                                               *
      *%-------------------------------------------------------------- *
       906-05-R4150-INV-HDR.
           MOVE '906-05-R4150-INV-HDR' TO DBLINK-CURR-PARAGRAPH.
           MOVE 'R4150-INV-HDR' TO ERROR-RECORD.
           MOVE ZERO TO ERROR-STATUS.
           EXEC SQL
               SELECT
                  USER_CD
                 ,LAST_ACTVY_DT
                 ,UNVRS_CD
                 ,DOC_NBR
                 ,PYMT_DUE_DT
                 ,BANK_ACCT_CD
                 ,SALES_USE_TAX_IND
                 ,A1099_IND
                 ,CRDT_MEMO
                 ,CHECK_GRPNG_IND
                 ,CMPLT_IND
                 ,RSBLE_IND
                 ,ADDL_CHRG
                 ,ADJMT_CD
                 ,ADJMT_DT
                 ,OPN_PD_HLD_IND
                 ,INVD_AMT
                 ,APRVL_IND
                 ,HDR_ERROR_IND
                 ,HDR_CNTR_DTL
                 ,HDR_CNTR_ACCT
                 ,ADR_TYP_CD
                 ,PO_NBR
                 ,DSCNT_CD
                 ,VNDR_INV_NBR
                 ,TAX_RATE_CD
                 ,VNDR_ID_DGT_ONE
                 ,VNDR_ID_LST_NINE
                 ,INCM_TYP_SEQ_NBR
                 ,A1099_RPRT_ID
                 ,TRANS_DT
                 ,CNCL_IND
                 ,CNCL_DT
                 ,CHECKS_WRITTEN_QTY
                 ,VNDR_INV_DT
                 ,DOC_REF_NBR
                 ,MAILCODE
                 ,SUB_DOC_TYP
                 ,ORGN_CD
                 ,IDC_APPL_AMT
                 ,IDC_ACTL_AMT
                 ,VDR_I_SETF1
                 ,FK1_VDR_IREF_ID
                 ,FK1_VDR_ENTPSN_IND
                 ,VDR_V_SETF2
                 ,FK2_VDR_IREF_ID
                 ,FK2_VDR_ENTPSN_IND
                 ,VDR_SET_TS
                 ,IDX_INV_SETF
                 ,RSV_SETF
                 ,FK_RSV_RSBLE_ID
                 ,RSV_SET_TS
               INTO
                  :IVH-USER-CD
                 ,:IVH-LAST-ACTVY-DT
                 ,:IVH-UNVRS-CD
                 ,:IVH-DOC-NBR
                 ,:IVH-PYMT-DUE-DT
                 ,:IVH-BANK-ACCT-CD
                 ,:IVH-SALES-USE-TAX-IND
                 ,:IVH-A1099-IND
                 ,:IVH-CRDT-MEMO
                 ,:IVH-CHECK-GRPNG-IND
                 ,:IVH-CMPLT-IND
                 ,:IVH-RSBLE-IND
                 ,:IVH-ADDL-CHRG
                 ,:IVH-ADJMT-CD
                 ,:IVH-ADJMT-DT
                 ,:IVH-OPN-PD-HLD-IND
                 ,:IVH-INVD-AMT
                 ,:IVH-APRVL-IND
                 ,:IVH-HDR-ERROR-IND
                 ,:IVH-HDR-CNTR-DTL
                 ,:IVH-HDR-CNTR-ACCT
                 ,:IVH-ADR-TYP-CD
                 ,:IVH-PO-NBR
                 ,:IVH-DSCNT-CD
                 ,:IVH-VNDR-INV-NBR
                 ,:IVH-TAX-RATE-CD
                 ,:IVH-VNDR-ID-DGT-ONE
                 ,:IVH-VNDR-ID-LST-NINE
                 ,:IVH-INCM-TYP-SEQ-NBR
                 ,:IVH-A1099-RPRT-ID
                 ,:IVH-TRANS-DT
                 ,:IVH-CNCL-IND
                 ,:IVH-CNCL-DT
                 ,:IVH-CHECKS-WRITTEN-QTY
                 ,:IVH-VNDR-INV-DT
                 ,:IVH-DOC-REF-NBR
                 ,:IVH-MAILCODE
                 ,:IVH-SUB-DOC-TYP
                 ,:IVH-ORGN-CD
                 ,:IVH-IDC-APPL-AMT
                 ,:IVH-IDC-ACTL-AMT
                 ,:IVH-VDR-I-SETF1
                 ,:IVH-FK1-VDR-IREF-ID
                 ,:IVH-FK1-VDR-ENTPSN-IND
                 ,:IVH-VDR-V-SETF2
                 ,:IVH-FK2-VDR-IREF-ID
                 ,:IVH-FK2-VDR-ENTPSN-IND
                 ,:IVH-VDR-SET-TS
                 ,:IVH-IDX-INV-SETF
                 ,:IVH-RSV-SETF
                 ,:IVH-FK-RSV-RSBLE-ID
                 ,:IVH-RSV-SET-TS
               FROM IVH_INV_HDR_V
               WHERE DOC_NBR = :IVH-DOC-NBR
           END-EXEC.
           IF SQLCODE NOT = 0
               MOVE DBLINK-DB2-ERROR TO ERROR-STATUS
               GO TO 906-05-R4150-INV-HDR-EXIT
           END-IF.
       906-05-R4150-INV-HDR-EXIT.
           EXIT.
      *%-------------------------------------------------------------- *
      *%                                                               *
      *%                906-FETCH-4150-4151 ROUTINE                    *
      *%                                                               *
      *%-------------------------------------------------------------- *
       906-FETCH-4150-4151.
           MOVE '906-00N-S-4085-4151' TO DBLINK-CURR-PARAGRAPH.
           MOVE ZERO TO ERROR-STATUS.
           MOVE ' ' TO ERROR-AREA.
           EXEC SQL
               FETCH S_4150_4151_N
               INTO
                  :IVD-USER-CD
                 ,:IVD-LAST-ACTVY-DT
                 ,:IVD-ITEM-NBR
                 ,:IVD-CMDTY-CD
                 ,:IVD-OPN-CLS-HLD-IND
                 ,:IVD-ACCPT-QTY
                 ,:IVD-ACCPT-UNIT-PRC
                 ,:IVD-PO-NBR
                 ,:IVD-CMDTY-DESC
                 ,:IVD-UNIT-MEA-CD
                 ,:IVD-DTL-CNTR-ACCT
                 ,:IVD-DTL-ERROR-IND
                 ,:IVD-DSCNT-AMT
                 ,:IVD-TAX-AMT
                 ,:IVD-APRVD-QTY
                 ,:IVD-APRVD-UNT-PRC
                 ,:IVD-INVD-QTY
                 ,:IVD-INVD-UNIT-PRC
                 ,:IVD-PO-ITEM-NBR
                 ,:IVD-TLRNC-OVRD-IND
                 ,:IVD-PREV-PAID-AMT
                 ,:IVD-FK-IVH-DOC-NBR
                 ,:IVD-POD-SETF
                 ,:IVD-FK-POD-PO-NBR
                 ,:IVD-FK-POD-CHG-SEQ-NBR
                 ,:IVD-FK-POD-ITEM-NBR
                 ,:IVD-POD-SET-TS
MLJTST           ,:IVD-TRD-IN-IND
MLJTST           ,:IVD-TRD-IN-AMT
FP5665           ,:IVD-PROD-DSCNT-AMT
           END-EXEC.
           IF SQLCODE     = 0
               NEXT SENTENCE
           ELSE
               IF SQLCODE = +100
                  MOVE 'Y' TO WS-END-OF-IVD-SW
               ELSE
                   MOVE DBLINK-DB2-ERROR TO ERROR-STATUS
                   PERFORM 999-SQL-STATUS
                      THRU 999-SQL-STATUS-EXIT.
       906-FETCH-4150-4151-EXIT.
      *%-------------------------------------------------------------- *
      *%                                                               *
      *%                906-FETCH-4151-4152 ROUTINE                    *
      *%                                                               *
      *%-------------------------------------------------------------- *
       906-FETCH-4151-4152.
           EXEC SQL
               FETCH S_4151_4152_N
               INTO
                  :IVA-USER-CD
                 ,:IVA-LAST-ACTVY-DT
                 ,:IVA-SEQ-NBR
                 ,:IVA-NSF-OVRDE
                 ,:IVA-ADDL-CHRG-PCT
                 ,:IVA-INVD-AMT
                 ,:IVA-DSCNT-AMT
                 ,:IVA-LIQDTN-IND
                 ,:IVA-COA-CD
                 ,:IVA-ACCT-INDX-CD
                 ,:IVA-FUND-CD
                 ,:IVA-ORGN-CD
                 ,:IVA-ACCT-CD
                 ,:IVA-PRGRM-CD
                 ,:IVA-ACTVY-CD
                 ,:IVA-LCTN-CD
                 ,:IVA-ACCT-ERROR-IND
                 ,:IVA-FSCL-YR
                 ,:IVA-BANK-ACCT-CD
                 ,:IVA-APRVD-AMT
                 ,:IVA-TAX-AMT
                 ,:IVA-INVD-PCT
                 ,:IVA-DSCNT-PCT
                 ,:IVA-ADDL-CHRG
                 ,:IVA-INCM-TYP-SEQ-NBR
                 ,:IVA-PAID-AMT
                 ,:IVA-RULE-CLS-CD
                 ,:IVA-DSCNT-RULE-CLS
                 ,:IVA-TAX-RULE-CLS
                 ,:IVA-ADDL-CHRG-RUL-CLS
                 ,:IVA-PSTNG-PRD
                 ,:IVA-PRJCT-CD
                 ,:IVA-PO-NBR
                 ,:IVA-PO-ITEM-NBR
                 ,:IVA-PO-SEQ-NBR
                 ,:IVA-FK-IVD-DOC-NBR
                 ,:IVA-FK-IVD-ITEM-NBR
                 ,:IVA-TRD-IN-IND
                 ,:IVA-TRD-IN-AMT
                 ,:IVA-TRD-RULE-CLS
FP5665           ,:IVA-PROD-DSCNT-AMT
FP5665           ,:IVA-PROD-DSCNT-RULE-CLS
           END-EXEC.
           IF SQLCODE = +100 OR +0
               NEXT SENTENCE
           ELSE
               MOVE DBLINK-DB2-ERROR TO ERROR-STATUS
               PERFORM 999-SQL-STATUS
                  THRU 999-SQL-STATUS-EXIT.

       906-FETCH-4151-4152-EXIT.
           EXIT.
      /
       990-OPEN-S-4212-4214-N.
           MOVE ZERO TO SQLCODE
                        ERROR-STATUS
           EXEC SQL
               OPEN S_4212_4214_N
           END-EXEC
           IF SQLCODE     = 0
               NEXT SENTENCE
           ELSE
               IF SQLCODE = +100
                  MOVE 'Y' TO WS-END-OF-IVA-SW
               ELSE
                   MOVE DBLINK-DB2-ERROR TO ERROR-STATUS
                   PERFORM 999-SQL-STATUS
                      THRU 999-SQL-STATUS-EXIT.
       990-OPEN-S-4212-4214-N-EXIT.
           EXIT.

       990-OPEN-S-4150-4151-N.
           MOVE ZERO TO SQLCODE
                        ERROR-STATUS
           EXEC SQL
               OPEN S_4150_4151_N
           END-EXEC
           IF SQLCODE     = 0
               NEXT SENTENCE
           ELSE
               IF SQLCODE = +100
                  MOVE 'Y' TO WS-END-OF-IVD-SW
               ELSE
                   MOVE DBLINK-DB2-ERROR TO ERROR-STATUS
                   PERFORM 999-SQL-STATUS
                      THRU 999-SQL-STATUS-EXIT.

       990-OPEN-S-4150-4151-N-EXIT.
           EXIT.
       990-OPEN-S-4151-4152-N.
           MOVE ZERO TO SQLCODE
                        ERROR-STATUS
           EXEC SQL
               OPEN S_4151_4152_N
           END-EXEC
           IF SQLCODE     = 0
               NEXT SENTENCE
           ELSE
               IF SQLCODE = +100
                  MOVE 'Y' TO WS-END-OF-IVA-SW
               ELSE
                   MOVE DBLINK-DB2-ERROR TO ERROR-STATUS
                   PERFORM 999-SQL-STATUS
                      THRU 999-SQL-STATUS-EXIT.
       990-OPEN-S-4151-4152-N-EXIT.
           EXIT.

       991-CLOSE-S-4212-4214-N.
           MOVE ZERO TO SQLCODE
                        ERROR-STATUS
           EXEC SQL
                CLOSE S_4212_4214_N
           END-EXEC
           IF SQLCODE NOT = 0
              MOVE DBLINK-DB2-ERROR TO ERROR-STATUS
              PERFORM 999-SQL-STATUS
                 THRU 999-SQL-STATUS-EXIT.
       991-CLOSE-S-4212-4214-N-EXIT.
           EXIT.

       991-CLOSE-S-4150-4151-N.
           MOVE ZERO TO SQLCODE
                        ERROR-STATUS
           EXEC SQL
                CLOSE S_4150_4151_N
           END-EXEC
           IF SQLCODE NOT = 0
              MOVE DBLINK-DB2-ERROR TO ERROR-STATUS
              PERFORM 999-SQL-STATUS
                 THRU 999-SQL-STATUS-EXIT.
       991-CLOSE-S-4150-4151-N-EXIT.
           EXIT.

       991-CLOSE-S-4151-4152-N.
           MOVE ZERO TO SQLCODE
                        ERROR-STATUS
           EXEC SQL
                CLOSE S_4151_4152_N
           END-EXEC
           IF SQLCODE NOT = 0
              MOVE DBLINK-DB2-ERROR TO ERROR-STATUS
              PERFORM 999-SQL-STATUS
                 THRU 999-SQL-STATUS-EXIT.
       991-CLOSE-S-4151-4152-N-EXIT.
           EXIT.

      *%-------------------------------------------------------------- *
      *%                  999-SQL-STATUS ROUTINE                       *
      *%-------------------------------------------------------------- *
       999-SQL-STATUS.
           EXEC SQL
               INCLUDE ONLNERR
           END-EXEC.
       999-SQL-STATUS-EXIT.
           EXIT.

