       IDENTIFICATION DIVISION.
       PROGRAM-ID. FEXDU40A.
       AUTHOR. FORECROSS CORPORATION.
       INSTALLATION. UCSD - USDFINSYS.
       DATE-WRITTEN.  DEC 05,2000.
       DATE-COMPILED. DEC 05,2000.
      ****----------------------------------------------------------****
      **  AUTHOR    DATE    DESCRIPTION                                *
      **  ------- --------  ----------------------------------------   *
      **  DEVBWS  07/25/01  TSQ PERFORMANCE                            *
      **  DEVDMW  08/08/03  SSN - GET RID OF FCC DBKEY               *
      **                                                               *
      ****----------------------------------------------------------****
      *%****************************************************************
      *%                                                               *
      *%  Converted Using Forecross Corporation Redeployment Software  *
      *%                                                               *
      *%                     Convert/ADSO                              *
      *%                     Convert/IDMS-DC                           *
      *%                     Convert/IDMS-DB                           *
      *%                                                               *
      *%****************************************************************
      *%          COPYRIGHT 2000 - FORECROSS CORPORATION               *
      *%                    ALL RIGHTS RESERVED                        *
      *%****************************************************************


           COPY CBCVDBNT.

      /
      *%-------------------------------------------------------------- *
      *%
      *%  *** TABLE VIEWS USED IN THIS PROGRAM
      *%
      *%RLH_RLSE_HDR_V        R4229-RLSE-HDR                   CBL CPY
      *%
      *%  *** CURSORS DECLARED IN THIS PROGRAM
      *%
      *%
      *%  *** SUBROUTINES GENERATED FOR THIS PROGRAM
      *%
      *%000-SQL-INITIALIZATION
      *%998-SET-RUN-DATE
      *%986-RESET-KEYS
      *%904-UPDT-R4229-RLSE-HDR
      *%906-01-R4229-RLSE-HDR
      *%906-05-R4229-RLSE-HDR
      *%985-CURR-R4229-RLSE-HDR
      *%996-COMMIT
      *%
      *%-------------------------------------------------------------- *
       ENVIRONMENT DIVISION.
       CONFIGURATION SECTION.
       SOURCE-COMPUTER.  IBM-3090.
       OBJECT-COMPUTER.  IBM-3090.
       INPUT-OUTPUT SECTION.

      *MAP SECTION.
      *MAP FEXMU40.

       FILE-CONTROL.
       I-O-CONTROL.
      *IDMS-CONTROL SECTION.
      *PROTOCOL. MODE IS CICS-AUTOSTATUS DEBUG
      *%         IDMS-RECORDS MANUAL.


       DATA DIVISION.
      *SCHEMA SECTION.
      *%  DB FEXSBA01 WITHIN FIMSNTWN.


       WORKING-STORAGE SECTION.
       01  DBLINK-USER-CD   PIC X(8) VALUE SPACES.
       01  FILLER  PIC X(32) VALUE '** FEXDU40A WORKING STRG BEGINS'.

      *%****************************************************************
       01  AC99W.
           COPY AC99W.
      *:****************************************************************
      *%****************************************************************
      *%              AC99W FIELDS UNIQUE TO THIS PROGRAM              *
      *%****************************************************************
      *    10  AC99W-APPLICATION          PIC X(8) VALUE 'FEXDU40A'.
AC99W      10  AC99W-PROGRAM-NAME         PIC X(8) VALUE 'FEXDU40A'.
AC99W      10  AC99W-TRANSID              PIC X(4) VALUE '@   '.
           10  AC99W-FSYWG01M-F             PIC X(1)
                                VALUE 'N'.
           10  AC99W-FEXWK40-F              PIC X(1)
                                VALUE 'N'.
           10  AC99W-FEXWM40-F              PIC X(1)
                                VALUE 'N'.
           10  AC99W-FEXWD40-F              PIC X(1)
                                VALUE 'N'.
           10  AC99W-ZZYWG55D-F             PIC X(1)
                                VALUE 'N'.
           10  AC99W-R4229-RLSE-HDR-F       PIC X(1)
                                VALUE 'N'.

      *%****************************************************************
      *%              STANDARD CICS COPIES                             *
      *%****************************************************************

      *%   EXEC SQL
      *%        INCLUDE ACMSGHT
CPYNME     COPY ACMSGHT.
      *%   END-EXEC.
      *%****************************************************************
      *%               IDMS RECORD COPIES                              *
      *%****************************************************************
      *%   COPY IDMS SUBSCHEMA-CONTROL.
       01  SUBSCHEMA-CONTROL.
           02  SUBSCHEMA-CTRL.
           EXEC SQL
               INCLUDE CBRSKEYS
           END-EXEC.
           COPY CBCURCOD.
      *%   COPY IDMS SUBSCHEMA-SSNAME.
      *%   COPY IDMS SUBSCHEMA-AREANAMES.
      *%   COPY IDMS SUBSCHEMA-RECNAMES.
      *%   COPY IDMS SUBSCHEMA-SETNAMES.

      *%   COPY IDMS RECORD ADSO-APPLICATION-GLOBAL-RECORD.
CPYNME     COPY ADSOGLBL.
DEVBWS*%   COPY IDMS RECORD FISWG00M.
DEVBWS     COPY FISWG00M.
      *%   COPY IDMS RECORD FSYWG01M.
CPYNME     COPY FSYWG01M.
      *%   COPY IDMS RECORD FEXWK40.
CPYNME     COPY FEXWK40.
      *%   COPY IDMS RECORD FEXWM40.
CPYNME     COPY FEXWM40.
      *%   COPY IDMS RECORD FEXWG00D.
CPYNME     COPY FEXWG00D.
      *%   COPY IDMS RECORD FEXWD40.
CPYNME     COPY FEXWD40.
      *%   COPY IDMS RECORD ZZYWG55D.
CPYNME     COPY ZZYWG55D.

      *%****************************** *
      *% RLH_RLSE_HDR_V DATA VIEW AREAS
      *%****************************** *
      *%   COPY CBID4229.
CPYNME     COPY R4229.
      *%   COPY IDMS RECORD R4229-RLSE-HDR.


      *%****************************** *
      *%MAP DATA AREA FOR FEXMU40
      *%****************************** *
           COPY FEXMU40T.

      *%****************************** *
      *%CICS COPIES
      *%****************************** *
           COPY DFHAID.
           COPY DFHBMSCA.

      *%****************************** *
      *%STANDARD MAPPING COPIES
      *%****************************** *
           COPY DCLINKCA.
           COPY ACCOMM.
           COPY ONLWS.

UCSD1      EXEC SQL
UCSD1          INCLUDE HVMSL
UCSD1      END-EXEC.
           EXEC SQL
               INCLUDE CBCVDBCA
           END-EXEC.

      /
      *%-------------------------------------------------------------- *
      *%                                                               *
      *%          STANDARD CONVERT/DB COMMUNICATION AREAS              *
      *%                                                               *
      *%-------------------------------------------------------------- *
           COPY CBCVDBDD.
           COPY CBCVDBXD.
       01  DBLINK-NAMES.
           05  DBLINK-SCHEMA-NAME.
               10  FILLER                   PIC X(8)
                       VALUE 'FIMSNTWN'.
           05  DBLINK-RECORD-NAMES.
               10  DBLINK-R4000-COA         PIC X(16)
                       VALUE 'R4000-COA'.
               10  DBLINK-R4001-FUND        PIC X(16)
                       VALUE 'R4001-FUND'.
               10  DBLINK-R4002-ORGN        PIC X(16)
                       VALUE 'R4002-ORGN'.
               10  DBLINK-R4003-ACCT        PIC X(16)
                       VALUE 'R4003-ACCT'.
               10  DBLINK-R4004-PROG        PIC X(16)
                       VALUE 'R4004-PROG'.
               10  DBLINK-R4006-LCTN        PIC X(16)
                       VALUE 'R4006-LCTN'.
               10  DBLINK-R4008-FNDT        PIC X(16)
                       VALUE 'R4008-FNDT'.
               10  DBLINK-R4011-SYSDAT      PIC X(16)
                       VALUE 'R4011-SYSDAT'.
               10  DBLINK-R4014-ACTT        PIC X(16)
                       VALUE 'R4014-ACTT'.
               10  DBLINK-R4016-BDGT-CTRL   PIC X(16)
                       VALUE 'R4016-BDGT-CTRL'.
               10  DBLINK-R4021-CTRL-ACCTS  PIC X(16)
                       VALUE 'R4021-CTRL-ACCTS'.
               10  DBLINK-R4026-INDRT-COST  PIC X(16)
                       VALUE 'R4026-INDRT-COST'.
               10  DBLINK-R4030-COST-SHARE  PIC X(16)
                       VALUE 'R4030-COST-SHARE'.
               10  DBLINK-R4033-BANK        PIC X(16)
                       VALUE 'R4033-BANK'.
               10  DBLINK-R4035-PAY-MTHD    PIC X(16)
                       VALUE 'R4035-PAY-MTHD'.
               10  DBLINK-R4036-USER-RCRD   PIC X(16)
                       VALUE 'R4036-USER-RCRD'.
               10  DBLINK-R4038-USER-CODES  PIC X(16)
                       VALUE 'R4038-USER-CODES'.
               10  DBLINK-R4040-CLOSE-HDR   PIC X(16)
                       VALUE 'R4040-CLOSE-HDR'.
               10  DBLINK-R4045-ACTI        PIC X(16)
                       VALUE 'R4045-ACTI'.
               10  DBLINK-R4046-BANK-NAME   PIC X(16)
                       VALUE 'R4046-BANK-NAME'.
               10  DBLINK-R4050-ACTV        PIC X(16)
                       VALUE 'R4050-ACTV'.
               10  DBLINK-R4052-XTRN-ENTY   PIC X(16)
                       VALUE 'R4052-XTRN-ENTY'.
               10  DBLINK-R4053-INTR-ENTY   PIC X(16)
                       VALUE 'R4053-INTR-ENTY'.
               10  DBLINK-R4054-XTRN-CODE   PIC X(16)
                       VALUE 'R4054-XTRN-CODE'.
               10  DBLINK-R4056-AGNC        PIC X(16)
                       VALUE 'R4056-AGNC'.
               10  DBLINK-R4057-RQST-ID     PIC X(16)
                       VALUE 'R4057-RQST-ID'.
               10  DBLINK-R4060-RPT         PIC X(16)
                       VALUE 'R4060-RPT'.
               10  DBLINK-R4064-CS-EFCTV    PIC X(16)
                       VALUE 'R4064-CS-EFCTV'.
               10  DBLINK-R4065-IC-EFCTV    PIC X(16)
                       VALUE 'R4065-IC-EFCTV'.
               10  DBLINK-R4069-JRNL-HDR    PIC X(16)
                       VALUE 'R4069-JRNL-HDR'.
               10  DBLINK-R4070-RQST        PIC X(16)
                       VALUE 'R4070-RQST'.
               10  DBLINK-R4071-RQST-DTL    PIC X(16)
                       VALUE 'R4071-RQST-DTL'.
               10  DBLINK-R4072-BUYER       PIC X(16)
                       VALUE 'R4072-BUYER'.
               10  DBLINK-R4073-VENDOR      PIC X(16)
                       VALUE 'R4073-VENDOR'.
               10  DBLINK-R4074-CMDTY       PIC X(16)
                       VALUE 'R4074-CMDTY'.
               10  DBLINK-R4081-AGRMNT      PIC X(16)
                       VALUE 'R4081-AGRMNT'.
               10  DBLINK-R4083-PO-HDR      PIC X(16)
                       VALUE 'R4083-PO-HDR'.
               10  DBLINK-R4084-PO-CLASS    PIC X(16)
                       VALUE 'R4084-PO-CLASS'.
               10  DBLINK-R4085-PO-DTL      PIC X(16)
                       VALUE 'R4085-PO-DTL'.
               10  DBLINK-R4088-BID         PIC X(16)
                       VALUE 'R4088-BID'.
               10  DBLINK-R4089-BID-DTL     PIC X(16)
                       VALUE 'R4089-BID-DTL'.
               10  DBLINK-R4093-RCVNG-HDR   PIC X(16)
                       VALUE 'R4093-RCVNG-HDR'.
               10  DBLINK-R4096-PO-HDR-SEQ  PIC X(16)
                       VALUE 'R4096-PO-HDR-SEQ'.
               10  DBLINK-R4099-RETURNS     PIC X(16)
                       VALUE 'R4099-RETURNS'.
               10  DBLINK-R4104-VENDOR-CMD  PIC X(16)
                       VALUE 'R4104-VENDOR-CMD'.
               10  DBLINK-R4106-AUTO-JRNL   PIC X(16)
                       VALUE 'R4106-AUTO-JRNL'.
               10  DBLINK-R4120-TXT-HDR     PIC X(16)
                       VALUE 'R4120-TXT-HDR'.
               10  DBLINK-R4150-INV-HDR     PIC X(16)
                       VALUE 'R4150-INV-HDR'.
               10  DBLINK-R4151-INV-DTL     PIC X(16)
                       VALUE 'R4151-INV-DTL'.
               10  DBLINK-R4157-CHK-RQST-H  PIC X(16)
                       VALUE 'R4157-CHK-RQST-H'.
               10  DBLINK-R4158-CHK-HDR     PIC X(16)
                       VALUE 'R4158-CHK-HDR'.
               10  DBLINK-R4161-DSCNT-TBLE  PIC X(16)
                       VALUE 'R4161-DSCNT-TBLE'.
               10  DBLINK-R4163-RSBLE-INV   PIC X(16)
                       VALUE 'R4163-RSBLE-INV'.
               10  DBLINK-R4166-VNDR-TYPE   PIC X(16)
                       VALUE 'R4166-VNDR-TYPE'.
               10  DBLINK-R4168-TAX-RATES   PIC X(16)
                       VALUE 'R4168-TAX-RATES'.
               10  DBLINK-R4174-TOF-HDR     PIC X(16)
                       VALUE 'R4174-TOF-HDR'.
               10  DBLINK-R4180-RULE-CLASS  PIC X(16)
                       VALUE 'R4180-RULE-CLASS'.
               10  DBLINK-R4181-RULE-EFCTV  PIC X(16)
                       VALUE 'R4181-RULE-EFCTV'.
               10  DBLINK-R4183-ENCMBR-YRS  PIC X(16)
                       VALUE 'R4183-ENCMBR-YRS'.
               10  DBLINK-R4187-G-FOAPAL    PIC X(16)
                       VALUE 'R4187-G-FOAPAL'.
               10  DBLINK-R4188-TRAN-HIST   PIC X(16)
                       VALUE 'R4188-TRAN-HIST'.
               10  DBLINK-R4190-ENCMBR-DTL  PIC X(16)
                       VALUE 'R4190-ENCMBR-DTL'.
               10  DBLINK-R4191-ENCMBR-HDR  PIC X(16)
                       VALUE 'R4191-ENCMBR-HDR'.
               10  DBLINK-R4192-USER-PRFL   PIC X(16)
                       VALUE 'R4192-USER-PRFL'.
               10  DBLINK-R4197-GNRL-LDGR   PIC X(16)
                       VALUE 'R4197-GNRL-LDGR'.
               10  DBLINK-R4199-ACCT-LDGR   PIC X(16)
                       VALUE 'R4199-ACCT-LDGR'.
               10  DBLINK-R4203-DOCUMENT    PIC X(16)
                       VALUE 'R4203-DOCUMENT'.
               10  DBLINK-R4204-APRVL-J     PIC X(16)
                       VALUE 'R4204-APRVL-J'.
               10  DBLINK-R4205-APRVL-LVL   PIC X(16)
                       VALUE 'R4205-APRVL-LVL'.
               10  DBLINK-R4209-CLAUSE      PIC X(16)
                       VALUE 'R4209-CLAUSE'.
               10  DBLINK-R4212-APRVL-HDR   PIC X(16)
                       VALUE 'R4212-APRVL-HDR'.
               10  DBLINK-R4215-APRV-TMPLT  PIC X(16)
                       VALUE 'R4215-APRV-TMPLT'.
               10  DBLINK-R4224-DLVRY-HDR   PIC X(16)
                       VALUE 'R4224-DLVRY-HDR'.
               10  DBLINK-R4226-EXPR-VNDR   PIC X(16)
                       VALUE 'R4226-EXPR-VNDR'.
               10  DBLINK-R4228-FILE-CNTL   PIC X(16)
                       VALUE 'R4228-FILE-CNTL'.
               10  DBLINK-R4229-RLSE-HDR    PIC X(16)
                       VALUE 'R4229-RLSE-HDR'.
               10  DBLINK-R4230-RLSE-DTL    PIC X(16)
                       VALUE 'R4230-RLSE-DTL'.
               10  DBLINK-R4232-AP-TRANS    PIC X(16)
                       VALUE 'R4232-AP-TRANS'.
               10  DBLINK-R4300-AST         PIC X(16)
                       VALUE 'R4300-AST'.
               10  DBLINK-R4400-TRVL        PIC X(16)
                       VALUE 'R4400-TRVL'.
               10  DBLINK-R4401-EVENT       PIC X(16)
                       VALUE 'R4401-EVENT'.
               10  DBLINK-R4402-TRIP        PIC X(16)
                       VALUE 'R4402-TRIP'.
               10  DBLINK-R4405-EXPNS       PIC X(16)
                       VALUE 'R4405-EXPNS'.
               10  DBLINK-R4406-RECON       PIC X(16)
                       VALUE 'R4406-RECON'.
               10  DBLINK-R4410-TRVL-INV    PIC X(16)
                       VALUE 'R4410-TRVL-INV'.
               10  DBLINK-R6000-SYS         PIC X(16)
                       VALUE 'R6000-SYS'.
               10  DBLINK-R6001-UNVRS       PIC X(16)
                       VALUE 'R6001-UNVRS'.
               10  DBLINK-R6117-PRSN        PIC X(16)
                       VALUE 'R6117-PRSN'.
               10  DBLINK-R6151-STATE       PIC X(16)
                       VALUE 'R6151-STATE'.
               10  DBLINK-R6152-ZIP         PIC X(16)
                       VALUE 'R6152-ZIP'.
               10  DBLINK-R6153-COUNTRY     PIC X(16)
                       VALUE 'R6153-COUNTRY'.
               10  DBLINK-R6200-ACH-DATA    PIC X(16)
                       VALUE 'R6200-ACH-DATA'.
               10  DBLINK-R6257             PIC X(16)
                       VALUE 'R6257'.
               10  DBLINK-R6258             PIC X(16)
                       VALUE 'R6258'.
               10  DBLINK-R6259             PIC X(16)
                       VALUE 'R6259'.
               10  DBLINK-R6260             PIC X(16)
                       VALUE 'R6260'.
               10  DBLINK-R6268             PIC X(16)
                       VALUE 'R6268'.
               10  DBLINK-R6270             PIC X(16)
                       VALUE 'R6270'.
               10  DBLINK-R6273             PIC X(16)
                       VALUE 'R6273'.
               10  DBLINK-R6311-ENTY        PIC X(16)
                       VALUE 'R6311-ENTY'.
               10  DBLINK-R6313-PRSN-CHG    PIC X(16)
                       VALUE 'R6313-PRSN-CHG'.
               10  DBLINK-R6353-ENTY-CHG    PIC X(16)
                       VALUE 'R6353-ENTY-CHG'.
               10  DBLINK-R6600-TABL-HDR    PIC X(16)
                       VALUE 'R6600-TABL-HDR'.
               10  DBLINK-R6605             PIC X(16)
                       VALUE 'R6605'.
               10  DBLINK-R6606             PIC X(16)
                       VALUE 'R6606'.
               10  DBLINK-R8001             PIC X(16)
                       VALUE 'R8001'.
               10  DBLINK-R8002             PIC X(16)
                       VALUE 'R8002'.
               10  DBLINK-R8003             PIC X(16)
                       VALUE 'R8003'.
               10  DBLINK-R8005             PIC X(16)
                       VALUE 'R8005'.
               10  DBLINK-R8007             PIC X(16)
                       VALUE 'R8007'.
               10  DBLINK-R8008             PIC X(16)
                       VALUE 'R8008'.
               10  DBLINK-R8009             PIC X(16)
                       VALUE 'R8009'.
               10  DBLINK-R8010             PIC X(16)
                       VALUE 'R8010'.
               10  DBLINK-R8013             PIC X(16)
                       VALUE 'R8013'.
               10  DBLINK-R8020             PIC X(16)
                       VALUE 'R8020'.
               10  DBLINK-R8030             PIC X(16)
                       VALUE 'R8030'.
               10  DBLINK-R8040             PIC X(16)
                       VALUE 'R8040'.
               10  DBLINK-R8044             PIC X(16)
                       VALUE 'R8044'.
               10  DBLINK-R8050             PIC X(16)
                       VALUE 'R8050'.
               10  DBLINK-R8051             PIC X(16)
                       VALUE 'R8051'.
               10  DBLINK-R8052             PIC X(16)
                       VALUE 'R8052'.
           05  DBLINK-SET-NAMES.
               10  FILLER                   PIC X(1)        VALUE SPACE.
           05  DBLINK-AREA-NAMES.
               10  FILLER                   PIC X(1)        VALUE SPACE.
           05  DBLINK-RECORD-LOCK-FLAGS.
               10  FILLER                   PIC X(1)        VALUE SPACE.
           05  DBLINK-CURSOR-NAMES.
               10  FILLER                   PIC X(1)        VALUE SPACE.
      /
      *%-------------------------------------------------------------- *
      *%                                                               *
      *%                  CONTROL AREAS AND VIEWS                      *
      *%                                                               *
      *%-------------------------------------------------------------- *

      *%****************************** *
      *%CONVERT/DB COMMAREA
      *%****************************** *
           EXEC SQL
               INCLUDE SQLCA
           END-EXEC.


      *%****************************** *
      *%RLH_RLSE_HDR_V AREAS(HOST VAR INCLUDE)
      *%****************************** *
      *%   EXEC SQL
      *%       INCLUDE CBHV4229
CPYNME     EXEC SQL
CPYNME         INCLUDE HVRLH
CPYNME     END-EXEC.
      *%   END-EXEC.
       LINKAGE SECTION.
       01  DFHCOMMAREA.
           10  DFHCOMMAREAZ PIC X(950).



      *%****************************** *

       PROCEDURE DIVISION.
      /
      *%-------------------------------------------------------------- *
      *%                                                               *
      *%              000-SQL-INITIALIZATION ROUTINE                   *
      *%                                                               *
      *%-------------------------------------------------------------- *
       000-SQL-INITIALIZATION.
           MOVE '000-SQL-INITIALIZATION' TO DBLINK-CURR-PARAGRAPH.
           MOVE EIBTIME TO DBLINK-TIME-N.
           PERFORM 998-SET-RUN-DATE
              THRU 998-SET-RUN-DATE-EXIT.
           MOVE DBLINKX-NULL-DB2-DATE-ISO TO DBLINK-DEFAULT-DATE.
           MOVE '0001-01-01' TO DBLINK-LOW-DATE.
           MOVE '9999-12-31' TO DBLINK-HIGH-DATE.
           MOVE DBLINKX-NULL-DB2-TIME-ISO TO DBLINK-DEFAULT-TIME.
           MOVE '00.00.01' TO DBLINK-LOW-TIME.
           MOVE '23.59.59' TO DBLINK-HIGH-TIME.
       000-SQL-INITIALIZATION-EXIT.
           EXIT.







      *%---------------------------------------------------------------*
      *%                                                               *
      *%                 000-RUN-CONTROL ROUTINE                       *
      *%                                                               *
      *%---------------------------------------------------------------*
       000-RUN-CONTROL.

           PERFORM 010-INITIALIZE
              THRU 010-INITIALIZE-EXIT.
           PERFORM 020-MAINLINE
              THRU 020-MAINLINE-EXIT.
           PERFORM 030-WRAPUP
              THRU 030-WRAPUP-EXIT.
       000-RUN-CONTROL-EXIT.
           EXIT.

      *%---------------------------------------------------------------*
      *%                                                               *
      *%                 010-INITIALIZE ROUTINE                        *
      *%                                                               *
      *%---------------------------------------------------------------*
       010-INITIALIZE.

      *%****************************************************************
      *%       INITIALIZE ALL TEMPORARY STORAGE QUEUE NAMES            *
      *%****************************************************************
           MOVE EIBTRMID TO AC99W-CONTEXT-QUEUE-L-1-4.
           MOVE EIBTRMID TO AC99W-CONTEXT-QUEUE-G-1-4.
           MOVE EIBTRMID TO AC99W-DEFAULT-QUEUE-1-4.

      *%****************************************************************
      *%       INITIALIZE ALL PROGRAM RECORDS                          *
      *%****************************************************************
           PERFORM 501-INIT-GLOBAL-RECORDS
              THRU 501-INIT-GLOBAL-RECORDS-EXIT
           PERFORM 502-INIT-LOCAL-RECORDS
              THRU 502-INIT-LOCAL-RECORDS-EXIT.
      *%****************************************************************
      *%              INITIALIZE AGR-TASK-CODE                         *
      *%****************************************************************
           IF EIBCALEN = 0
              MOVE '@' TO AGR-TASK-CODE
           END-IF.

           PERFORM 503-INIT-FIMSNTWN
              THRU 503-INIT-FIMSNTWN-EXIT.

      *%****************************************************************
      *%       PERFORM ALL OTHER DEFAULT INITIALIZATION                *
      *%****************************************************************
      *COPY AC1TMLES.
CPYNME     EXEC SQL
CPYNME         INCLUDE AC1TMLES
CPYNME     END-EXEC.


       010-INITIALIZE-EXIT.
           EXIT.


      *%---------------------------------------------------------------*
      *%                                                               *
      *%                   020-MAINLINE ROUTINE                        *
      *%                                                               *
      *%---------------------------------------------------------------*
       020-MAINLINE.
           MOVE AC99W-SECOND-TIME TO ACCOMM-RECALL-CODE.
           PERFORM 120-PREMAP
               THRU 120-PREMAP-EXIT.
           MOVE SPACES TO AC99W-TRANSID.
           PERFORM 326-SAVE-CONTEXT-G
              THRU 326-SAVE-CONTEXT-G-EXIT.
           PERFORM 322-SAVE-CONTEXT-L
              THRU 322-SAVE-CONTEXT-L-EXIT.
       020-MAINLINE-EXIT.
           EXIT.

      *%---------------------------------------------------------------*
      *%                                                               *
      *%                   030-WRAPUP ROUTINE                          *
      *%                                                               *
      *%---------------------------------------------------------------*
       030-WRAPUP.
      *%****************************************************************
      *%       RETURN TO CICS - WAIT FOR NEXT USER RESPONSE            *
      *%****************************************************************
           EXEC CICS
                RETURN
           END-EXEC.

       030-WRAPUP-EXIT.
           EXIT.


       EJECT
      *%---------------------------------------------------------------*
      *%                                                               *
      *%                   120-PREMAP ROUTINE                          *
      *%                                                               *
      *%---------------------------------------------------------------*
       120-PREMAP.

      ******************************************************************
      **********************  BEGINNING OF MODULE  *********************
      ******************************************************************
      *
      ******************************************************************
      ***  MODULE      : FEXPU40
      ***  DESCRIPTION : EXPRESS RELEASE HEADER UPDATE
      ***  WRITTEN BY  : H. CARTWRIGHT - TIERRA SYSTEMS, INC
      ***  DATE WRITTEN: JUN 93
      ***  COMMENTS    :
      ***  CURRENCY    :
      ***    EXPECTED  : NONE
      ***    PASSED    :
      ******************************************************************
      ******************************************************************
      ***                           CHANGE HISTORY
      ***
      *** REF  AUTH    DATE                  DESCRIPTION               A
      *CR   *
      *** ---  ----  --------  --------------------------------------  -
      *---- *
      *** 001  NG    04/25/96  ORDER-DATE CHANGED FOR ENTRY FIELD      E
      *X014 *
      *** 002  LJM   03/21/00  CICS CONVERSION- REMOVE FZYAU02 LINK    F
      *IX019*
      ******************************************************************
      ******************************************************************
      ***                    M A I N L I N E
      ******************************************************************
      *
      ** READY F-EXPR-FILE USAGE-MODE IS UPDATE.
      ** READY F-INDX-EXPR-FILE USAGE-MODE IS UPDATE.
      ** READY F-EXPR-RLSE-HDR USAGE-MODE IS UPDATE.
      ** READY F-INDX-EXPR-RLSE USAGE-MODE IS UPDATE.
      ** READY F-INDX-EXPR-ACCT USAGE-MODE IS UPDATE.
      *
      **** LINK TO PROGRAM 'FZYAU02'.
      *
           IF MSG-QTY-SY00 > ZEROS
               PERFORM 200-DISPMAP-S01
                  THRU 200-DISPMAP-S01-EXIT
               IF AC99W-FLAG-DISPLAY = AC99W-YES-DISPLAY
                  GO TO 120-PREMAP-EXIT
               END-IF
           END-IF.
      *
           IF ACTN-CODE-EX40 = 'C'
               PERFORM 200-30CHGREC-S01
                  THRU 200-30CHGREC-S01-EXIT
               IF AC99W-FLAG-DISPLAY = AC99W-YES-DISPLAY
                  GO TO 120-PREMAP-EXIT
               END-IF
           END-IF.
      *
           MOVE SPACES TO ACTN-CODE-EX40.
      *

      *************************************
      ** RETURN TO AC99W-HIGHER
      *************************************
           MOVE AC99W-NO TO ACCOMM-FLAG-CLEAR.
           MOVE AC99W-NO TO ACCOMM-FLAG-CONTINUE.
           MOVE AC99W-HIGHER TO AC99W-NEXT-PROGRAM.
           PERFORM 395-RETURN
              THRU 395-RETURN-EXIT.
      *
      ******************************************************************
      ***                     S U B R O U T I N E S
      ******************************************************************
      *
      ******************************************************************

       120-PREMAP-EXIT.
           EXIT.


       EJECT
      *%---------------------------------------------------------------*
      *%                                                               *
      *%                   200-30CHGREC-S01 ROUTINE                    *
      *%                                                               *
      *%---------------------------------------------------------------*
       200-30CHGREC-S01.

      *** CHG EXPRESS COMMODITY FOR VENDOR
      ******************************************************************
      *
      *%   OBTAIN R4229-RLSE-HDR DB-KEY IS SAVE-DBKEY-ID-EX40.
           MOVE 0001 TO DBLINK-CURR-IO-NUM
DMW001     MOVE SAVE-DBKEY-ID-EX40 TO
                                DBLINK-R4229-RLSE-HDR-KEY
           MOVE DBLINK-OBTAIN TO DBLINK-TYPE-SELECT
           MOVE DBLINK-DBKEY TO DBLINK-TYPE-GET
           PERFORM 906-01-R4229-RLSE-HDR
              THRU 906-01-R4229-RLSE-HDR-EXIT
           PERFORM 999-SQL-STATUS
              THRU 999-SQL-STATUS-EXIT.
      *
      ***IF ORDER-DATE-4229 EQ ZEROES
      ***   MOVE SYSTEM-DATE-EX40            TO ORDER-DATE-4229.
           MOVE NMRC-WORK-DATE-SY55 TO ORDER-DATE-4229.
           MOVE MAIL-CODE-EX40 TO MAIL-CODE-4229.
           MOVE COA-CODE-EX40 TO COA-CODE-4229.
           MOVE ACCT-INDX-CODE-EX40 TO ACCT-INDX-CODE-4229.
           MOVE FUND-CODE-EX40 TO FUND-CODE-4229.
           MOVE ORGZN-CODE-EX40 TO ORGZN-CODE-4229.
           MOVE ACCT-CODE-EX40 TO ACCT-CODE-4229.
           MOVE PRGRM-CODE-EX40 TO PRGRM-CODE-4229.
           MOVE ACTVY-CODE-EX40 TO ACTVY-CODE-4229.
           MOVE LCTN-CODE-EX40 TO LCTN-CODE-4229.
           MOVE ORDERED-BY-EX40 TO ORDERED-BY-4229.
           MOVE BUYER-CODE-EX40 TO BUYER-CODE-4229.
      *%   MODIFY R4229-RLSE-HDR.
           MOVE 0002 TO DBLINK-CURR-IO-NUM
           MOVE DBLINK-MODIFY TO DBLINK-TYPE-SELECT
           MOVE DBLINK-MODIFY TO DBLINK-TYPE-GET
           PERFORM 976-FROM-R4229-RLSE-HDR
              THRU 976-FROM-R4229-RLSE-HDR-EXIT
           PERFORM 904-UPDT-R4229-RLSE-HDR
              THRU 904-UPDT-R4229-RLSE-HDR-EXIT
           PERFORM 999-SQL-STATUS
              THRU 999-SQL-STATUS-EXIT.
           IF NOT DB-STATUS-OK
               MOVE 000053 TO MSG-ID-SY00
               PERFORM 200-ACTNERR-S01
                  THRU 200-ACTNERR-S01-EXIT
               IF AC99W-FLAG-DISPLAY = AC99W-YES-DISPLAY
                  GO TO 200-30CHGREC-S01-EXIT
               END-IF
      *** CANNOT ADD, DUPLICATE ALREADY EXISTS
      *%       MODIFY MAP TEMP
      *%          FOR
      *%          DFLD
      *%          RELEASE-NMBR-EX40
      *%          ATTR
      *%          BRIGHT
               MOVE '(BRT)' TO WK01-ATTRIBUTES
               STRING 'RELEASE-NMBR-EX40,' DELIMITED BY SIZE
                      INTO WK01-VARDATA
               CALL DCLINK-DCXMAP USING
                    BY REFERENCE DFHEIBLK
                    BY REFERENCE ACCOMM
                    BY CONTENT 'SET-PROPERTY-ATTR-TEMP        '
                    BY REFERENCE MAP-CONTROL
           END-IF.
      *
      ******************************************************************

       200-30CHGREC-S01-EXIT.
           EXIT.


       EJECT
      *%---------------------------------------------------------------*
      *%                                                               *
      *%                   200-ACTNERR-S01 ROUTINE                     *
      *%                                                               *
      *%---------------------------------------------------------------*
       200-ACTNERR-S01.

      ******************************************************************
      *
           PERFORM 200-ZZYII03-GETMESGS
              THRU 200-ZZYII03-GETMESGS-EXIT.
           IF AC99W-FLAG-DISPLAY = AC99W-YES-DISPLAY
              GO TO 200-ACTNERR-S01-EXIT
           END-IF.
           IF ACTN-CODE-EX40 = SPACES
               MOVE '?' TO ACTN-CODE-EX40
           END-IF.
      *%   MODIFY MAP TEMP
      *%      FOR
      *%      DFLD
      *%      ACTN-CODE-EX40
      *%      ATTR
      *%      BRIGHT .
           MOVE '(BRT)' TO WK01-ATTRIBUTES
           STRING 'ACTN-CODE-EX40,' DELIMITED BY SIZE
                  INTO WK01-VARDATA
           CALL DCLINK-DCXMAP USING
                BY REFERENCE DFHEIBLK
                BY REFERENCE ACCOMM
                BY CONTENT 'SET-PROPERTY-ATTR-TEMP        '
                BY REFERENCE MAP-CONTROL.
           IF MSG-QTY-SY00 = 1
      *%       MODIFY MAP TEMP
      *%          CURSOR AT DFLD ACTN-CODE-EX40
               MOVE 'ACTN-CODE-EX40' TO WK01-VARDATA
               CALL DCLINK-DCXMAP USING
                    BY REFERENCE DFHEIBLK
                    BY REFERENCE ACCOMM
                    BY CONTENT 'SET-FOCUS-DF-TEMP             '
                    BY REFERENCE MAP-CONTROL
           END-IF.
      *
      ******************************************************************
      ***    SUBROUTINE GETMESGS.
      ******************************************************************
      **************************************************************
      *******  PERFORM INCLUDE SUBROUTINE ZZYII03                      *
      **************************************************************
               PERFORM 200-ZZYII03
                  THRU 200-ZZYII03-EXIT.
               IF AC99W-FLAG-DISPLAY = AC99W-YES-DISPLAY
                  GO TO 200-ACTNERR-S01-EXIT
               END-IF.
      *** RETRIEVE ERROR MESSAGES
      *
      ******************************************************************

       200-ACTNERR-S01-EXIT.
           EXIT.


       EJECT
      *%---------------------------------------------------------------*
      *%                                                               *
      *%                   200-DISPMAP-S01 ROUTINE                     *
      *%                                                               *
      *%---------------------------------------------------------------*
       200-DISPMAP-S01.

      ******************************************************************
      *

      *************************************
      ** RETURN TO AC99W-HIGHER
      *************************************
           MOVE AC99W-NO TO ACCOMM-FLAG-CLEAR.
           MOVE AC99W-NO TO ACCOMM-FLAG-CONTINUE.
           MOVE AC99W-HIGHER TO AC99W-NEXT-PROGRAM.
           PERFORM 395-RETURN
              THRU 395-RETURN-EXIT.
      *** RETURN TO LINKING DIALOG
      *
      ******************************************************************
      *************************  END OF MODULE *************************
      ******************************************************************

       200-DISPMAP-S01-EXIT.
           EXIT.


       EJECT
           EXEC SQL
               INCLUDE ZZYII03
           END-EXEC.


       EJECT


      *%---------------------------------------------------------------*
      *%                                                               *
      *%                   302-RESTORE-CONTEXT-L ROUTINE               *
      *%                                                               *
      *%---------------------------------------------------------------*
       302-RESTORE-CONTEXT-L.

      *%****************************************************************
      *%       LOOP THRU ALL ITEMS IN TEMP STORAGE FOR LOCAL RECORDS   *
      *%****************************************************************
           MOVE ZEROS TO AC99W-ITEM-NO.
           MOVE AC99W-YES TO AC99W-IND1.
           PERFORM WITH TEST BEFORE
             UNTIL NOT (AC99W-IND1 = AC99W-YES)
               ADD +1 TO AC99W-ITEM-NO
               MOVE AC99W-RECORD-LENGTH-MAX TO AC99W-RECORD-LENGTH

               EXEC CICS
                    READQ TS
                    QUEUE(AC99W-CONTEXT-QUEUE-L)
                    INTO(AC99W-CONTEXT-AREA)
                    ITEM(AC99W-ITEM-NO)
                    RESP(DCLINK-CICS-RESP)
                    LENGTH(AC99W-RECORD-LENGTH)
               END-EXEC

               IF DCLINK-CICS-RESP = DFHRESP(ITEMERR)
                OR DCLINK-CICS-RESP = DFHRESP(QIDERR)
                   GO TO 302-RESTORE-CONTEXT-L-EXIT
               END-IF
               PERFORM 895-TEST-CICS-RESPONSE
                  THRU 895-TEST-CICS-RESPONSE-EXIT
      *%****************************************************************
      *%       RESTORE DATA INTO THE LOCAL RECORDS                     *
      *%****************************************************************
               PERFORM 304-RESTORE-CONTEXT-L
                  THRU 304-RESTORE-CONTEXT-L-EXIT
           END-PERFORM.

       302-RESTORE-CONTEXT-L-EXIT.
           EXIT.

      *%---------------------------------------------------------------*
      *%                                                               *
      *%                   304-RESTORE-CONTEXT-L ROUTINE               *
      *%                                                               *
      *%---------------------------------------------------------------*
       304-RESTORE-CONTEXT-L.
      *%****************************************************************
      *%   DETERMINE WHICH CONTEXT RECORDS HAVE BEEN READ AND          *
      *%     WHETHER THEY SHOULD BE RESTORED                           *
      *%****************************************************************


           IF AC99W-CONTEXT-AREA-N = 'DBLINK-CURSOR-CODES'
              AND AC99W-FLAG-RESTORE-GBL = AC99W-NO
              MOVE AC99W-CONTEXT-AREA-R TO DBLINK-CURSOR-CODES
              GO TO 304-RESTORE-CONTEXT-L-EXIT
           END-IF.

           IF AC99W-CONTEXT-AREA-N = 'SUBSCHEMA-CONTROL'
              AND AC99W-FLAG-RESTORE-GBL = AC99W-NO
              MOVE AC99W-CONTEXT-AREA-R TO SUBSCHEMA-CONTROL
              GO TO 304-RESTORE-CONTEXT-L-EXIT
           END-IF.

           IF AC99W-CONTEXT-AREA-N = 'FEXMU40-MAP-CONTROL'
              AND AC99W-FLAG-RESTORE-GBL = AC99W-NO
              MOVE AC99W-CONTEXT-AREA-R TO FEXMU40-MAP-CONTROL
              GO TO 304-RESTORE-CONTEXT-L-EXIT
           END-IF.

           IF AC99W-CONTEXT-AREA-N = 'FSYWG01M'
            AND (AC99W-FLAG-RESTORE-GBL = AC99W-NO
             OR AC99W-FSYWG01M-F = AC99W-YES)
               MOVE AC99W-CONTEXT-AREA-R TO FSYWG01M
               MOVE AC99W-YES TO AC99W-FSYWG01M-F
               GO TO 304-RESTORE-CONTEXT-L-EXIT
           END-IF.

           IF AC99W-CONTEXT-AREA-N = 'FEXWK40'
            AND (AC99W-FLAG-RESTORE-GBL = AC99W-NO
             OR AC99W-FEXWK40-F = AC99W-YES)
               MOVE AC99W-CONTEXT-AREA-R TO FEXWK40
               MOVE AC99W-YES TO AC99W-FEXWK40-F
               GO TO 304-RESTORE-CONTEXT-L-EXIT
           END-IF.

           IF AC99W-CONTEXT-AREA-N = 'FEXWM40'
            AND (AC99W-FLAG-RESTORE-GBL = AC99W-NO
             OR AC99W-FEXWM40-F = AC99W-YES)
               MOVE AC99W-CONTEXT-AREA-R TO FEXWM40
               MOVE AC99W-YES TO AC99W-FEXWM40-F
               GO TO 304-RESTORE-CONTEXT-L-EXIT
           END-IF.

           IF AC99W-CONTEXT-AREA-N = 'FEXWD40'
            AND (AC99W-FLAG-RESTORE-GBL = AC99W-NO
             OR AC99W-FEXWD40-F = AC99W-YES)
               MOVE AC99W-CONTEXT-AREA-R TO FEXWD40
               MOVE AC99W-YES TO AC99W-FEXWD40-F
               GO TO 304-RESTORE-CONTEXT-L-EXIT
           END-IF.

           IF AC99W-CONTEXT-AREA-N = 'ZZYWG55D'
            AND (AC99W-FLAG-RESTORE-GBL = AC99W-NO
             OR AC99W-ZZYWG55D-F = AC99W-YES)
               MOVE AC99W-CONTEXT-AREA-R TO ZZYWG55D
               MOVE AC99W-YES TO AC99W-ZZYWG55D-F
               GO TO 304-RESTORE-CONTEXT-L-EXIT
           END-IF.

           IF AC99W-CONTEXT-AREA-N = 'R4229-RLSE-HDR'
            AND (AC99W-FLAG-RESTORE-GBL = AC99W-NO
             OR AC99W-R4229-RLSE-HDR-F = AC99W-YES)
               MOVE AC99W-CONTEXT-AREA-R TO R4229-RLSE-HDR
               MOVE AC99W-YES TO AC99W-R4229-RLSE-HDR-F
               GO TO 304-RESTORE-CONTEXT-L-EXIT
           END-IF.
       304-RESTORE-CONTEXT-L-EXIT.
           EXIT.

      *%---------------------------------------------------------------*
      *%                                                               *
      *%                   306-RESTORE-CONTEXT-G ROUTINE               *
      *%                                                               *
      *%---------------------------------------------------------------*
       306-RESTORE-CONTEXT-G.

      *%****************************************************************
      *%       RESTORE DATA FROM GLOBAL TEMP STORAGE QUEUE             *
      *%****************************************************************
           MOVE 'G001' TO AC99W-CONTEXT-QUEUE-G-5-8.
           MOVE AC99W-RECORD-LENGTH-MAX TO AC99W-RECORD-LENGTH.

           EXEC CICS
                READQ TS
                QUEUE(AC99W-CONTEXT-QUEUE-G)
                INTO(AC99W-CONTEXT-AREA)
                LENGTH(AC99W-RECORD-LENGTH)
                RESP(DCLINK-CICS-RESP)
           END-EXEC.

           IF DCLINK-CICS-RESP = DFHRESP(NORMAL)
               MOVE AC99W-CONTEXT-AREA
                   TO ADSO-APPLICATION-GLOBAL-RECORD

               EXEC CICS
                    DELETEQ TS
                    QUEUE(AC99W-CONTEXT-QUEUE-G)
                    RESP(DCLINK-CICS-RESP)
               END-EXEC

           END-IF.

           IF DCLINK-CICS-RESP NOT = DFHRESP(NORMAL) AND
              DCLINK-CICS-RESP NOT = DFHRESP(QIDERR)
               PERFORM 895-TEST-CICS-RESPONSE
                  THRU 895-TEST-CICS-RESPONSE-EXIT
           END-IF.
           MOVE 'G010' TO AC99W-CONTEXT-QUEUE-G-5-8.
           MOVE AC99W-RECORD-LENGTH-MAX TO AC99W-RECORD-LENGTH.

           EXEC CICS
                READQ TS
                QUEUE(AC99W-CONTEXT-QUEUE-G)
                INTO(AC99W-CONTEXT-AREA)
                LENGTH(AC99W-RECORD-LENGTH)
                RESP(DCLINK-CICS-RESP)
           END-EXEC.

           IF DCLINK-CICS-RESP = DFHRESP(NORMAL)
               MOVE AC99W-CONTEXT-AREA
DEVBWS             TO FISWG00M

               EXEC CICS
                    DELETEQ TS
                    QUEUE(AC99W-CONTEXT-QUEUE-G)
                    RESP(DCLINK-CICS-RESP)
               END-EXEC

           END-IF.

           IF DCLINK-CICS-RESP NOT = DFHRESP(NORMAL) AND
              DCLINK-CICS-RESP NOT = DFHRESP(QIDERR)
               PERFORM 895-TEST-CICS-RESPONSE
                  THRU 895-TEST-CICS-RESPONSE-EXIT
           END-IF.
           MOVE 'G004' TO AC99W-CONTEXT-QUEUE-G-5-8.
           MOVE AC99W-RECORD-LENGTH-MAX TO AC99W-RECORD-LENGTH.

           EXEC CICS
                READQ TS
                QUEUE(AC99W-CONTEXT-QUEUE-G)
                INTO(AC99W-CONTEXT-AREA)
                LENGTH(AC99W-RECORD-LENGTH)
                RESP(DCLINK-CICS-RESP)
           END-EXEC.

           IF DCLINK-CICS-RESP = DFHRESP(NORMAL)
               MOVE AC99W-CONTEXT-AREA
                   TO FEXWG00D

               EXEC CICS
                    DELETEQ TS
                    QUEUE(AC99W-CONTEXT-QUEUE-G)
                    RESP(DCLINK-CICS-RESP)
               END-EXEC

           END-IF.

           IF DCLINK-CICS-RESP NOT = DFHRESP(NORMAL) AND
              DCLINK-CICS-RESP NOT = DFHRESP(QIDERR)
               PERFORM 895-TEST-CICS-RESPONSE
                  THRU 895-TEST-CICS-RESPONSE-EXIT
           END-IF.
       306-RESTORE-CONTEXT-G-EXIT.
           EXIT.

      *%---------------------------------------------------------------*
      *%                                                               *
      *%                   312-DELETE-CONTEXT-L ROUTINE                *
      *%                                                               *
      *%---------------------------------------------------------------*
       312-DELETE-CONTEXT-L.

      *%****************************************************************
      *%       ERASE ALL LOCAL TEMP STORAGE                            *
      *%****************************************************************

           EXEC CICS
                DELETEQ TS
                RESP(DCLINK-CICS-RESP)
                QUEUE(AC99W-CONTEXT-QUEUE-L)
           END-EXEC

           IF DCLINK-CICS-RESP NOT = DFHRESP(QIDERR)
            AND DCLINK-CICS-RESP NOT = DFHRESP(NORMAL)
               PERFORM 895-TEST-CICS-RESPONSE
                  THRU 895-TEST-CICS-RESPONSE-EXIT
           END-IF.
       312-DELETE-CONTEXT-L-EXIT.
           EXIT.


      *%---------------------------------------------------------------*
      *%                                                               *
      *%                   314-SAVE-CURRENCY ROUTINE                   *
      *%                                                               *
      *%---------------------------------------------------------------*
       314-SAVE-CURRENCY SECTION.

DEVBWS     MOVE '$$ALL' TO DBLINK-CURSOR-NAME-WORK.
DEVBWS     PERFORM 991-CLOSE-CURSORS
DEVBWS        THRU 991-CLOSE-CURSORS-EXIT.


       314-SAVE-CURRENCY-010.

           IF AC99W-NOSAVE-OPTION = AC99W-PARTIAL
               MOVE AC99W-NO TO AC99W-NOSAVE-OPTION
           ELSE
               MOVE 'DBLINK-CURSOR-CODES' TO AC99W-CONTEXT-AREA-N
               MOVE LENGTH OF DBLINK-CURSOR-CODES
                         TO AC99W-RECORD-LENGTH
               MOVE DBLINK-CURSOR-CODES TO AC99W-CONTEXT-AREA-R
               ADD +40 TO AC99W-RECORD-LENGTH

               EXEC CICS
                    WRITEQ TS
                    QUEUE(AC99W-CONTEXT-QUEUE-L)
                    FROM(AC99W-CONTEXT-AREA)
                    LENGTH(AC99W-RECORD-LENGTH)
                    RESP(DCLINK-CICS-RESP)
               END-EXEC

               PERFORM 895-TEST-CICS-RESPONSE
                  THRU 895-TEST-CICS-RESPONSE-EXIT
           END-IF.


           MOVE 'SUBSCHEMA-CONTROL' TO AC99W-CONTEXT-AREA-N.
           MOVE LENGTH OF SUBSCHEMA-CONTROL TO AC99W-RECORD-LENGTH.
           MOVE SUBSCHEMA-CONTROL TO AC99W-CONTEXT-AREA-R.
           ADD +40 TO AC99W-RECORD-LENGTH.

           EXEC CICS
                WRITEQ TS
                QUEUE(AC99W-CONTEXT-QUEUE-L)
                FROM(AC99W-CONTEXT-AREA)
                LENGTH(AC99W-RECORD-LENGTH)
                RESP(DCLINK-CICS-RESP)
           END-EXEC.

           PERFORM 895-TEST-CICS-RESPONSE
              THRU 895-TEST-CICS-RESPONSE-EXIT.

       314-SAVE-CURRENCY-EXIT.
           EXIT.

      *%---------------------------------------------------------------*
      *%                                                               *
      *%                   316-DELETE-CONTEXT-G ROUTINE                *
      *%                                                               *
      *%---------------------------------------------------------------*
       316-DELETE-CONTEXT-G SECTION.

           MOVE 'G001' TO AC99W-CONTEXT-QUEUE-G-5-8.

           EXEC CICS
                DELETEQ TS
                RESP(DCLINK-CICS-RESP)
                QUEUE(AC99W-CONTEXT-QUEUE-G)
           END-EXEC.

           IF DCLINK-CICS-RESP NOT = DFHRESP(QIDERR)
            AND DCLINK-CICS-RESP NOT = DFHRESP(NORMAL)
               PERFORM 895-TEST-CICS-RESPONSE
              THRU 895-TEST-CICS-RESPONSE-EXIT
           END-IF.

           MOVE 'G010' TO AC99W-CONTEXT-QUEUE-G-5-8.

           EXEC CICS
                DELETEQ TS
                RESP(DCLINK-CICS-RESP)
                QUEUE(AC99W-CONTEXT-QUEUE-G)
           END-EXEC.

           IF DCLINK-CICS-RESP NOT = DFHRESP(QIDERR)
            AND DCLINK-CICS-RESP NOT = DFHRESP(NORMAL)
               PERFORM 895-TEST-CICS-RESPONSE
              THRU 895-TEST-CICS-RESPONSE-EXIT
           END-IF.

           MOVE 'G004' TO AC99W-CONTEXT-QUEUE-G-5-8.

           EXEC CICS
                DELETEQ TS
                RESP(DCLINK-CICS-RESP)
                QUEUE(AC99W-CONTEXT-QUEUE-G)
           END-EXEC.

           IF DCLINK-CICS-RESP NOT = DFHRESP(QIDERR)
            AND DCLINK-CICS-RESP NOT = DFHRESP(NORMAL)
               PERFORM 895-TEST-CICS-RESPONSE
              THRU 895-TEST-CICS-RESPONSE-EXIT
           END-IF.

       316-DELETE-CONTEXT-G-EXIT.
           EXIT.

      *%---------------------------------------------------------------*
      *%                                                               *
      *%                   322-SAVE-CONTEXT-L ROUTINE                  *
      *%                                                               *
      *%---------------------------------------------------------------*
       322-SAVE-CONTEXT-L.

      *%****************************************************************
      *%       WRITE CURRENCIES TO A TEMP STORAGE AREA                 *
      *%****************************************************************
           IF AC99W-NOSAVE-OPTION = AC99W-YES
              MOVE AC99W-NO TO AC99W-NOSAVE-OPTION
           ELSE
              PERFORM 314-SAVE-CURRENCY
                 THRU 314-SAVE-CURRENCY-EXIT
           END-IF.
      *%****************************************************************
      *%       WRITE LOCAL RECORDS TO A TEMP STORAGE AREA              *
      *%****************************************************************


           MOVE 'FSYWG01M' TO AC99W-CONTEXT-AREA-N.
           MOVE LENGTH OF FSYWG01M TO AC99W-RECORD-LENGTH.
           MOVE FSYWG01M TO AC99W-CONTEXT-AREA-R.
           ADD +40 TO AC99W-RECORD-LENGTH.

           EXEC CICS
                WRITEQ TS
                QUEUE(AC99W-CONTEXT-QUEUE-L)
                FROM(AC99W-CONTEXT-AREA)
                LENGTH(AC99W-RECORD-LENGTH)
                RESP(DCLINK-CICS-RESP)
           END-EXEC.

           PERFORM 895-TEST-CICS-RESPONSE
              THRU 895-TEST-CICS-RESPONSE-EXIT.

           MOVE 'FEXWK40' TO AC99W-CONTEXT-AREA-N.
           MOVE LENGTH OF FEXWK40 TO AC99W-RECORD-LENGTH.
           MOVE FEXWK40 TO AC99W-CONTEXT-AREA-R.
           ADD +40 TO AC99W-RECORD-LENGTH.

           EXEC CICS
                WRITEQ TS
                QUEUE(AC99W-CONTEXT-QUEUE-L)
                FROM(AC99W-CONTEXT-AREA)
                LENGTH(AC99W-RECORD-LENGTH)
                RESP(DCLINK-CICS-RESP)
           END-EXEC.

           PERFORM 895-TEST-CICS-RESPONSE
              THRU 895-TEST-CICS-RESPONSE-EXIT.

           MOVE 'FEXWM40' TO AC99W-CONTEXT-AREA-N.
           MOVE LENGTH OF FEXWM40 TO AC99W-RECORD-LENGTH.
           MOVE FEXWM40 TO AC99W-CONTEXT-AREA-R.
           ADD +40 TO AC99W-RECORD-LENGTH.

           EXEC CICS
                WRITEQ TS
                QUEUE(AC99W-CONTEXT-QUEUE-L)
                FROM(AC99W-CONTEXT-AREA)
                LENGTH(AC99W-RECORD-LENGTH)
                RESP(DCLINK-CICS-RESP)
           END-EXEC.

           PERFORM 895-TEST-CICS-RESPONSE
              THRU 895-TEST-CICS-RESPONSE-EXIT.

           MOVE 'FEXWD40' TO AC99W-CONTEXT-AREA-N.
           MOVE LENGTH OF FEXWD40 TO AC99W-RECORD-LENGTH.
           MOVE FEXWD40 TO AC99W-CONTEXT-AREA-R.
           ADD +40 TO AC99W-RECORD-LENGTH.

           EXEC CICS
                WRITEQ TS
                QUEUE(AC99W-CONTEXT-QUEUE-L)
                FROM(AC99W-CONTEXT-AREA)
                LENGTH(AC99W-RECORD-LENGTH)
                RESP(DCLINK-CICS-RESP)
           END-EXEC.

           PERFORM 895-TEST-CICS-RESPONSE
              THRU 895-TEST-CICS-RESPONSE-EXIT.

           MOVE 'ZZYWG55D' TO AC99W-CONTEXT-AREA-N.
           MOVE LENGTH OF ZZYWG55D TO AC99W-RECORD-LENGTH.
           MOVE ZZYWG55D TO AC99W-CONTEXT-AREA-R.
           ADD +40 TO AC99W-RECORD-LENGTH.

           EXEC CICS
                WRITEQ TS
                QUEUE(AC99W-CONTEXT-QUEUE-L)
                FROM(AC99W-CONTEXT-AREA)
                LENGTH(AC99W-RECORD-LENGTH)
                RESP(DCLINK-CICS-RESP)
           END-EXEC.

           PERFORM 895-TEST-CICS-RESPONSE
              THRU 895-TEST-CICS-RESPONSE-EXIT.

           MOVE 'R4229-RLSE-HDR' TO AC99W-CONTEXT-AREA-N.
           MOVE LENGTH OF R4229-RLSE-HDR TO AC99W-RECORD-LENGTH.
           MOVE R4229-RLSE-HDR TO AC99W-CONTEXT-AREA-R.
           ADD +40 TO AC99W-RECORD-LENGTH.

           EXEC CICS
                WRITEQ TS
                QUEUE(AC99W-CONTEXT-QUEUE-L)
                FROM(AC99W-CONTEXT-AREA)
                LENGTH(AC99W-RECORD-LENGTH)
                RESP(DCLINK-CICS-RESP)
           END-EXEC.

           PERFORM 895-TEST-CICS-RESPONSE
              THRU 895-TEST-CICS-RESPONSE-EXIT.

           MOVE 'FEXMU40-MAP-CONTROL' TO AC99W-CONTEXT-AREA-N.
           MOVE LENGTH OF FEXMU40-MAP-CONTROL TO AC99W-RECORD-LENGTH.
           MOVE FEXMU40-MAP-CONTROL TO AC99W-CONTEXT-AREA-R.
           ADD +40 TO AC99W-RECORD-LENGTH.

           EXEC CICS
                WRITEQ TS
                QUEUE(AC99W-CONTEXT-QUEUE-L)
                FROM(AC99W-CONTEXT-AREA)
                LENGTH(AC99W-RECORD-LENGTH)
                RESP(DCLINK-CICS-RESP)
           END-EXEC.

           PERFORM 895-TEST-CICS-RESPONSE
              THRU 895-TEST-CICS-RESPONSE-EXIT.

       322-SAVE-CONTEXT-L-EXIT.
           EXIT.


      *%---------------------------------------------------------------*
      *%                                                               *
      *%                   326-SAVE-CONTEXT-G ROUTINE                  *
      *%                                                               *
      *%---------------------------------------------------------------*
       326-SAVE-CONTEXT-G.

      *%****************************************************************
      *%       WRITE GLOBAL RECORD TO A TEMP STORAGE AREA              *
      *%****************************************************************
           MOVE LENGTH OF ADSO-APPLICATION-GLOBAL-RECORD TO
                AC99W-RECORD-LENGTH.
           MOVE 'G001' TO AC99W-CONTEXT-QUEUE-G-5-8.

           EXEC CICS
                WRITEQ TS
                QUEUE(AC99W-CONTEXT-QUEUE-G)
                FROM(ADSO-APPLICATION-GLOBAL-RECORD)
                LENGTH(AC99W-RECORD-LENGTH)
                RESP(DCLINK-CICS-RESP)
           END-EXEC.

           PERFORM 895-TEST-CICS-RESPONSE
              THRU 895-TEST-CICS-RESPONSE-EXIT.
DEVBWS     MOVE LENGTH OF FISWG00M TO AC99W-RECORD-LENGTH.
           MOVE 'G010' TO AC99W-CONTEXT-QUEUE-G-5-8.

           EXEC CICS
                WRITEQ TS
                QUEUE(AC99W-CONTEXT-QUEUE-G)
DEVBWS          FROM(FISWG00M)
                LENGTH(AC99W-RECORD-LENGTH)
                RESP(DCLINK-CICS-RESP)
           END-EXEC.

           PERFORM 895-TEST-CICS-RESPONSE
              THRU 895-TEST-CICS-RESPONSE-EXIT.
           MOVE LENGTH OF FEXWG00D TO AC99W-RECORD-LENGTH.
           MOVE 'G004' TO AC99W-CONTEXT-QUEUE-G-5-8.

           EXEC CICS
                WRITEQ TS
                QUEUE(AC99W-CONTEXT-QUEUE-G)
                FROM(FEXWG00D)
                LENGTH(AC99W-RECORD-LENGTH)
                RESP(DCLINK-CICS-RESP)
           END-EXEC.

           PERFORM 895-TEST-CICS-RESPONSE
              THRU 895-TEST-CICS-RESPONSE-EXIT.

       326-SAVE-CONTEXT-G-EXIT.
           EXIT.


      *%---------------------------------------------------------------*
      *%                                                               *
      *%                 395-RETURN ROUTINE                            *
      *%                                                               *
      *%---------------------------------------------------------------*
       395-RETURN.
           MOVE '$$ALL' TO DBLINK-CURSOR-NAME-WORK.
           PERFORM 991-CLOSE-CURSORS
              THRU 991-CLOSE-CURSORS-EXIT.

      *%****************************************************************
      *%       CANNOT RETURN IF AT TOP OF STACK                        *
      *%****************************************************************
           MOVE ACCOMM-CNT-PGM-STACK TO ACCOMM-CNT-PGM-STACK-FROM.
           MOVE AC99W-TRANSFER TO ACCOMM-RECALL-CODE.
           MOVE ACCOMM-CNT-PGM-STACK TO AC99W-CONTEXT-QUEUE-L-7-8
           MOVE SPACES TO ACCOMM-FROM-PROGRAM.
           PERFORM 326-SAVE-CONTEXT-G
              THRU 326-SAVE-CONTEXT-G-EXIT.
           PERFORM 322-SAVE-CONTEXT-L
              THRU 322-SAVE-CONTEXT-L-EXIT.
           EXEC CICS
                RETURN
           END-EXEC.

       395-RETURN-EXIT.
           EXIT.



       EJECT
      *%---------------------------------------------------------------*
      *%                                                               *
      *%                   399-GET-MESSAGE ROUTINE                     *
      *%                                                               *
      *%---------------------------------------------------------------*
       399-GET-MESSAGE SECTION.

       399-GET-MESSAGE-010.
           EXEC SQL
                INCLUDE ACMSGCOD
           END-EXEC.
       399-GET-MESSAGE-EXIT.
           EXIT.


      *%---------------------------------------------------------------*
      *%                                                               *
      *%                   500-INIT-PROGRAM ROUTINE                    *
      *%                                                               *
      *%---------------------------------------------------------------*
       500-INIT-PROGRAM.

      *%****************************************************************
      *%       INITIALIZE KEY PROGRAM VARIABLES                        *
      *%****************************************************************
      *    MOVE AC99W-APPLICATION TO AGR-APPLICATION-NAME.
           MOVE EIBAID TO AGR-AID-BYTE.
           MOVE 'D' TO AGR-CURRENT-FUNC-TYPE.
           MOVE AC99W-PROGRAM-NAME TO AGR-DIALOG-NAME.
           MOVE SPACES TO AGR-MAP-RESPONSE.
           MOVE SPACES TO DCLINK-MESSAGE.
           EXEC CICS
                ASKTIME
                ABSTIME(AC99W-ABSTIME)
           END-EXEC.
           EXEC CICS
                FORMATTIME
                ABSTIME(AC99W-ABSTIME)
                YYMMDD(AC99W-DATE)
                YYYYMMDD(AC99W-DATEX)
                TIME(AC99W-TIME)
           END-EXEC.
           EXEC CICS
                FORMATTIME
                ABSTIME(AC99W-ABSTIME)
                DATESEP
                DATE(AGR-DATE)
           END-EXEC.
           EXEC CICS ASSIGN
                USERID(AC99W-USER-ID)
           END-EXEC.
           INSPECT AC99W-USER-ID CONVERTING
                'abcdefghijklmnopqrstuvwxyz' TO
                'ABCDEFGHIJKLMNOPQRSTUVWXYZ'.

       500-INIT-PROGRAM-EXIT.
           EXIT.

      *%---------------------------------------------------------------*
      *%                                                               *
      *%                   501-INIT-GLOBAL-RECORDS ROUTINE             *
      *%                                                               *
      *%---------------------------------------------------------------*
       501-INIT-GLOBAL-RECORDS.

           INITIALIZE ADSO-APPLICATION-GLOBAL-RECORD.

           INITIALIZE FSYWG00M.

           INITIALIZE FEXWG00D.

           INITIALIZE FSYWG00D.

           INITIALIZE FSYWG01D.

           MOVE QUOTE TO AGR-AID-BYTE OF ADSO-APPLICATION-GLOBAL-RECORD.
           MOVE 'N' TO AGR-SIGNON-SWITCH OF
                ADSO-APPLICATION-GLOBAL-RECORD.
           MOVE 'MORE ERRORS...' TO ERROR-TEXT-SY00 OF FSYWG00M.

       501-INIT-GLOBAL-RECORDS-EXIT.
           EXIT.

      *%---------------------------------------------------------------*
      *%                                                               *
      *%                   502-INIT-LOCAL-RECORDS ROUTINE              *
      *%                                                               *
      *%---------------------------------------------------------------*
       502-INIT-LOCAL-RECORDS.


           INITIALIZE FSYWG01M.

           INITIALIZE FEXWK40.

           INITIALIZE FEXWM40.

           INITIALIZE FEXWD40.

           INITIALIZE ZZYWG55D.

           INITIALIZE R4229-RLSE-HDR.
           MOVE 'DECEASED' TO DCSD-TEXT-SY01 OF FSYWG01M.
           MOVE 'CONFID INFO' TO CNFDL-TEXT-SY01 OF FSYWG01M.
           MOVE 'HOLDS' TO HOLDS-TEXT-SY01 OF FSYWG01M.

       502-INIT-LOCAL-RECORDS-EXIT.
           EXIT.
      *%---------------------------------------------------------------*
      *%                                                               *
      *%                 503-INIT-FIMSNTWN ROUTINE                     *
      *%               INITIALIZE SCHEMA FIMSNTWN                      *
      *%                                                               *
      *%---------------------------------------------------------------*
       503-INIT-FIMSNTWN.

           MOVE 'Y' TO AC99W-FLAG-IDMS-BIND.

       503-INIT-FIMSNTWN-EXIT.
                                       EXIT.


      *%---------------------------------------------------------------*
      *%                                                               *
      *%                   520-FINISH-DB ROUTINE                       *
      *%               RESET ANY ACTIVE FILES                          *
      *%                                                               *
      *%---------------------------------------------------------------*
       520-FINISH-DB.
      *%****************************************************************
      *%       COMMIT THE DATABASE UPDATES                             *
      *%****************************************************************
           IF AC99W-FLAG-IDMS-BIND = AC99W-YES
      *%       FINISH
               MOVE 0003 TO DBLINK-CURR-IO-NUM
               MOVE +0 TO SQLCODE
               MOVE ZERO TO ERROR-STATUS
               IF AC99W-NOSAVE-OPTION = AC99W-YES
                   PERFORM 986-RESET-KEYS
                      THRU 986-RESET-KEYS-EXIT
               END-IF
               MOVE '$$ALL' TO DBLINK-CURSOR-NAME-WORK
               PERFORM 991-CLOSE-CURSORS
                  THRU 991-CLOSE-CURSORS-EXIT
               PERFORM 996-COMMIT
                  THRU 996-COMMIT-EXIT
               PERFORM 999-SQL-STATUS
                  THRU 999-SQL-STATUS-EXIT
           END-IF.

           MOVE AC99W-NO TO AC99W-FLAG-IDMS-BIND.

       520-FINISH-DB-EXIT.
           EXIT.

      *%---------------------------------------------------------------*
      *%                                                               *
      *%                   750-DISPLAY ROUTINE                         *
      *%                                                               *
      *%---------------------------------------------------------------*
       750-DISPLAY.

           EXEC CICS XCTL
             PROGRAM('SDFISE')
           END-EXEC.

       750-DISPLAY-EXIT.
           EXIT.

      *%---------------------------------------------------------------*
      *%                                                               *
      *%                   790-CICS-ABEND ROUTINE                      *
      *%                                                               *
      *%---------------------------------------------------------------*
       790-CICS-ABEND.

           COPY USRABEND.

       790-CICS-ABEND-EXIT.
           EXIT.

      *%   COPY IDMS IDMS-STATUS.
      /
      *%-------------------------------------------------------------- *
      *%                                                               *
      *%                 800-MAPIN-FEXMU40 ROUTINE                     *
      *%                                                               *
      *%-------------------------------------------------------------- *
       800-MAPIN-FEXMU40.

           CALL DCLINK-DCXMAP USING
                BY REFERENCE DFHEIBLK
                BY REFERENCE ACCOMM
                BY CONTENT 'MAPIN                         '
                BY REFERENCE MAP-CONTROL.
           MOVE WK01-FLAG-ANY-FIELDS-ERROR TO AC99W-ERROR-IND1.
           COPY FEXMU400.

       800-MAPIN-FEXMU40-EXIT.
           EXIT.
      /
      *%-------------------------------------------------------------- *
      *%                                                               *
      *%                810-MAPOUT-FEXMU40 ROUTINE                     *
      *%                                                               *
      *%-------------------------------------------------------------- *
       810-MAPOUT-FEXMU40.

           IF WK01-FLAG-OUTPUT-DATA = 'N'
               CALL DCLINK-DCXMAP USING
                    BY REFERENCE DFHEIBLK
                    BY REFERENCE ACCOMM
                    BY CONTENT 'MAPOUT                        '
                    BY REFERENCE MAP-CONTROL
               GO TO 810-MAPOUT-FEXMU40-EXIT
           END-IF.
           COPY FEXMU401.
           CALL DCLINK-DCXMAP USING
                BY REFERENCE DFHEIBLK
                BY REFERENCE ACCOMM
                BY CONTENT 'MAPOUT                        '
                BY REFERENCE MAP-CONTROL.

       810-MAPOUT-FEXMU40-EXIT.
           EXIT.
      /
      *%-------------------------------------------------------------- *
      *%                                                               *
      *%              895-TEST-CICS-RESPONSE ROUTINE                   *
      *%                                                               *
      *%-------------------------------------------------------------- *
       895-TEST-CICS-RESPONSE.
           IF DCLINK-CICS-RESP = DFHRESP(NORMAL)
               GO TO 895-TEST-CICS-RESPONSE-EXIT.
           MOVE DCLINK-CICS-RESP TO DCLINK-ABEND-CODE.
           EXEC CICS
               ABEND ABCODE(DCLINK-ABEND-CODE)
           END-EXEC.
       895-TEST-CICS-RESPONSE-EXIT.
           EXIT.

      /
      *%-------------------------------------------------------------- *
      *%                                                               *
      *%                   900-START-SUBROUTINES                       *
      *%                                                               *
      *%-------------------------------------------------------------- *
       900-START-SUBROUTINES SECTION.
      *    CONVERT/DB SUBROUTINES FOLLOW
       900-START-SUBROUTINES-EXIT.
           EXIT.

      /
      *%-------------------------------------------------------------- *
      *%                                                               *
      *%              904-UPDT-R4229-RLSE-HDR ROUTINE                  *
      *%                                                               *
      *%-------------------------------------------------------------- *
       904-UPDT-R4229-RLSE-HDR.
           MOVE '904-UPDT-R4229-RLSE-HDR' TO DBLINK-CURR-PARAGRAPH.
           MOVE 'R4229-RLSE-HDR' TO ERROR-RECORD.
           MOVE ZERO TO ERROR-STATUS.
           IF (RLH-RELEASE-NBR NOT = DBLINK-R4229-RLSE-HDR-05)
             OR (RLH-FK-FIL-CMDTY-CD NOT = DBLINK-R4229-RLSE-HDR-03)
               MOVE '9998' TO ERROR-STATUS
               MOVE -999 TO SQLCODE
               GO TO 904-UPDT-R4229-RLSE-HDR-EXIT
           END-IF.
           EXEC SQL
               UPDATE RLH_RLSE_HDR_V
               SET  USER_CD =
                 :RLH-USER-CD
                   ,LAST_ACTVY_DT =
                 :RLH-LAST-ACTVY-DT
                   ,ACCT_INDX_CD =
                 :RLH-ACCT-INDX-CD
                   ,MAIL_CD =
                 :RLH-MAIL-CD
                   ,BUYER_CD =
                 :RLH-BUYER-CD
                   ,ORDERED_BY =
                 :RLH-ORDERED-BY
                   ,ORDER_DT =
                 :RLH-ORDER-DT
                   ,COA_CD =
                 :RLH-COA-CD
                   ,FUND_CD =
                 :RLH-FUND-CD
                   ,ORGN_CD =
                 :RLH-ORGN-CD
                   ,ACCT_CD =
                 :RLH-ACCT-CD
                   ,PRGRM_CD =
                 :RLH-PRGRM-CD
                   ,ACTVY_CD =
                 :RLH-ACTVY-CD
                   ,LCTN_CD =
                 :RLH-LCTN-CD
                   ,AMT =
                 :RLH-AMT
                   ,VOLUME_AMT =
                 :RLH-VOLUME-AMT
                   ,SUB_TOTAL =
                 :RLH-SUB-TOTAL
                   ,TAX_AMT =
                 :RLH-TAX-AMT
                   ,ADDL_CHRG =
                 :RLH-ADDL-CHRG
                   ,DSCNT_AMT =
                 :RLH-DSCNT-AMT
                   ,RELEASE_AMT =
                 :RLH-RELEASE-AMT
                   ,PRCSD_DT =
                 :RLH-PRCSD-DT
                   ,PRCSD_TIME =
                 :RLH-PRCSD-TIME
                   ,HDR_ERROR_IND =
                 :RLH-HDR-ERROR-IND
                   ,DTL_ERROR_IND =
                 :RLH-DTL-ERROR-IND
               WHERE FK_FIL_VNDR_ONE = :DBLINK-R4229-RLSE-HDR-01
                 AND FK_FIL_VNDR_NINE = :DBLINK-R4229-RLSE-HDR-02
                 AND FK_FIL_CMDTY_CD = :DBLINK-R4229-RLSE-HDR-03
                 AND FK_FIL_FILE_NBR = :DBLINK-R4229-RLSE-HDR-04
                 AND RELEASE_NBR = :DBLINK-R4229-RLSE-HDR-05
           END-EXEC.
           IF SQLCODE = -803
               MOVE DBLINK-MODIFY-DUP TO ERROR-STATUS
               GO TO 904-UPDT-R4229-RLSE-HDR-EXIT
           END-IF.
           IF SQLCODE NOT = 0
               MOVE DBLINK-DB2-ERROR TO ERROR-STATUS
               GO TO 904-UPDT-R4229-RLSE-HDR-EXIT
           END-IF.
       904-UPDT-R4229-RLSE-HDR-EXIT.
           EXIT.
      /
      *%-------------------------------------------------------------- *
      *%                                                               *
      *%               906-01-R4229-RLSE-HDR ROUTINE                   *
      *%                                                               *
      *%-------------------------------------------------------------- *
       906-01-R4229-RLSE-HDR.
           MOVE '906-01-R4229-RLSE-HDR' TO DBLINK-CURR-PARAGRAPH.
           MOVE 'R4229-RLSE-HDR' TO ERROR-RECORD.
           MOVE ZERO TO ERROR-STATUS.
           MOVE DBLINK-R4229-RLSE-HDR-01 TO RLH-FK-FIL-VNDR-ONE.
           MOVE DBLINK-R4229-RLSE-HDR-02 TO RLH-FK-FIL-VNDR-NINE.
           MOVE DBLINK-R4229-RLSE-HDR-03 TO RLH-FK-FIL-CMDTY-CD.
           MOVE DBLINK-R4229-RLSE-HDR-04 TO RLH-FK-FIL-FILE-NBR.
           MOVE DBLINK-R4229-RLSE-HDR-05 TO RLH-RELEASE-NBR.
           PERFORM 906-05-R4229-RLSE-HDR
              THRU 906-05-R4229-RLSE-HDR-EXIT.
       906-01-R4229-RLSE-HDR-EXIT.
           EXIT.
      /
      *%-------------------------------------------------------------- *
      *%                                                               *
      *%               906-05-R4229-RLSE-HDR ROUTINE                   *
      *%                                                               *
      *%-------------------------------------------------------------- *
       906-05-R4229-RLSE-HDR.
           MOVE '906-05-R4229-RLSE-HDR' TO DBLINK-CURR-PARAGRAPH.
           MOVE 'R4229-RLSE-HDR' TO ERROR-RECORD.
           MOVE ZERO TO ERROR-STATUS.
           EXEC SQL
               SELECT
                  USER_CD
                 ,LAST_ACTVY_DT
                 ,RELEASE_NBR
                 ,ACCT_INDX_CD
                 ,MAIL_CD
                 ,BUYER_CD
                 ,ORDERED_BY
                 ,ORDER_DT
                 ,FK_FIL_CMDTY_CD
                 ,COA_CD
                 ,FUND_CD
                 ,ORGN_CD
                 ,ACCT_CD
                 ,PRGRM_CD
                 ,ACTVY_CD
                 ,LCTN_CD
                 ,AMT
                 ,VOLUME_AMT
                 ,SUB_TOTAL
                 ,TAX_AMT
                 ,ADDL_CHRG
                 ,DSCNT_AMT
                 ,RELEASE_AMT
                 ,PRCSD_DT
                 ,PRCSD_TIME
                 ,HDR_ERROR_IND
                 ,DTL_ERROR_IND
                 ,FK_FIL_VNDR_ONE
                 ,FK_FIL_VNDR_NINE
                 ,FK_FIL_FILE_NBR
                 ,IDX_EXPR_RLSE_TS
                 ,APS_SETF
                 ,FK_APS_VNDR_ONE
                 ,FK_APS_VNDR_NINE
                 ,FK_APS_DOC_NBR
                 ,APS_SET_TS
                 ,IDX_EXPR_ACCT_TS
               INTO
                  :RLH-USER-CD
                 ,:RLH-LAST-ACTVY-DT
                 ,:RLH-RELEASE-NBR
                 ,:RLH-ACCT-INDX-CD
                 ,:RLH-MAIL-CD
                 ,:RLH-BUYER-CD
                 ,:RLH-ORDERED-BY
                 ,:RLH-ORDER-DT
                 ,:RLH-FK-FIL-CMDTY-CD
                 ,:RLH-COA-CD
                 ,:RLH-FUND-CD
                 ,:RLH-ORGN-CD
                 ,:RLH-ACCT-CD
                 ,:RLH-PRGRM-CD
                 ,:RLH-ACTVY-CD
                 ,:RLH-LCTN-CD
                 ,:RLH-AMT
                 ,:RLH-VOLUME-AMT
                 ,:RLH-SUB-TOTAL
                 ,:RLH-TAX-AMT
                 ,:RLH-ADDL-CHRG
                 ,:RLH-DSCNT-AMT
                 ,:RLH-RELEASE-AMT
                 ,:RLH-PRCSD-DT
                 ,:RLH-PRCSD-TIME
                 ,:RLH-HDR-ERROR-IND
                 ,:RLH-DTL-ERROR-IND
                 ,:RLH-FK-FIL-VNDR-ONE
                 ,:RLH-FK-FIL-VNDR-NINE
                 ,:RLH-FK-FIL-FILE-NBR
                 ,:RLH-IDX-EXPR-RLSE-TS
                 ,:RLH-APS-SETF
                 ,:RLH-FK-APS-VNDR-ONE
                 ,:RLH-FK-APS-VNDR-NINE
                 ,:RLH-FK-APS-DOC-NBR
                 ,:RLH-APS-SET-TS
                 ,:RLH-IDX-EXPR-ACCT-TS
               FROM RLH_RLSE_HDR_V
               WHERE FK_FIL_VNDR_ONE = :RLH-FK-FIL-VNDR-ONE
                 AND FK_FIL_VNDR_NINE = :RLH-FK-FIL-VNDR-NINE
                 AND FK_FIL_CMDTY_CD = :RLH-FK-FIL-CMDTY-CD
                 AND FK_FIL_FILE_NBR = :RLH-FK-FIL-FILE-NBR
                 AND RELEASE_NBR = :RLH-RELEASE-NBR
           END-EXEC.
           IF SQLCODE = +100
               EVALUATE DBLINK-TYPE-GET
                   WHEN DBLINK-CALC
                       MOVE DBLINK-NOT-FOUND TO ERROR-STATUS
                   WHEN DBLINK-CURR
                       MOVE DBLINK-NO-CURRENCY TO ERROR-STATUS
                   WHEN DBLINK-DBKEY
                       MOVE DBLINK-DBKEY-ERROR TO ERROR-STATUS
                   WHEN OTHER
                       MOVE DBLINK-DB2-ERROR TO ERROR-STATUS
               END-EVALUATE
               GO TO 906-05-R4229-RLSE-HDR-EXIT
           END-IF.
           IF SQLCODE NOT = 0
               MOVE DBLINK-DB2-ERROR TO ERROR-STATUS
               GO TO 906-05-R4229-RLSE-HDR-EXIT
           END-IF.
           MOVE DBLINK-R4229-RLSE-HDR TO DBLINK-RECORD-MADE-CURRENT.
           MOVE ' ' TO DBLINK-SET-NAME-WORK.
           MOVE ' ' TO DBLINK-CURSOR-NAME-WORK.
           PERFORM 985-CURR-R4229-RLSE-HDR
              THRU 985-CURR-R4229-RLSE-HDR-EXIT.
           IF ERROR-STATUS = DBLINK-DB2-ERROR
               GO TO 906-05-R4229-RLSE-HDR-EXIT
           END-IF.
           IF DBLINK-TYPE-SELECT = 'O'
               PERFORM 975-TO-R4229-RLSE-HDR
                  THRU 975-TO-R4229-RLSE-HDR-EXIT
           END-IF.
       906-05-R4229-RLSE-HDR-EXIT.
           EXIT.

      *%****************************** *
      *% 975-TO-R4229-RLSE-HDR ROUTINE
      *%****************************** *
      *%   COPY CB754229.
CPYNME     COPY HVIDRLH.

      *%****************************** *
      *% 976-FROM-R4229-RLSE-HDR ROUTINE
      *%****************************** *
      *%   COPY CB764229.
CPYNME     COPY IDHVRLH.
      /
      *%-------------------------------------------------------------- *
      *%                                                               *
      *%              985-CURR-R4229-RLSE-HDR ROUTINE                  *
      *%                                                               *
      *%-------------------------------------------------------------- *
       985-CURR-R4229-RLSE-HDR.
           MOVE '985-CURR-R4229-RLSE-HDR' TO DBLINK-CURR-PARAGRAPH.
      *%   COPY CB854229.
CPYNME     COPY CURRRLH.
       985-CURR-R4229-RLSE-HDR-EXIT.
           EXIT.
      /
      *%-------------------------------------------------------------- *
      *%                                                               *
      *%                  986-RESET-KEYS ROUTINE                       *
      *%                                                               *
      *%-------------------------------------------------------------- *
       986-RESET-KEYS.
           MOVE '986-RESET-KEYS' TO DBLINK-CURR-PARAGRAPH.
           MOVE SPACES TO DBLINK-RECORD-KEYS.
           MOVE LOW-VALUES TO DBLINK-SET-KEYS.
       986-RESET-KEYS-EXIT.
           EXIT.
      /
      *%-------------------------------------------------------------- *
      *%                                                               *
      *%                 991-CLOSE-CURSORS ROUTINE                     *
      *%                                                               *
      *%-------------------------------------------------------------- *
       991-CLOSE-CURSORS.
       991-CLOSE-CURSORS-EXIT.
           EXIT.
      /
      *%-------------------------------------------------------------- *
      *%                                                               *
      *%                    996-COMMIT ROUTINE                         *
      *%                                                               *
      *%-------------------------------------------------------------- *
       996-COMMIT.
           MOVE '996-COMMIT' TO DBLINK-CURR-PARAGRAPH.
           EXEC CICS
               SYNCPOINT
           END-EXEC.
           MOVE ALL 'C' TO DBLINK-CURSOR-CODES.
       996-COMMIT-EXIT.
           EXIT.
      /
      *%-------------------------------------------------------------- *
      *%                                                               *
      *%                 998-SET-RUN-DATE ROUTINE                      *
      *%                                                               *
      *%-------------------------------------------------------------- *
       998-SET-RUN-DATE.
           MOVE '998-SET-RUN-DATE' TO DBLINK-CURR-PARAGRAPH.
           EXEC SQL
               INCLUDE CBLINKTM
           END-EXEC.
       998-SET-RUN-DATE-EXIT.
           EXIT.
      /
      *%-------------------------------------------------------------- *
      *%                                                               *
      *%                  999-SQL-STATUS ROUTINE                       *
      *%                                                               *
      *%-------------------------------------------------------------- *
       999-SQL-STATUS.
           EXEC SQL
               INCLUDE ONLNERR
           END-EXEC.
       999-SQL-STATUS-EXIT.
           EXIT.

