       IDENTIFICATION DIVISION.
       PROGRAM-ID. FGADI99.
       AUTHOR. FORECROSS CORPORATION.
       INSTALLATION. UCSD - USDFINSYS.
       DATE-WRITTEN.  20000711.
       DATE-COMPILED. 20000711.
      ****----------------------------------------------------------****
      **  AUTHOR    DATE    DESCRIPTION                                *
      **  ------- --------  ----------------------------------------   *
DEVBWS**  DEVBWS  06/29/01  DELETE SYNCPOINTS, 976-, ADD "FOR FETCH    *
DEVBWS**                    ONLY" TO DECLARES                          *
      **  DEVMLJ  07/27/01  GLOBAL TSQ PERFORMANCE FINE TUNING         *
      ****----------------------------------------------------------****
      *%****************************************************************
      *%                                                               *
      *%  Converted Using Forecross Corporation Redeployment Software  *
      *%                                                               *
      *%                     Convert/ADSO                              *
      *%                     Convert/IDMS-DC                           *
      *%                     Convert/IDMS-DB                           *
      *%                                                               *
      *%****************************************************************
      *%          COPYRIGHT 2000 - FORECROSS CORPORATION               *
      *%                    ALL RIGHTS RESERVED                        *
      *%****************************************************************


           COPY CBCVDBNT.

      /
      *%-------------------------------------------------------------- *
      *%
      *%  *** TABLE VIEWS USED IN THIS PROGRAM
      *%
      *%PFK_PRFL_KEY_V        R4025-PRFL-KEY                   CBL CPY
      *%
      *%  *** CURSORS DECLARED IN THIS PROGRAM
      *%
      *%
      *%  *** SUBROUTINES GENERATED FOR THIS PROGRAM
      *%
      *%000-SQL-INITIALIZATION
      *%998-SET-RUN-DATE
      *%986-RESET-KEYS
      *%996-COMMIT
      *%
      *%-------------------------------------------------------------- *
       ENVIRONMENT DIVISION.
       CONFIGURATION SECTION.
       SOURCE-COMPUTER.  IBM-3090.
       OBJECT-COMPUTER.  IBM-3090.
       INPUT-OUTPUT SECTION.

       FILE-CONTROL.
       I-O-CONTROL.
      *IDMS-CONTROL SECTION.
      *PROTOCOL. MODE IS CICS-AUTOSTATUS DEBUG
      *%         IDMS-RECORDS MANUAL.


       DATA DIVISION.

      *SCHEMA SECTION.
      *%  DB FIMSNWKB WITHIN FIMSNTWN.


       WORKING-STORAGE SECTION.
       01  FILLER  PIC X(32) VALUE '** FGADI99 WORKING STRG BEGINS'.

      *%****************************************************************
       01  AC99W.
           COPY AC99W.
      *:****************************************************************
      *%****************************************************************
      *%              AC99W FIELDS UNIQUE TO THIS PROGRAM              *
      *%****************************************************************
FCAMH *    10  AC99W-APPLICATION          PIC X(8) VALUE 'FGADI99'.
AC99W      10  AC99W-PROGRAM-NAME         PIC X(8) VALUE 'FGADI99'.
AC99W      10  AC99W-TRANSID              PIC X(4) VALUE '    '.
           10  AC99W-FSEWG00D-F             PIC X(1)
                                VALUE 'N'.
           10  AC99W-R4025-PRFL-KEY-F       PIC X(1)
                                VALUE 'N'.

      *%****************************************************************
      *%              STANDARD CICS COPIES                             *
      *%****************************************************************

      *%****************************************************************
      *%               IDMS RECORD COPIES                              *
      *%****************************************************************
      *%   COPY IDMS SUBSCHEMA-CONTROL.
       01  SUBSCHEMA-CONTROL.
           EXEC SQL
               INCLUDE CBRSKEYS
           END-EXEC.
           COPY CBCURCOD.
      *%   COPY IDMS SUBSCHEMA-SSNAME.
      *%   COPY IDMS SUBSCHEMA-AREANAMES.
      *%   COPY IDMS SUBSCHEMA-RECNAMES.
      *%   COPY IDMS SUBSCHEMA-SETNAMES.

      *%   COPY IDMS RECORD ADSO-APPLICATION-GLOBAL-RECORD.
CPYNME     COPY ADSOGLBL.
      *%   COPY IDMS RECORD FGAWG00D.
CPYNME     COPY FGAWG00D.
      *%   COPY IDMS RECORD FISWG00M.
CPYNME     COPY FISWG00M.
      *%   COPY IDMS RECORD FSEWG00D.
CPYNME     COPY FSEWG00D.

      *%****************************** *
      *% PFK_PRFL_KEY_V DATA VIEW AREAS
      *%****************************** *
      *%   COPY CBID4025.
CPYNME     COPY R4025.
      *%   COPY IDMS RECORD R4025-PRFL-KEY.


      *%****************************** *
      *%CICS COPIES
      *%****************************** *
           COPY DFHAID.
           COPY DFHBMSCA.

      *%****************************** *
      *%STANDARD MAPPING COPIES
      *%****************************** *
           COPY DCLINKCA.
           COPY ACCOMM.
FCFLT7     COPY ONLWS.

           EXEC SQL
               INCLUDE CBCVDBCA
           END-EXEC.

DEVDMW*%****************************** *
      *%PAR_PARM_V AREAS(HOST VAR INCLUDE)
      *%****************************** *
           EXEC SQL
               INCLUDE HVPAR
DEVDMW     END-EXEC.
      /
      *%-------------------------------------------------------------- *
      *%                                                               *
      *%          STANDARD CONVERT/DB COMMUNICATION AREAS              *
      *%                                                               *
      *%-------------------------------------------------------------- *
           COPY CBCVDBDD.
           COPY CBCVDBXD.
       01  DBLINK-NAMES.
           05  DBLINK-SCHEMA-NAME.
               10  FILLER                   PIC X(8)
                       VALUE 'FIMSNTWN'.
           05  DBLINK-RECORD-NAMES.
               10  DBLINK-R4000-COA         PIC X(16)
                       VALUE 'R4000-COA'.
               10  DBLINK-R4001-FUND        PIC X(16)
                       VALUE 'R4001-FUND'.
               10  DBLINK-R4002-ORGN        PIC X(16)
                       VALUE 'R4002-ORGN'.
               10  DBLINK-R4003-ACCT        PIC X(16)
                       VALUE 'R4003-ACCT'.
               10  DBLINK-R4004-PROG        PIC X(16)
                       VALUE 'R4004-PROG'.
               10  DBLINK-R4006-LCTN        PIC X(16)
                       VALUE 'R4006-LCTN'.
               10  DBLINK-R4008-FNDT        PIC X(16)
                       VALUE 'R4008-FNDT'.
               10  DBLINK-R4011-SYSDAT      PIC X(16)
                       VALUE 'R4011-SYSDAT'.
               10  DBLINK-R4014-ACTT        PIC X(16)
                       VALUE 'R4014-ACTT'.
               10  DBLINK-R4016-BDGT-CTRL   PIC X(16)
                       VALUE 'R4016-BDGT-CTRL'.
               10  DBLINK-R4021-CTRL-ACCTS  PIC X(16)
                       VALUE 'R4021-CTRL-ACCTS'.
               10  DBLINK-R4025-PRFL-KEY    PIC X(16)
                       VALUE 'R4025-PRFL-KEY'.
               10  DBLINK-R4026-INDRT-COST  PIC X(16)
                       VALUE 'R4026-INDRT-COST'.
               10  DBLINK-R4030-COST-SHARE  PIC X(16)
                       VALUE 'R4030-COST-SHARE'.
               10  DBLINK-R4033-BANK        PIC X(16)
                       VALUE 'R4033-BANK'.
               10  DBLINK-R4035-PAY-MTHD    PIC X(16)
                       VALUE 'R4035-PAY-MTHD'.
               10  DBLINK-R4036-USER-RCRD   PIC X(16)
                       VALUE 'R4036-USER-RCRD'.
               10  DBLINK-R4038-USER-CODES  PIC X(16)
                       VALUE 'R4038-USER-CODES'.
               10  DBLINK-R4040-CLOSE-HDR   PIC X(16)
                       VALUE 'R4040-CLOSE-HDR'.
               10  DBLINK-R4045-ACTI        PIC X(16)
                       VALUE 'R4045-ACTI'.
               10  DBLINK-R4046-BANK-NAME   PIC X(16)
                       VALUE 'R4046-BANK-NAME'.
               10  DBLINK-R4050-ACTV        PIC X(16)
                       VALUE 'R4050-ACTV'.
               10  DBLINK-R4052-XTRN-ENTY   PIC X(16)
                       VALUE 'R4052-XTRN-ENTY'.
               10  DBLINK-R4053-INTR-ENTY   PIC X(16)
                       VALUE 'R4053-INTR-ENTY'.
               10  DBLINK-R4054-XTRN-CODE   PIC X(16)
                       VALUE 'R4054-XTRN-CODE'.
               10  DBLINK-R4056-AGNC        PIC X(16)
                       VALUE 'R4056-AGNC'.
               10  DBLINK-R4057-RQST-ID     PIC X(16)
                       VALUE 'R4057-RQST-ID'.
               10  DBLINK-R4060-RPT         PIC X(16)
                       VALUE 'R4060-RPT'.
               10  DBLINK-R4064-CS-EFCTV    PIC X(16)
                       VALUE 'R4064-CS-EFCTV'.
               10  DBLINK-R4065-IC-EFCTV    PIC X(16)
                       VALUE 'R4065-IC-EFCTV'.
               10  DBLINK-R4069-JRNL-HDR    PIC X(16)
                       VALUE 'R4069-JRNL-HDR'.
               10  DBLINK-R4070-RQST        PIC X(16)
                       VALUE 'R4070-RQST'.
               10  DBLINK-R4071-RQST-DTL    PIC X(16)
                       VALUE 'R4071-RQST-DTL'.
               10  DBLINK-R4072-BUYER       PIC X(16)
                       VALUE 'R4072-BUYER'.
               10  DBLINK-R4073-VENDOR      PIC X(16)
                       VALUE 'R4073-VENDOR'.
               10  DBLINK-R4074-CMDTY       PIC X(16)
                       VALUE 'R4074-CMDTY'.
               10  DBLINK-R4081-AGRMNT      PIC X(16)
                       VALUE 'R4081-AGRMNT'.
               10  DBLINK-R4083-PO-HDR      PIC X(16)
                       VALUE 'R4083-PO-HDR'.
               10  DBLINK-R4084-PO-CLASS    PIC X(16)
                       VALUE 'R4084-PO-CLASS'.
               10  DBLINK-R4085-PO-DTL      PIC X(16)
                       VALUE 'R4085-PO-DTL'.
               10  DBLINK-R4088-BID         PIC X(16)
                       VALUE 'R4088-BID'.
               10  DBLINK-R4089-BID-DTL     PIC X(16)
                       VALUE 'R4089-BID-DTL'.
               10  DBLINK-R4093-RCVNG-HDR   PIC X(16)
                       VALUE 'R4093-RCVNG-HDR'.
               10  DBLINK-R4096-PO-HDR-SEQ  PIC X(16)
                       VALUE 'R4096-PO-HDR-SEQ'.
               10  DBLINK-R4099-RETURNS     PIC X(16)
                       VALUE 'R4099-RETURNS'.
               10  DBLINK-R4104-VENDOR-CMD  PIC X(16)
                       VALUE 'R4104-VENDOR-CMD'.
               10  DBLINK-R4106-AUTO-JRNL   PIC X(16)
                       VALUE 'R4106-AUTO-JRNL'.
               10  DBLINK-R4120-TXT-HDR     PIC X(16)
                       VALUE 'R4120-TXT-HDR'.
               10  DBLINK-R4150-INV-HDR     PIC X(16)
                       VALUE 'R4150-INV-HDR'.
               10  DBLINK-R4151-INV-DTL     PIC X(16)
                       VALUE 'R4151-INV-DTL'.
               10  DBLINK-R4157-CHK-RQST-H  PIC X(16)
                       VALUE 'R4157-CHK-RQST-H'.
               10  DBLINK-R4158-CHK-HDR     PIC X(16)
                       VALUE 'R4158-CHK-HDR'.
               10  DBLINK-R4161-DSCNT-TBLE  PIC X(16)
                       VALUE 'R4161-DSCNT-TBLE'.
               10  DBLINK-R4163-RSBLE-INV   PIC X(16)
                       VALUE 'R4163-RSBLE-INV'.
               10  DBLINK-R4166-VNDR-TYPE   PIC X(16)
                       VALUE 'R4166-VNDR-TYPE'.
               10  DBLINK-R4168-TAX-RATES   PIC X(16)
                       VALUE 'R4168-TAX-RATES'.
               10  DBLINK-R4174-TOF-HDR     PIC X(16)
                       VALUE 'R4174-TOF-HDR'.
               10  DBLINK-R4180-RULE-CLASS  PIC X(16)
                       VALUE 'R4180-RULE-CLASS'.
               10  DBLINK-R4181-RULE-EFCTV  PIC X(16)
                       VALUE 'R4181-RULE-EFCTV'.
               10  DBLINK-R4183-ENCMBR-YRS  PIC X(16)
                       VALUE 'R4183-ENCMBR-YRS'.
               10  DBLINK-R4187-G-FOAPAL    PIC X(16)
                       VALUE 'R4187-G-FOAPAL'.
               10  DBLINK-R4188-TRAN-HIST   PIC X(16)
                       VALUE 'R4188-TRAN-HIST'.
               10  DBLINK-R4190-ENCMBR-DTL  PIC X(16)
                       VALUE 'R4190-ENCMBR-DTL'.
               10  DBLINK-R4191-ENCMBR-HDR  PIC X(16)
                       VALUE 'R4191-ENCMBR-HDR'.
               10  DBLINK-R4192-USER-PRFL   PIC X(16)
                       VALUE 'R4192-USER-PRFL'.
               10  DBLINK-R4197-GNRL-LDGR   PIC X(16)
                       VALUE 'R4197-GNRL-LDGR'.
               10  DBLINK-R4199-ACCT-LDGR   PIC X(16)
                       VALUE 'R4199-ACCT-LDGR'.
               10  DBLINK-R4203-DOCUMENT    PIC X(16)
                       VALUE 'R4203-DOCUMENT'.
               10  DBLINK-R4204-APRVL-J     PIC X(16)
                       VALUE 'R4204-APRVL-J'.
               10  DBLINK-R4205-APRVL-LVL   PIC X(16)
                       VALUE 'R4205-APRVL-LVL'.
               10  DBLINK-R4209-CLAUSE      PIC X(16)
                       VALUE 'R4209-CLAUSE'.
               10  DBLINK-R4212-APRVL-HDR   PIC X(16)
                       VALUE 'R4212-APRVL-HDR'.
               10  DBLINK-R4215-APRV-TMPLT  PIC X(16)
                       VALUE 'R4215-APRV-TMPLT'.
               10  DBLINK-R4224-DLVRY-HDR   PIC X(16)
                       VALUE 'R4224-DLVRY-HDR'.
               10  DBLINK-R4226-EXPR-VNDR   PIC X(16)
                       VALUE 'R4226-EXPR-VNDR'.
               10  DBLINK-R4228-FILE-CNTL   PIC X(16)
                       VALUE 'R4228-FILE-CNTL'.
               10  DBLINK-R4229-RLSE-HDR    PIC X(16)
                       VALUE 'R4229-RLSE-HDR'.
               10  DBLINK-R4230-RLSE-DTL    PIC X(16)
                       VALUE 'R4230-RLSE-DTL'.
               10  DBLINK-R4232-AP-TRANS    PIC X(16)
                       VALUE 'R4232-AP-TRANS'.
               10  DBLINK-R4300-AST         PIC X(16)
                       VALUE 'R4300-AST'.
               10  DBLINK-R4400-TRVL        PIC X(16)
                       VALUE 'R4400-TRVL'.
               10  DBLINK-R4401-EVENT       PIC X(16)
                       VALUE 'R4401-EVENT'.
               10  DBLINK-R4402-TRIP        PIC X(16)
                       VALUE 'R4402-TRIP'.
               10  DBLINK-R4405-EXPNS       PIC X(16)
                       VALUE 'R4405-EXPNS'.
               10  DBLINK-R4406-RECON       PIC X(16)
                       VALUE 'R4406-RECON'.
               10  DBLINK-R4410-TRVL-INV    PIC X(16)
                       VALUE 'R4410-TRVL-INV'.
               10  DBLINK-R6000-SYS         PIC X(16)
                       VALUE 'R6000-SYS'.
               10  DBLINK-R6001-UNVRS       PIC X(16)
                       VALUE 'R6001-UNVRS'.
               10  DBLINK-R6117-PRSN        PIC X(16)
                       VALUE 'R6117-PRSN'.
               10  DBLINK-R6151-STATE       PIC X(16)
                       VALUE 'R6151-STATE'.
               10  DBLINK-R6152-ZIP         PIC X(16)
                       VALUE 'R6152-ZIP'.
               10  DBLINK-R6153-COUNTRY     PIC X(16)
                       VALUE 'R6153-COUNTRY'.
               10  DBLINK-R6200-ACH-DATA    PIC X(16)
                       VALUE 'R6200-ACH-DATA'.
               10  DBLINK-R6257             PIC X(16)
                       VALUE 'R6257'.
               10  DBLINK-R6258             PIC X(16)
                       VALUE 'R6258'.
               10  DBLINK-R6259             PIC X(16)
                       VALUE 'R6259'.
               10  DBLINK-R6260             PIC X(16)
                       VALUE 'R6260'.
               10  DBLINK-R6268             PIC X(16)
                       VALUE 'R6268'.
               10  DBLINK-R6270             PIC X(16)
                       VALUE 'R6270'.
               10  DBLINK-R6273             PIC X(16)
                       VALUE 'R6273'.
               10  DBLINK-R6311-ENTY        PIC X(16)
                       VALUE 'R6311-ENTY'.
               10  DBLINK-R6313-PRSN-CHG    PIC X(16)
                       VALUE 'R6313-PRSN-CHG'.
               10  DBLINK-R6353-ENTY-CHG    PIC X(16)
                       VALUE 'R6353-ENTY-CHG'.
               10  DBLINK-R6600-TABL-HDR    PIC X(16)
                       VALUE 'R6600-TABL-HDR'.
               10  DBLINK-R6605             PIC X(16)
                       VALUE 'R6605'.
               10  DBLINK-R6606             PIC X(16)
                       VALUE 'R6606'.
               10  DBLINK-R8001             PIC X(16)
                       VALUE 'R8001'.
               10  DBLINK-R8002             PIC X(16)
                       VALUE 'R8002'.
               10  DBLINK-R8003             PIC X(16)
                       VALUE 'R8003'.
               10  DBLINK-R8005             PIC X(16)
                       VALUE 'R8005'.
               10  DBLINK-R8007             PIC X(16)
                       VALUE 'R8007'.
               10  DBLINK-R8008             PIC X(16)
                       VALUE 'R8008'.
               10  DBLINK-R8009             PIC X(16)
                       VALUE 'R8009'.
               10  DBLINK-R8010             PIC X(16)
                       VALUE 'R8010'.
               10  DBLINK-R8013             PIC X(16)
                       VALUE 'R8013'.
               10  DBLINK-R8020             PIC X(16)
                       VALUE 'R8020'.
               10  DBLINK-R8030             PIC X(16)
                       VALUE 'R8030'.
               10  DBLINK-R8040             PIC X(16)
                       VALUE 'R8040'.
               10  DBLINK-R8044             PIC X(16)
                       VALUE 'R8044'.
               10  DBLINK-R8050             PIC X(16)
                       VALUE 'R8050'.
               10  DBLINK-R8051             PIC X(16)
                       VALUE 'R8051'.
               10  DBLINK-R8052             PIC X(16)
                       VALUE 'R8052'.
           05  DBLINK-SET-NAMES.
               10  FILLER                   PIC X(1)        VALUE SPACE.
           05  DBLINK-AREA-NAMES.
               10  FILLER                   PIC X(1)        VALUE SPACE.
           05  DBLINK-RECORD-LOCK-FLAGS.
               10  FILLER                   PIC X(1)        VALUE SPACE.
           05  DBLINK-CURSOR-NAMES.
               10  FILLER                   PIC X(1)        VALUE SPACE.
FCAMH      05  DBLINK-USER-CD               PIC X(8)        VALUE SPACE.
      /
      *%-------------------------------------------------------------- *
      *%                                                               *
      *%                  CONTROL AREAS AND VIEWS                      *
      *%                                                               *
      *%-------------------------------------------------------------- *

      *%****************************** *
      *%CONVERT/DB COMMAREA
      *%****************************** *
           EXEC SQL
               INCLUDE SQLCA
           END-EXEC.

      *%****************************** *
      *%PFK_PRFL_KEY_V AREAS(HOST VAR INCLUDE)
      *%****************************** *
      *%   EXEC SQL
      *%       INCLUDE CBHV4025
CPYNME     EXEC SQL
CPYNME         INCLUDE HVPFK
CPYNME     END-EXEC.
      *%   END-EXEC.
FCAMH      EXEC SQL
FCAMH          INCLUDE ACMSGHT
FCAMH      END-EXEC.
FCAMH      EXEC SQL
FCAMH          INCLUDE HVMSL
FCAMH      END-EXEC.
       LINKAGE SECTION.
       01  DFHCOMMAREA.
           10  DFHCOMMAREAZ PIC X(950).



       PROCEDURE DIVISION.
      /
      *%-------------------------------------------------------------- *
      *%                                                               *
      *%              000-SQL-INITIALIZATION ROUTINE                   *
      *%                                                               *
      *%-------------------------------------------------------------- *
       000-SQL-INITIALIZATION.
           MOVE '000-SQL-INITIALIZATION' TO DBLINK-CURR-PARAGRAPH.
           MOVE EIBTIME TO DBLINK-TIME-N.
           PERFORM 998-SET-RUN-DATE
              THRU 998-SET-RUN-DATE-EXIT.
           MOVE DBLINKX-NULL-DB2-DATE-ISO TO DBLINK-DEFAULT-DATE.
           MOVE '0001-01-01' TO DBLINK-LOW-DATE.
           MOVE '9999-12-31' TO DBLINK-HIGH-DATE.
           MOVE DBLINKX-NULL-DB2-TIME-ISO TO DBLINK-DEFAULT-TIME.
           MOVE '00.00.01' TO DBLINK-LOW-TIME.
           MOVE '23.59.59' TO DBLINK-HIGH-TIME.
       000-SQL-INITIALIZATION-EXIT.
           EXIT.







      *%---------------------------------------------------------------*
      *%                                                               *
      *%                 000-RUN-CONTROL ROUTINE                       *
      *%                                                               *
      *%---------------------------------------------------------------*
       000-RUN-CONTROL.

           PERFORM 010-INITIALIZE
              THRU 010-INITIALIZE-EXIT.
           PERFORM 020-MAINLINE
              THRU 020-MAINLINE-EXIT.
           PERFORM 030-WRAPUP
              THRU 030-WRAPUP-EXIT.
       000-RUN-CONTROL-EXIT.
           EXIT.

      *%---------------------------------------------------------------*
      *%                                                               *
      *%                 010-INITIALIZE ROUTINE                        *
      *%                                                               *
      *%---------------------------------------------------------------*
       010-INITIALIZE.

      *%****************************************************************
      *%       INITIALIZE ALL TEMPORARY STORAGE QUEUE NAMES            *
      *%****************************************************************
           MOVE EIBTRMID TO AC99W-CONTEXT-QUEUE-L-1-4.
           MOVE EIBTRMID TO AC99W-CONTEXT-QUEUE-G-1-4.
           MOVE EIBTRMID TO AC99W-DEFAULT-QUEUE-1-4.

      *%****************************************************************
      *%       INITIALIZE ALL PROGRAM RECORDS                          *
      *%****************************************************************
           PERFORM 501-INIT-GLOBAL-RECORDS
              THRU 501-INIT-GLOBAL-RECORDS-EXIT
           PERFORM 502-INIT-LOCAL-RECORDS
              THRU 502-INIT-LOCAL-RECORDS-EXIT.
           PERFORM 503-INIT-FIMSNTWN
              THRU 503-INIT-FIMSNTWN-EXIT.

      *%****************************************************************
      *%       PERFORM ALL OTHER DEFAULT INITIALIZATION                *
      *%****************************************************************
      *COPY AC1TMLES.
CPYNME     EXEC SQL
CPYNME         INCLUDE AC1TMLES
CPYNME     END-EXEC.


       010-INITIALIZE-EXIT.
           EXIT.


      *%---------------------------------------------------------------*
      *%                                                               *
      *%                   020-MAINLINE ROUTINE                        *
      *%                                                               *
      *%---------------------------------------------------------------*
       020-MAINLINE.
           MOVE AC99W-SECOND-TIME TO ACCOMM-RECALL-CODE.
           PERFORM 120-PREMAP
               THRU 120-PREMAP-EXIT.
           MOVE SPACES TO AC99W-TRANSID.
           PERFORM 326-SAVE-CONTEXT-G
              THRU 326-SAVE-CONTEXT-G-EXIT.
           PERFORM 322-SAVE-CONTEXT-L
              THRU 322-SAVE-CONTEXT-L-EXIT.
       020-MAINLINE-EXIT.
           EXIT.

      *%---------------------------------------------------------------*
      *%                                                               *
      *%                   030-WRAPUP ROUTINE                          *
      *%                                                               *
      *%---------------------------------------------------------------*
       030-WRAPUP.
      *%****************************************************************
      *%       RETURN TO CICS - WAIT FOR NEXT USER RESPONSE            *
      *%****************************************************************
           EXEC CICS
                RETURN
           END-EXEC.

       030-WRAPUP-EXIT.
           EXIT.


       EJECT
      *%---------------------------------------------------------------*
      *%                                                               *
      *%                   120-PREMAP ROUTINE                          *
      *%                                                               *
      *%---------------------------------------------------------------*
       120-PREMAP.

      ******************************************************************
      **********************  BEGINNING OF MODULE  *********************
      ******************************************************************
      *******  PERFORM INCLUDE SUBROUTINE ZZYID01                      *
      **************************************************************
               PERFORM 200-ZZYID01
                  THRU 200-ZZYID01-EXIT.
      *** COPYRIGHT STATEMENT
      ******************************************************************
      ***  MODULE      : FGAPI99
      ***  DESCRIPTION : GENERAL ACCOUNTING PROFILE ELEMENT BUILDER/REST
      *ORER
      ***  WRITTEN BY  : HAL WOOD
      ***  DATE WRITTEN: 11/88
      ***  COMMENTS    : THIS IS A 'LINKED TO' DIALOG.
      ******************************************************************
      ***                          CHANGE HISTORY
      ***
      *** REF  AUTH    DATE               DESCRIPTION
      *** ---  ----  --------  --------------------------------------  -
      *** 001  DDK   09/22/90  DELETE QUEUE USE DATABASE RECORD R4025  G
      *** 002  DDK   02/15/91  ADD NEW ELE DCMNT-TYPE-4191             0
      *** 003  HAC   04/20/93  ADD NEW ELE DCMNT-NMBR-4174             0
      ******************************************************************
      ******************************************************************
      ***                          M A I N L I N E
      ******************************************************************
           IF AGR-PASSED-FOUR = 'FSYDM01'
               PERFORM 200-BUILDREC-S01
                  THRU 200-BUILDREC-S01-EXIT
               IF AC99W-FLAG-DISPLAY = AC99W-YES-DISPLAY
                  GO TO 120-PREMAP-EXIT
               END-IF
           ELSE
               IF AGR-PASSED-FOUR = 'FSYDU05'
                   PERFORM 200-RESTOREC-S01
                      THRU 200-RESTOREC-S01-EXIT
                   IF AC99W-FLAG-DISPLAY = AC99W-YES-DISPLAY
                      GO TO 120-PREMAP-EXIT
                   END-IF
               END-IF
           END-IF.
      *

      *************************************
      ** RETURN TO AC99W-HIGHER
      *************************************
           MOVE AC99W-NO TO ACCOMM-FLAG-CLEAR.
           MOVE AC99W-NO TO ACCOMM-FLAG-CONTINUE.
           MOVE AC99W-HIGHER TO AC99W-NEXT-PROGRAM.
           PERFORM 395-RETURN
              THRU 395-RETURN-EXIT.
      *** RETURN TO CALLING DIALOG
      *
      ******************************************************************
      ******************************************************************

       120-PREMAP-EXIT.
           EXIT.


       EJECT
      *%---------------------------------------------------------------*
      *%                                                               *
      *%                   200-BUILDREC-S01 ROUTINE                    *
      *%                                                               *
      *%---------------------------------------------------------------*
       200-BUILDREC-S01.

      ******************************************************************
      ***  BUILD THE PROFILE RECORD WHEN ENTERING GA
      ******************************************************************
           MOVE UNVRS-CODE-4025 TO UNVRS-CODE-6001-GA00.
           MOVE COA-CODE-4000-4025 TO COA-CODE-4000-GA00.
           MOVE FUND-CODE-4001-4025 TO FUND-CODE-4001-GA00.
           MOVE ORGZN-CODE-4002-4025 TO ORGZN-CODE-4002-GA00.
           MOVE ACCT-CODE-4003-4025 TO ACCT-CODE-4003-GA00.
           MOVE PRGRM-CODE-4004-4025 TO PRGRM-CODE-4004-GA00.
           MOVE LCTN-CODE-4006-4025 TO LCTN-CODE-4006-GA00.
           MOVE FUND-TYPE-CODE-4008-4025 TO FUND-TYPE-CODE-4008-GA00.
           MOVE ACCT-TYPE-CODE-4014-4025 TO ACCT-TYPE-CODE-4014-GA00.
           MOVE MGR-PID-4019-4025 TO MGR-PID-4019-GA00.
           MOVE CNTRL-ACCT-TYPE-4021-4025 TO CNTRL-ACCT-TYPE-4021-GA00.
           MOVE FSCL-YR-4024-4025 TO FSCL-YR-4024-GA00.
           MOVE INDRT-COST-CODE-4026-4025 TO INDRT-COST-CODE-4026-GA00.
           MOVE COST-SHARE-CODE-4030-4025 TO COST-SHARE-CODE-4030-GA00.
           MOVE BANK-ACCT-CODE-4033-4025 TO BANK-ACCT-CODE-4033-GA00.
           MOVE PAY-MTHD-CODE-4035-4025 TO PAY-MTHD-CODE-4035-GA00.
           MOVE ACCT-INDX-CODE-4045-4025 TO ACCT-INDX-CODE-4045-GA00.
           MOVE BANK-PID-4046-4025 TO BANK-PID-4046-GA00.
           MOVE ACTVY-CODE-4050-4025 TO ACTVY-CODE-4050-GA00.
           MOVE XTRNL-ENTY-CODE-4052-4025 TO XTRNL-ENTY-CODE-4052-GA00.
           MOVE INTRL-ENTY-CODE-4053-4025 TO INTRL-ENTY-CODE-4053-GA00.
           MOVE AGNCY-PID-4056-4025 TO AGNCY-PID-4056-GA00.
           MOVE RPRT-RQST-ID-4057-4025 TO RPRT-RQST-ID-4057-GA00.
           MOVE RPRT-CODE-4060-4025 TO RPRT-CODE-4060-GA00.
           MOVE RULE-CLASS-CODE-4180-4025 TO RULE-CLASS-CODE-4180-GA00.
           MOVE USER-ID-4192-4025 TO USER-ID-4192-GA00.
           MOVE RCRD-NMBR-4036-4025 TO RCRD-NMBR-4036-GA00.
           MOVE ELMNT-VALUE-4036-4025 TO ELMNT-VALUE-4036-GA00.
           MOVE DATA-CODE-4038-4025 TO DATA-CODE-4038-GA00.
           MOVE FIMS-ENTY-CODE-4011-4025 TO FIMS-ENTY-CODE-4011-GA00.
           MOVE ELMNT-NAME-4011-4025 TO ELMNT-NAME-4011-GA00.
           MOVE ENCMBRNC-NMBR-4191-4025 TO ENCMBRNC-NMBR-4191-GA00.
           MOVE AUTO-JRNL-ID-4106-4025 TO AUTO-JRNL-ID-4106-GA00.
           MOVE ACTG-PRD-4068-4025 TO ACTG-PRD-4068-GA00.
           MOVE DCMNT-NMBR-4069-4025 TO DCMNT-NMBR-4069-GA00.
           MOVE DCMNT-NMBR-4174-4025 TO DCMNT-NMBR-4174-GA00.
           MOVE ADR-TYPE-CODE-2185-4025 TO ADR-TYPE-CODE-6185-GA00.
           MOVE INTRL-CODE-4055-4025 TO INTRL-CODE-4055-GA00.
           MOVE XTRNL-CODE-4054-4025 TO XTRNL-CODE-4054-GA00.
           MOVE PRNTR-DEST-CODE-4167-4025 TO PRNTR-DEST-CODE-4167-GA00.
           MOVE DCMNT-TYPE-4191-4025 TO DCMNT-TYPE-4191-GA00.

      **********************************
      * LINK TO 'FGADU15'
      **********************************
UCSDX***   MOVE 'FGADU15' TO AC99W-NEXT-PROGRAM.
UCSDX***   MOVE 'Y' TO AC99W-FLAG-COMMIT.
UCSDX***   MOVE +0 TO ACCOMM-LINK-RETURN-ID.
UCSDX***   PERFORM 334-LINK-DIALOG
UCSDX***      THRU 334-LINK-DIALOG-EXIT.
UCSDX      MOVE  20  TO YEAR-DATE-SY00.
      *** VALIDATE KEYS IN PROFILE
           MOVE SPACES TO AGR-PASSED-FOUR.

DEVDMW     EXEC SQL
                SELECT
                  SHORT_DESC
                INTO
                  :PAR-SHORT-DESC
                FROM PAR_PARM_V
                WHERE
                    APLCN_PARM_CD = 'CENTYEAR'
           END-EXEC.
           IF SQLCODE = +100
               MOVE '20'      TO YEAR-DATE-SY00
           ELSE
               MOVE PAR-SHORT-DESC (1:2) TO YEAR-DATE-SY00
DEVDMW     END-IF.
      *
      ******************************************************************

       200-BUILDREC-S01-EXIT.
           EXIT.


       EJECT
      *%---------------------------------------------------------------*
      *%                                                               *
      *%                   200-RESTOREC-S01 ROUTINE                    *
      *%                                                               *
      *%---------------------------------------------------------------*
       200-RESTOREC-S01.

      ******************************************************************
      ***  UPDATE THE QUEUE RECORD WHEN EXITING GA
      ******************************************************************
           MOVE UNVRS-CODE-6001-GA00 TO UNVRS-CODE-4025.
           MOVE COA-CODE-4000-GA00 TO COA-CODE-4000-4025.
           MOVE FUND-CODE-4001-GA00 TO FUND-CODE-4001-4025.
           MOVE ORGZN-CODE-4002-GA00 TO ORGZN-CODE-4002-4025.
           MOVE ACCT-CODE-4003-GA00 TO ACCT-CODE-4003-4025.
           MOVE PRGRM-CODE-4004-GA00 TO PRGRM-CODE-4004-4025.
           MOVE LCTN-CODE-4006-GA00 TO LCTN-CODE-4006-4025.
           MOVE FUND-TYPE-CODE-4008-GA00 TO FUND-TYPE-CODE-4008-4025.
           MOVE ACCT-TYPE-CODE-4014-GA00 TO ACCT-TYPE-CODE-4014-4025.
           MOVE MGR-PID-4019-GA00 TO MGR-PID-4019-4025.
           MOVE CNTRL-ACCT-TYPE-4021-GA00 TO CNTRL-ACCT-TYPE-4021-4025.
           MOVE FSCL-YR-4024-GA00 TO FSCL-YR-4024-4025.
           MOVE INDRT-COST-CODE-4026-GA00 TO INDRT-COST-CODE-4026-4025.
           MOVE COST-SHARE-CODE-4030-GA00 TO COST-SHARE-CODE-4030-4025.
           MOVE BANK-ACCT-CODE-4033-GA00 TO BANK-ACCT-CODE-4033-4025.
           MOVE PAY-MTHD-CODE-4035-GA00 TO PAY-MTHD-CODE-4035-4025.
           MOVE ACCT-INDX-CODE-4045-GA00 TO ACCT-INDX-CODE-4045-4025.
           MOVE BANK-PID-4046-GA00 TO BANK-PID-4046-4025.
           MOVE ACTVY-CODE-4050-GA00 TO ACTVY-CODE-4050-4025.
           MOVE XTRNL-ENTY-CODE-4052-GA00 TO XTRNL-ENTY-CODE-4052-4025.
           MOVE INTRL-ENTY-CODE-4053-GA00 TO INTRL-ENTY-CODE-4053-4025.
           MOVE AGNCY-PID-4056-GA00 TO AGNCY-PID-4056-4025.
           MOVE RPRT-RQST-ID-4057-GA00 TO RPRT-RQST-ID-4057-4025.
           MOVE RPRT-CODE-4060-GA00 TO RPRT-CODE-4060-4025.
           MOVE RULE-CLASS-CODE-4180-GA00 TO RULE-CLASS-CODE-4180-4025.
           MOVE USER-ID-4192-GA00 TO USER-ID-4192-4025.
           MOVE RCRD-NMBR-4036-GA00 TO AC99W-ALPHA05-2-X.
           MOVE AC99W-ALPHA05 TO RCRD-NMBR-4036-4025.
           MOVE ELMNT-VALUE-4036-GA00 TO ELMNT-VALUE-4036-4025.
           MOVE DATA-CODE-4038-GA00 TO DATA-CODE-4038-4025.
           MOVE FIMS-ENTY-CODE-4011-GA00 TO FIMS-ENTY-CODE-4011-4025.
           MOVE ELMNT-NAME-4011-GA00 TO ELMNT-NAME-4011-4025.
           MOVE ENCMBRNC-NMBR-4191-GA00 TO ENCMBRNC-NMBR-4191-4025.
           MOVE AUTO-JRNL-ID-4106-GA00 TO AUTO-JRNL-ID-4106-4025.
           MOVE ACTG-PRD-4068-GA00 TO ACTG-PRD-4068-4025.
           MOVE DCMNT-NMBR-4069-GA00 TO DCMNT-NMBR-4069-4025.
           MOVE DCMNT-NMBR-4174-GA00 TO DCMNT-NMBR-4174-4025.
           MOVE ADR-TYPE-CODE-6185-GA00 TO ADR-TYPE-CODE-2185-4025.
           MOVE INTRL-CODE-4055-GA00 TO INTRL-CODE-4055-4025.
           MOVE XTRNL-CODE-4054-GA00 TO XTRNL-CODE-4054-4025.
           MOVE PRNTR-DEST-CODE-4167-GA00 TO PRNTR-DEST-CODE-4167-4025.
           MOVE DCMNT-TYPE-4191-GA00 TO DCMNT-TYPE-4191-4025.
      ******************************************************************
      **************************  END OF MODULE  ***********************
      ******************************************************************

       200-RESTOREC-S01-EXIT.
           EXIT.


       EJECT
           EXEC SQL
               INCLUDE ZZYID01
           END-EXEC.


      *%---------------------------------------------------------------*
      *%                                                               *
      *%                   302-RESTORE-CONTEXT-L ROUTINE               *
      *%                                                               *
      *%---------------------------------------------------------------*
       302-RESTORE-CONTEXT-L.

      *%****************************************************************
      *%       LOOP THRU ALL ITEMS IN TEMP STORAGE FOR LOCAL RECORDS   *
      *%****************************************************************
           MOVE ZEROS TO AC99W-ITEM-NO.
           MOVE AC99W-YES TO AC99W-IND1.
           PERFORM WITH TEST BEFORE
             UNTIL NOT (AC99W-IND1 = AC99W-YES)
               ADD +1 TO AC99W-ITEM-NO
               MOVE AC99W-RECORD-LENGTH-MAX TO AC99W-RECORD-LENGTH

               EXEC CICS
                    READQ TS
                    QUEUE(AC99W-CONTEXT-QUEUE-L)
                    INTO(AC99W-CONTEXT-AREA)
                    ITEM(AC99W-ITEM-NO)
                    RESP(DCLINK-CICS-RESP)
                    LENGTH(AC99W-RECORD-LENGTH)
               END-EXEC

               IF DCLINK-CICS-RESP = DFHRESP(ITEMERR)
                OR DCLINK-CICS-RESP = DFHRESP(QIDERR)
                   GO TO 302-RESTORE-CONTEXT-L-EXIT
               END-IF
               PERFORM 895-TEST-CICS-RESPONSE
                  THRU 895-TEST-CICS-RESPONSE-EXIT
      *%****************************************************************
      *%       RESTORE DATA INTO THE LOCAL RECORDS                     *
      *%****************************************************************
               PERFORM 304-RESTORE-CONTEXT-L
                  THRU 304-RESTORE-CONTEXT-L-EXIT
           END-PERFORM.

       302-RESTORE-CONTEXT-L-EXIT.
           EXIT.

      *%---------------------------------------------------------------*
      *%                                                               *
      *%                   304-RESTORE-CONTEXT-L ROUTINE               *
      *%                                                               *
      *%---------------------------------------------------------------*
       304-RESTORE-CONTEXT-L.
      *%****************************************************************
      *%   DETERMINE WHICH CONTEXT RECORDS HAVE BEEN READ AND          *
      *%     WHETHER THEY SHOULD BE RESTORED                           *
      *%****************************************************************

           IF AC99W-CONTEXT-AREA-N = 'SUBSCHEMA-CONTROL'
              AND AC99W-FLAG-RESTORE-GBL = AC99W-NO
              MOVE AC99W-CONTEXT-AREA-R TO SUBSCHEMA-CONTROL
              GO TO 304-RESTORE-CONTEXT-L-EXIT
           END-IF.

           IF AC99W-CONTEXT-AREA-N = 'FSEWG00D'
            AND (AC99W-FLAG-RESTORE-GBL = AC99W-NO
             OR AC99W-FSEWG00D-F = AC99W-YES)
               MOVE AC99W-CONTEXT-AREA-R TO FSEWG00D
               MOVE AC99W-YES TO AC99W-FSEWG00D-F
               GO TO 304-RESTORE-CONTEXT-L-EXIT
           END-IF.

           IF AC99W-CONTEXT-AREA-N = 'R4025-PRFL-KEY'
            AND (AC99W-FLAG-RESTORE-GBL = AC99W-NO
             OR AC99W-R4025-PRFL-KEY-F = AC99W-YES)
               MOVE AC99W-CONTEXT-AREA-R TO R4025-PRFL-KEY
               MOVE AC99W-YES TO AC99W-R4025-PRFL-KEY-F
               GO TO 304-RESTORE-CONTEXT-L-EXIT
           END-IF.
       304-RESTORE-CONTEXT-L-EXIT.
           EXIT.

      *%---------------------------------------------------------------*
      *%                                                               *
      *%                   306-RESTORE-CONTEXT-G ROUTINE               *
      *%                                                               *
      *%---------------------------------------------------------------*
       306-RESTORE-CONTEXT-G.

      *%****************************************************************
      *%       RESTORE DATA FROM GLOBAL TEMP STORAGE QUEUE             *
      *%****************************************************************
           MOVE 'G001' TO AC99W-CONTEXT-QUEUE-G-5-8.
           MOVE AC99W-RECORD-LENGTH-MAX TO AC99W-RECORD-LENGTH.

           EXEC CICS
                READQ TS
                QUEUE(AC99W-CONTEXT-QUEUE-G)
                INTO(AC99W-CONTEXT-AREA)
                LENGTH(AC99W-RECORD-LENGTH)
                RESP(DCLINK-CICS-RESP)
           END-EXEC.

           IF DCLINK-CICS-RESP = DFHRESP(NORMAL)
               MOVE AC99W-CONTEXT-AREA
                   TO ADSO-APPLICATION-GLOBAL-RECORD

               EXEC CICS
                    DELETEQ TS
                    QUEUE(AC99W-CONTEXT-QUEUE-G)
                    RESP(DCLINK-CICS-RESP)
               END-EXEC

           END-IF.

           IF DCLINK-CICS-RESP NOT = DFHRESP(NORMAL) AND
              DCLINK-CICS-RESP NOT = DFHRESP(QIDERR)
               PERFORM 895-TEST-CICS-RESPONSE
                  THRU 895-TEST-CICS-RESPONSE-EXIT
           END-IF.
           MOVE 'G005' TO AC99W-CONTEXT-QUEUE-G-5-8.
           MOVE AC99W-RECORD-LENGTH-MAX TO AC99W-RECORD-LENGTH.

           EXEC CICS
                READQ TS
                QUEUE(AC99W-CONTEXT-QUEUE-G)
                INTO(AC99W-CONTEXT-AREA)
                LENGTH(AC99W-RECORD-LENGTH)
                RESP(DCLINK-CICS-RESP)
           END-EXEC.

           IF DCLINK-CICS-RESP = DFHRESP(NORMAL)
               MOVE AC99W-CONTEXT-AREA
                   TO FGAWG00D

               EXEC CICS
                    DELETEQ TS
                    QUEUE(AC99W-CONTEXT-QUEUE-G)
                    RESP(DCLINK-CICS-RESP)
               END-EXEC

           END-IF.

           IF DCLINK-CICS-RESP NOT = DFHRESP(NORMAL) AND
              DCLINK-CICS-RESP NOT = DFHRESP(QIDERR)
               PERFORM 895-TEST-CICS-RESPONSE
                  THRU 895-TEST-CICS-RESPONSE-EXIT
           END-IF.
           MOVE 'G010' TO AC99W-CONTEXT-QUEUE-G-5-8.
           MOVE AC99W-RECORD-LENGTH-MAX TO AC99W-RECORD-LENGTH.

           EXEC CICS
                READQ TS
                QUEUE(AC99W-CONTEXT-QUEUE-G)
                INTO(AC99W-CONTEXT-AREA)
                LENGTH(AC99W-RECORD-LENGTH)
                RESP(DCLINK-CICS-RESP)
           END-EXEC.

           IF DCLINK-CICS-RESP = DFHRESP(NORMAL)
               MOVE AC99W-CONTEXT-AREA
                   TO FISWG00M

               EXEC CICS
                    DELETEQ TS
                    QUEUE(AC99W-CONTEXT-QUEUE-G)
                    RESP(DCLINK-CICS-RESP)
               END-EXEC

           END-IF.

           IF DCLINK-CICS-RESP NOT = DFHRESP(NORMAL) AND
              DCLINK-CICS-RESP NOT = DFHRESP(QIDERR)
               PERFORM 895-TEST-CICS-RESPONSE
                  THRU 895-TEST-CICS-RESPONSE-EXIT
           END-IF.
       306-RESTORE-CONTEXT-G-EXIT.
           EXIT.

      *%---------------------------------------------------------------*
      *%                                                               *
      *%                   312-DELETE-CONTEXT-L ROUTINE                *
      *%                                                               *
      *%---------------------------------------------------------------*
       312-DELETE-CONTEXT-L.

      *%****************************************************************
      *%       ERASE ALL LOCAL TEMP STORAGE                            *
      *%****************************************************************
           EXEC CICS
                DELETEQ TS
                RESP(DCLINK-CICS-RESP)
                QUEUE(AC99W-CONTEXT-QUEUE-L)
           END-EXEC.

           IF DCLINK-CICS-RESP NOT = DFHRESP(QIDERR)
            AND DCLINK-CICS-RESP NOT = DFHRESP(NORMAL)
               PERFORM 895-TEST-CICS-RESPONSE
                  THRU 895-TEST-CICS-RESPONSE-EXIT
           END-IF.

       312-DELETE-CONTEXT-L-EXIT.
           EXIT.


      *%---------------------------------------------------------------*
      *%                                                               *
      *%                   314-SAVE-CURRENCY ROUTINE                   *
      *%                                                               *
      *%---------------------------------------------------------------*
       314-SAVE-CURRENCY SECTION.

       314-SAVE-CURRENCY-010.

           MOVE 'SUBSCHEMA-CONTROL' TO AC99W-CONTEXT-AREA-N.
           MOVE LENGTH OF SUBSCHEMA-CONTROL TO AC99W-RECORD-LENGTH.
           MOVE SUBSCHEMA-CONTROL TO AC99W-CONTEXT-AREA-R.
           ADD +40 TO AC99W-RECORD-LENGTH.

           EXEC CICS
                WRITEQ TS
                QUEUE(AC99W-CONTEXT-QUEUE-L)
                FROM(AC99W-CONTEXT-AREA)
                LENGTH(AC99W-RECORD-LENGTH)
                RESP(DCLINK-CICS-RESP)
           END-EXEC.

           PERFORM 895-TEST-CICS-RESPONSE
              THRU 895-TEST-CICS-RESPONSE-EXIT.
       314-SAVE-CURRENCY-EXIT.
           EXIT.

      *%---------------------------------------------------------------*
      *%                                                               *
      *%                   316-DELETE-CONTEXT-G ROUTINE                *
      *%                                                               *
      *%---------------------------------------------------------------*
       316-DELETE-CONTEXT-G SECTION.

           MOVE 'G001' TO AC99W-CONTEXT-QUEUE-G-5-8.

           EXEC CICS
                DELETEQ TS
                RESP(DCLINK-CICS-RESP)
                QUEUE(AC99W-CONTEXT-QUEUE-G)
           END-EXEC.

           IF DCLINK-CICS-RESP NOT = DFHRESP(QIDERR)
            AND DCLINK-CICS-RESP NOT = DFHRESP(NORMAL)
               PERFORM 895-TEST-CICS-RESPONSE
                  THRU 895-TEST-CICS-RESPONSE-EXIT
           END-IF.

       316-DELETE-CONTEXT-G-EXIT.
           EXIT.

      *%---------------------------------------------------------------*
      *%                                                               *
      *%                   322-SAVE-CONTEXT-L ROUTINE                  *
      *%                                                               *
      *%---------------------------------------------------------------*
       322-SAVE-CONTEXT-L.

      *%****************************************************************
      *%       WRITE CURRENCIES TO A TEMP STORAGE AREA                 *
      *%****************************************************************
           IF AC99W-NOSAVE-OPTION = AC99W-YES
              MOVE AC99W-NO TO AC99W-NOSAVE-OPTION
           ELSE
              PERFORM 314-SAVE-CURRENCY
                 THRU 314-SAVE-CURRENCY-EXIT
           END-IF.
      *%****************************************************************
      *%       WRITE LOCAL RECORDS TO A TEMP STORAGE AREA              *
      *%****************************************************************


           MOVE 'FSEWG00D' TO AC99W-CONTEXT-AREA-N.
           MOVE LENGTH OF FSEWG00D TO AC99W-RECORD-LENGTH.
           MOVE FSEWG00D TO AC99W-CONTEXT-AREA-R.
           ADD +40 TO AC99W-RECORD-LENGTH.

           EXEC CICS
                WRITEQ TS
                QUEUE(AC99W-CONTEXT-QUEUE-L)
                FROM(AC99W-CONTEXT-AREA)
                LENGTH(AC99W-RECORD-LENGTH)
                RESP(DCLINK-CICS-RESP)
           END-EXEC.

           PERFORM 895-TEST-CICS-RESPONSE
              THRU 895-TEST-CICS-RESPONSE-EXIT.

           MOVE 'R4025-PRFL-KEY' TO AC99W-CONTEXT-AREA-N.
           MOVE LENGTH OF R4025-PRFL-KEY TO AC99W-RECORD-LENGTH.
           MOVE R4025-PRFL-KEY TO AC99W-CONTEXT-AREA-R.
           ADD +40 TO AC99W-RECORD-LENGTH.

           EXEC CICS
                WRITEQ TS
                QUEUE(AC99W-CONTEXT-QUEUE-L)
                FROM(AC99W-CONTEXT-AREA)
                LENGTH(AC99W-RECORD-LENGTH)
                RESP(DCLINK-CICS-RESP)
           END-EXEC.

           PERFORM 895-TEST-CICS-RESPONSE
              THRU 895-TEST-CICS-RESPONSE-EXIT.

       322-SAVE-CONTEXT-L-EXIT.
           EXIT.


      *%---------------------------------------------------------------*
      *%                                                               *
      *%                   326-SAVE-CONTEXT-G ROUTINE                  *
      *%                                                               *
      *%---------------------------------------------------------------*
       326-SAVE-CONTEXT-G.

      *%****************************************************************
      *%       WRITE GLOBAL RECORD TO A TEMP STORAGE AREA              *
      *%****************************************************************
           MOVE LENGTH OF ADSO-APPLICATION-GLOBAL-RECORD TO
                AC99W-RECORD-LENGTH.
           MOVE 'G001' TO AC99W-CONTEXT-QUEUE-G-5-8.

           EXEC CICS
                WRITEQ TS
                QUEUE(AC99W-CONTEXT-QUEUE-G)
                FROM(ADSO-APPLICATION-GLOBAL-RECORD)
                LENGTH(AC99W-RECORD-LENGTH)
                RESP(DCLINK-CICS-RESP)
           END-EXEC.

           PERFORM 895-TEST-CICS-RESPONSE
              THRU 895-TEST-CICS-RESPONSE-EXIT.
           MOVE LENGTH OF FGAWG00D TO AC99W-RECORD-LENGTH.
           MOVE 'G005' TO AC99W-CONTEXT-QUEUE-G-5-8.

           EXEC CICS
                WRITEQ TS
                QUEUE(AC99W-CONTEXT-QUEUE-G)
                FROM(FGAWG00D)
                LENGTH(AC99W-RECORD-LENGTH)
                RESP(DCLINK-CICS-RESP)
           END-EXEC.

           PERFORM 895-TEST-CICS-RESPONSE
              THRU 895-TEST-CICS-RESPONSE-EXIT.
           MOVE LENGTH OF FISWG00M TO AC99W-RECORD-LENGTH.
           MOVE 'G010' TO AC99W-CONTEXT-QUEUE-G-5-8.

           EXEC CICS
                WRITEQ TS
                QUEUE(AC99W-CONTEXT-QUEUE-G)
                FROM(FISWG00M)
                LENGTH(AC99W-RECORD-LENGTH)
                RESP(DCLINK-CICS-RESP)
           END-EXEC.

           PERFORM 895-TEST-CICS-RESPONSE
              THRU 895-TEST-CICS-RESPONSE-EXIT.

       326-SAVE-CONTEXT-G-EXIT.
           EXIT.


      *%---------------------------------------------------------------*
      *%                                                               *
      *%                   332-INVOKE  ROUTINE                         *
      *%                                                               *
      *%---------------------------------------------------------------*
       332-INVOKE.

FCSLA      IF ACCOMM-CNT-PGM-STACK NOT LESS THAN
FCSLA                         AC99W-CNT-PGM-STACK-MAX
FCSLA          EXEC CICS
FCSLA               ABEND
FCSLA               ABCODE('9332')
FCSLA               CANCEL
FCSLA          END-EXEC
FCSLA      END-IF.
FCSLA      PERFORM 520-COMMIT-DB
FCSLA         THRU 520-COMMIT-DB-EXIT.
           MOVE AC99W-INVOKE TO ACCOMM-RECALL-CODE.
      *%****************************************************************
      *%       SAVE GLOBAL AND LOCAL RECORDS AND INCREASE STACK COUNT  *
      *%****************************************************************
           PERFORM 326-SAVE-CONTEXT-G
              THRU 326-SAVE-CONTEXT-G-EXIT.
           MOVE ACCOMM-CNT-PGM-STACK TO AC99W-CONTEXT-QUEUE-L-7-8.
           PERFORM 322-SAVE-CONTEXT-L
              THRU 322-SAVE-CONTEXT-L-EXIT.
           ADD +1 TO ACCOMM-CNT-PGM-STACK.
           IF ACCOMM-CNT-PGM-STACK GREATER ACCOMM-CNT-PGM-STACK-HIGH
               MOVE ACCOMM-CNT-PGM-STACK TO ACCOMM-CNT-PGM-STACK-HIGH
           END-IF.
           MOVE ACCOMM-CURRENT-PROGRAM TO
                ACCOMM-PGM-STACK(ACCOMM-CNT-PGM-STACK).
           MOVE AC99W-TRANSID TO
                ACCOMM-TRANSID-STACK(ACCOMM-CNT-PGM-STACK).
FCBCC      MOVE AGR-CURRENT-FUNCTION TO
FCBCC           ACCOMM-FUNC-STACK(ACCOMM-CNT-PGM-STACK).
FCBCC      MOVE AGR-FUNC-DESCRIPTION TO
FCBCC           ACCOMM-FUNC-DESC-STACK(ACCOMM-CNT-PGM-STACK).
           MOVE ACCOMM-CURRENT-PROGRAM TO AC99W-HIGHER-DIALOG-NAME.
      *%****************************************************************
      *%       EXECUTE NEXT PROGRAM                                    *
      *%****************************************************************
           MOVE ACCOMM-CURRENT-PROGRAM TO ACCOMM-FROM-PROGRAM.
           MOVE SPACES TO ACCOMM-CURRENT-PROGRAM.

           EXEC CICS
                XCTL
                PROGRAM(AC99W-NEXT-PROGRAM)
                COMMAREA(ACCOMM)
                LENGTH(ACCOMM-LENGTH)
           END-EXEC.

       332-INVOKE-EXIT.
           EXIT.


      *%---------------------------------------------------------------*
      *%                                                               *
      *%                   334-LINK-DIALOG ROUTINE                     *
      *%                                                               *
      *%---------------------------------------------------------------*
       334-LINK-DIALOG.

FCSLA      IF ACCOMM-CNT-PGM-STACK NOT LESS THAN
FCSLA                     AC99W-CNT-PGM-STACK-MAX
FCSLA          EXEC CICS
FCSLA               ABEND
FCSLA               ABCODE('9334')
FCSLA               CANCEL
FCSLA          END-EXEC
FCSLA      END-IF.

FCSLA *%****************************************************************
FCSLA *%       SAVE ALL DATABASE CHANGES                               *
FCSLA *%****************************************************************
FCSLA      IF AC99W-FLAG-COMMIT = 'Y'
FCSLA         MOVE 'N' TO AC99W-FLAG-COMMIT
FCSLA         PERFORM 520-COMMIT-DB
FCSLA            THRU 520-COMMIT-DB-EXIT
FCSLA      END-IF.

           IF ACCOMM-LINK-RETURN-ID > +0
              AND ACCOMM-LINK-OPTION NOT = AC99W-YES
              PERFORM 332-INVOKE
                 THRU 332-INVOKE-EXIT
              GO TO 334-LINK-DIALOG-EXIT
           END-IF.

      *%****************************************************************
      *%       SAVE GLOBAL RECORD                                      *
      *%****************************************************************
           MOVE AC99W-LINK TO ACCOMM-RECALL-CODE.
           PERFORM 326-SAVE-CONTEXT-G
              THRU 326-SAVE-CONTEXT-G-EXIT.

      *%****************************************************************
      *%       SAVE LOCAL RECORDS - INCREASE STACK COUNT               *
      *%****************************************************************
           MOVE ACCOMM-CNT-PGM-STACK TO AC99W-CONTEXT-QUEUE-L-7-8.
           PERFORM 322-SAVE-CONTEXT-L
              THRU 322-SAVE-CONTEXT-L-EXIT.
           ADD +1 TO ACCOMM-CNT-PGM-STACK.

      *%****************************************************************
      *%       SAVE VARIABLES FOR RETURN FROM LINKED PROGRAM           *
      *%****************************************************************
           MOVE ACCOMM-CURRENT-PROGRAM TO
                ACCOMM-PGM-STACK(ACCOMM-CNT-PGM-STACK).
           MOVE AC99W-TRANSID TO
                ACCOMM-TRANSID-STACK(ACCOMM-CNT-PGM-STACK).
FCBCC      MOVE AGR-CURRENT-FUNCTION TO
FCBCC           ACCOMM-FUNC-STACK(ACCOMM-CNT-PGM-STACK).
FCBCC      MOVE AGR-FUNC-DESCRIPTION TO
FCBCC           ACCOMM-FUNC-DESC-STACK(ACCOMM-CNT-PGM-STACK).
           MOVE ACCOMM-CURRENT-PROGRAM TO
                AC99W-HIGHER-DIALOG-NAME.

      *%****************************************************************
      *%       LINK TO THE NEXT PROGRAM                                *
      *%****************************************************************
           EXEC CICS
                LINK
                PROGRAM(AC99W-NEXT-PROGRAM)
                COMMAREA(ACCOMM)
                LENGTH(ACCOMM-LENGTH)
           END-EXEC.

      *%****************************************************************
      *%       AFTER RETURN - PICK UP CHANGES TO GLOBAL RECORD         *
      *%****************************************************************
           MOVE AC99W-SECOND-TIME TO ACCOMM-RECALL-CODE.
           PERFORM 306-RESTORE-CONTEXT-G
              THRU 306-RESTORE-CONTEXT-G-EXIT.

      *%****************************************************************
      *%       AFTER RETURN - PICK UP CHANGES TO LOCAL RECORDS         *
      *%****************************************************************
           MOVE ACCOMM-CNT-PGM-STACK TO AC99W-CONTEXT-QUEUE-L-7-8.
           PERFORM 302-RESTORE-CONTEXT-L
              THRU 302-RESTORE-CONTEXT-L-EXIT.

      *%****************************************************************
      *%       DELETE SAVED TEMP STORAGE AREAS                         *
      *%****************************************************************
           PERFORM 312-DELETE-CONTEXT-L
              THRU 312-DELETE-CONTEXT-L-EXIT.
           SUBTRACT +1 FROM ACCOMM-CNT-PGM-STACK.
           MOVE ACCOMM-CNT-PGM-STACK TO AC99W-CONTEXT-QUEUE-L-7-8.
           PERFORM 312-DELETE-CONTEXT-L
              THRU 312-DELETE-CONTEXT-L-EXIT.

       334-LINK-DIALOG-EXIT.
           EXIT.


      *%---------------------------------------------------------------*
      *%                                                               *
      *%                   395-RETURN ROUTINE                          *
      *%                                                               *
      *%---------------------------------------------------------------*
       395-RETURN.
FCAMH      IF ACCOMM-LINK-RETURN-ID = ZEROES
FCAMH          PERFORM 396-RETURN
FCAMH             THRU 396-RETURN-EXIT
FCAMH      END-IF.
      *%****************************************************************
      *%       CANNOT RETURN IF AT TOP OF STACK                        *
      *%****************************************************************
           MOVE ACCOMM-CNT-PGM-STACK TO ACCOMM-CNT-PGM-STACK-FROM.
           IF ((AC99W-NEXT-PROGRAM = AC99W-TOP)
            OR AC99W-NEXT-PROGRAM = AC99W-POP
            OR AC99W-NEXT-PROGRAM = AC99W-POPTOP
            OR (AC99W-NEXT-PROGRAM = AC99W-HIGHER))
            AND ACCOMM-CNT-PGM-STACK = ZERO
               MOVE AC99W-MESSAGE-900001 TO AC99W-DISP-MSG
               PERFORM 750-DISPLAY
                  THRU 750-DISPLAY-EXIT
               EXEC CICS
                   RETURN
               END-EXEC
           END-IF.

           MOVE AC99W-TRANSFER TO ACCOMM-RECALL-CODE.
FCAMH *    MOVE AC99W-RETURN TO ACCOMM-FROM-PROGRAM.
FCAMH      MOVE AC99W-PROGRAM-NAME TO ACCOMM-FROM-PROGRAM.
           MOVE SPACES TO ACCOMM-CURRENT-PROGRAM.
      *%****************************************************************
      *%       RETURN TO TOP LEVEL PROGRAM IN STACK                    *
      *%****************************************************************
           IF AC99W-NEXT-PROGRAM = AC99W-TOP
            OR AC99W-NEXT-PROGRAM = AC99W-POPTOP
FCBCC          MOVE AC99W-PROGRAM-NAME TO ACCOMM-FROM-PROGRAM
               MOVE ACCOMM-CNT-PGM-STACK TO AC99W-CONTEXT-QUEUE-L-7-8
FCBCC          MOVE ACCOMM-FUNC-STACK(1) TO
FCBCC               AGR-NEXT-FUNCTION
FCBCC          MOVE ACCOMM-FUNC-DESC-STACK(1) TO
FCBCC               AGR-FUNC-DESCRIPTION
               PERFORM 326-SAVE-CONTEXT-G
                  THRU 326-SAVE-CONTEXT-G-EXIT
               MOVE ACCOMM-PGM-STACK(1) TO AC99W-NEXT-PROGRAM
               MOVE ZEROS TO ACCOMM-CNT-PGM-STACK
               PERFORM 520-COMMIT-DB
                  THRU 520-COMMIT-DB-EXIT
               EXEC CICS
                    XCTL
                    PROGRAM(AC99W-NEXT-PROGRAM)
                    COMMAREA(ACCOMM)
                    LENGTH(ACCOMM-LENGTH)
               END-EXEC
           END-IF.

      *%****************************************************************
      *%       RETURN TO HIGHER PROGRAM IN STACK                       *
      *%****************************************************************
           IF AC99W-NEXT-PROGRAM = AC99W-HIGHER
              OR AC99W-NEXT-PROGRAM = AC99W-POP
               MOVE ACCOMM-CNT-PGM-STACK TO AC99W-CONTEXT-QUEUE-L-7-8
FCBCC          MOVE ACCOMM-FUNC-STACK(ACCOMM-CNT-PGM-STACK) TO
FCBCC               AGR-NEXT-FUNCTION
FCBCC          MOVE ACCOMM-FUNC-DESC-STACK(ACCOMM-CNT-PGM-STACK) TO
FCBCC               AGR-FUNC-DESCRIPTION
               PERFORM 326-SAVE-CONTEXT-G
                  THRU 326-SAVE-CONTEXT-G-EXIT
               PERFORM 322-SAVE-CONTEXT-L
                  THRU 322-SAVE-CONTEXT-L-EXIT
               MOVE ACCOMM-PGM-STACK(ACCOMM-CNT-PGM-STACK)
                   TO AC99W-NEXT-PROGRAM
               SUBTRACT +1 FROM ACCOMM-CNT-PGM-STACK
               PERFORM 520-COMMIT-DB
                  THRU 520-COMMIT-DB-EXIT
               EXEC CICS
                    XCTL
                    PROGRAM(AC99W-NEXT-PROGRAM)
                    COMMAREA(ACCOMM)
                    LENGTH(ACCOMM-LENGTH)
               END-EXEC
           END-IF.

      *%****************************************************************
      *%       LOOP THRU STACK TO FIND NEXT PROGRAM NAME               *
      *%****************************************************************
           SUBTRACT -1 FROM ACCOMM-CNT-PGM-STACK
              GIVING AC99W-SUB1.
           PERFORM WITH TEST BEFORE
             UNTIL NOT (AC99W-SUB1 GREATER +1)
               ADD -1 TO AC99W-SUB1
               IF AC99W-NEXT-PROGRAM =
                        ACCOMM-PGM-STACK(AC99W-SUB1)
                   MOVE ACCOMM-CNT-PGM-STACK
                       TO AC99W-CONTEXT-QUEUE-L-7-8
                   PERFORM 326-SAVE-CONTEXT-G
                      THRU 326-SAVE-CONTEXT-G-EXIT
                   PERFORM 322-SAVE-CONTEXT-L
                      THRU 322-SAVE-CONTEXT-L-EXIT
                   SUBTRACT +1 FROM AC99W-SUB1
                      GIVING ACCOMM-CNT-PGM-STACK
                   PERFORM 520-COMMIT-DB
                      THRU 520-COMMIT-DB-EXIT

                   EXEC CICS
                        XCTL
                        PROGRAM(AC99W-NEXT-PROGRAM)
                        COMMAREA(ACCOMM)
                        LENGTH(ACCOMM-LENGTH)
                   END-EXEC

               END-IF
           END-PERFORM.


      *%********************************
      *%ERROR - PROGRAM NOT IN STACK
      *%********************************
FCAMH *    MOVE AC99W-MESSAGE-900021 TO AC99W-DISP-MSG.
FCAMH      MOVE '177020' TO AC99W-MC-MESSAGE-NO
FCAMH      PERFORM 399-GET-MESSAGE
FCAMH         THRU 399-GET-MESSAGE-EXIT
FCAMH      MOVE DCLINK-MESSAGE TO AC99W-DISP-MSG
           PERFORM 750-DISPLAY
              THRU 750-DISPLAY-EXIT.
           EXEC CICS
               RETURN
           END-EXEC.

       395-RETURN-EXIT.
           EXIT.



      *%---------------------------------------------------------------*
      *%                                                               *
      *%                 396-RETURN ROUTINE                            *
      *%                                                               *
      *%---------------------------------------------------------------*
       396-RETURN.
      *%****************************************************************
      *%       CANNOT RETURN IF AT TOP OF STACK                        *
      *%****************************************************************
           MOVE ACCOMM-CNT-PGM-STACK TO ACCOMM-CNT-PGM-STACK-FROM.
           MOVE AC99W-TRANSFER TO ACCOMM-RECALL-CODE.
           MOVE ACCOMM-CNT-PGM-STACK TO AC99W-CONTEXT-QUEUE-L-7-8
           MOVE SPACES TO ACCOMM-FROM-PROGRAM.
           PERFORM 326-SAVE-CONTEXT-G
              THRU 326-SAVE-CONTEXT-G-EXIT.
           PERFORM 322-SAVE-CONTEXT-L
              THRU 322-SAVE-CONTEXT-L-EXIT.
           EXEC CICS
                RETURN
           END-EXEC.

       396-RETURN-EXIT.
           EXIT.


      *%---------------------------------------------------------------*
      *%                                                               *
      *%                   399-GET-MESSAGE ROUTINE                     *
      *%                                                               *
      *%---------------------------------------------------------------*
       399-GET-MESSAGE.

       399-GET-MESSAGE-010.
FCAMH      EXEC SQL
FCAMH           INCLUDE ACMSGCOD
FCAMH      END-EXEC.
       399-GET-MESSAGE-EXIT.
           EXIT.

      *%---------------------------------------------------------------*
      *%                                                               *
      *%                   500-INIT-PROGRAM ROUTINE                    *
      *%                                                               *
      *%---------------------------------------------------------------*
       500-INIT-PROGRAM.

      *%****************************************************************
      *%       INITIALIZE KEY PROGRAM VARIABLES                        *
      *%****************************************************************
FCAMH *    MOVE AC99W-APPLICATION TO AGR-APPLICATION-NAME.
           MOVE EIBAID TO AGR-AID-BYTE.
           MOVE 'D' TO AGR-CURRENT-FUNC-TYPE.
           MOVE AC99W-PROGRAM-NAME TO AGR-DIALOG-NAME.
           MOVE SPACES TO AGR-MAP-RESPONSE.
           MOVE SPACES TO DCLINK-MESSAGE.
           EXEC CICS
                ASKTIME
                ABSTIME(AC99W-ABSTIME)
           END-EXEC.
           EXEC CICS
                FORMATTIME
                ABSTIME(AC99W-ABSTIME)
                YYMMDD(AC99W-DATE)
UCSDX***        YYYYMMDD(AC99W-DATEX)
                TIME(AC99W-TIME)
           END-EXEC.
FCAMH      EXEC CICS
FCAMH           FORMATTIME
FCAMH           ABSTIME(AC99W-ABSTIME)
FCAMH           DATESEP
FCAMH           DATE(AGR-DATE)
FCAMH      END-EXEC.
           EXEC CICS ASSIGN
                USERID(AC99W-USER-ID)
           END-EXEC.
           INSPECT AC99W-USER-ID CONVERTING
                'abcdefghijklmnopqrstuvwxyz' TO
                'ABCDEFGHIJKLMNOPQRSTUVWXYZ'.

       500-INIT-PROGRAM-EXIT.
           EXIT.

      *%---------------------------------------------------------------*
      *%                                                               *
      *%                   501-INIT-GLOBAL-RECORDS ROUTINE             *
      *%                                                               *
      *%---------------------------------------------------------------*
       501-INIT-GLOBAL-RECORDS.

           INITIALIZE ADSO-APPLICATION-GLOBAL-RECORD.
           INITIALIZE FSYWG00D.
           INITIALIZE FGAWG00D.
           INITIALIZE FSYWG99D.
           MOVE QUOTE TO AGR-AID-BYTE OF ADSO-APPLICATION-GLOBAL-RECORD.
           MOVE 'N' TO AGR-SIGNON-SWITCH OF
                ADSO-APPLICATION-GLOBAL-RECORD.

       501-INIT-GLOBAL-RECORDS-EXIT.
           EXIT.

      *%---------------------------------------------------------------*
      *%                                                               *
      *%                   502-INIT-LOCAL-RECORDS ROUTINE              *
      *%                                                               *
      *%---------------------------------------------------------------*
       502-INIT-LOCAL-RECORDS.


           INITIALIZE FSEWG00D.

           INITIALIZE R4025-PRFL-KEY.

       502-INIT-LOCAL-RECORDS-EXIT.
           EXIT.
      *%---------------------------------------------------------------*
      *%                                                               *
      *%                 503-INIT-FIMSNTWN ROUTINE                     *
      *%               INITIALIZE SCHEMA FIMSNTWN                      *
      *%                                                               *
      *%---------------------------------------------------------------*
       503-INIT-FIMSNTWN.

           MOVE 'Y' TO AC99W-FLAG-IDMS-BIND.

       503-INIT-FIMSNTWN-EXIT.
                                       EXIT.


      *%---------------------------------------------------------------*
      *%                                                               *
      *%                   520-COMMIT-DB ROUTINE                       *
      *%               RESET ANY ACTIVE FILES                          *
      *%                                                               *
      *%---------------------------------------------------------------*
       520-COMMIT-DB.
      *%****************************************************************
      *%       COMMIT THE DATABASE UPDATES                             *
      *%****************************************************************
           IF AC99W-FLAG-IDMS-BIND = AC99W-YES
      *%       FINISH
               MOVE 0001 TO DBLINK-CURR-IO-NUM
               MOVE +0 TO SQLCODE
               MOVE ZERO TO ERROR-STATUS
               PERFORM 986-RESET-KEYS
                  THRU 986-RESET-KEYS-EXIT
               MOVE '$$ALL' TO DBLINK-CURSOR-NAME-WORK
               PERFORM 991-CLOSE-CURSORS
                  THRU 991-CLOSE-CURSORS-EXIT
               PERFORM 996-COMMIT
                  THRU 996-COMMIT-EXIT
               PERFORM 999-SQL-STATUS
                  THRU 999-SQL-STATUS-EXIT
           END-IF.

           MOVE AC99W-NO TO AC99W-FLAG-IDMS-BIND.

       520-COMMIT-DB-EXIT.
           EXIT.

      *%---------------------------------------------------------------*
      *%                                                               *
      *%                   750-DISPLAY ROUTINE                         *
      *%                                                               *
      *%---------------------------------------------------------------*
       750-DISPLAY.

      *%   SEND MESSAGE FROM AC99W-DISP-MSG.
           EXEC CICS
               SEND TEXT FROM(AC99W-DISP-MSG)
               LENGTH(79)
               ERASE
           END-EXEC.

       750-DISPLAY-EXIT.
           EXIT.

      *%---------------------------------------------------------------*
      *%                                                               *
      *%                   790-CICS-ABEND ROUTINE                      *
      *%                                                               *
      *%---------------------------------------------------------------*
       790-CICS-ABEND.

           COPY USRABEND.

       790-CICS-ABEND-EXIT.
           EXIT.

      *%   COPY IDMS IDMS-STATUS.
      *
      *%-------------------------------------------------------------- *
      *%                                                               *
      *%              895-TEST-CICS-RESPONSE ROUTINE                   *
      *%                                                               *
      *%-------------------------------------------------------------- *
       895-TEST-CICS-RESPONSE.
           IF DCLINK-CICS-RESP = DFHRESP(NORMAL)
               GO TO 895-TEST-CICS-RESPONSE-EXIT.
           MOVE DCLINK-CICS-RESP TO DCLINK-ABEND-CODE.
           EXEC CICS
               ABEND ABCODE(DCLINK-ABEND-CODE)
           END-EXEC.
       895-TEST-CICS-RESPONSE-EXIT.
           EXIT.

      /
      *%-------------------------------------------------------------- *
      *%                                                               *
      *%                   900-START-SUBROUTINES                       *
      *%                                                               *
      *%-------------------------------------------------------------- *
       900-START-SUBROUTINES SECTION.
      *    CONVERT/DB SUBROUTINES FOLLOW
       900-START-SUBROUTINES-EXIT.
           EXIT.


      *%****************************** *
      *% 975-TO-R4025-PRFL-KEY ROUTINE
      *%****************************** *
      *%   COPY CB754025.
CPYNME     COPY HVIDPFK.

      /
      *%-------------------------------------------------------------- *
      *%                                                               *
      *%                  986-RESET-KEYS ROUTINE                       *
      *%                                                               *
      *%-------------------------------------------------------------- *
       986-RESET-KEYS.
           MOVE '986-RESET-KEYS' TO DBLINK-CURR-PARAGRAPH.
           MOVE SPACES TO DBLINK-RECORD-KEYS.
           MOVE LOW-VALUES TO DBLINK-SET-KEYS.
       986-RESET-KEYS-EXIT.
           EXIT.
      /
      *%-------------------------------------------------------------- *
      *%                                                               *
      *%                 991-CLOSE-CURSORS ROUTINE                     *
      *%                                                               *
      *%-------------------------------------------------------------- *
       991-CLOSE-CURSORS.
       991-CLOSE-CURSORS-EXIT.
           EXIT.
      /
      *%-------------------------------------------------------------- *
      *%                                                               *
      *%                    996-COMMIT ROUTINE                         *
      *%                                                               *
      *%-------------------------------------------------------------- *
       996-COMMIT.
           MOVE '996-COMMIT' TO DBLINK-CURR-PARAGRAPH.
           MOVE ALL 'C' TO DBLINK-CURSOR-CODES.
       996-COMMIT-EXIT.
           EXIT.
      /
      *%-------------------------------------------------------------- *
      *%                                                               *
      *%                 998-SET-RUN-DATE ROUTINE                      *
      *%                                                               *
      *%-------------------------------------------------------------- *
       998-SET-RUN-DATE.
           MOVE '998-SET-RUN-DATE' TO DBLINK-CURR-PARAGRAPH.
           EXEC SQL
               INCLUDE CBLINKTM
           END-EXEC.
       998-SET-RUN-DATE-EXIT.
           EXIT.
      /
      *%-------------------------------------------------------------- *
      *%                                                               *
      *%                  999-SQL-STATUS ROUTINE                       *
      *%                                                               *
      *%-------------------------------------------------------------- *
       999-SQL-STATUS.
           EXEC SQL
               INCLUDE ONLNERR
           END-EXEC.
       999-SQL-STATUS-EXIT.
           EXIT.

