       IDENTIFICATION DIVISION.
       PROGRAM-ID. FSYDI05.
       AUTHOR. FORECROSS CORPORATION.
       INSTALLATION. UCSD - USDFINSYS.
       DATE-WRITTEN.  20000524.
       DATE-COMPILED. 20000524.
      ****----------------------------------------------------------****
      **  AUTHOR    DATE    DESCRIPTION                                *
      **  ------- --------  ----------------------------------------   *
DEVBWS**  DEVBWS  06/29/01  DELETE SYNCPOINTS, 976-, ADD "FOR FETCH    *
DEVBWS**                    ONLY" TO DECLARES                          *
DEVBWS**  DEVBWS  07/05/01  DELETE USE OF DBLINK-RECORD-SET-KEYS TSQ   *
      **                                                               *
      ****----------------------------------------------------------****
      *%****************************************************************
      *%                                                               *
      *%  Converted Using Forecross Corporation Redeployment Software  *
      *%                                                               *
      *%                     Convert/ADSO                              *
      *%                     Convert/IDMS-DC                           *
      *%                     Convert/IDMS-DB                           *
      *%                                                               *
      *%****************************************************************
      *%          COPYRIGHT 2000 - FORECROSS CORPORATION               *
      *%                    ALL RIGHTS RESERVED                        *
      *%****************************************************************


           COPY CBCVDBNT.

      *%996-COMMIT
       ENVIRONMENT DIVISION.
       CONFIGURATION SECTION.
       SOURCE-COMPUTER.  IBM-3090.
       OBJECT-COMPUTER.  IBM-3090.
       INPUT-OUTPUT SECTION.

       FILE-CONTROL.
       I-O-CONTROL.
      *IDMS-CONTROL SECTION.
      *PROTOCOL. MODE IS IDMS-DC DEBUG
      *%         IDMS-RECORDS MANUAL.


       DATA DIVISION.



       WORKING-STORAGE SECTION.
       01  FILLER  PIC X(32) VALUE '** FSYDI05 WORKING STRG BEGINS'.

      *%****************************************************************
       01  AC99W.
           COPY AC99W.
      *:****************************************************************
      *%****************************************************************
      *%              AC99W FIELDS UNIQUE TO THIS PROGRAM              *
      *%****************************************************************
FCAMH *    10  AC99W-APPLICATION          PIC X(8) VALUE 'FSYDI05'.
AC99W      10  AC99W-PROGRAM-NAME         PIC X(8) VALUE 'FSYDI05'.
AC99W      10  AC99W-TRANSID              PIC X(4) VALUE '    '.
           10  AC99W-ADSO-STAT-DEF-REC-F    PIC X(1)
                                VALUE 'N'.


      *%****************************************************************
      *%              STANDARD CICS COPIES                             *
      *%****************************************************************


      *%****************************************************************
      *%           APPLICATION WORK AREAS                              *
      *%****************************************************************
           COPY ACAPPL.
      *%****************************************************************
      *%               IDMS RECORD COPIES                              *
      *%****************************************************************
      *%   COPY IDMS SUBSCHEMA-CONTROL.
       01  SUBSCHEMA-CONTROL.
           EXEC SQL
               INCLUDE CBRSKEYS
           END-EXEC.

FCAMH      EXEC SQL
FCAMH          INCLUDE SQLCA
FCAMH      END-EXEC.
      *%   COPY IDMS SUBSCHEMA-SSNAME.
      *%   COPY IDMS SUBSCHEMA-AREANAMES.
      *%   COPY IDMS SUBSCHEMA-RECNAMES.
      *%   COPY IDMS SUBSCHEMA-SETNAMES.

      *%   COPY IDMS RECORD ADSO-APPLICATION-GLOBAL-RECORD.
CPYNME     COPY ADSOGLBL.
      *%   COPY IDMS RECORD ADSO-STAT-DEF-REC.
CPYNME     COPY ADSOSTAT.


      *%****************************** *
      *%CICS COPIES
      *%****************************** *
           COPY DFHAID.
           COPY DFHBMSCA.

      *%****************************** *
      *%STANDARD MAPPING COPIES
      *%****************************** *
           COPY DCLINKCA.
           COPY ACCOMM.
FCFLT7     COPY ONLWS.

FCAMH      EXEC SQL
FCAMH          INCLUDE ACMSGHT
FCAMH      END-EXEC.
FCAMH      EXEC SQL
FCAMH          INCLUDE HVMSL
FCAMH      END-EXEC.

       LINKAGE SECTION.
       01  DFHCOMMAREA.
           10  DFHCOMMAREAZ PIC X(950).


      /
      *%-------------------------------------------------------------- *
      *%                                                               *
      *%                    CURSOR DECLARATIONS                        *
      *%                                                               *
      *%-------------------------------------------------------------- *

       PROCEDURE DIVISION.







      *%---------------------------------------------------------------*
      *%                                                               *
      *%                 000-RUN-CONTROL ROUTINE                       *
      *%                                                               *
      *%---------------------------------------------------------------*
       000-RUN-CONTROL.

           PERFORM 010-INITIALIZE
              THRU 010-INITIALIZE-EXIT.
           PERFORM 020-MAINLINE
              THRU 020-MAINLINE-EXIT.
           PERFORM 030-WRAPUP
              THRU 030-WRAPUP-EXIT.
       000-RUN-CONTROL-EXIT.
           EXIT.

      *%---------------------------------------------------------------*
      *%                                                               *
      *%                 010-INITIALIZE ROUTINE                        *
      *%                                                               *
      *%---------------------------------------------------------------*
       010-INITIALIZE.

      *%****************************************************************
      *%       INITIALIZE ALL TEMPORARY STORAGE QUEUE NAMES            *
      *%****************************************************************
           MOVE EIBTRMID TO AC99W-CONTEXT-QUEUE-L-1-4.
           MOVE EIBTRMID TO AC99W-CONTEXT-QUEUE-G-1-4.
           MOVE EIBTRMID TO AC99W-DEFAULT-QUEUE-1-4.

      *%****************************************************************
      *%       INITIALIZE ALL PROGRAM RECORDS                          *
      *%****************************************************************
           PERFORM 501-INIT-GLOBAL-RECORDS
              THRU 501-INIT-GLOBAL-RECORDS-EXIT
           PERFORM 502-INIT-LOCAL-RECORDS
              THRU 502-INIT-LOCAL-RECORDS-EXIT.
      *%****************************************************************
      *%       PERFORM ALL OTHER DEFAULT INITIALIZATION                *
      *%****************************************************************
      *COPY AC1TMLES.
CPYNME     EXEC SQL
CPYNME         INCLUDE AC1TMLES
CPYNME     END-EXEC.


       010-INITIALIZE-EXIT.
           EXIT.


      *%---------------------------------------------------------------*
      *%                                                               *
      *%                   020-MAINLINE ROUTINE                        *
      *%                                                               *
      *%---------------------------------------------------------------*
       020-MAINLINE.
           MOVE AC99W-SECOND-TIME TO ACCOMM-RECALL-CODE.
           PERFORM 120-PREMAP
               THRU 120-PREMAP-EXIT.
           MOVE SPACES TO AC99W-TRANSID.
           PERFORM 326-SAVE-CONTEXT-G
              THRU 326-SAVE-CONTEXT-G-EXIT.
           PERFORM 322-SAVE-CONTEXT-L
              THRU 322-SAVE-CONTEXT-L-EXIT.
       020-MAINLINE-EXIT.
           EXIT.

      *%---------------------------------------------------------------*
      *%                                                               *
      *%                   030-WRAPUP ROUTINE                          *
      *%                                                               *
      *%---------------------------------------------------------------*
       030-WRAPUP.
      *%****************************************************************
      *%       RETURN TO CICS - WAIT FOR NEXT USER RESPONSE            *
      *%****************************************************************
           EXEC CICS
                RETURN
           END-EXEC.

       030-WRAPUP-EXIT.
           EXIT.


       EJECT
      *%---------------------------------------------------------------*
      *%                                                               *
      *%                   120-PREMAP ROUTINE                          *
      *%                                                               *
      *%---------------------------------------------------------------*
       120-PREMAP.


      *************************************
      ** RETURN TO AC99W-HIGHER
      *************************************
           MOVE AC99W-NO TO ACCOMM-FLAG-CLEAR.
           MOVE AC99W-NO TO ACCOMM-FLAG-CONTINUE.
           MOVE AC99W-HIGHER TO AC99W-NEXT-PROGRAM.
           PERFORM 395-RETURN
              THRU 395-RETURN-EXIT.

       120-PREMAP-EXIT.
           EXIT.


      *%---------------------------------------------------------------*
      *%                                                               *
      *%                   302-RESTORE-CONTEXT-L ROUTINE               *
      *%                                                               *
      *%---------------------------------------------------------------*
       302-RESTORE-CONTEXT-L.

      *%****************************************************************
      *%       LOOP THRU ALL ITEMS IN TEMP STORAGE FOR LOCAL RECORDS   *
      *%****************************************************************
           MOVE ZEROS TO AC99W-ITEM-NO.
           MOVE AC99W-YES TO AC99W-IND1.
           PERFORM WITH TEST BEFORE
             UNTIL NOT (AC99W-IND1 = AC99W-YES)
               ADD +1 TO AC99W-ITEM-NO
               MOVE AC99W-RECORD-LENGTH-MAX TO AC99W-RECORD-LENGTH

               EXEC CICS
                    READQ TS
                    QUEUE(AC99W-CONTEXT-QUEUE-L)
                    INTO(AC99W-CONTEXT-AREA)
                    ITEM(AC99W-ITEM-NO)
                    RESP(DCLINK-CICS-RESP)
                    LENGTH(AC99W-RECORD-LENGTH)
               END-EXEC

               IF DCLINK-CICS-RESP = DFHRESP(ITEMERR)
                OR DCLINK-CICS-RESP = DFHRESP(QIDERR)
                   GO TO 302-RESTORE-CONTEXT-L-EXIT
               END-IF
               PERFORM 895-TEST-CICS-RESPONSE
                  THRU 895-TEST-CICS-RESPONSE-EXIT
      *%****************************************************************
      *%       RESTORE DATA INTO THE LOCAL RECORDS                     *
      *%****************************************************************
               PERFORM 304-RESTORE-CONTEXT-L
                  THRU 304-RESTORE-CONTEXT-L-EXIT
           END-PERFORM.

       302-RESTORE-CONTEXT-L-EXIT.
           EXIT.

      *%---------------------------------------------------------------*
      *%                                                               *
      *%                   304-RESTORE-CONTEXT-L ROUTINE               *
      *%                                                               *
      *%---------------------------------------------------------------*
       304-RESTORE-CONTEXT-L.
      *%****************************************************************
      *%   DETERMINE WHICH CONTEXT RECORDS HAVE BEEN READ AND          *
      *%     WHETHER THEY SHOULD BE RESTORED                           *
      *%****************************************************************
FCMCS**    IF AC99W-CONTEXT-AREA-N = 'DBLINK-CURSOR-CODES'
FCMCS**       AND AC99W-FLAG-RESTORE-GBL = AC99W-NO
FCMCS**       MOVE AC99W-CONTEXT-AREA-R TO DBLINK-CURSOR-CODES
FCMCS**       GO TO 304-RESTORE-CONTEXT-L-EXIT
FCMCS**    END-IF.

           IF AC99W-CONTEXT-AREA-N = 'SUBSCHEMA-CONTROL'
              AND AC99W-FLAG-RESTORE-GBL = AC99W-NO
              MOVE AC99W-CONTEXT-AREA-R TO SUBSCHEMA-CONTROL
              GO TO 304-RESTORE-CONTEXT-L-EXIT
           END-IF.

           IF AC99W-CONTEXT-AREA-N = 'ADSO-STAT-DEF-REC'
            AND (AC99W-FLAG-RESTORE-GBL = AC99W-NO
             OR AC99W-ADSO-STAT-DEF-REC-F = AC99W-YES)
               MOVE AC99W-CONTEXT-AREA-R TO ADSO-STAT-DEF-REC
               MOVE AC99W-YES TO AC99W-ADSO-STAT-DEF-REC-F
               GO TO 304-RESTORE-CONTEXT-L-EXIT
           END-IF.
       304-RESTORE-CONTEXT-L-EXIT.
           EXIT.

      *%---------------------------------------------------------------*
      *%                                                               *
      *%                   306-RESTORE-CONTEXT-G ROUTINE               *
      *%                                                               *
      *%---------------------------------------------------------------*
       306-RESTORE-CONTEXT-G.

      *%****************************************************************
      *%       RESTORE DATA FROM GLOBAL TEMP STORAGE QUEUE             *
      *%****************************************************************
           MOVE 'G001' TO AC99W-CONTEXT-QUEUE-G-5-8.
           MOVE AC99W-RECORD-LENGTH-MAX TO AC99W-RECORD-LENGTH.

           EXEC CICS
                READQ TS
                QUEUE(AC99W-CONTEXT-QUEUE-G)
                INTO(AC99W-CONTEXT-AREA)
                LENGTH(AC99W-RECORD-LENGTH)
                RESP(DCLINK-CICS-RESP)
           END-EXEC.

           IF DCLINK-CICS-RESP = DFHRESP(NORMAL)
               MOVE AC99W-CONTEXT-AREA
                   TO ADSO-APPLICATION-GLOBAL-RECORD

                EXEC CICS
                     DELETEQ TS
                     QUEUE(AC99W-CONTEXT-QUEUE-G)
                     RESP(DCLINK-CICS-RESP)
                END-EXEC

            END-IF.

            IF DCLINK-CICS-RESP NOT = DFHRESP(NORMAL)  AND
               DCLINK-CICS-RESP NOT = DFHRESP(QIDERR)
                PERFORM 895-TEST-CICS-RESPONSE
                   THRU 895-TEST-CICS-RESPONSE-EXIT
            END-IF.
       306-RESTORE-CONTEXT-G-EXIT.
           EXIT.

      *%---------------------------------------------------------------*
      *%                                                               *
      *%                   312-DELETE-CONTEXT-L ROUTINE                *
      *%                                                               *
      *%---------------------------------------------------------------*
       312-DELETE-CONTEXT-L.

      *%****************************************************************
      *%       ERASE ALL LOCAL TEMP STORAGE                            *
      *%****************************************************************
           EXEC CICS
                DELETEQ TS
                RESP(DCLINK-CICS-RESP)
                QUEUE(AC99W-CONTEXT-QUEUE-L)
           END-EXEC.

           IF DCLINK-CICS-RESP NOT = DFHRESP(QIDERR)
            AND DCLINK-CICS-RESP NOT = DFHRESP(NORMAL)
               PERFORM 895-TEST-CICS-RESPONSE
                  THRU 895-TEST-CICS-RESPONSE-EXIT
           END-IF.

       312-DELETE-CONTEXT-L-EXIT.
           EXIT.


      *%---------------------------------------------------------------*
      *%                                                               *
      *%                   314-SAVE-CURRENCY ROUTINE                   *
      *%                                                               *
      *%---------------------------------------------------------------*
       314-SAVE-CURRENCY SECTION.

       314-SAVE-CURRENCY-010.
FCMCS**    MOVE 'DBLINK-CURSOR-CODES' TO AC99W-CONTEXT-AREA-N.
FCMCS**    MOVE LENGTH OF DBLINK-CURSOR-CODES
FCMCS**              TO AC99W-RECORD-LENGTH.
FCMCS**    MOVE DBLINK-CURSOR-CODES TO AC99W-CONTEXT-AREA-R.
FCMCS**    ADD +40 TO AC99W-RECORD-LENGTH.
FCMCS**
FCMCS**    EXEC CICS
FCMCS**         WRITEQ TS
FCMCS**         QUEUE(AC99W-CONTEXT-QUEUE-L)
FCMCS**         FROM(AC99W-CONTEXT-AREA)
FCMCS**         LENGTH(AC99W-RECORD-LENGTH)
FCMCS**         RESP(DCLINK-CICS-RESP)
FCMCS**    END-EXEC.
FCMCS**
FCMCS**    PERFORM 895-TEST-CICS-RESPONSE
FCMCS**       THRU 895-TEST-CICS-RESPONSE-EXIT.

           MOVE 'SUBSCHEMA-CONTROL' TO AC99W-CONTEXT-AREA-N.
           MOVE LENGTH OF SUBSCHEMA-CONTROL TO AC99W-RECORD-LENGTH.
           MOVE SUBSCHEMA-CONTROL TO AC99W-CONTEXT-AREA-R.
           ADD +40 TO AC99W-RECORD-LENGTH.

           EXEC CICS
                WRITEQ TS
                QUEUE(AC99W-CONTEXT-QUEUE-L)
                FROM(AC99W-CONTEXT-AREA)
                LENGTH(AC99W-RECORD-LENGTH)
                RESP(DCLINK-CICS-RESP)
           END-EXEC.

           PERFORM 895-TEST-CICS-RESPONSE
              THRU 895-TEST-CICS-RESPONSE-EXIT.
       314-SAVE-CURRENCY-EXIT.
           EXIT.

      *%---------------------------------------------------------------*
      *%                                                               *
      *%                   316-DELETE-CONTEXT-G ROUTINE                *
      *%                                                               *
      *%---------------------------------------------------------------*
       316-DELETE-CONTEXT-G SECTION.

           MOVE 'G001' TO AC99W-CONTEXT-QUEUE-G-5-8.

           EXEC CICS
                DELETEQ TS
                RESP(DCLINK-CICS-RESP)
                QUEUE(AC99W-CONTEXT-QUEUE-G)
           END-EXEC.

           IF DCLINK-CICS-RESP NOT = DFHRESP(QIDERR)
            AND DCLINK-CICS-RESP NOT = DFHRESP(NORMAL)
               PERFORM 895-TEST-CICS-RESPONSE
                  THRU 895-TEST-CICS-RESPONSE-EXIT
           END-IF.

       316-DELETE-CONTEXT-G-EXIT.
           EXIT.

      *%---------------------------------------------------------------*
      *%                                                               *
      *%                   322-SAVE-CONTEXT-L ROUTINE                  *
      *%                                                               *
      *%---------------------------------------------------------------*
       322-SAVE-CONTEXT-L.

      *%****************************************************************
      *%       WRITE CURRENCIES TO A TEMP STORAGE AREA                 *
      *%****************************************************************
           IF AC99W-NOSAVE-OPTION = AC99W-YES
              MOVE AC99W-NO TO AC99W-NOSAVE-OPTION
           ELSE
              PERFORM 314-SAVE-CURRENCY
                 THRU 314-SAVE-CURRENCY-EXIT
           END-IF.
      *%****************************************************************
      *%       WRITE LOCAL RECORDS TO A TEMP STORAGE AREA              *
      *%****************************************************************


           MOVE 'ADSO-STAT-DEF-REC' TO AC99W-CONTEXT-AREA-N.
           MOVE LENGTH OF ADSO-STAT-DEF-REC TO AC99W-RECORD-LENGTH.
           MOVE ADSO-STAT-DEF-REC TO AC99W-CONTEXT-AREA-R.
           ADD +40 TO AC99W-RECORD-LENGTH.

           EXEC CICS
                WRITEQ TS
                QUEUE(AC99W-CONTEXT-QUEUE-L)
                FROM(AC99W-CONTEXT-AREA)
                LENGTH(AC99W-RECORD-LENGTH)
                RESP(DCLINK-CICS-RESP)
           END-EXEC.

           PERFORM 895-TEST-CICS-RESPONSE
              THRU 895-TEST-CICS-RESPONSE-EXIT.

       322-SAVE-CONTEXT-L-EXIT.
           EXIT.


      *%---------------------------------------------------------------*
      *%                                                               *
      *%                   326-SAVE-CONTEXT-G ROUTINE                  *
      *%                                                               *
      *%---------------------------------------------------------------*
       326-SAVE-CONTEXT-G.

      *%****************************************************************
      *%       WRITE GLOBAL RECORD TO A TEMP STORAGE AREA              *
      *%****************************************************************
           MOVE LENGTH OF ADSO-APPLICATION-GLOBAL-RECORD TO
                AC99W-RECORD-LENGTH.
           MOVE 'G001' TO AC99W-CONTEXT-QUEUE-G-5-8.

           EXEC CICS
                WRITEQ TS
                QUEUE(AC99W-CONTEXT-QUEUE-G)
                FROM(ADSO-APPLICATION-GLOBAL-RECORD)
                LENGTH(AC99W-RECORD-LENGTH)
                RESP(DCLINK-CICS-RESP)
           END-EXEC.

           PERFORM 895-TEST-CICS-RESPONSE
              THRU 895-TEST-CICS-RESPONSE-EXIT.

       326-SAVE-CONTEXT-G-EXIT.
           EXIT.


      *%---------------------------------------------------------------*
      *%                                                               *
      *%                   330-TRANSFER ROUTINE                        *
      *%                                                               *
      *%---------------------------------------------------------------*
       330-TRANSFER.

           MOVE AC99W-TRANSFER TO ACCOMM-RECALL-CODE.
      *%****************************************************************
      *%       SAVE GLOBAL AND LOCAL RECORDS AND TRANSFER TO PROGRAM   *
      *%****************************************************************
           PERFORM 326-SAVE-CONTEXT-G
              THRU 326-SAVE-CONTEXT-G-EXIT.
           PERFORM 322-SAVE-CONTEXT-L
              THRU 322-SAVE-CONTEXT-L-EXIT.
           MOVE ACCOMM-CURRENT-PROGRAM TO ACCOMM-FROM-PROGRAM.
           MOVE SPACES TO ACCOMM-CURRENT-PROGRAM.

           IF AC99W-NOFINISH-OPTION = AC99W-YES
              MOVE AC99W-NO TO AC99W-NOFINISH-OPTION
           ELSE
              PERFORM 520-COMMIT-DB
                 THRU 520-COMMIT-DB-EXIT
           END-IF.

           EXEC CICS
                XCTL
                PROGRAM(AC99W-NEXT-PROGRAM)
                COMMAREA(ACCOMM)
                LENGTH(ACCOMM-LENGTH)
           END-EXEC.

       330-TRANSFER-EXIT.
           EXIT.

      *%---------------------------------------------------------------*
      *%                                                               *
      *%                   332-INVOKE  ROUTINE                         *
      *%                                                               *
      *%---------------------------------------------------------------*
       332-INVOKE.

           MOVE AC99W-INVOKE TO ACCOMM-RECALL-CODE.
      *%****************************************************************
      *%       SAVE GLOBAL AND LOCAL RECORDS AND INCREASE STACK COUNT  *
      *%****************************************************************
           PERFORM 326-SAVE-CONTEXT-G
              THRU 326-SAVE-CONTEXT-G-EXIT.
           MOVE ACCOMM-CNT-PGM-STACK TO AC99W-CONTEXT-QUEUE-L-7-8.
           PERFORM 322-SAVE-CONTEXT-L
              THRU 322-SAVE-CONTEXT-L-EXIT.
           ADD +1 TO ACCOMM-CNT-PGM-STACK.
           IF ACCOMM-CNT-PGM-STACK GREATER ACCOMM-CNT-PGM-STACK-HIGH
               MOVE ACCOMM-CNT-PGM-STACK TO ACCOMM-CNT-PGM-STACK-HIGH
           END-IF.
           IF ACCOMM-CNT-PGM-STACK GREATER AC99W-CNT-PGM-STACK-MAX
               EXEC CICS
                    ABEND
                    ABCODE('9332')
                    CANCEL
               END-EXEC
           END-IF.
           MOVE ACCOMM-CURRENT-PROGRAM TO
                ACCOMM-PGM-STACK(ACCOMM-CNT-PGM-STACK).
           MOVE AC99W-TRANSID TO
                ACCOMM-TRANSID-STACK(ACCOMM-CNT-PGM-STACK).
      *%****************************************************************
      *%       EXECUTE NEXT PROGRAM                                    *
      *%****************************************************************
           MOVE ACCOMM-CURRENT-PROGRAM TO AC99W-HIGHER-DIALOG-NAME.
           MOVE ACCOMM-CURRENT-PROGRAM TO ACCOMM-FROM-PROGRAM.
           MOVE SPACES TO ACCOMM-CURRENT-PROGRAM.
           PERFORM 520-COMMIT-DB
              THRU 520-COMMIT-DB-EXIT.

           EXEC CICS
                XCTL
                PROGRAM(AC99W-NEXT-PROGRAM)
                COMMAREA(ACCOMM)
                LENGTH(ACCOMM-LENGTH)
           END-EXEC.

       332-INVOKE-EXIT.
           EXIT.

      *%---------------------------------------------------------------*
      *%                                                               *
      *%                   334-LINK-DIALOG ROUTINE                     *
      *%                                                               *
      *%---------------------------------------------------------------*
       334-LINK-DIALOG.

           IF ACCOMM-LINK-RETURN-ID > +0
              AND ACCOMM-LINK-OPTION NOT = AC99W-YES
              PERFORM 332-INVOKE
                 THRU 332-INVOKE-EXIT
              GO TO 334-LINK-DIALOG-EXIT
           END-IF.

      *%****************************************************************
      *%       SAVE GLOBAL RECORD                                      *
      *%****************************************************************
           MOVE AC99W-LINK TO ACCOMM-RECALL-CODE.
           PERFORM 326-SAVE-CONTEXT-G
              THRU 326-SAVE-CONTEXT-G-EXIT.

      *%****************************************************************
      *%       SAVE LOCAL RECORDS - INCREASE STACK COUNT               *
      *%****************************************************************
           MOVE ACCOMM-CNT-PGM-STACK TO AC99W-CONTEXT-QUEUE-L-7-8.
           PERFORM 322-SAVE-CONTEXT-L
              THRU 322-SAVE-CONTEXT-L-EXIT.
           ADD +1 TO ACCOMM-CNT-PGM-STACK.
           IF ACCOMM-CNT-PGM-STACK GREATER AC99W-CNT-PGM-STACK-MAX
               EXEC CICS
                    ABEND
                    ABCODE('9334')
                    CANCEL
               END-EXEC
           END-IF.

      *%****************************************************************
      *%       SAVE VARIABLES FOR RETURN FROM LINKED PROGRAM           *
      *%****************************************************************
           MOVE ACCOMM-CURRENT-PROGRAM TO
                ACCOMM-PGM-STACK(ACCOMM-CNT-PGM-STACK).
           MOVE AC99W-TRANSID TO
                ACCOMM-TRANSID-STACK(ACCOMM-CNT-PGM-STACK).
           MOVE ACCOMM-CURRENT-PROGRAM TO
                AC99W-HIGHER-DIALOG-NAME.

      *%****************************************************************
      *%       SAVE ALL DATABASE CHANGES                               *
      *%****************************************************************
           IF AC99W-FLAG-COMMIT = 'Y'
              MOVE 'N' TO AC99W-FLAG-COMMIT
              PERFORM 520-COMMIT-DB
                 THRU 520-COMMIT-DB-EXIT
           END-IF.

      *%****************************************************************
      *%       LINK TO THE NEXT PROGRAM                                *
      *%****************************************************************
           EXEC CICS
                LINK
                PROGRAM(AC99W-NEXT-PROGRAM)
                COMMAREA(ACCOMM)
                LENGTH(ACCOMM-LENGTH)
           END-EXEC.

      *%****************************************************************
      *%       AFTER RETURN - PICK UP CHANGES TO GLOBAL RECORD         *
      *%****************************************************************
           MOVE AC99W-SECOND-TIME TO ACCOMM-RECALL-CODE.
           PERFORM 306-RESTORE-CONTEXT-G
              THRU 306-RESTORE-CONTEXT-G-EXIT.

      *%****************************************************************
      *%       AFTER RETURN - PICK UP CHANGES TO LOCAL RECORDS         *
      *%****************************************************************
           MOVE ACCOMM-CNT-PGM-STACK TO AC99W-CONTEXT-QUEUE-L-7-8.
           PERFORM 302-RESTORE-CONTEXT-L
              THRU 302-RESTORE-CONTEXT-L-EXIT.

      *%****************************************************************
      *%       DELETE SAVED TEMP STORAGE AREAS                         *
      *%****************************************************************
           PERFORM 312-DELETE-CONTEXT-L
              THRU 312-DELETE-CONTEXT-L-EXIT.
           SUBTRACT +1 FROM ACCOMM-CNT-PGM-STACK.
           MOVE ACCOMM-CNT-PGM-STACK TO AC99W-CONTEXT-QUEUE-L-7-8.
           PERFORM 312-DELETE-CONTEXT-L
              THRU 312-DELETE-CONTEXT-L-EXIT.

       334-LINK-DIALOG-EXIT.
           EXIT.


      *%---------------------------------------------------------------*
      *%                                                               *
      *%                   395-RETURN ROUTINE                          *
      *%                                                               *
      *%---------------------------------------------------------------*
       395-RETURN.
      *%****************************************************************
      *%       CANNOT RETURN IF AT TOP OF STACK                        *
      *%****************************************************************
           MOVE ACCOMM-CNT-PGM-STACK TO ACCOMM-CNT-PGM-STACK-FROM.
           IF ((AC99W-NEXT-PROGRAM = AC99W-TOP)
            OR AC99W-NEXT-PROGRAM = AC99W-POP
            OR AC99W-NEXT-PROGRAM = AC99W-POPTOP
            OR (AC99W-NEXT-PROGRAM = AC99W-HIGHER))
            AND ACCOMM-CNT-PGM-STACK = ZERO
               MOVE AC99W-MESSAGE-900001 TO AC99W-DISP-MSG
               PERFORM 750-DISPLAY
                  THRU 750-DISPLAY-EXIT
               EXEC CICS
                   RETURN
               END-EXEC
           END-IF.

           MOVE AC99W-TRANSFER TO ACCOMM-RECALL-CODE.
           MOVE AC99W-RETURN TO ACCOMM-FROM-PROGRAM.
           MOVE SPACES TO ACCOMM-CURRENT-PROGRAM.
      *%****************************************************************
      *%       RETURN TO TOP LEVEL PROGRAM IN STACK                    *
      *%****************************************************************
           IF AC99W-NEXT-PROGRAM = AC99W-TOP
            OR AC99W-NEXT-PROGRAM = AC99W-POPTOP
               MOVE AC99W-PROGRAM-NAME TO ACCOMM-FROM-PROGRAM
               MOVE ACCOMM-CNT-PGM-STACK TO AC99W-CONTEXT-QUEUE-L-7-8
               MOVE ACCOMM-FUNC-STACK(1) TO
                    AGR-NEXT-FUNCTION
               MOVE ACCOMM-FUNC-DESC-STACK(1) TO
                    AGR-NEXT-FUNC-DESCRIPTION
               PERFORM 326-SAVE-CONTEXT-G
                  THRU 326-SAVE-CONTEXT-G-EXIT
               PERFORM 322-SAVE-CONTEXT-L
                  THRU 322-SAVE-CONTEXT-L-EXIT
               MOVE ACCOMM-PGM-STACK(1) TO AC99W-NEXT-PROGRAM
               MOVE ZEROS TO ACCOMM-CNT-PGM-STACK
               PERFORM 520-COMMIT-DB
                  THRU 520-COMMIT-DB-EXIT
               EXEC CICS
                    XCTL
                    PROGRAM(AC99W-NEXT-PROGRAM)
                    COMMAREA(ACCOMM)
                    LENGTH(ACCOMM-LENGTH)
               END-EXEC
           END-IF.

      *%****************************************************************
      *%       RETURN TO HIGHER PROGRAM IN STACK                       *
      *%****************************************************************
           IF AC99W-NEXT-PROGRAM = AC99W-HIGHER
              OR AC99W-NEXT-PROGRAM = AC99W-POP
               MOVE ACCOMM-CNT-PGM-STACK TO AC99W-CONTEXT-QUEUE-L-7-8
                MOVE ACCOMM-FUNC-STACK(ACCOMM-CNT-PGM-STACK) TO
                     AGR-NEXT-FUNCTION
                MOVE ACCOMM-FUNC-DESC-STACK(ACCOMM-CNT-PGM-STACK) TO
                     AGR-NEXT-FUNC-DESCRIPTION
               PERFORM 326-SAVE-CONTEXT-G
                  THRU 326-SAVE-CONTEXT-G-EXIT
               PERFORM 322-SAVE-CONTEXT-L
                  THRU 322-SAVE-CONTEXT-L-EXIT
               MOVE ACCOMM-PGM-STACK(ACCOMM-CNT-PGM-STACK)
                   TO AC99W-NEXT-PROGRAM
               SUBTRACT +1 FROM ACCOMM-CNT-PGM-STACK
               PERFORM 520-COMMIT-DB
                  THRU 520-COMMIT-DB-EXIT
               EXEC CICS
                    XCTL
                    PROGRAM(AC99W-NEXT-PROGRAM)
                    COMMAREA(ACCOMM)
                    LENGTH(ACCOMM-LENGTH)
               END-EXEC
           END-IF.

      *%****************************************************************
      *%       LOOP THRU STACK TO FIND NEXT PROGRAM NAME               *
      *%****************************************************************
           SUBTRACT -1 FROM ACCOMM-CNT-PGM-STACK
              GIVING AC99W-SUB1.
           PERFORM WITH TEST BEFORE
             UNTIL NOT (AC99W-SUB1 GREATER +1)
               ADD -1 TO AC99W-SUB1
               IF AC99W-NEXT-PROGRAM =
                        ACCOMM-PGM-STACK(AC99W-SUB1)
                   MOVE ACCOMM-CNT-PGM-STACK
                       TO AC99W-CONTEXT-QUEUE-L-7-8
                   PERFORM 326-SAVE-CONTEXT-G
                      THRU 326-SAVE-CONTEXT-G-EXIT
                   PERFORM 322-SAVE-CONTEXT-L
                      THRU 322-SAVE-CONTEXT-L-EXIT
                   SUBTRACT +1 FROM AC99W-SUB1
                      GIVING ACCOMM-CNT-PGM-STACK
                   PERFORM 520-COMMIT-DB
                      THRU 520-COMMIT-DB-EXIT

                   EXEC CICS
                        XCTL
                        PROGRAM(AC99W-NEXT-PROGRAM)
                        COMMAREA(ACCOMM)
                        LENGTH(ACCOMM-LENGTH)
                   END-EXEC

               END-IF
           END-PERFORM.


      *%********************************
      *%ERROR - PROGRAM NOT IN STACK
      *%********************************
FCAMH *    MOVE AC99W-MESSAGE-900021 TO AC99W-DISP-MSG.
FCAMH      MOVE '177020' TO AC99W-MC-MESSAGE-NO
FCAMH      PERFORM 399-GET-MESSAGE
FCAMH         THRU 399-GET-MESSAGE-EXIT
FCAMH      MOVE DCLINK-MESSAGE TO AC99W-DISP-MSG
           PERFORM 750-DISPLAY
              THRU 750-DISPLAY-EXIT.
           EXEC CICS
               RETURN
           END-EXEC.

       395-RETURN-EXIT.
           EXIT.


      *%---------------------------------------------------------------*
      *%                                                               *
      *%                   399-GET-MESSAGE ROUTINE                     *
      *%                                                               *
      *%---------------------------------------------------------------*
       399-GET-MESSAGE.

       399-GET-MESSAGE-010.
FCAMH      EXEC SQL
FCAMH           INCLUDE ACMSGCOD
FCAMH      END-EXEC.
       399-GET-MESSAGE-EXIT.
           EXIT.



      *%---------------------------------------------------------------*
      *%                                                               *
      *%                   500-INIT-PROGRAM ROUTINE                    *
      *%                                                               *
      *%---------------------------------------------------------------*
       500-INIT-PROGRAM.

      *%****************************************************************
      *%       INITIALIZE KEY PROGRAM VARIABLES                        *
      *%****************************************************************
FLT04***   MOVE AC99W-APPLICATION TO AGR-APPLICATION-NAME.
           MOVE EIBAID TO AGR-AID-BYTE.
           MOVE 'D' TO AGR-CURRENT-FUNC-TYPE.
           MOVE AC99W-PROGRAM-NAME TO AGR-DIALOG-NAME.
           MOVE SPACES TO AGR-MAP-RESPONSE.
           MOVE SPACES TO DCLINK-MESSAGE.
           EXEC CICS
                ASKTIME
                ABSTIME(AC99W-ABSTIME)
           END-EXEC.
           EXEC CICS
                FORMATTIME
                ABSTIME(AC99W-ABSTIME)
                YYMMDD(AC99W-DATE)
                TIME(AC99W-TIME)
           END-EXEC.
FCAMH      EXEC CICS
FCAMH           FORMATTIME
FCAMH           ABSTIME(AC99W-ABSTIME)
FCAMH           DATESEP
FCAMH           DATE(AGR-DATE)
FCAMH      END-EXEC.
           EXEC CICS ASSIGN
                USERID(AC99W-USER-ID)
           END-EXEC.
           INSPECT AC99W-USER-ID CONVERTING
                'abcdefghijklmnopqrstuvwxyz' TO
                'ABCDEFGHIJKLMNOPQRSTUVWXYZ'.

       500-INIT-PROGRAM-EXIT.
           EXIT.

      *%---------------------------------------------------------------*
      *%                                                               *
      *%                   501-INIT-GLOBAL-RECORDS ROUTINE             *
      *%                                                               *
      *%---------------------------------------------------------------*
       501-INIT-GLOBAL-RECORDS.

           INITIALIZE ADSO-APPLICATION-GLOBAL-RECORD.

           MOVE QUOTE TO AGR-AID-BYTE OF ADSO-APPLICATION-GLOBAL-RECORD.
           MOVE 'N' TO AGR-SIGNON-SWITCH OF
                ADSO-APPLICATION-GLOBAL-RECORD.

       501-INIT-GLOBAL-RECORDS-EXIT.
           EXIT.

      *%---------------------------------------------------------------*
      *%                                                               *
      *%                   502-INIT-LOCAL-RECORDS ROUTINE              *
      *%                                                               *
      *%---------------------------------------------------------------*
       502-INIT-LOCAL-RECORDS.


           INITIALIZE ADSO-STAT-DEF-REC.

       502-INIT-LOCAL-RECORDS-EXIT.
           EXIT.

      *%---------------------------------------------------------------*
      *%                                                               *
      *%                   520-COMMIT-DB ROUTINE                       *
      *%               RESET ANY ACTIVE FILES                          *
      *%                                                               *
      *%---------------------------------------------------------------*
       520-COMMIT-DB.
      *%****************************************************************
      *%       COMMIT THE DATABASE UPDATES                             *
      *%****************************************************************
           IF AC99W-FLAG-IDMS-BIND = AC99W-YES
      *%       FINISH
               PERFORM 996-COMMIT
                  THRU 996-COMMIT-EXIT
               PERFORM 999-SQL-STATUS
                  THRU 999-SQL-STATUS-EXIT
           END-IF.

           MOVE AC99W-NO TO AC99W-FLAG-IDMS-BIND.

       520-COMMIT-DB-EXIT.
           EXIT.

      *%---------------------------------------------------------------*
      *%                                                               *
      *%                   750-DISPLAY ROUTINE                         *
      *%                                                               *
      *%---------------------------------------------------------------*
       750-DISPLAY.

           EXEC CICS XCTL
             PROGRAM('SDFISE')
           END-EXEC.

       750-DISPLAY-EXIT.
           EXIT.

      *%---------------------------------------------------------------*
      *%                                                               *
      *%                   790-CICS-ABEND ROUTINE                      *
      *%                                                               *
      *%---------------------------------------------------------------*
       790-CICS-ABEND.

           COPY USRABEND.

       790-CICS-ABEND-EXIT.
           EXIT.

      *%   COPY IDMS IDMS-STATUS.
      *
      *%-------------------------------------------------------------- *
      *%                                                               *
      *%              895-TEST-CICS-RESPONSE ROUTINE                   *
      *%                                                               *
      *%-------------------------------------------------------------- *
       895-TEST-CICS-RESPONSE.
           IF DCLINK-CICS-RESP = DFHRESP(NORMAL)
               GO TO 895-TEST-CICS-RESPONSE-EXIT.
           MOVE DCLINK-CICS-RESP TO DCLINK-ABEND-CODE.
           EXEC CICS
               ABEND ABCODE(DCLINK-ABEND-CODE)
           END-EXEC.
       895-TEST-CICS-RESPONSE-EXIT.
           EXIT.

      /
      *%-------------------------------------------------------------- *
      *%                                                               *
      *%                    996-COMMIT ROUTINE                         *
      *%                                                               *
      *%-------------------------------------------------------------- *
       996-COMMIT.
       996-COMMIT-EXIT.
           EXIT.
      /
      *%-------------------------------------------------------------- *
      *%                                                               *
      *%                  999-SQL-STATUS ROUTINE                       *
      *%                                                               *
      *%-------------------------------------------------------------- *
       999-SQL-STATUS.
           EXEC SQL
               INCLUDE ONLNERR
           END-EXEC.
       999-SQL-STATUS-EXIT.
           EXIT.

