       IDENTIFICATION DIVISION.
       PROGRAM-ID. FSYDI08.
       AUTHOR. FORECROSS CORPORATION.
       INSTALLATION. UCSD - USDFINSYS.
       DATE-WRITTEN.  20000524.
       DATE-COMPILED. 20000524.
      ****----------------------------------------------------------****
      **  AUTHOR    DATE    DESCRIPTION                                *
      **  ------- --------  ----------------------------------------   *
DEVBWS**  DEVBWS  06/29/01  DELETE SYNCPOINTS, 976-, ADD "FOR FETCH    *
DEVBWS**                    ONLY" TO DECLARES                          *
DEVBWS**  DEVBWS  07/05/01  DELETE USE OF DBLINK-RECORD-SET-KEYS TSQ   *
      **  DEVDMW  08/02/01  FIXED SECURITY VIOLATION EXIT              *
      **  DEVBWS  11/07/01  TSQ PERFORMANCE
      **                                                               *
      ****----------------------------------------------------------****
      *%****************************************************************
      *%                                                               *
      *%  Converted Using Forecross Corporation Redeployment Software  *
      *%                                                               *
      *%                     Convert/ADSO                              *
      *%                     Convert/IDMS-DC                           *
      *%                     Convert/IDMS-DB                           *
      *%                                                               *
      *%****************************************************************
      *%          COPYRIGHT 2000 - FORECROSS CORPORATION               *
      *%                    ALL RIGHTS RESERVED                        *
      *%****************************************************************


           COPY CBCVDBNT.

      *%996-COMMIT
       ENVIRONMENT DIVISION.
       CONFIGURATION SECTION.
       SOURCE-COMPUTER.  IBM-3090.
       OBJECT-COMPUTER.  IBM-3090.
       INPUT-OUTPUT SECTION.

      *MAP SECTION.
      *MAP FSYMI08.

       FILE-CONTROL.
       I-O-CONTROL.
      *IDMS-CONTROL SECTION.
      *PROTOCOL. MODE IS IDMS-DC DEBUG
      *%         IDMS-RECORDS MANUAL.


       DATA DIVISION.


       WORKING-STORAGE SECTION.
       01  FILLER  PIC X(32) VALUE '** FSYDI08 WORKING STRG BEGINS'.

      *%****************************************************************
       01  AC99W.
           COPY AC99W.
      *%****************************************************************
      *%****************************************************************
      *%              AC99W FIELDS UNIQUE TO THIS PROGRAM              *
      *%****************************************************************
FCAMH *    10  AC99W-APPLICATION            PIC X(8) VALUE 'FSYDI08'.
           10  AC99W-MAIN-MENU              PIC X(8) VALUE 'FSYDM00'.
           10  AC99W-PROGRAM-NAME           PIC X(8) VALUE 'FSYDI08'.
           10  AC99W-MAPNAME                PIC X(8) VALUE 'FSYMI08 '.
           10  AC99W-TRANSID                PIC X(4) VALUE 'F251'.
           10  AC99W-FSYWG12D-F             PIC X(1)
                                VALUE 'N'.

      *%****************************************************************
      *%           APPLICATION WORK AREAS                              *
      *%****************************************************************
           COPY ACAPPL.


      *%****************************************************************
      *%               IDMS RECORD COPIES                              *
      *%****************************************************************
      *%   COPY IDMS SUBSCHEMA-CONTROL.
       01  SUBSCHEMA-CONTROL.
           EXEC SQL
               INCLUDE CBRSKEYS
           END-EXEC.
FCSAH      EXEC SQL
FCSAH          INCLUDE SQLCA
FCSAH      END-EXEC.
      *%   COPY IDMS SUBSCHEMA-SSNAME.
      *%   COPY IDMS SUBSCHEMA-AREANAMES.
      *%   COPY IDMS SUBSCHEMA-RECNAMES.
      *%   COPY IDMS SUBSCHEMA-SETNAMES.
      *%   COPY IDMS RECORD ADSO-APPLICATION-GLOBAL-RECORD.
CPYNME     COPY ADSOGLBL.
DEVBWS*%   COPY IDMS RECORD FISWG00M.
DEVBWS     COPY FISWG00M.
      *%   COPY IDMS RECORD FSYWG12D.
CPYNME     COPY FSYWG12D.


      *%****************************** *
      *%MAP DATA AREA FOR FSYMI08
      *%****************************** *
           COPY FSYMI08T.

      *%****************************** *
      *%SCRATCH QUEUE DATA AREA
      *%****************************** *
           COPY DCGSCRCH.

      *%****************************** *
      *%CICS COPIES
      *%****************************** *
           COPY DFHAID.
           COPY DFHBMSCA.

      *%****************************** *
      *%STANDARD MAPPING COPIES
      *%****************************** *
           COPY DCLINKCA.
           COPY ACCOMM.
FCFLT7     COPY ONLWS.

FCMCS      EXEC SQL
FCMCS          INCLUDE CBCVDBCA
FCMCS      END-EXEC.

FCAMH      EXEC SQL
FCAMH          INCLUDE ACMSGHT
FCAMH      END-EXEC.
FCAMH      EXEC SQL
FCAMH          INCLUDE HVMSL
FCAMH      END-EXEC.

       LINKAGE SECTION.
       01  DFHCOMMAREA.
           10  DFHCOMMAREAZ PIC X(950).


      /
      *%-------------------------------------------------------------- *
      *%                                                               *
      *%                    CURSOR DECLARATIONS                        *
      *%                                                               *
      *%-------------------------------------------------------------- *

       PROCEDURE DIVISION.







      *%---------------------------------------------------------------*
      *%                                                               *
      *%                   000-RUN-CONTROL ROUTINE                     *
      *%                                                               *
      *%---------------------------------------------------------------*
       000-RUN-CONTROL.

           PERFORM 010-INITIALIZE
              THRU 010-INITIALIZE-EXIT.
           PERFORM 020-MAINLINE
              THRU 020-MAINLINE-EXIT.
           PERFORM 030-WRAPUP
              THRU 030-WRAPUP-EXIT.

       000-RUN-CONTROL-EXIT.
           EXIT.

      *%---------------------------------------------------------------*
      *%                                                               *
      *%                   010-INITIALIZE ROUTINE                      *
      *%                                                               *
      *%---------------------------------------------------------------*
       010-INITIALIZE.
      *%****************************************************************
      *%       INITIALIZE ALL TEMPORARY STORAGE QUEUE NAMES            *
      *%****************************************************************
           MOVE EIBTRMID TO AC99W-CONTEXT-QUEUE-L-1-4.
           MOVE EIBTRMID TO AC99W-CONTEXT-QUEUE-G-1-4.
           MOVE EIBTRMID TO AC99W-DEFAULT-QUEUE-1-4.

      *%****************************************************************
      *%       INITIALIZE ALL PROGRAM RECORDS                          *
      *%****************************************************************
           PERFORM 501-INIT-GLOBAL-RECORDS
              THRU 501-INIT-GLOBAL-RECORDS-EXIT
           PERFORM 502-INIT-LOCAL-RECORDS
              THRU 502-INIT-LOCAL-RECORDS-EXIT.
      *%****************************************************************
      *%       PERFORM ALL OTHER DEFAULT INITIALIZATION                *
      *%****************************************************************
      *%   COPY AC1TMA.
CPYNME     EXEC SQL
CPYNME         INCLUDE AC1TMA
CPYNME     END-EXEC.


       010-INITIALIZE-EXIT.
           EXIT.


      *%---------------------------------------------------------------*
      *%                                                               *
      *%                   020-MAINLINE ROUTINE                        *
      *%                                                               *
      *%---------------------------------------------------------------*
       020-MAINLINE.
      *%****************************************************************
      *%       IF RETURNING FROM HIGHER-LEVEL PROGRAM                  *
      *%****************************************************************
           IF ACCOMM-FROM-PROGRAM = AC99W-RETURN
      *%*    Place PERFORM OF ROUTINE To Handle RETURN FROM LINK Here **
               MOVE SPACES TO ACCOMM-FROM-PROGRAM
      *%****************************************************************
      *%*    RESET IDENTITY OF LINK TO MAP-CONTAINING PROGRAM          *
      *%****************************************************************
               MOVE +0 TO ACCOMM-LINK-RETURN-ID
               MOVE AC99W-SECOND-TIME TO ACCOMM-RECALL-CODE

      *%****************************************************************
      *%       IF RETURN WITH THE CLEAR OPTION                         *
      *%****************************************************************
               IF ACCOMM-FLAG-CLEAR = AC99W-YES
                   PERFORM 502-INIT-LOCAL-RECORDS
                      THRU 502-INIT-LOCAL-RECORDS-EXIT
               END-IF

      *%****************************************************************
      *%       IF RETURN WITH THE CONTINUE (PREMAP) OPTION             *
      *%****************************************************************
               IF ACCOMM-FLAG-CONTINUE = AC99W-YES
                   PERFORM 120-PREMAP
                      THRU 120-PREMAP-EXIT
               END-IF

      *%****************************************************************
      *%       IF LAST MAP DISPLAYED WAS NOT THIS PROGRAMS MAP         *
      *%****************************************************************
               IF ACCOMM-CURRENT-MAP NOT = AC99W-MAPNAME
                   MOVE AC99W-MAPNAME TO ACCOMM-CURRENT-MAP
                   MOVE AC99W-YES TO WK01-FLAG-ALL-FIELDS-ERASE
                   MOVE AC99W-YES TO WK01-1ST-FLAG
                 ELSE
                   MOVE AC99W-NO TO WK01-FLAG-ALL-FIELDS-ERASE
                   MOVE AC99W-NO TO WK01-1ST-FLAG
               END-IF
      *%       MAP OUT USING FSYMI08
               PERFORM 810-MAPOUT-FSYMI08
                  THRU 810-MAPOUT-FSYMI08-EXIT
               GO TO 020-MAINLINE-EXIT
           END-IF.

      *%****************************************************************
      *%*    RESET IDENTITY OF LINK TO MAP-CONTAINING PROGRAM          *
      *%****************************************************************
           MOVE +0 TO ACCOMM-LINK-RETURN-ID.

      *%****************************************************************
      *%       IF FIRST TIME INTO THIS PROGRAM JUST DISPLAY THE MAP    *
      *%****************************************************************
           IF ACCOMM-RECALL-CODE = AC99W-FIRST-TIME
            OR ACCOMM-RECALL-CODE = AC99W-TRANSFER
            OR ACCOMM-RECALL-CODE = AC99W-INVOKE
               MOVE AC99W-SECOND-TIME TO ACCOMM-RECALL-CODE
               MOVE AC99W-MAPNAME TO ACCOMM-CURRENT-MAP
               PERFORM 120-PREMAP
                  THRU 120-PREMAP-EXIT
      *%       MAP OUT USING FSYMI08
               PERFORM 810-MAPOUT-FSYMI08
                  THRU 810-MAPOUT-FSYMI08-EXIT
               GO TO 020-MAINLINE-EXIT
           END-IF.


      *%****************************************************************
      *%       IF BEYOND FIRST TIME, MAPIN IF THERE IS ANY DATA        *
      *%****************************************************************
           IF EIBAID = DFHPA1
            OR EIBAID = DFHPA2
            OR EIBAID = DFHPA3
            OR EIBAID = DFHCLEAR
               NEXT SENTENCE
           ELSE
      *%       MAP IN USING FSYMI08
               PERFORM 800-MAPIN-FSYMI08
                  THRU 800-MAPIN-FSYMI08-EXIT
               IF DCLINK-CICS-RESP NOT = DFHRESP(MAPFAIL)
                   PERFORM 895-TEST-CICS-RESPONSE
                      THRU 895-TEST-CICS-RESPONSE-EXIT
               END-IF
           END-IF.


      *%****************************************************************
      *%       SET DEFAULT RESPONSE FOR ADSA PROCESSING                *
      *%****************************************************************
FCBCC *    PERFORM 385-SET-RESPONSE
FCBCC *       THRU 385-SET-RESPONSE-EXIT.
FCBCC      PERFORM 386-SET-CURRENT-RESPONSE
FCBCC         THRU 386-SET-CURRENT-RESPONSE-EXIT.
FCBCC      PERFORM 387-SET-NEXT-FUNCTION
FCBCC         THRU 387-SET-NEXT-FUNCTION-EXIT.
           IF AC99W-ERROR-IND1 = AC99W-YES
               PERFORM 480-BUILD-ERROR
                  THRU 480-BUILD-ERROR-EXIT
           END-IF.

      *%****************************************************************
      *%       DO RESPONSE PROCESSING                                  *
      *%****************************************************************
           PERFORM 140-RESPONSE
              THRU 140-RESPONSE-EXIT.

      *%****************************************************************
      *%       IF ANY ERROR AND PREMAP IS NOT TO BE PERFORMED AGAIN    *
      *%****************************************************************
           IF AC99W-ERROR-IND1 = AC99W-YES
            AND AC99W-FLAG-DISPLAY-CONTINUE = AC99W-NO
               PERFORM 480-BUILD-ERROR
                  THRU 480-BUILD-ERROR-EXIT
               IF NOT AGR-CLEAR
                   MOVE AC99W-NO TO WK01-FLAG-ALL-FIELDS-ERASE
      *%           MAP OUT USING FSYMI08 OUTPUT DATA IS NO
                   MOVE 'Y' TO WK01-FLAG-OUTPUT-DATA
                   PERFORM 810-MAPOUT-FSYMI08
                      THRU 810-MAPOUT-FSYMI08-EXIT
                   GO TO 020-MAINLINE-EXIT
               END-IF
           END-IF.

      *%****************************************************************
      *%       IF PREMAP IS TO BE PERFORMED AGAIN                      *
      *%****************************************************************
           IF AC99W-FLAG-DISPLAY-CONTINUE = AC99W-YES
               MOVE AC99W-NO TO AC99W-FLAG-DISPLAY
               PERFORM 120-PREMAP
                  THRU 120-PREMAP-EXIT

      *%****************************************************************
      *%       IF ANY ERROR                                            *
      *%****************************************************************
               IF AC99W-ERROR-IND1 = AC99W-YES
                   PERFORM 480-BUILD-ERROR
                      THRU 480-BUILD-ERROR-EXIT
                   IF NOT AGR-CLEAR
                       MOVE AC99W-NO TO WK01-FLAG-ALL-FIELDS-ERASE
      *%               MAP OUT USING FSYMI08 OUTPUT DATA IS NO
                       MOVE 'Y' TO WK01-FLAG-OUTPUT-DATA
                       PERFORM 810-MAPOUT-FSYMI08
                          THRU 810-MAPOUT-FSYMI08-EXIT
                       GO TO 020-MAINLINE-EXIT
                   END-IF
               END-IF
           END-IF.

      *%****************************************************************
      *%       IF LAST MAP DISPLAYED WAS NOT THIS PROGRAMS MAP         *
      *%****************************************************************
           IF ACCOMM-CURRENT-MAP NOT = AC99W-MAPNAME
            OR AGR-CLEAR
               MOVE AC99W-MAPNAME TO ACCOMM-CURRENT-MAP
               MOVE AC99W-YES TO WK01-FLAG-ALL-FIELDS-ERASE
             ELSE
               MOVE AC99W-NO TO WK01-FLAG-ALL-FIELDS-ERASE
           END-IF.
      *%   MAP OUT USING FSYMI08.
           PERFORM 810-MAPOUT-FSYMI08
              THRU 810-MAPOUT-FSYMI08-EXIT.

       020-MAINLINE-EXIT.
           EXIT.

      *%---------------------------------------------------------------*
      *%                                                               *
      *%                   030-WRAPUP ROUTINE                          *
      *%                                                               *
      *%---------------------------------------------------------------*
       030-WRAPUP.
      *%****************************************************************
      *%       SAVE GLOBAL AND LOCAL RECORDS FOR THIS CICS TRANSACTION *
      *%****************************************************************
           IF AC99W-TRANSID = SPACES
              EXEC CICS
                  RETURN
              END-EXEC
           ELSE
              PERFORM 326-SAVE-CONTEXT-G
                 THRU 326-SAVE-CONTEXT-G-EXIT
FCAMH         MOVE AC99W-PARTIAL TO AC99W-NOSAVE-OPTION
              PERFORM 322-SAVE-CONTEXT-L
                 THRU 322-SAVE-CONTEXT-L-EXIT
      *%****************************************************************
      *%       RETURN TO CICS - WAIT FOR NEXT USER RESPONSE            *
      *%****************************************************************
              EXEC CICS
                   RETURN
                   TRANSID(AC99W-TRANSID)
                   COMMAREA(ACCOMM)
                   LENGTH(ACCOMM-LENGTH)
              END-EXEC
           END-IF.

       030-WRAPUP-EXIT.
           EXIT.


       EJECT
      *%---------------------------------------------------------------*
      *%                                                               *
      *%                   120-PREMAP ROUTINE                          *
      *%                                                               *
      *%---------------------------------------------------------------*
       120-PREMAP.

FCBCC      MOVE SPACES TO AGR-PASSED-ONE.
      ******************************************************************
      *******
      **********************  BEGINNING OF MODULE  *********************
      *******
      ******************************************************************
      *******
      **************************************************************
      *******  PERFORM INCLUDE SUBROUTINE ZZYID01                      *
      **************************************************************
               PERFORM 200-ZZYID01
                  THRU 200-ZZYID01-EXIT.
      *** COPYRIGHT STATEMENT
      ******************************************************************
      *******
      ***  MODULE      : FSYPI08
      ***  DESCRIPTION : SECURITY VIOLATION PREMAP
      ***  WRITTEN BY  : RICHARD LANDER  (COPIED FOR FIMS - H. WOOD)
      ***  DATE WRITTEN: 05/87
      ***  COMMENTS    : DISPLAYS NAME OF RESPONSE THAT CREATED SECURITY
      ***                VIOLATION.
      ***  CURRENCY    : NO DATABASE CALLS.
      ******************************************************************
      *******
      ******************************************************************
      *******
      ***                           CHANGE HISTORY
      *     *
      ***
      *     *
      *** REF  AUTH    DATE                  DESCRIPITON               T
      *SIS  *
      *** ---  ----  --------  --------------------------------------  -
      *---- *
      *** 001  XXX   MM/DD/YY  XXXXXXXXXXXXXXXXXXXXXXXXXXXXXXXXXXXXXX  0
      *0000 *
      ***
      *     *
      ******************************************************************
      *******
      ******************************************************************
      *******
      ***                    M A I N L I N E
      ******************************************************************
      *******
      ***  INITIALIZE REQUIRED FIELDS TO CHECK FOR SECURITY AUTHORIZATIO
      *N.
      ******************************************************************
      *******
           MOVE AC99W-YES-DISPLAY TO AC99W-FLAG-DISPLAY.
           GO TO 120-PREMAP-EXIT.
      *
      ******************************************************************
      *******
      ************************  END OF MODULE  *************************
      *******
      ******************************************************************
      *******

       120-PREMAP-EXIT.
           EXIT.


      *%---------------------------------------------------------------*
      *%                                                               *
      *%                   140-RESPONSE ROUTINE                        *
      *%                                                               *
      *%---------------------------------------------------------------*
       140-RESPONSE.
      *%****************************************************************
      *%       EXAMINE USER RESPONSE                                   *
      *%****************************************************************

           IF AGR-ENTER
             PERFORM 150-FSYRI08
                THRU 150-FSYRI08-EXIT
FCBCC *      GO TO 140-RESPONSE-EXIT
FCBCC        GO TO 140-RESPONSE-900
           END-IF.

           IF AGR-PF1
             PERFORM 150-PF1HELP
                THRU 150-PF1HELP-EXIT
             GO TO 140-RESPONSE-EXIT
           END-IF.

      *%********************************
      *%DEFAULT CONTROL KEY PROCESSING
      *%********************************
           COPY ACDEFCTL.

FCBCC *%****************************************************************
      *%       DEFAULT IS TO PERFORM ENTER PROCESS                     *
      *%****************************************************************
           PERFORM 150-FSYRI08
              THRU 150-FSYRI08-EXIT.

FCBCC  140-RESPONSE-900.
      *%****************************************************************
      *%       SEND ERROR TO SCREEN IF THERE IS NO VALID RESPONSE      *
      ******************************************************************
FCBCC *    IF AGR-CURRENT-RESPONSE = SPACES
FCBCC      IF AC99W-ERROR-IND1 = AC99W-NO AND
FCBCC         AC99W-ERROR-IND2 = AC99W-NO AND
FCBCC         AC99W-ERROR-IND3 = AC99W-NO
FCBCC         NEXT SENTENCE
FCBCC       ELSE
FCBCC         IF AC99W-ERROR-IND2 = AC99W-YES
FCAMH *          MOVE AC99W-MESSAGE-900002 TO DCLINK-MESSAGE
FCAMH            MOVE '172008' TO AC99W-MC-MESSAGE-NO
FCBCC          ELSE
FCBCC           IF AC99W-ERROR-IND3 = AC99W-YES
FCBCC              MOVE '177023' TO AC99W-MC-MESSAGE-NO
FCSAH           END-IF
FCSAH         END-IF
FCAMH        PERFORM 399-GET-MESSAGE
FCAMH           THRU 399-GET-MESSAGE-EXIT
             PERFORM 480-BUILD-ERROR
                THRU 480-BUILD-ERROR-EXIT
             MOVE AC99W-YES TO AC99W-ERROR-IND1
             GO TO 140-RESPONSE-EXIT
           END-IF.

      *%****************************************************************
      *%       IF NO SCREEN DISPLAY - GO TO NEXT PROGRAM               *
      *%****************************************************************
           IF AC99W-FLAG-DISPLAY NOT = AC99W-YES-DISPLAY
              PERFORM 390-EXEC-NEXT-FUNCTION
                 THRU 390-EXEC-NEXT-FUNCTION-EXIT
           END-IF.

       140-RESPONSE-EXIT.
           EXIT.


       EJECT
      *%---------------------------------------------------------------*
      *%                                                               *
      *%                   150-FSYRI08 ROUTINE                         *
      *%                                                               *
      *%---------------------------------------------------------------*
       150-FSYRI08.

      ******************************************************************
      *******
      **********************  BEGINNING OF MODULE  *********************
      *******
      ******************************************************************
      *******
      **************************************************************
      *******  PERFORM INCLUDE SUBROUTINE ZZYID01                      *
      **************************************************************
               PERFORM 200-ZZYID01
                  THRU 200-ZZYID01-EXIT.
      *** COPYRIGHT STATEMENT
      ******************************************************************
      *******
      ***  MODULE      : FSYRI08
      ***  DESCRIPTION : SECURITY VIOLATION RESPONSE
      ***  WRITTEN BY  : RICHARD LANDER  (COPIED FOR FIMS - H. WOOD)
      ***  DATE WRITTEN: 05/87
      ***  COMMENTS    :
      ***  CURRENCY    : NO DATABASE CALLS
      ******************************************************************
      *******
      ******************************************************************
      *******
      ***                           CHANGE HISTORY
      *     *
      ***
      *     *
      *** REF  AUTH    DATE                  DESCRIPITON               T
      *SIS  *
      *** ---  ----  --------  --------------------------------------  -
      *---- *
      *** 001  XXX   MM/DD/YY  XXXXXXXXXXXXXXXXXXXXXXXXXXXXXXXXXXXXXX  0
      *0000 *
      *** 001  DMW   06/11/96  USE WORK-USER-ID TO GET SCRATCH RECORD
      *     *
      *** 002  DMW   03/30/00  DELETE REFERECE TO ZZYBU06             FI
      *S019 *
      ******************************************************************
      *******
      ******************************************************************
      *******
      ***  IF TRANSFERRING BETWEEN APPLICATIONS A SCRATCH RECORD IS WRIT
      *TEN.
      ***  MUST READ (AND THEREBY DELETE) THE SCRATCH RECORD TO AVOID HA
      *VING
      ***  IT PICKED UP LATER.
      ******************************************************************
      *******
      **GET SCRATCH AREA ID AGR-USER-ID
           MOVE AGR-USER-ID TO WORK-USER-ID-SY12.
      **DMW
      *
      *%   GET SCRATCH AREA ID WORK-USER-ID-SY12 INTO
      *%    AGR-PASSED-TWO MAX LENGTH 32 FIRST .
           MOVE '0000' TO ERROR-STATUS
           MOVE WORK-USER-ID-SY12 TO DCGSCRCH-ID-5-8
           MOVE +1 TO DCGSCRCH-ITEM
           PERFORM 850-GET-SCRATCH
              THRU 850-GET-SCRATCH-EXIT
           IF ERROR-STATUS = ZEROS
               MOVE 'A' TO DCLINK-MOVE-DATA-FLAG
               MOVE 32 TO DCGSCRCH-LENGTH
FXXCHG         CALL 'DCMOVDAT' USING
FXXCHG                 DCLINK-MOVE-DATA-FLAG
FXXCHG                 AGR-PASSED-TWO
FXXCHG                 DCGSCRCH-DATA
FXXCHG                 DCGSCRCH-LENGTH
               PERFORM 870-DELETE-SCRATCH
                  THRU 870-DELETE-SCRATCH-EXIT
           END-IF.
      *
      ******************************************************************
      *******
      ***  IF THE SECURITY ERROR IS ON AN APPLICATION, (E.G., PU, AP) TR
      *ANSFER
      ***  TO THE FIMS MAIN MENU.
      ******************************************************************
      *******
           IF (AGR-PASSED-THREE = AGR-APPLICATION-NAME ) OR
DEVDMW        ( ACCOMM-CURRENT-MAP = AC99W-MAPNAME)

FCSLA **********************************
FCSLA * LEAVE / ADS/APPL / CLEAR QUEUES
FCSLA **********************************
FCSLA              PERFORM 312-DELETE-CONTEXT-L
FCSLA                 THRU 312-DELETE-CONTEXT-L-EXIT WITH TEST BEFORE
FCSLA                VARYING AC99W-CONTEXT-QUEUE-L-7-8 FROM 0 BY 1
FCSLA                  UNTIL AC99W-CONTEXT-QUEUE-L-7-8
FCSLA                         > ACCOMM-CNT-PGM-STACK-HIGH
FCSLA              PERFORM 310-DELETE-CONTEXT-M
FCSLA                 THRU 310-DELETE-CONTEXT-M-EXIT
FCSLA
FCSLA              MOVE 'FSYDM00' TO AC99W-NEXT-PROGRAM
FCSLA
FCSLA              EXEC CICS
FCSLA                  XCTL PROGRAM(AC99W-NEXT-PROGRAM)
FCSLA              END-EXEC

           END-IF.
      *
      ******************************************************************
      *******
      ***  NO PREVIOUS SCREEN TO GO TO - GO TO THE APPLICATION MENU.
      ******************************************************************
      *******
           MOVE SPACES TO AGR-PASSED-DATA.
           IF RSPNS-QTY-SY00 = ZEROS
               MOVE AGR-APPLICATION-NAME TO AGR-PASSED-ONE
               MOVE 'TRANSFER' TO AGR-CURRENT-RESPONSE
               PERFORM 390-EXEC-NEXT-FUNCTION
                  THRU 390-EXEC-NEXT-FUNCTION-EXIT
           END-IF.
      *
           IF PRVS-RSPNS-ID-SY00 (RSPNS-QTY-SY00) = SPACES
               MOVE AGR-APPLICATION-NAME TO AGR-PASSED-ONE
               MOVE 'TRANSFER' TO AGR-CURRENT-RESPONSE
               PERFORM 390-EXEC-NEXT-FUNCTION
                  THRU 390-EXEC-NEXT-FUNCTION-EXIT
           END-IF.
      *
      ******************************************************************
      *******
      ***  RETURN TO SCREEN PRIOR TO THE ONE THAT CAUSED A SECURITY VIOL
      *ATION.
      ***  THIS SHOULD BE THE MOST RECENT ENTRY IN THE TABLE OF PRIOR
      ***  RESPONSES, SINCE THE SECURITY VIOLATION WILL BE DETECTED BEFO
      *RE
      ***  THE NAME OF THE SCREEN IN VIOLATION IS SAVED.
      ******************************************************************
      *******
           MOVE PRVS-RSPNS-ID-SY00 (RSPNS-QTY-SY00) TO AGR-PASSED-ONE.
           MOVE 'TRANSFER' TO AGR-CURRENT-RESPONSE.
           PERFORM 390-EXEC-NEXT-FUNCTION
              THRU 390-EXEC-NEXT-FUNCTION-EXIT.
      *
      ******************************************************************
      *******
      *************************  END OF MODULE *************************
      *******
      ******************************************************************
      *******

       150-FSYRI08-EXIT.
           EXIT.


       EJECT
      *%---------------------------------------------------------------*
      *%                                                               *
      *%                   150-PF1HELP ROUTINE                         *
      *%                                                               *
      *%---------------------------------------------------------------*
       150-PF1HELP.

      ******************************************************************
      *******
      ***  INVOKE THE HELP PROGRAM
      ******************************************************************
      *******
      *

      **********************************
      * INVOKE DIALOG 'FPF1HLP'
      **********************************
           MOVE 'FPF1HLP' TO AC99W-NEXT-PROGRAM.
           PERFORM 332-INVOKE
              THRU 332-INVOKE-EXIT.

      *
      ******************************************************************
      *******

       150-PF1HELP-EXIT.
           EXIT.


       EJECT
           EXEC SQL
               INCLUDE ZZYID01
           END-EXEC.



      *%---------------------------------------------------------------*
      *%                                                               *
      *%                   302-RESTORE-CONTEXT-L ROUTINE               *
      *%                                                               *
      *%---------------------------------------------------------------*
       302-RESTORE-CONTEXT-L.

      *%****************************************************************
      *%       LOOP THRU ALL ITEMS IN TEMP STORAGE FOR LOCAL RECORDS   *
      *%****************************************************************
           MOVE ZEROS TO AC99W-ITEM-NO.
           MOVE AC99W-YES TO AC99W-IND1.
           PERFORM WITH TEST BEFORE
             UNTIL NOT (AC99W-IND1 = AC99W-YES)
               ADD +1 TO AC99W-ITEM-NO
               MOVE AC99W-RECORD-LENGTH-MAX TO AC99W-RECORD-LENGTH

               EXEC CICS
                    READQ TS
                    QUEUE(AC99W-CONTEXT-QUEUE-L)
                    INTO(AC99W-CONTEXT-AREA)
                    ITEM(AC99W-ITEM-NO)
                    RESP(DCLINK-CICS-RESP)
                    LENGTH(AC99W-RECORD-LENGTH)
               END-EXEC

               IF DCLINK-CICS-RESP = DFHRESP(ITEMERR)
                OR DCLINK-CICS-RESP = DFHRESP(QIDERR)
                   GO TO 302-RESTORE-CONTEXT-L-EXIT
               END-IF
               PERFORM 895-TEST-CICS-RESPONSE
                  THRU 895-TEST-CICS-RESPONSE-EXIT
      *%****************************************************************
      *%       RESTORE DATA INTO THE LOCAL RECORDS                     *
      *%****************************************************************
               PERFORM 304-RESTORE-CONTEXT-L
                  THRU 304-RESTORE-CONTEXT-L-EXIT
           END-PERFORM.

       302-RESTORE-CONTEXT-L-EXIT.
           EXIT.

      *%---------------------------------------------------------------*
      *%                                                               *
      *%                   304-RESTORE-CONTEXT-L ROUTINE               *
      *%                                                               *
      *%---------------------------------------------------------------*
       304-RESTORE-CONTEXT-L.
      *%****************************************************************
      *%   DETERMINE WHICH CONTEXT RECORDS HAVE BEEN READ AND          *
      *%     WHETHER THEY SHOULD BE RESTORED                           *
      *%****************************************************************
FCMCS**    IF AC99W-CONTEXT-AREA-N = 'DBLINK-CURSOR-CODES'
FCMCS**       AND AC99W-FLAG-RESTORE-GBL = AC99W-NO
FCMCS**       MOVE AC99W-CONTEXT-AREA-R TO DBLINK-CURSOR-CODES
FCMCS**       GO TO 304-RESTORE-CONTEXT-L-EXIT
FCMCS**    END-IF.

           IF AC99W-CONTEXT-AREA-N = 'SUBSCHEMA-CONTROL'
              AND AC99W-FLAG-RESTORE-GBL = AC99W-NO
              MOVE AC99W-CONTEXT-AREA-R TO SUBSCHEMA-CONTROL
              GO TO 304-RESTORE-CONTEXT-L-EXIT
           END-IF.

           IF AC99W-CONTEXT-AREA-N = 'FSYWG12D'
            AND (AC99W-FLAG-RESTORE-GBL = AC99W-NO
             OR AC99W-FSYWG12D-F = AC99W-YES)
               MOVE AC99W-CONTEXT-AREA-R TO FSYWG12D
               MOVE AC99W-YES TO AC99W-FSYWG12D-F
               GO TO 304-RESTORE-CONTEXT-L-EXIT
           END-IF.
       304-RESTORE-CONTEXT-L-EXIT.
           EXIT.


      *%---------------------------------------------------------------*
      *%                                                               *
      *%                   306-RESTORE-CONTEXT-G ROUTINE               *
      *%                                                               *
      *%---------------------------------------------------------------*
       306-RESTORE-CONTEXT-G.

      *%****************************************************************
      *%       RESTORE DATA FROM GLOBAL TEMP STORAGE QUEUE             *
      *%****************************************************************
           MOVE 'G001' TO AC99W-CONTEXT-QUEUE-G-5-8.
           MOVE AC99W-RECORD-LENGTH-MAX TO AC99W-RECORD-LENGTH.

           EXEC CICS
                READQ TS
                QUEUE(AC99W-CONTEXT-QUEUE-G)
                INTO(AC99W-CONTEXT-AREA)
                LENGTH(AC99W-RECORD-LENGTH)
                RESP(DCLINK-CICS-RESP)
           END-EXEC.

           IF DCLINK-CICS-RESP = DFHRESP(NORMAL)
               MOVE AC99W-CONTEXT-AREA
                   TO ADSO-APPLICATION-GLOBAL-RECORD

               EXEC CICS
                    DELETEQ TS
                    QUEUE(AC99W-CONTEXT-QUEUE-G)
                    RESP(DCLINK-CICS-RESP)
               END-EXEC

           END-IF.

           IF DCLINK-CICS-RESP NOT = DFHRESP(NORMAL)  AND
              DCLINK-CICS-RESP NOT = DFHRESP(QIDERR)
               PERFORM 895-TEST-CICS-RESPONSE
                  THRU 895-TEST-CICS-RESPONSE-EXIT
           END-IF.
           MOVE 'G010' TO AC99W-CONTEXT-QUEUE-G-5-8.
           MOVE AC99W-RECORD-LENGTH-MAX TO AC99W-RECORD-LENGTH.

           EXEC CICS
                READQ TS
                QUEUE(AC99W-CONTEXT-QUEUE-G)
                INTO(AC99W-CONTEXT-AREA)
                LENGTH(AC99W-RECORD-LENGTH)
                RESP(DCLINK-CICS-RESP)
           END-EXEC.

           IF DCLINK-CICS-RESP = DFHRESP(NORMAL)
               MOVE AC99W-CONTEXT-AREA
DEVBWS             TO FISWG00M

               EXEC CICS
                    DELETEQ TS
                    QUEUE(AC99W-CONTEXT-QUEUE-G)
                    RESP(DCLINK-CICS-RESP)
               END-EXEC

           END-IF.

           IF DCLINK-CICS-RESP NOT = DFHRESP(NORMAL)  AND
              DCLINK-CICS-RESP NOT = DFHRESP(QIDERR)
               PERFORM 895-TEST-CICS-RESPONSE
                  THRU 895-TEST-CICS-RESPONSE-EXIT
           END-IF.
       306-RESTORE-CONTEXT-G-EXIT.
           EXIT.


      *%---------------------------------------------------------------*
      *%                                                               *
      *%                   310-DELETE-CONTEXT-M ROUTINE                *
      *%                                                               *
      *%---------------------------------------------------------------*
        310-DELETE-CONTEXT-M.

            CALL DCLINK-DCXMAP USING
                 BY REFERENCE DFHEIBLK
                 BY REFERENCE ACCOMM
                 BY CONTENT 'DELETE-CONTEXT                '
                 BY REFERENCE MAP-CONTROL.

        310-DELETE-CONTEXT-M-EXIT.
            EXIT.


      *%---------------------------------------------------------------*
      *%                                                               *
      *%                   312-DELETE-CONTEXT-L ROUTINE                *
      *%                                                               *
      *%---------------------------------------------------------------*
       312-DELETE-CONTEXT-L.

      *%****************************************************************
      *%       ERASE ALL LOCAL TEMP STORAGE                            *
      *%****************************************************************
           EXEC CICS
                DELETEQ TS
                RESP(DCLINK-CICS-RESP)
                QUEUE(AC99W-CONTEXT-QUEUE-L)
           END-EXEC.

           IF DCLINK-CICS-RESP NOT = DFHRESP(QIDERR)
            AND DCLINK-CICS-RESP NOT = DFHRESP(NORMAL)
               PERFORM 895-TEST-CICS-RESPONSE
                  THRU 895-TEST-CICS-RESPONSE-EXIT
           END-IF.

       312-DELETE-CONTEXT-L-EXIT.
           EXIT.

      *%---------------------------------------------------------------*
      *%                                                               *
      *%                   314-SAVE-CURRENCY ROUTINE                   *
      *%                                                               *
      *%---------------------------------------------------------------*
       314-SAVE-CURRENCY.

FCAMH      IF AC99W-NOSAVE-OPTION = AC99W-PARTIAL
FCAMH         MOVE AC99W-NO TO AC99W-NOSAVE-OPTION
FCAMH         GO TO 314-SAVE-CURRENCY-EXIT
FCAMH      END-IF.

FCMCS**    MOVE 'DBLINK-CURSOR-CODES' TO AC99W-CONTEXT-AREA-N.
FCMCS**    MOVE LENGTH OF DBLINK-CURSOR-CODES
FCMCS**              TO AC99W-RECORD-LENGTH.
FCMCS**    MOVE DBLINK-CURSOR-CODES TO AC99W-CONTEXT-AREA-R.
FCMCS**    ADD +40 TO AC99W-RECORD-LENGTH.
FCMCS**
FCMCS**    EXEC CICS
FCMCS**         WRITEQ TS
FCMCS**         QUEUE(AC99W-CONTEXT-QUEUE-L)
FCMCS**         FROM(AC99W-CONTEXT-AREA)
FCMCS**         LENGTH(AC99W-RECORD-LENGTH)
FCMCS**         RESP(DCLINK-CICS-RESP)
FCMCS**    END-EXEC.
FCMCS**
FCMCS**    PERFORM 895-TEST-CICS-RESPONSE
FCMCS**       THRU 895-TEST-CICS-RESPONSE-EXIT.

           MOVE 'SUBSCHEMA-CONTROL' TO AC99W-CONTEXT-AREA-N.
           MOVE LENGTH OF SUBSCHEMA-CONTROL TO AC99W-RECORD-LENGTH.
           MOVE SUBSCHEMA-CONTROL TO AC99W-CONTEXT-AREA-R.
           ADD +40 TO AC99W-RECORD-LENGTH.

           EXEC CICS
                WRITEQ TS
                QUEUE(AC99W-CONTEXT-QUEUE-L)
                FROM(AC99W-CONTEXT-AREA)
                LENGTH(AC99W-RECORD-LENGTH)
                RESP(DCLINK-CICS-RESP)
           END-EXEC.

           PERFORM 895-TEST-CICS-RESPONSE
              THRU 895-TEST-CICS-RESPONSE-EXIT.
       314-SAVE-CURRENCY-EXIT.
           EXIT.

      *%---------------------------------------------------------------*
      *%                                                               *
      *%                   316-DELETE-CONTEXT-G ROUTINE                *
      *%                                                               *
      *%---------------------------------------------------------------*
       316-DELETE-CONTEXT-G SECTION.

           MOVE 'G001' TO AC99W-CONTEXT-QUEUE-G-5-8.

           EXEC CICS
                DELETEQ TS
                RESP(DCLINK-CICS-RESP)
                QUEUE(AC99W-CONTEXT-QUEUE-G)
           END-EXEC.

           IF DCLINK-CICS-RESP NOT = DFHRESP(QIDERR)
            AND DCLINK-CICS-RESP NOT = DFHRESP(NORMAL)
               PERFORM 895-TEST-CICS-RESPONSE
                  THRU 895-TEST-CICS-RESPONSE-EXIT
           END-IF.

       316-DELETE-CONTEXT-G-EXIT.
           EXIT.


      *%---------------------------------------------------------------*
      *%                                                               *
      *%                   322-SAVE-CONTEXT-L ROUTINE                  *
      *%                                                               *
      *%---------------------------------------------------------------*
       322-SAVE-CONTEXT-L.

      *%****************************************************************
      *%       WRITE CURRENCIES TO A TEMP STORAGE AREA                 *
      *%****************************************************************
           IF AC99W-NOSAVE-OPTION = AC99W-YES
              MOVE AC99W-NO TO AC99W-NOSAVE-OPTION
           ELSE
              PERFORM 314-SAVE-CURRENCY
                 THRU 314-SAVE-CURRENCY-EXIT
           END-IF.

      *%****************************************************************
      *%       WRITE LOCAL RECORDS TO A TEMP STORAGE AREA              *
      *%****************************************************************


           MOVE 'FSYWG12D' TO AC99W-CONTEXT-AREA-N.
           MOVE LENGTH OF FSYWG12D TO AC99W-RECORD-LENGTH.
           MOVE FSYWG12D TO AC99W-CONTEXT-AREA-R.
           ADD +40 TO AC99W-RECORD-LENGTH.

           EXEC CICS
                WRITEQ TS
                QUEUE(AC99W-CONTEXT-QUEUE-L)
                FROM(AC99W-CONTEXT-AREA)
                LENGTH(AC99W-RECORD-LENGTH)
                RESP(DCLINK-CICS-RESP)
           END-EXEC.

           PERFORM 895-TEST-CICS-RESPONSE
              THRU 895-TEST-CICS-RESPONSE-EXIT.

       322-SAVE-CONTEXT-L-EXIT.
           EXIT.


      *%---------------------------------------------------------------*
      *%                                                               *
      *%                   326-SAVE-CONTEXT-G ROUTINE                  *
      *%                                                               *
      *%---------------------------------------------------------------*
       326-SAVE-CONTEXT-G.

      *%****************************************************************
      *%       WRITE GLOBAL RECORD TO A TEMP STORAGE AREA              *
      *%****************************************************************
           MOVE LENGTH OF ADSO-APPLICATION-GLOBAL-RECORD TO
                AC99W-RECORD-LENGTH.
           MOVE 'G001' TO AC99W-CONTEXT-QUEUE-G-5-8.

           EXEC CICS
                WRITEQ TS
                QUEUE(AC99W-CONTEXT-QUEUE-G)
                FROM(ADSO-APPLICATION-GLOBAL-RECORD)
                LENGTH(AC99W-RECORD-LENGTH)
                RESP(DCLINK-CICS-RESP)
           END-EXEC.

           PERFORM 895-TEST-CICS-RESPONSE
              THRU 895-TEST-CICS-RESPONSE-EXIT.
DEVBWS     MOVE LENGTH OF FISWG00M TO AC99W-RECORD-LENGTH.
           MOVE 'G010' TO AC99W-CONTEXT-QUEUE-G-5-8.

           EXEC CICS
                WRITEQ TS
                QUEUE(AC99W-CONTEXT-QUEUE-G)
DEVBWS          FROM(FISWG00M)
                LENGTH(AC99W-RECORD-LENGTH)
                RESP(DCLINK-CICS-RESP)
           END-EXEC.

           PERFORM 895-TEST-CICS-RESPONSE
              THRU 895-TEST-CICS-RESPONSE-EXIT.

       326-SAVE-CONTEXT-G-EXIT.
           EXIT.


      *%---------------------------------------------------------------*
      *%                                                               *
      *%                   330-TRANSFER ROUTINE                        *
      *%                                                               *
      *%---------------------------------------------------------------*
       330-TRANSFER.

FCSLA      IF AC99W-NOFINISH-OPTION = AC99W-YES
FCSLA         MOVE AC99W-NO TO AC99W-NOFINISH-OPTION
FCSLA      ELSE
FCSLA         PERFORM 520-COMMIT-DB
FCSLA            THRU 520-COMMIT-DB-EXIT
FCSLA      END-IF.

           MOVE AC99W-TRANSFER TO ACCOMM-RECALL-CODE.
      *%****************************************************************
      *%       SAVE GLOBAL AND LOCAL RECORDS AND TRANSFER TO PROGRAM   *
      *%****************************************************************
           PERFORM 326-SAVE-CONTEXT-G
              THRU 326-SAVE-CONTEXT-G-EXIT.
           PERFORM 322-SAVE-CONTEXT-L
              THRU 322-SAVE-CONTEXT-L-EXIT.
           MOVE ACCOMM-CURRENT-PROGRAM TO ACCOMM-FROM-PROGRAM.
           MOVE SPACES TO ACCOMM-CURRENT-PROGRAM.

           EXEC CICS
                XCTL
                PROGRAM(AC99W-NEXT-PROGRAM)
                COMMAREA(ACCOMM)
                LENGTH(ACCOMM-LENGTH)
           END-EXEC.

       330-TRANSFER-EXIT.
           EXIT.

      *%---------------------------------------------------------------*
      *%                                                               *
      *%                   332-INVOKE  ROUTINE                         *
      *%                                                               *
      *%---------------------------------------------------------------*
       332-INVOKE.

FCSLA      IF ACCOMM-CNT-PGM-STACK NOT LESS THAN
FCSLA                         AC99W-CNT-PGM-STACK-MAX
FCSLA          EXEC CICS
FCSLA               ABEND
FCSLA               ABCODE('9332')
FCSLA               CANCEL
FCSLA          END-EXEC
FCSLA      END-IF.
FCSLA      PERFORM 520-COMMIT-DB
FCSLA         THRU 520-COMMIT-DB-EXIT.
           MOVE AC99W-INVOKE TO ACCOMM-RECALL-CODE.
      *%****************************************************************
      *%       SAVE GLOBAL AND LOCAL RECORDS AND INCREASE STACK COUNT  *
      *%****************************************************************
           PERFORM 326-SAVE-CONTEXT-G
              THRU 326-SAVE-CONTEXT-G-EXIT.
           MOVE ACCOMM-CNT-PGM-STACK TO AC99W-CONTEXT-QUEUE-L-7-8.
           PERFORM 322-SAVE-CONTEXT-L
              THRU 322-SAVE-CONTEXT-L-EXIT.
           ADD +1 TO ACCOMM-CNT-PGM-STACK.
           IF ACCOMM-CNT-PGM-STACK GREATER ACCOMM-CNT-PGM-STACK-HIGH
               MOVE ACCOMM-CNT-PGM-STACK TO ACCOMM-CNT-PGM-STACK-HIGH
           END-IF.
           MOVE ACCOMM-CURRENT-PROGRAM TO
                ACCOMM-PGM-STACK(ACCOMM-CNT-PGM-STACK).
           MOVE AC99W-TRANSID TO
                ACCOMM-TRANSID-STACK(ACCOMM-CNT-PGM-STACK).
FCBCC      MOVE AGR-CURRENT-FUNCTION TO
FCBCC           ACCOMM-FUNC-STACK(ACCOMM-CNT-PGM-STACK).
FCBCC      MOVE AGR-FUNC-DESCRIPTION TO
FCBCC           ACCOMM-FUNC-DESC-STACK(ACCOMM-CNT-PGM-STACK).
           MOVE ACCOMM-CURRENT-PROGRAM TO AC99W-HIGHER-DIALOG-NAME.
      *%****************************************************************
      *%       EXECUTE NEXT PROGRAM                                    *
      *%****************************************************************
           MOVE ACCOMM-CURRENT-PROGRAM TO ACCOMM-FROM-PROGRAM.
           MOVE SPACES TO ACCOMM-CURRENT-PROGRAM.

           EXEC CICS
                XCTL
                PROGRAM(AC99W-NEXT-PROGRAM)
                COMMAREA(ACCOMM)
                LENGTH(ACCOMM-LENGTH)
           END-EXEC.

       332-INVOKE-EXIT.
           EXIT.

      *%---------------------------------------------------------------*
      *%                                                               *
      *%                   334-LINK-DIALOG ROUTINE                     *
      *%                                                               *
      *%---------------------------------------------------------------*
       334-LINK-DIALOG.

FCSLA      IF ACCOMM-CNT-PGM-STACK NOT LESS THAN
FCSLA                     AC99W-CNT-PGM-STACK-MAX
FCSLA          EXEC CICS
FCSLA               ABEND
FCSLA               ABCODE('9334')
FCSLA               CANCEL
FCSLA          END-EXEC
FCSLA      END-IF.

FCSLA *%****************************************************************
FCSLA *%       SAVE ALL DATABASE CHANGES                               *
FCSLA *%****************************************************************
FCSLA      IF AC99W-FLAG-COMMIT = 'Y'
FCSLA         MOVE 'N' TO AC99W-FLAG-COMMIT
FCSLA         PERFORM 520-COMMIT-DB
FCSLA            THRU 520-COMMIT-DB-EXIT
FCSLA      END-IF.

           IF ACCOMM-LINK-RETURN-ID > +0
              AND ACCOMM-LINK-OPTION NOT = AC99W-YES
              PERFORM 332-INVOKE
                 THRU 332-INVOKE-EXIT
              GO TO 334-LINK-DIALOG-EXIT
           END-IF.

      *%****************************************************************
      *%       SAVE GLOBAL RECORD                                      *
      *%****************************************************************
           MOVE AC99W-LINK TO ACCOMM-RECALL-CODE.
           PERFORM 326-SAVE-CONTEXT-G
              THRU 326-SAVE-CONTEXT-G-EXIT.

      *%****************************************************************
      *%       SAVE LOCAL RECORDS - INCREASE STACK COUNT               *
      *%****************************************************************
           MOVE ACCOMM-CNT-PGM-STACK TO AC99W-CONTEXT-QUEUE-L-7-8.
           PERFORM 322-SAVE-CONTEXT-L
              THRU 322-SAVE-CONTEXT-L-EXIT.
           ADD +1 TO ACCOMM-CNT-PGM-STACK.

      *%****************************************************************
      *%       SAVE VARIABLES FOR RETURN FROM LINKED PROGRAM           *
      *%****************************************************************
           MOVE ACCOMM-CURRENT-PROGRAM TO
                ACCOMM-PGM-STACK(ACCOMM-CNT-PGM-STACK).
           MOVE AC99W-TRANSID TO
                ACCOMM-TRANSID-STACK(ACCOMM-CNT-PGM-STACK).
FCBCC      MOVE AGR-CURRENT-FUNCTION TO
FCBCC           ACCOMM-FUNC-STACK(ACCOMM-CNT-PGM-STACK).
FCBCC      MOVE AGR-FUNC-DESCRIPTION TO
FCBCC           ACCOMM-FUNC-DESC-STACK(ACCOMM-CNT-PGM-STACK).
           MOVE ACCOMM-CURRENT-PROGRAM TO
                AC99W-HIGHER-DIALOG-NAME.

      *%****************************************************************
      *%       LINK TO THE NEXT PROGRAM                                *
      *%****************************************************************
           EXEC CICS
                LINK
                PROGRAM(AC99W-NEXT-PROGRAM)
                COMMAREA(ACCOMM)
                LENGTH(ACCOMM-LENGTH)
           END-EXEC.

      *%****************************************************************
      *%       AFTER RETURN - PICK UP CHANGES TO GLOBAL RECORD         *
      *%****************************************************************
           MOVE AC99W-SECOND-TIME TO ACCOMM-RECALL-CODE.
           PERFORM 306-RESTORE-CONTEXT-G
              THRU 306-RESTORE-CONTEXT-G-EXIT.

      *%****************************************************************
      *%       AFTER RETURN - PICK UP CHANGES TO LOCAL RECORDS         *
      *%****************************************************************
           MOVE ACCOMM-CNT-PGM-STACK TO AC99W-CONTEXT-QUEUE-L-7-8.
           PERFORM 302-RESTORE-CONTEXT-L
              THRU 302-RESTORE-CONTEXT-L-EXIT.

      *%****************************************************************
      *%       DELETE SAVED TEMP STORAGE AREAS                         *
      *%****************************************************************
           PERFORM 312-DELETE-CONTEXT-L
              THRU 312-DELETE-CONTEXT-L-EXIT.
           SUBTRACT +1 FROM ACCOMM-CNT-PGM-STACK.
           MOVE ACCOMM-CNT-PGM-STACK TO AC99W-CONTEXT-QUEUE-L-7-8.
           PERFORM 312-DELETE-CONTEXT-L
              THRU 312-DELETE-CONTEXT-L-EXIT.

       334-LINK-DIALOG-EXIT.
           EXIT.


      *%---------------------------------------------------------------*
      *%                                                               *
      *%                   340-CONVERT-EIBAID ROUTINE                  *
      *%                                                               *
      *%---------------------------------------------------------------*
       340-CONVERT-EIBAID.

      *%****************************************************************
      *%       DECODE USER SCREEN RESPONSE                             *
      *%****************************************************************
           MOVE 'ENTER' TO ACAPPL-EIBAID.
           EVALUATE EIBAID
             WHEN DFHENTER
               MOVE 'ENTER' TO ACAPPL-EIBAID
             WHEN DFHCLEAR
               MOVE 'CLEAR' TO ACAPPL-EIBAID
             WHEN DFHPA1
               MOVE 'PA1' TO ACAPPL-EIBAID
             WHEN DFHPA2
               MOVE 'PA2' TO ACAPPL-EIBAID
             WHEN DFHPA3
               MOVE 'PA3' TO ACAPPL-EIBAID
             WHEN DFHPF1
               MOVE 'PF1' TO ACAPPL-EIBAID
             WHEN DFHPF2
               MOVE 'PF2' TO ACAPPL-EIBAID
             WHEN DFHPF3
               MOVE 'PF3' TO ACAPPL-EIBAID
             WHEN DFHPF4
               MOVE 'PF4' TO ACAPPL-EIBAID
             WHEN DFHPF5
               MOVE 'PF5' TO ACAPPL-EIBAID
             WHEN DFHPF6
               MOVE 'PF6' TO ACAPPL-EIBAID
             WHEN DFHPF7
               MOVE 'PF7' TO ACAPPL-EIBAID
             WHEN DFHPF8
               MOVE 'PF8' TO ACAPPL-EIBAID
             WHEN DFHPF9
               MOVE 'PF9' TO ACAPPL-EIBAID
             WHEN DFHPF10
               MOVE 'PF10' TO ACAPPL-EIBAID
             WHEN DFHPF11
               MOVE 'PF11' TO ACAPPL-EIBAID
             WHEN DFHPF12
               MOVE 'PF12' TO ACAPPL-EIBAID
             WHEN DFHPF13
               MOVE 'PF13' TO ACAPPL-EIBAID
             WHEN DFHPF14
               MOVE 'PF14' TO ACAPPL-EIBAID
             WHEN DFHPF15
               MOVE 'PF15' TO ACAPPL-EIBAID
             WHEN DFHPF16
               MOVE 'PF16' TO ACAPPL-EIBAID
             WHEN DFHPF17
               MOVE 'PF17' TO ACAPPL-EIBAID
             WHEN DFHPF18
               MOVE 'PF18' TO ACAPPL-EIBAID
             WHEN DFHPF19
               MOVE 'PF19' TO ACAPPL-EIBAID
             WHEN DFHPF20
               MOVE 'PF20' TO ACAPPL-EIBAID
             WHEN DFHPF21
               MOVE 'PF21' TO ACAPPL-EIBAID
             WHEN DFHPF22
               MOVE 'PF22' TO ACAPPL-EIBAID
             WHEN DFHPF23
               MOVE 'PF23' TO ACAPPL-EIBAID
             WHEN DFHPF24
               MOVE 'PF24' TO ACAPPL-EIBAID
           END-EVALUATE.

       340-CONVERT-EIBAID-EXIT.
           EXIT.


FCBCC *%---------------------------------------------------------------*
FCBCC *%                                                               *
FCBCC *%                   385-SET-RESPONSE ROUTINE                    *
FCBCC *%                                                               *
FCBCC *%---------------------------------------------------------------*
FCBCC *385-SET-RESPONSE.
FCBCC *
FCBCC *%****************************************************************
FCBCC *%       SET DEFAULT RESPONSE FOR THIS FUNCTION                  *
FCBCC *%****************************************************************
FCBCC *    IF AGR-MAP-RESPONSE = LOW-VALUES
FCBCC *        MOVE SPACES TO AGR-MAP-RESPONSE
FCBCC *    END-IF.
FCBCC *
FCBCC *    MOVE AGR-APPLICATION-NAME TO ACAPPL-APPL.
FCBCC *    MOVE AC99W-RESPONSE-OPTION TO ACAPPL-REQUEST.
FCBCC *    MOVE ACCOMM-CURRENT-PROGRAM TO ACAPPL-PROGRAM-NAME.
FCBCC *    MOVE AGR-CURRENT-FUNCTION TO ACAPPL-CURRENT-FUNCTION.
FCBCC *    MOVE SPACES TO ACAPPL-MAP-RESPONSE.
FCBCC *    MOVE AC99W-DEFAULT TO ACAPPL-EIBAID.
FCBCC *    MOVE AGR-APPLICATION-NAME TO ACAPPL-CURRENT-APPL.
FCBCC *
FCBCC *    EXEC CICS
FCBCC *        LINK PROGRAM('IFISFIMS')
FCBCC *             COMMAREA(ACAPPL-CALL-AREA)
FCBCC *             LENGTH(LENGTH OF ACAPPL-CALL-AREA)
FCBCC *        RESP(DCLINK-CICS-RESP)
FCBCC *    END-EXEC.
FCBCC *
FCBCC *    PERFORM 895-TEST-CICS-RESPONSE
FCBCC *       THRU 895-TEST-CICS-RESPONSE-EXIT.
FCBCC *    MOVE ACAPPL-CURRENT-RESPONSE TO AGR-DEFAULT-RESPONSE.
FCAMH *    MOVE ACAPPL-NEXT-FUNC-TYPE   TO AGR-NEXT-FUNC-TYPE.
FCBCC *
FCBCC *    IF AC99W-FLAG-FIRST-TIME = AC99W-YES
FCSAH *     AND ACCOMM-FROM-PROGRAM NOT = 'FPF1HLP'
FCBCC *       GO TO 385-SET-RESPONSE-EXIT
FCBCC *    END-IF.
FCBCC *
FCBCC *    IF AGR-MAP-RESPONSE = SPACES
FCBCC *     AND AGR-ENTER
FCBCC *     AND AGR-DEFAULT-RESPONSE NOT = SPACES
FCBCC *        MOVE AGR-DEFAULT-RESPONSE TO AGR-CURRENT-RESPONSE
FCBCC *        PERFORM 387-SET-NEXT-FUNCTION
FCBCC *           THRU 387-SET-NEXT-FUNCTION-EXIT
FCBCC *        GO TO 385-SET-RESPONSE-EXIT
FCBCC *    END-IF.
FCBCC *
FCBCC *    IF AC99W-FLAG-FIRST-TIME = AC99W-YES
FCBCC *       GO TO 385-SET-RESPONSE-EXIT
FCBCC *    END-IF.
FCBCC *
FCBCC *%****************************************************************
FCBCC *%       FIND CORRECT ADSA NAVIGATION FOR USER KEY ENTERED       *
FCBCC *%****************************************************************
FCBCC *    MOVE AGR-MAP-RESPONSE TO ACAPPL-MAP-RESPONSE.
FCBCC *    PERFORM 340-CONVERT-EIBAID
FCBCC *       THRU 340-CONVERT-EIBAID-EXIT.
FCBCC *
FCBCC *    EXEC CICS
FCBCC *        LINK PROGRAM('IFISFIMS')
FCBCC *             COMMAREA(ACAPPL-CALL-AREA)
FCBCC *             LENGTH(LENGTH OF ACAPPL-CALL-AREA)
FCBCC *        RESP(DCLINK-CICS-RESP)
FCBCC *    END-EXEC.
FCBCC *
FCBCC *    PERFORM 895-TEST-CICS-RESPONSE
FCBCC *       THRU 895-TEST-CICS-RESPONSE-EXIT.
FCBCC *
FCBCC *    MOVE ACAPPL-CURRENT-RESPONSE TO AGR-CURRENT-RESPONSE.
FCBCC *
FCBCC *    PERFORM 387-SET-NEXT-FUNCTION
FCBCC *       THRU 387-SET-NEXT-FUNCTION-EXIT.
FCBCC *
FCBCC *385-SET-RESPONSE-EXIT.
FCBCC *    EXIT.


FCBCC *%---------------------------------------------------------------*
FCBCC *%                                                               *
FCBCC *%                   385-SET-DEFAULT-RESPONSE ROUTINE            *
FCBCC *%                                                               *
FCBCC *%---------------------------------------------------------------*
FCBCC  385-SET-DEFAULT-RESPONSE.
FCBCC
FCBCC *%****************************************************************
FCBCC *%       SET DEFAULT RESPONSE FOR THIS FUNCTION                  *
FCBCC *%****************************************************************
FCBCC      IF AGR-MAP-RESPONSE = LOW-VALUES
FCBCC          MOVE SPACES TO AGR-MAP-RESPONSE
FCBCC      END-IF.
FCBCC
FCBCC      MOVE AGR-APPLICATION-NAME TO ACAPPL-APPL.
FCBCC      MOVE AC99W-RESPONSE-OPTION TO ACAPPL-REQUEST.
FCBCC      MOVE ACCOMM-CURRENT-PROGRAM TO ACAPPL-PROGRAM-NAME.
FCBCC      MOVE AGR-CURRENT-FUNCTION TO ACAPPL-CURRENT-FUNCTION.
FCBCC      MOVE SPACES TO ACAPPL-MAP-RESPONSE.
FCBCC      MOVE AC99W-DEFAULT TO ACAPPL-EIBAID.
FCBCC      MOVE AGR-APPLICATION-NAME TO ACAPPL-CURRENT-APPL.
FCBCC
FCBCC      EXEC CICS
FCBCC          LINK PROGRAM('IFISFIMS')
FCBCC               COMMAREA(ACAPPL-CALL-AREA)
FCBCC               LENGTH(LENGTH OF ACAPPL-CALL-AREA)
FCBCC          RESP(DCLINK-CICS-RESP)
FCBCC      END-EXEC.
FCBCC
FCBCC      PERFORM 895-TEST-CICS-RESPONSE
FCBCC         THRU 895-TEST-CICS-RESPONSE-EXIT.
FCBCC      MOVE ACAPPL-CURRENT-RESPONSE TO AGR-DEFAULT-RESPONSE.
FCBCC
FCBCC  385-SET-DEFAULT-RESPONSE-EXIT.
FCBCC      EXIT.


FCBCC *%---------------------------------------------------------------*
FCBCC *%                                                               *
FCBCC *%                   386-SET-CURRENT-RESPONSE ROUTINE            *
FCBCC *%                                                               *
FCBCC *%---------------------------------------------------------------*
FCBCC  386-SET-CURRENT-RESPONSE.
FCBCC
FCBCC *%****************************************************************
FCBCC *%       FIND CORRECT ADSA NAVIGATION FOR USER KEY ENTERED       *
FCBCC *%****************************************************************
FCBCC      IF AGR-MAP-RESPONSE = SPACES
FCBCC       AND AGR-ENTER
FCBCC       AND AGR-DEFAULT-RESPONSE NOT = SPACES
FCBCC          MOVE AGR-DEFAULT-RESPONSE TO AGR-CURRENT-RESPONSE
FCBCC          GO TO 386-SET-CURRENT-RESPONSE-EXIT
FCBCC      END-IF.
FCBCC
FCBCC      MOVE AGR-MAP-RESPONSE TO ACAPPL-MAP-RESPONSE.
FCBCC      PERFORM 340-CONVERT-EIBAID
FCBCC         THRU 340-CONVERT-EIBAID-EXIT.
FCBCC
FCBCC      MOVE AGR-APPLICATION-NAME TO ACAPPL-APPL
FCBCC                                   ACAPPL-CURRENT-APPL.
FCBCC      MOVE AC99W-RESPONSE-OPTION TO ACAPPL-REQUEST.
FCBCC      MOVE ACCOMM-CURRENT-PROGRAM TO ACAPPL-PROGRAM-NAME.
FCBCC      MOVE AGR-CURRENT-FUNCTION TO ACAPPL-CURRENT-FUNCTION.
FCBCC
FCBCC      EXEC CICS
FCBCC          LINK PROGRAM('IFISFIMS')
FCBCC               COMMAREA(ACAPPL-CALL-AREA)
FCBCC               LENGTH(LENGTH OF ACAPPL-CALL-AREA)
FCBCC          RESP(DCLINK-CICS-RESP)
FCBCC      END-EXEC.
FCBCC
FCBCC      PERFORM 895-TEST-CICS-RESPONSE
FCBCC         THRU 895-TEST-CICS-RESPONSE-EXIT.
FCBCC
FCBCC      MOVE ACAPPL-CURRENT-RESPONSE TO AGR-CURRENT-RESPONSE.
FCAMH      MOVE ACAPPL-NEXT-FUNC-TYPE   TO AGR-NEXT-FUNC-TYPE.
UCSDX      INSPECT AGR-CURRENT-RESPONSE
UCSDX        CONVERTING 'abcdefghijklmnopqrstuvwxyz'
UCSDX                TO 'ABCDEFGHIJKLMNOPQRSTUVWXYZ'.
FCAMH      IF AGR-CURRENT-RESPONSE = AC99W-QUIT
FCAMH         MOVE 'Q' TO AGR-NEXT-FUNC-TYPE
FCAMH      END-IF.

FCBCC      IF AGR-CURRENT-RESPONSE = SPACES
FCBCC         IF AGR-ENTER
FCBCC            IF AGR-MAP-RESPONSE NOT = SPACES
FCBCC               MOVE AGR-MAP-RESPONSE TO AGR-CURRENT-RESPONSE
FCBCC               MOVE AC99W-YES TO AC99W-ERROR-IND2
FCBCC            END-IF
FCBCC         END-IF
FCBCC      END-IF.
FCBCC  386-SET-CURRENT-RESPONSE-EXIT.
FCBCC      EXIT.

FCBCC *%---------------------------------------------------------------*
      *%                                                               *
      *%                   387-SET-NEXT-FUNCTION ROUTINE               *
      *%                                                               *
      *%---------------------------------------------------------------*
       387-SET-NEXT-FUNCTION.

      *%****************************************************************
      *%       FIND NEXT FUNCTION BASED ON CURRENT RESPONSE            *
      *%****************************************************************
           MOVE AGR-APPLICATION-NAME TO ACAPPL-APPL
                                     ACAPPL-CURRENT-APPL.
           MOVE SPACES TO AC99W-CTRL-COMMAND.
           MOVE AC99W-PROGRAM-OPTION TO ACAPPL-REQUEST.
           MOVE ACCOMM-CURRENT-PROGRAM TO ACAPPL-PROGRAM-NAME.
           MOVE AGR-CURRENT-RESPONSE TO ACAPPL-CURRENT-RESPONSE.
           MOVE SPACES TO ACAPPL-EIBAID.
           MOVE SPACES TO ACAPPL-MAP-RESPONSE.
           MOVE AGR-CURRENT-FUNCTION TO ACAPPL-CURRENT-FUNCTION
                                        AC99W-HOLD-FUNCTION.

           EXEC CICS
               LINK PROGRAM('IFISFIMS')
                    COMMAREA(ACAPPL-CALL-AREA)
                    LENGTH(LENGTH OF ACAPPL-CALL-AREA)
               RESP(DCLINK-CICS-RESP)
           END-EXEC.

           PERFORM 895-TEST-CICS-RESPONSE
              THRU 895-TEST-CICS-RESPONSE-EXIT.
           MOVE ACAPPL-CURRENT-RESPONSE TO AC99W-NEXT-PROGRAM.
           MOVE ACAPPL-CTRL-COMMAND TO AC99W-CTRL-COMMAND.
           MOVE ACAPPL-CURRENT-FUNCTION TO AGR-NEXT-FUNCTION.
           MOVE ACAPPL-CURRENT-DESC     TO AGR-NEXT-FUNC-DESCRIPTION.

       387-SET-NEXT-FUNCTION-EXIT.
           EXIT.


      *%---------------------------------------------------------------*
      *%                                                               *
      *%                   390-EXEC-NEXT-FUNCTION ROUTINE              *
      *%                                                               *
      *%---------------------------------------------------------------*
       390-EXEC-NEXT-FUNCTION.

      *%****************************************************************
      *%       INVALID RESPONSE TAKES PRECEDENCE OVER NEXT FUNCTION    *
      *%****************************************************************
FCBCC      IF AC99W-ERROR-IND2 = AC99W-YES
              MOVE AC99W-YES-DISPLAY TO AC99W-FLAG-DISPLAY
FCBCC         GO TO 390-EXEC-NEXT-FUNCTION-EXIT
FCBCC      END-IF.

FCBCC      PERFORM 387-SET-NEXT-FUNCTION
FCBCC         THRU 387-SET-NEXT-FUNCTION-EXIT

      *%****************************************************************
      *%       NO VALID PROGRAM FOUND - SEND ERROR MESSAGE             *
      *%****************************************************************
           IF AC99W-NEXT-PROGRAM = SPACES
FCAMH *        MOVE AC99W-MESSAGE-900003 TO DCLINK-MESSAGE
FCAMH *        MOVE AC99W-MESSAGE-900003 TO AC99W-ERROR-MESSAGE
FCAMH *        MOVE '177023' TO AC99W-MC-MESSAGE-NO
FCBCC *        PERFORM 399-GET-MESSAGE
FCBCC *           THRU 399-GET-MESSAGE-EXIT
FCBCC *        MOVE DCLINK-MESSAGE TO AC99W-ERROR-MESSAGE
FCBCC *        MOVE AC99W-YES TO AC99W-ERROR-IND1
FCBCC          MOVE AC99W-YES TO AC99W-ERROR-IND3
               MOVE AC99W-YES-DISPLAY TO AC99W-FLAG-DISPLAY
               GO TO 390-EXEC-NEXT-FUNCTION-EXIT
           END-IF.

      *%****************************************************************
      *%       RETURN TO CICS ON EXIT OR QUIT                          *
      *%****************************************************************
           IF (AC99W-NEXT-PROGRAM = AC99W-EXIT) OR
              (AC99W-NEXT-PROGRAM = AC99W-QUIT)
               MOVE AC99W-MESSAGE-900001 TO AC99W-DISP-MSG
               PERFORM 750-DISPLAY
                  THRU 750-DISPLAY-EXIT

FCBCC          PERFORM 312-DELETE-CONTEXT-L
FCBCC             THRU 312-DELETE-CONTEXT-L-EXIT WITH TEST BEFORE
FCBCC            VARYING AC99W-CONTEXT-QUEUE-L-7-8 FROM 0 BY 1
FCBCC              UNTIL AC99W-CONTEXT-QUEUE-L-7-8
FCBCC                     > ACCOMM-CNT-PGM-STACK-HIGH
FCBCC
FCBCC          PERFORM 310-DELETE-CONTEXT-M
FCBCC             THRU 310-DELETE-CONTEXT-M-EXIT
FCBCC
FCBCC          PERFORM 316-DELETE-CONTEXT-G
FCBCC             THRU 316-DELETE-CONTEXT-G-EXIT
FCBCC
               EXEC CICS
                   RETURN
               END-EXEC

           END-IF.

      *%****************************************************************
      *%       RETURN TO HIGHER PROGRAM OPTION                         *
      *%****************************************************************
           IF AC99W-NEXT-PROGRAM = AC99W-RETURN
               MOVE AC99W-HIGHER TO AC99W-NEXT-PROGRAM
               PERFORM 395-RETURN
                  THRU 395-RETURN-EXIT
           END-IF.

           IF AC99W-NEXT-PROGRAM = AC99W-TOP OR
              AC99W-NEXT-PROGRAM = AC99W-POP OR
              AC99W-NEXT-PROGRAM = AC99W-POPTOP
FCBCC          MOVE AC99W-YES TO ACCOMM-FLAG-CONTINUE
               PERFORM 395-RETURN
                  THRU 395-RETURN-EXIT
           END-IF.

      *%****************************************************************
      *%       VALID NEXT PROGRAM FOUND IN ADSA TABLE                  *
      *%****************************************************************
           IF AC99W-NEXT-PROGRAM NOT = SPACES
               EVALUATE AC99W-CTRL-COMMAND
                 WHEN 'INVOKE'
                   PERFORM 332-INVOKE
                      THRU 332-INVOKE-EXIT
                 WHEN 'TRANSFER'
                   PERFORM 330-TRANSFER
                      THRU 330-TRANSFER-EXIT
                 WHEN 'LINK'
      *%****************************************************************
      *%       LINK TO NEXT PROGRAM AND THEN RESET ADSA VARIABLES      *
      *%****************************************************************
FCSAH *            MOVE 'Y' TO AC99W-FLAG-COMMIT
                   PERFORM 334-LINK-DIALOG
                      THRU 334-LINK-DIALOG-EXIT
                   MOVE AGR-DEFAULT-RESPONSE TO AGR-CURRENT-RESPONSE
                   MOVE AC99W-HOLD-FUNCTION  TO AGR-CURRENT-FUNCTION
                 WHEN 'RETURN'
                   PERFORM 395-RETURN
                      THRU 395-RETURN-EXIT
               END-EVALUATE
           END-IF.

       390-EXEC-NEXT-FUNCTION-EXIT.
           EXIT.

      *%---------------------------------------------------------------*
      *%                                                               *
      *%                   395-RETURN ROUTINE                          *
      *%                                                               *
      *%---------------------------------------------------------------*
       395-RETURN.
FCSLA      PERFORM 310-DELETE-CONTEXT-M
FCSLA         THRU 310-DELETE-CONTEXT-M-EXIT.
      *%****************************************************************
      *%       CANNOT RETURN IF AT TOP OF STACK                        *
      *%****************************************************************
           MOVE ACCOMM-CNT-PGM-STACK TO ACCOMM-CNT-PGM-STACK-FROM.
           IF ((AC99W-NEXT-PROGRAM = AC99W-TOP)
            OR AC99W-NEXT-PROGRAM = AC99W-POP
            OR AC99W-NEXT-PROGRAM = AC99W-POPTOP
            OR (AC99W-NEXT-PROGRAM = AC99W-HIGHER))
            AND ACCOMM-CNT-PGM-STACK = ZERO
               MOVE AC99W-MESSAGE-900001 TO AC99W-DISP-MSG
               PERFORM 750-DISPLAY
                  THRU 750-DISPLAY-EXIT
               EXEC CICS
                   RETURN
               END-EXEC
           END-IF.

           MOVE AC99W-TRANSFER TO ACCOMM-RECALL-CODE.
           MOVE AC99W-RETURN TO ACCOMM-FROM-PROGRAM.
           MOVE SPACES TO ACCOMM-CURRENT-PROGRAM.
      *%****************************************************************
      *%       RETURN TO TOP LEVEL PROGRAM IN STACK                    *
      *%****************************************************************
           IF AC99W-NEXT-PROGRAM = AC99W-TOP
            OR AC99W-NEXT-PROGRAM = AC99W-POPTOP
FCBCC          MOVE AC99W-PROGRAM-NAME TO ACCOMM-FROM-PROGRAM
               MOVE ACCOMM-CNT-PGM-STACK TO AC99W-CONTEXT-QUEUE-L-7-8
FCBCC          MOVE ACCOMM-FUNC-STACK(1) TO
FCBCC               AGR-CURRENT-FUNCTION
FCBCC          MOVE ACCOMM-FUNC-DESC-STACK(1) TO
FCBCC               AGR-FUNC-DESCRIPTION
FCSAH          MOVE AGR-CURRENT-FUNCTION TO AGR-NEXT-FUNCTION
FCSAH          MOVE AGR-FUNC-DESCRIPTION TO AGR-NEXT-FUNC-DESCRIPTION
               PERFORM 326-SAVE-CONTEXT-G
                  THRU 326-SAVE-CONTEXT-G-EXIT
               PERFORM 322-SAVE-CONTEXT-L
                  THRU 322-SAVE-CONTEXT-L-EXIT
               MOVE ACCOMM-PGM-STACK(1) TO AC99W-NEXT-PROGRAM
               MOVE ZEROS TO ACCOMM-CNT-PGM-STACK
               PERFORM 520-COMMIT-DB
                  THRU 520-COMMIT-DB-EXIT
               EXEC CICS
                    XCTL
                    PROGRAM(AC99W-NEXT-PROGRAM)
                    COMMAREA(ACCOMM)
                    LENGTH(ACCOMM-LENGTH)
               END-EXEC
           END-IF.

      *%****************************************************************
      *%       RETURN TO HIGHER PROGRAM IN STACK                       *
      *%****************************************************************
           IF AC99W-NEXT-PROGRAM = AC99W-HIGHER
              OR AC99W-NEXT-PROGRAM = AC99W-POP
               MOVE ACCOMM-CNT-PGM-STACK TO AC99W-CONTEXT-QUEUE-L-7-8
FCBCC          MOVE ACCOMM-FUNC-STACK(ACCOMM-CNT-PGM-STACK) TO
FCBCC               AGR-CURRENT-FUNCTION
FCBCC          MOVE ACCOMM-FUNC-DESC-STACK(ACCOMM-CNT-PGM-STACK) TO
FCBCC               AGR-FUNC-DESCRIPTION
               PERFORM 326-SAVE-CONTEXT-G
                  THRU 326-SAVE-CONTEXT-G-EXIT
               PERFORM 322-SAVE-CONTEXT-L
                  THRU 322-SAVE-CONTEXT-L-EXIT
               MOVE ACCOMM-PGM-STACK(ACCOMM-CNT-PGM-STACK)
                   TO AC99W-NEXT-PROGRAM
               SUBTRACT +1 FROM ACCOMM-CNT-PGM-STACK
               PERFORM 520-COMMIT-DB
                  THRU 520-COMMIT-DB-EXIT
               EXEC CICS
                    XCTL
                    PROGRAM(AC99W-NEXT-PROGRAM)
                    COMMAREA(ACCOMM)
                    LENGTH(ACCOMM-LENGTH)
               END-EXEC
           END-IF.

      *%****************************************************************
      *%       LOOP THRU STACK TO FIND NEXT PROGRAM NAME               *
      *%****************************************************************
           SUBTRACT -1 FROM ACCOMM-CNT-PGM-STACK
              GIVING AC99W-SUB1.
           PERFORM WITH TEST BEFORE
             UNTIL NOT (AC99W-SUB1 GREATER +1)
               ADD -1 TO AC99W-SUB1
               IF AC99W-NEXT-PROGRAM =
                        ACCOMM-PGM-STACK(AC99W-SUB1)
                   MOVE ACCOMM-CNT-PGM-STACK
                       TO AC99W-CONTEXT-QUEUE-L-7-8
                   PERFORM 326-SAVE-CONTEXT-G
                      THRU 326-SAVE-CONTEXT-G-EXIT
                   PERFORM 322-SAVE-CONTEXT-L
                      THRU 322-SAVE-CONTEXT-L-EXIT
                   SUBTRACT +1 FROM AC99W-SUB1
                      GIVING ACCOMM-CNT-PGM-STACK
                   PERFORM 520-COMMIT-DB
                      THRU 520-COMMIT-DB-EXIT

                   EXEC CICS
                        XCTL
                        PROGRAM(AC99W-NEXT-PROGRAM)
                        COMMAREA(ACCOMM)
                        LENGTH(ACCOMM-LENGTH)
                   END-EXEC

               END-IF
           END-PERFORM.


      *%********************************
      *%ERROR - PROGRAM NOT IN STACK
      *%********************************
FCAMH *    MOVE AC99W-MESSAGE-900021 TO AC99W-DISP-MSG.
FCAMH      MOVE '177020' TO AC99W-MC-MESSAGE-NO
FCAMH      PERFORM 399-GET-MESSAGE
FCAMH         THRU 399-GET-MESSAGE-EXIT
FCAMH      MOVE DCLINK-MESSAGE TO AC99W-DISP-MSG
           PERFORM 750-DISPLAY
              THRU 750-DISPLAY-EXIT.
           EXEC CICS
               RETURN
           END-EXEC.

       395-RETURN-EXIT.
           EXIT.


      *%---------------------------------------------------------------*
      *%                                                               *
      *%                   399-GET-MESSAGE ROUTINE                     *
      *%                                                               *
      *%---------------------------------------------------------------*
       399-GET-MESSAGE.

       399-GET-MESSAGE-010.
FCAMH      EXEC SQL
FCAMH           INCLUDE ACMSGCOD
FCAMH      END-EXEC.
       399-GET-MESSAGE-EXIT.
           EXIT.


      *%---------------------------------------------------------------*
      *%                                                               *
      *%                   480-BUILD-ERROR ROUTINE                     *
      *%                                                               *
      *%---------------------------------------------------------------*
       480-BUILD-ERROR.

           IF DCLINK-MESSAGE = SPACES
               MOVE AC99W-ERROR-MESSAGE TO DCLINK-MESSAGE
           END-IF.
           MOVE DCLINK-MESSAGE TO WK01-ZZMESSAGE.

       480-BUILD-ERROR-EXIT.
           EXIT.

      *%---------------------------------------------------------------*
      *%                                                               *
      *%                   500-INIT-PROGRAM ROUTINE                    *
      *%                                                               *
      *%---------------------------------------------------------------*
       500-INIT-PROGRAM.

      *%****************************************************************
      *%       INITIALIZE KEY PROGRAM VARIABLES                        *
      *%****************************************************************
FCAMH *    MOVE AC99W-APPLICATION TO AGR-APPLICATION-NAME.
           MOVE EIBAID TO AGR-AID-BYTE.
           MOVE 'D' TO AGR-CURRENT-FUNC-TYPE.
           MOVE AC99W-PROGRAM-NAME TO AGR-DIALOG-NAME.
           MOVE SPACES TO AGR-MAP-RESPONSE.
           MOVE SPACES TO DCLINK-MESSAGE.
           EXEC CICS
                ASKTIME
                ABSTIME(AC99W-ABSTIME)
           END-EXEC.
           EXEC CICS
                FORMATTIME
                ABSTIME(AC99W-ABSTIME)
                YYMMDD(AC99W-DATE)
                TIME(AC99W-TIME)
           END-EXEC.
FCAMH      EXEC CICS
FCAMH           FORMATTIME
FCAMH           ABSTIME(AC99W-ABSTIME)
FCAMH           DATESEP
FCAMH           DATE(AGR-DATE)
FCAMH      END-EXEC.
           EXEC CICS ASSIGN
                USERID(AC99W-USER-ID)
           END-EXEC.
           INSPECT AC99W-USER-ID CONVERTING
                'abcdefghijklmnopqrstuvwxyz' TO
                'ABCDEFGHIJKLMNOPQRSTUVWXYZ'.

       500-INIT-PROGRAM-EXIT.
           EXIT.

      *%---------------------------------------------------------------*
      *%                                                               *
      *%                   501-INIT-GLOBAL-RECORDS ROUTINE             *
      *%                                                               *
      *%---------------------------------------------------------------*
       501-INIT-GLOBAL-RECORDS.

           INITIALIZE ADSO-APPLICATION-GLOBAL-RECORD.
           INITIALIZE FSYWG00M.
           INITIALIZE FSYWG00D.
           MOVE QUOTE TO AGR-AID-BYTE OF ADSO-APPLICATION-GLOBAL-RECORD.
           MOVE 'N' TO AGR-SIGNON-SWITCH OF
                ADSO-APPLICATION-GLOBAL-RECORD.
           MOVE 'MORE ERRORS...' TO ERROR-TEXT-SY00 OF FSYWG00M.

       501-INIT-GLOBAL-RECORDS-EXIT.
           EXIT.

      *%---------------------------------------------------------------*
      *%                                                               *
      *%                   502-INIT-LOCAL-RECORDS ROUTINE              *
      *%                                                               *
      *%---------------------------------------------------------------*
       502-INIT-LOCAL-RECORDS.

           INITIALIZE FSYWG12D.

       502-INIT-LOCAL-RECORDS-EXIT.
           EXIT.


      *%---------------------------------------------------------------*
      *%                                                               *
      *%                   520-COMMIT-DB ROUTINE                       *
      *%               RESET ANY ACTIVE FILES                          *
      *%                                                               *
      *%---------------------------------------------------------------*
       520-COMMIT-DB.

      *%****************************************************************
      *%       COMMIT THE DATABASE UPDATES                             *
      *%****************************************************************
           IF AC99W-FLAG-IDMS-BIND = AC99W-YES
      *%       FINISH
               PERFORM 996-COMMIT
                  THRU 996-COMMIT-EXIT
               PERFORM 999-SQL-STATUS
                  THRU 999-SQL-STATUS-EXIT
           END-IF.

           MOVE AC99W-NO TO AC99W-FLAG-IDMS-BIND.

       520-COMMIT-DB-EXIT.
           EXIT.

      *%---------------------------------------------------------------*
      *%                                                               *
      *%                   750-DISPLAY ROUTINE                         *
      *%                                                               *
      *%---------------------------------------------------------------*
       750-DISPLAY.

      *%   SEND MESSAGE FROM AC99W-DISP-MSG.
           MOVE AC99W-DISP-MSG TO WK01-ERROR-MSG.
FCAMH *    CALL DCLINK-DCXMAP USING
FCAMH *         BY REFERENCE DFHEIBLK
FCAMH *         BY REFERENCE DFHCOMMAREA
FCAMH *         BY CONTENT 'SET-DISPLAY-TEXT              '
FCAMH *         BY REFERENCE MAP-CONTROL.

FCAMH       EXEC CICS SEND TEXT
FCAMH            FROM(AC99W-DISP-MSG)
FCAMH            ERASE FREEKB
FCAMH       END-EXEC.


       750-DISPLAY-EXIT.
           EXIT.

      *%---------------------------------------------------------------*
      *%                                                               *
      *%                   790-CICS-ABEND ROUTINE                      *
      *%                                                               *
      *%---------------------------------------------------------------*
       790-CICS-ABEND.

           COPY USRABEND.

       790-CICS-ABEND-EXIT.
           EXIT.

      *%   COPY IDMS IDMS-STATUS.
      *
      *%-------------------------------------------------------------- *
      *%                                                               *
      *%                 800-MAPIN-FSYMI08 ROUTINE                     *
      *%                                                               *
      *%-------------------------------------------------------------- *
       800-MAPIN-FSYMI08.

           CALL DCLINK-DCXMAP USING
                BY REFERENCE DFHEIBLK
FCSLA           BY REFERENCE ACCOMM
                BY CONTENT 'MAPIN                         '
                BY REFERENCE MAP-CONTROL.
           MOVE WK01-FLAG-ANY-FIELDS-ERROR TO AC99W-ERROR-IND1.
           COPY FSYMI080.

       800-MAPIN-FSYMI08-EXIT.
           EXIT.
      *
      *%-------------------------------------------------------------- *
      *%                                                               *
      *%                810-MAPOUT-FSYMI08 ROUTINE                     *
      *%                                                               *
      *%-------------------------------------------------------------- *
       810-MAPOUT-FSYMI08.

           IF WK01-FLAG-OUTPUT-DATA = 'N'
               CALL DCLINK-DCXMAP USING
                    BY REFERENCE DFHEIBLK
FCSLA               BY REFERENCE ACCOMM
                    BY CONTENT 'MAPOUT                        '
                    BY REFERENCE MAP-CONTROL
               GO TO 810-MAPOUT-FSYMI08-EXIT
           END-IF.
           COPY FSYMI081.
           CALL DCLINK-DCXMAP USING
                BY REFERENCE DFHEIBLK
FCSLA           BY REFERENCE ACCOMM
                BY CONTENT 'MAPOUT                        '
                BY REFERENCE MAP-CONTROL.

       810-MAPOUT-FSYMI08-EXIT.
           EXIT.
      *
      *%-------------------------------------------------------------- *
      *%                                                               *
      *%                  850-GET-SCRATCH ROUTINE                      *
      *%                                                               *
      *%-------------------------------------------------------------- *
       850-GET-SCRATCH.
           EXEC SQL
               INCLUDE DCSREAD
           END-EXEC.
       850-GET-SCRATCH-EXIT.
           EXIT.
      *
      *%-------------------------------------------------------------- *
      *%                                                               *
      *%                870-DELETE-SCRATCH ROUTINE                     *
      *%                                                               *
      *%-------------------------------------------------------------- *
       870-DELETE-SCRATCH.
           EXEC SQL
               INCLUDE DCSDEL
           END-EXEC.
       870-DELETE-SCRATCH-EXIT.
           EXIT.
      *
      *%-------------------------------------------------------------- *
      *%                                                               *
      *%              895-TEST-CICS-RESPONSE ROUTINE                   *
      *%                                                               *
      *%-------------------------------------------------------------- *
       895-TEST-CICS-RESPONSE.
           IF DCLINK-CICS-RESP = DFHRESP(NORMAL)
               GO TO 895-TEST-CICS-RESPONSE-EXIT.
           MOVE DCLINK-CICS-RESP TO DCLINK-ABEND-CODE.
           EXEC CICS
               ABEND ABCODE(DCLINK-ABEND-CODE)
           END-EXEC.
       895-TEST-CICS-RESPONSE-EXIT.
           EXIT.

      /
      *%-------------------------------------------------------------- *
      *%                                                               *
      *%                    996-COMMIT ROUTINE                         *
      *%                                                               *
      *%-------------------------------------------------------------- *
       996-COMMIT.
       996-COMMIT-EXIT.
           EXIT.
      /
      *%-------------------------------------------------------------- *
      *%                                                               *
      *%                  999-SQL-STATUS ROUTINE                       *
      *%                                                               *
      *%-------------------------------------------------------------- *
       999-SQL-STATUS.
           EXEC SQL
               INCLUDE ONLNERR
           END-EXEC.
       999-SQL-STATUS-EXIT.
           EXIT.

