       IDENTIFICATION DIVISION.
       PROGRAM-ID. FUTDI16A.
       AUTHOR. FORECROSS CORPORATION.
       INSTALLATION. UCSD - USDFINSYS.
       DATE-WRITTEN.  AUG 25,2000.
       DATE-COMPILED. AUG 25,2000.
      ****----------------------------------------------------------****
      **  AUTHOR    DATE    DESCRIPTION                                *
      **  ------- --------  ----------------------------------------   *
DEVBWS**  DEVBWS  06/29/01  DELETE SYNCPOINTS, 976-, ADD "FOR FETCH    *
DEVBWS**                    ONLY" TO DECLARES                          *
DEVBWS**  DEVBWS  07/05/01  DELETE USE OF DBLINK-RECORD-SET-KEYS TSQ   *
      **                                                               *
      ****----------------------------------------------------------****
      *%****************************************************************
      *%                                                               *
      *%  Converted Using Forecross Corporation Redeployment Software  *
      *%                                                               *
      *%                     Convert/ADSO                              *
      *%                     Convert/IDMS-DC                           *
      *%                     Convert/IDMS-DB                           *
      *%                                                               *
      *%****************************************************************
      *%          COPYRIGHT 2000 - FORECROSS CORPORATION               *
      *%                    ALL RIGHTS RESERVED                        *
      *%****************************************************************


           COPY CBCVDBNT.

      /
      *%-------------------------------------------------------------- *
      *%
      *%  *** TABLE VIEWS USED IN THIS PROGRAM
      *%
      *%PRO_PROG_V            PROG-051                         CBL CPY
      *%PGC_PROGCMT_V         PROGCMT-050                      CBL CPY
      *%
      *%  *** CURSORS DECLARED IN THIS PROGRAM
      *%
      *%CURSOR PROG_PROGCMT_N - FORWARD SUBSET OF PROGCMT-050
      *%
      *%  *** SUBROUTINES GENERATED FOR THIS PROGRAM
      *%
      *%000-SQL-INITIALIZATION
      *%998-SET-RUN-DATE
      *%986-RESET-KEYS
      *%906-00N-PROG-PROGCMT
      *%906-05-PROG-051-3
      *%985-CURR-PROG-051
      *%985-CURR-PROGCMT-050
      *%985-EOS-PROG-PROGCMT
      *%996-COMMIT
      *%
      *%-------------------------------------------------------------- *
       ENVIRONMENT DIVISION.
       CONFIGURATION SECTION.
       SOURCE-COMPUTER.  IBM-3090.
       OBJECT-COMPUTER.  IBM-3090.
       INPUT-OUTPUT SECTION.

      *MAP SECTION.
      *MAP FUTMI16.

       FILE-CONTROL.
       I-O-CONTROL.
      *IDMS-CONTROL SECTION.
      *PROTOCOL. MODE IS CICS-AUTOSTATUS DEBUG
      *%         IDMS-RECORDS MANUAL.


       DATA DIVISION.
      *SCHEMA SECTION.
      *%  DB FHPNTWK1 WITHIN IDMSNTWK.


       WORKING-STORAGE SECTION.
       01  FILLER  PIC X(32) VALUE '** FUTDI16A WORKING STRG BEGINS'.

      *%****************************************************************
       01  AC99W.
           COPY AC99W.
      *%****************************************************************
      *%****************************************************************
      *%              AC99W FIELDS UNIQUE TO THIS PROGRAM              *
      *%****************************************************************
FLT13**    10  AC99W-APPLICATION            PIC X(8) VALUE 'FUTDI16A'.
           10  AC99W-MAIN-MENU              PIC X(8) VALUE 'FSYDM00'.
           10  AC99W-PROGRAM-NAME           PIC X(8) VALUE 'FUTDI16A'.
           10  AC99W-MAPNAME                PIC X(8) VALUE 'FUTMI16 '.
           10  AC99W-TRANSID                PIC X(4) VALUE 'F299'.
           10  AC99W-FUTWM16-F              PIC X(1)
                                VALUE 'N'.
           10  AC99W-FUTWD19-F              PIC X(1)
                                VALUE 'N'.
           10  AC99W-PROG-051-F             PIC X(1)
                                VALUE 'N'.
           10  AC99W-PROGCMT-050-F          PIC X(1)
                                VALUE 'N'.

      *%****************************************************************
      *%           APPLICATION WORK AREAS                              *
      *%****************************************************************
           COPY ACAPPL.


      *%****************************************************************
      *%               IDMS RECORD COPIES                              *
      *%****************************************************************
      *%   COPY IDMS SUBSCHEMA-CONTROL.
       01  SUBSCHEMA-CONTROL.
      *%   EXEC SQL
      *%       INCLUDE CBRSKEYS
CPYNME     EXEC SQL
FCSAH *        INCLUDE CBRSKEY2
FCSAH          INCLUDE CBRSKEYH
CPYNME     END-EXEC.
      *%   END-EXEC.
      *%   COPY CBCURCOD.
CPYNME     EXEC SQL
CPYNME         INCLUDE CBCURCO2
CPYNME     END-EXEC.
      *%   COPY IDMS SUBSCHEMA-SSNAME.
      *%   COPY IDMS SUBSCHEMA-AREANAMES.
      *%   COPY IDMS SUBSCHEMA-RECNAMES.
      *%   COPY IDMS SUBSCHEMA-SETNAMES.
      *%   COPY IDMS RECORD ADSO-APPLICATION-GLOBAL-RECORD.
CPYNME     COPY ADSOGLBL.
      *%   COPY IDMS RECORD FISWG00M.
CPYNME     COPY FISWG00M.
      *%   COPY IDMS RECORD FUTWM16.
CPYNME     COPY FUTWM16.
      *%   COPY IDMS RECORD FUTWD19.
CPYNME     COPY FUTWD19.

      *%****************************** *
      *% PRO_PROG_V DATA VIEW AREAS
      *%****************************** *
      *%   COPY CBID0051.
CPYNME     COPY PROG.
      *%   COPY IDMS RECORD PROG-051.

      *%****************************** *
      *% PGC_PROGCMT_V DATA VIEW AREAS
      *%****************************** *
      *%   COPY CBID0050.
CPYNME     COPY PROGCMT.
      *%   COPY IDMS RECORD PROGCMT-050.


      *%****************************** *
      *%MAP DATA AREA FOR FUTMI16
      *%****************************** *
           COPY FUTMI16T.

      *%****************************** *
      *%CICS COPIES
      *%****************************** *
           COPY DFHAID.
           COPY DFHBMSCA.

      *%****************************** *
      *%STANDARD MAPPING COPIES
      *%****************************** *
           COPY DCLINKCA.
           COPY ACCOMM.
FCFLT7     COPY ONLWS.

UCSD1      EXEC SQL
UCSD1          INCLUDE HVMSL
UCSD1      END-EXEC.
FCSAH      EXEC SQL
FCSAH          INCLUDE HVMPF
FCSAH      END-EXEC.
FCSAH      EXEC SQL
FCSAH          INCLUDE HVMPC
FCSAH      END-EXEC.
UCSD1 *%   EXEC SQL
UCSD1 *%       INCLUDE ACMSGHT
CPYNME     COPY ACMSGHT.
UCSD1 *%   END-EXEC.
           EXEC SQL
               INCLUDE CBCVDBCA
           END-EXEC.

      /
      *%-------------------------------------------------------------- *
      *%                                                               *
      *%          STANDARD CONVERT/DB COMMUNICATION AREAS              *
      *%                                                               *
      *%-------------------------------------------------------------- *
           COPY CBCVDBDD.
           COPY CBCVDBXD.
       01  DBLINK-NAMES.
           05  DBLINK-SCHEMA-NAME.
               10  FILLER                   PIC X(8)
                       VALUE 'IDMSNTWK'.
           05  DBLINK-RECORD-NAMES.
               10  DBLINK-ELEMSYN-085       PIC X(16)
                       VALUE 'ELEMSYN-085'.
               10  DBLINK-INQ-058           PIC X(16)
                       VALUE 'INQ-058'.
               10  DBLINK-MAP-098           PIC X(16)
                       VALUE 'MAP-098'.
               10  DBLINK-MESSAGE-116       PIC X(16)
                       VALUE 'MESSAGE-116'.
               10  DBLINK-MODULE-067        PIC X(16)
                       VALUE 'MODULE-067'.
               10  DBLINK-NAMESYN-083       PIC X(16)
                       VALUE 'NAMESYN-083'.
               10  DBLINK-PANELFLD-121      PIC X(16)
                       VALUE 'PANELFLD-121'.
               10  DBLINK-PROG-051          PIC X(16)
                       VALUE 'PROG-051'.
               10  DBLINK-PROGCMT-050       PIC X(16)
                       VALUE 'PROGCMT-050'.
               10  DBLINK-RCDSYN-079        PIC X(16)
                       VALUE 'RCDSYN-079'.
               10  DBLINK-SDR-042           PIC X(16)
                       VALUE 'SDR-042'.
               10  DBLINK-SR-036            PIC X(16)
                       VALUE 'SR-036'.
           05  DBLINK-SET-NAMES.
               10  PROG-PROGCMT             PIC X(16)
                       VALUE 'PROG-PROGCMT'.
           05  DBLINK-AREA-NAMES.
               10  FILLER                   PIC X(1)        VALUE SPACE.
           05  DBLINK-RECORD-LOCK-FLAGS.
               10  FILLER                   PIC X(1)        VALUE SPACE.
           05  DBLINK-CURSOR-NAMES.
               10  DBLINK-PROG-PROGCMT-N    PIC X(18)
                       VALUE 'PROG-PROGCMT-N'.
      /
      *%-------------------------------------------------------------- *
      *%                                                               *
      *%                  CONTROL AREAS AND VIEWS                      *
      *%                                                               *
      *%-------------------------------------------------------------- *

      *%****************************** *
      *%CONVERT/DB COMMAREA
      *%****************************** *
           EXEC SQL
               INCLUDE SQLCA
           END-EXEC.

      *%****************************** *
      *%PRO_PROG_V AREAS(HOST VAR INCLUDE)
      *%****************************** *
      *%   EXEC SQL
      *%       INCLUDE CBHV0051
CPYNME     EXEC SQL
CPYNME         INCLUDE HVPRO
CPYNME     END-EXEC.
      *%   END-EXEC.

      *%****************************** *
      *%PGC_PROGCMT_V AREAS(HOST VAR INCLUDE)
      *%****************************** *
      *%   EXEC SQL
      *%       INCLUDE CBHV0050
CPYNME     EXEC SQL
CPYNME         INCLUDE HVPGC
CPYNME     END-EXEC.
      *%   END-EXEC.
       LINKAGE SECTION.
       01  DFHCOMMAREA.
           10  DFHCOMMAREAZ PIC X(950).


      /
      *%-------------------------------------------------------------- *
      *%                                                               *
      *%                    CURSOR DECLARATIONS                        *
      *%                                                               *
      *%-------------------------------------------------------------- *

      *%****************************** *
      *%CURSOR FOR FORWARD SUBSET OF PGC_PROGCMT_V
      *%****************************** *
           EXEC SQL
               DECLARE PROG_PROGCMT_N CURSOR FOR
               SELECT
                  IDD_SEQ
                 ,CMT_INFO_1
                 ,CMT_INFO_2
                 ,CMT_ID
                 ,FK_PRO_PROG_NM
                 ,FK_PRO_PKEY_TS
                 ,PRO_TS
               FROM PGC_PROGCMT_V
               WHERE FK_PRO_PROG_NM = :DBLINK-PROG-PROGCMT-01
                 AND FK_PRO_PKEY_TS = :DBLINK-PROG-PROGCMT-02
                 AND PRO_TS < :DBLINK-PROG-PROGCMT-03
               ORDER BY PRO_TS  DESC
DEVBWS         FOR FETCH ONLY
               OPTIMIZE FOR 1 ROW
           END-EXEC.

       PROCEDURE DIVISION.
      /
      *%-------------------------------------------------------------- *
      *%                                                               *
      *%              000-SQL-INITIALIZATION ROUTINE                   *
      *%                                                               *
      *%-------------------------------------------------------------- *
       000-SQL-INITIALIZATION.
           MOVE '000-SQL-INITIALIZATION' TO DBLINK-CURR-PARAGRAPH.
           MOVE EIBTIME TO DBLINK-TIME-N.
           PERFORM 998-SET-RUN-DATE
              THRU 998-SET-RUN-DATE-EXIT.
           MOVE DBLINKX-NULL-DB2-DATE-ISO TO DBLINK-DEFAULT-DATE.
           MOVE '0001-01-01' TO DBLINK-LOW-DATE.
           MOVE '9999-12-31' TO DBLINK-HIGH-DATE.
           MOVE DBLINKX-NULL-DB2-TIME-ISO TO DBLINK-DEFAULT-TIME.
           MOVE '00.00.01' TO DBLINK-LOW-TIME.
           MOVE '23.59.59' TO DBLINK-HIGH-TIME.
       000-SQL-INITIALIZATION-EXIT.
           EXIT.







      *%---------------------------------------------------------------*
      *%                                                               *
      *%                   000-RUN-CONTROL ROUTINE                     *
      *%                                                               *
      *%---------------------------------------------------------------*
       000-RUN-CONTROL.

           PERFORM 010-INITIALIZE
              THRU 010-INITIALIZE-EXIT.
           PERFORM 020-MAINLINE
              THRU 020-MAINLINE-EXIT.
           PERFORM 030-WRAPUP
              THRU 030-WRAPUP-EXIT.

       000-RUN-CONTROL-EXIT.
           EXIT.

      *%---------------------------------------------------------------*
      *%                                                               *
      *%                   010-INITIALIZE ROUTINE                      *
      *%                                                               *
      *%---------------------------------------------------------------*
       010-INITIALIZE.
      *%****************************************************************
      *%       INITIALIZE ALL TEMPORARY STORAGE QUEUE NAMES            *
      *%****************************************************************
           MOVE EIBTRMID TO AC99W-CONTEXT-QUEUE-L-1-4.
           MOVE EIBTRMID TO AC99W-CONTEXT-QUEUE-G-1-4.
           MOVE EIBTRMID TO AC99W-DEFAULT-QUEUE-1-4.

      *%****************************************************************
      *%       INITIALIZE ALL PROGRAM RECORDS                          *
      *%****************************************************************
           PERFORM 501-INIT-GLOBAL-RECORDS
              THRU 501-INIT-GLOBAL-RECORDS-EXIT
           PERFORM 502-INIT-LOCAL-RECORDS
              THRU 502-INIT-LOCAL-RECORDS-EXIT.
           PERFORM 503-INIT-IDMSNTWK
              THRU 503-INIT-IDMSNTWK-EXIT.
      *%****************************************************************
      *%              INITIALIZE AGR-TASK-CODE                         *
      *%****************************************************************
           IF EIBCALEN = 0
              MOVE '@' TO AGR-TASK-CODE
           END-IF.

      *%****************************************************************
      *%       PERFORM ALL OTHER DEFAULT INITIALIZATION                *
      *%****************************************************************
      *%   COPY AC1TM.
CPYNME     EXEC SQL
CPYNME         INCLUDE AC1TM
CPYNME     END-EXEC.


       010-INITIALIZE-EXIT.
           EXIT.


      *%---------------------------------------------------------------*
      *%                                                               *
      *%                   020-MAINLINE ROUTINE                        *
      *%                                                               *
      *%---------------------------------------------------------------*
       020-MAINLINE.
      *%****************************************************************
      *%       IF RETURNING FROM LOWER-LEVEL PROGRAM                   *
      *%****************************************************************
           IF ACCOMM-FROM-PROGRAM = AC99W-RETURN
UCSD1          PERFORM 040-RETURN-FROM-LINK
UCSD1             THRU 040-RETURN-FROM-LINK-EXIT
               MOVE SPACES TO ACCOMM-FROM-PROGRAM
      *%****************************************************************
      *%*    RESET IDENTITY OF LINK TO MAP-CONTAINING PROGRAM          *
      *%****************************************************************
FCAMH *        MOVE +0 TO ACCOMM-LINK-RETURN-ID
FCAMH          IF ACCOMM-LINK-RETURN-SAVE NOT = ZEROES
FCAMH             MOVE ACCOMM-LINK-RETURN-SAVE TO ACCOMM-LINK-RETURN-ID
FCAMH          END-IF
               MOVE AC99W-SECOND-TIME TO ACCOMM-RECALL-CODE

      *%****************************************************************
      *%       IF RETURN WITH THE CLEAR OPTION                         *
      *%****************************************************************
               IF ACCOMM-FLAG-CLEAR = AC99W-YES
                   PERFORM 502-INIT-LOCAL-RECORDS
                      THRU 502-INIT-LOCAL-RECORDS-EXIT
               END-IF

      *%****************************************************************
      *%       IF PREMAP IS TO BE PERFORMED                            *
      *%          (RETURN CONTINUE, POP, POPTOP, TOP)                  *
      *%****************************************************************
               IF ACCOMM-FLAG-CONTINUE = AC99W-YES
                   MOVE AC99W-NO TO ACCOMM-FLAG-CONTINUE
                   PERFORM 120-PREMAP
                      THRU 120-PREMAP-EXIT
               END-IF

      *%****************************************************************
      *%       IF LAST MAP DISPLAYED WAS NOT THIS PROGRAMS MAP         *
      *%****************************************************************
               IF ACCOMM-CURRENT-MAP NOT = AC99W-MAPNAME
                   MOVE AC99W-MAPNAME TO ACCOMM-CURRENT-MAP
                   MOVE AC99W-YES TO WK01-FLAG-ALL-FIELDS-ERASE
                   MOVE AC99W-YES TO WK01-1ST-FLAG
                 ELSE
                   MOVE AC99W-NO TO WK01-FLAG-ALL-FIELDS-ERASE
                   MOVE AC99W-NO TO WK01-1ST-FLAG
               END-IF
      *%       MAP OUT USING FUTMI16
               PERFORM 810-MAPOUT-FUTMI16
                  THRU 810-MAPOUT-FUTMI16-EXIT
               GO TO 020-MAINLINE-EXIT
           END-IF.

      *%****************************************************************
      *%*    RESET IDENTITY OF LINK TO MAP-CONTAINING PROGRAM          *
      *%****************************************************************
FCAMH *    MOVE +0 TO ACCOMM-LINK-RETURN-ID.

      *%****************************************************************
      *%       IF FIRST TIME INTO THIS PROGRAM JUST DISPLAY THE MAP    *
      *%****************************************************************
           IF ACCOMM-RECALL-CODE = AC99W-FIRST-TIME
            OR ACCOMM-RECALL-CODE = AC99W-TRANSFER
            OR ACCOMM-RECALL-CODE = AC99W-INVOKE
               MOVE AC99W-SECOND-TIME TO ACCOMM-RECALL-CODE
               MOVE AC99W-MAPNAME TO ACCOMM-CURRENT-MAP
               PERFORM 120-PREMAP
                  THRU 120-PREMAP-EXIT
      *%       MAP OUT USING FUTMI16
               PERFORM 810-MAPOUT-FUTMI16
                  THRU 810-MAPOUT-FUTMI16-EXIT
               GO TO 020-MAINLINE-EXIT
           END-IF.


      *%****************************************************************
      *%       IF BEYOND FIRST TIME, MAPIN IF THERE IS ANY DATA        *
      *%****************************************************************
           IF EIBAID = DFHPA1
            OR EIBAID = DFHPA2
            OR EIBAID = DFHPA3
            OR EIBAID = DFHCLEAR
FLT12        OR ACCOMM-FROM-PROGRAM = 'FPF1HLP'
               NEXT SENTENCE
           ELSE
      *%       MAP IN USING FUTMI16
               PERFORM 800-MAPIN-FUTMI16
                  THRU 800-MAPIN-FUTMI16-EXIT
               MOVE EIBAID TO AGR-AID-BYTE
               IF DCLINK-CICS-RESP NOT = DFHRESP(MAPFAIL)
                   PERFORM 895-TEST-CICS-RESPONSE
                      THRU 895-TEST-CICS-RESPONSE-EXIT
               END-IF
           END-IF.


      *%****************************************************************
      *%       DO RESPONSE PROCESSING                                  *
      *%****************************************************************
           PERFORM 140-RESPONSE
              THRU 140-RESPONSE-EXIT.

      *%****************************************************************
      *%       IF ANY ERROR AND PREMAP IS NOT TO BE PERFORMED AGAIN    *
      *%****************************************************************
           IF AC99W-ERROR-IND1 = AC99W-YES
            AND AC99W-FLAG-DISPLAY-CONTINUE = AC99W-NO
               PERFORM 480-BUILD-ERROR
                  THRU 480-BUILD-ERROR-EXIT
               IF NOT AGR-CLEAR
                   MOVE AC99W-NO TO WK01-FLAG-ALL-FIELDS-ERASE
      *%           MAP OUT USING FUTMI16 OUTPUT DATA IS NO
                   MOVE 'Y' TO WK01-FLAG-OUTPUT-DATA
                   PERFORM 810-MAPOUT-FUTMI16
                      THRU 810-MAPOUT-FUTMI16-EXIT
                   GO TO 020-MAINLINE-EXIT
               END-IF
           END-IF.

      *%****************************************************************
      *%       IF PREMAP IS TO BE PERFORMED AGAIN                      *
      *%****************************************************************
           IF AC99W-FLAG-DISPLAY-CONTINUE = AC99W-YES
               MOVE AC99W-NO TO AC99W-FLAG-DISPLAY
               PERFORM 120-PREMAP
                  THRU 120-PREMAP-EXIT

      *%****************************************************************
      *%       IF ANY ERROR                                            *
      *%****************************************************************
               IF AC99W-ERROR-IND1 = AC99W-YES
                   PERFORM 480-BUILD-ERROR
                      THRU 480-BUILD-ERROR-EXIT
                   IF NOT AGR-CLEAR
                       MOVE AC99W-NO TO WK01-FLAG-ALL-FIELDS-ERASE
      *%               MAP OUT USING FUTMI16 OUTPUT DATA IS NO
                       MOVE 'Y' TO WK01-FLAG-OUTPUT-DATA
                       PERFORM 810-MAPOUT-FUTMI16
                          THRU 810-MAPOUT-FUTMI16-EXIT
                       GO TO 020-MAINLINE-EXIT
                   END-IF
               END-IF
           END-IF.

      *%****************************************************************
      *%       IF LAST MAP DISPLAYED WAS NOT THIS PROGRAMS MAP         *
      *%****************************************************************
           IF ACCOMM-CURRENT-MAP NOT = AC99W-MAPNAME
            OR AGR-CLEAR
               MOVE AC99W-MAPNAME TO ACCOMM-CURRENT-MAP
               MOVE AC99W-YES TO WK01-FLAG-ALL-FIELDS-ERASE
             ELSE
               MOVE AC99W-NO TO WK01-FLAG-ALL-FIELDS-ERASE
           END-IF.
      *%   MAP OUT USING FUTMI16.
           PERFORM 810-MAPOUT-FUTMI16
              THRU 810-MAPOUT-FUTMI16-EXIT.

       020-MAINLINE-EXIT.
           EXIT.

      *%---------------------------------------------------------------*
      *%                                                               *
      *%                   030-WRAPUP ROUTINE                          *
      *%                                                               *
      *%---------------------------------------------------------------*
       030-WRAPUP.
      *%****************************************************************
      *%       SAVE GLOBAL AND LOCAL RECORDS FOR THIS CICS TRANSACTION *
      *%****************************************************************
           IF AC99W-TRANSID = SPACES
              EXEC CICS
                  RETURN
              END-EXEC
           ELSE
              PERFORM 326-SAVE-CONTEXT-G
                 THRU 326-SAVE-CONTEXT-G-EXIT
              MOVE AC99W-PARTIAL TO AC99W-NOSAVE-OPTION
              PERFORM 322-SAVE-CONTEXT-L
                 THRU 322-SAVE-CONTEXT-L-EXIT
      *%****************************************************************
      *%       RETURN TO CICS - WAIT FOR NEXT USER RESPONSE            *
      *%****************************************************************
              EXEC CICS
                   RETURN
                   TRANSID(AC99W-TRANSID)
                   COMMAREA(ACCOMM)
                   LENGTH(ACCOMM-LENGTH)
              END-EXEC
           END-IF.

       030-WRAPUP-EXIT.
           EXIT.

UCSD1 *%---------------------------------------------------------------*
UCSD1 *%                                                               *
UCSD1 *%                   040-RETURN-FROM-LINK ROUTINE                *
UCSD1 *%                                                               *
UCSD1 *%---------------------------------------------------------------*
UCSD1  040-RETURN-FROM-LINK.
UCSD1      EVALUATE ACCOMM-LINK-RETURN-ID
UCSD1        WHEN ZERO
UCSD1          GO TO 040-RETURN-FROM-LINK-EXIT
UCSD1        WHEN +01
UCSDX        PERFORM 040-01RETURN-FROM-FUTDU19
UCSD1           THRU 040-01RETURN-EXIT
UCSD1      END-EVALUATE.
UCSD1  040-RETURN-FROM-LINK-EXIT.
UCSD1      EXIT.
UCSD1  040-01RETURN-FROM-FUTDU19.
UCSDX      MOVE SPACES TO AGR-PASSED-ONE
UCSDX      INITIALIZE FUTWD19
UCSDX *    MOVE AC99W-YES-DISPLAY TO AC99W-FLAG-DISPLAY
UCSDX *    MOVE AC99W-YES-DISPLAY TO AC99W-FLAG-DISPLAY-CONTINUE
UCSDX *    MOVE AC99W-NO TO AC99W-FLAG-FIRST-TIME.
UCSDX      MOVE AC99W-YES TO AC99W-FLAG-FIRST-TIME.
UCSDX      MOVE AC99W-YES TO ACCOMM-FLAG-CONTINUE.
UCSDX  040-01RETURN-EXIT.
UCSD1      EXIT.


       EJECT
      *%---------------------------------------------------------------*
      *%                                                               *
      *%                   120-PREMAP ROUTINE                          *
      *%                                                               *
      *%---------------------------------------------------------------*
       120-PREMAP.

      ******************************************************************
      *******
      **********************  BEGINNING OF MODULE  *********************
      *******
      ******************************************************************
      *******
      ******************************************************************
      *******
      ***  MODULE      : FUTPI16A
      ***  DESCRIPTION : MODULE HELP INFORAMTION PREMAP
      ***  WRITTEN BY  : H CARTWRIGHT - TIERRA SYSTEMS, INC
      ***  DATE WRITTEN: JAN  1993
      ***  COMMENTS    :
      ******************************************************************
      *******
      ******************************************************************
      *******
      ***                           CHANGE HISTORY
      *     *
      ***
      *     *
      *** REF  AUTH    DATE                  DESCRIPTION
      *ACR  *
      *** ---  ----  --------  --------------------------------------  -
      *---- *
      ***
      *     *
      ***
      *     *
      ******************************************************************
      *******
      ******************************************************************
      *******
      ***                    M A I N L I N E
      ******************************************************************
      *******
      ******************************************************************
      *******
           PERFORM 200-10INIT-S01
              THRU 200-10INIT-S01-EXIT.
           IF AC99W-FLAG-DISPLAY = AC99W-YES-DISPLAY
              GO TO 120-PREMAP-EXIT
           END-IF.
      ***  INITIALIZATION
      *
           PERFORM 200-20CHKKEY-S01
              THRU 200-20CHKKEY-S01-EXIT.
           IF AC99W-FLAG-DISPLAY = AC99W-YES-DISPLAY
              GO TO 120-PREMAP-EXIT
           END-IF.
      ***  KEY VALIDATION
      *
           PERFORM 200-40FRWD-S01
              THRU 200-40FRWD-S01-EXIT.
           IF AC99W-FLAG-DISPLAY = AC99W-YES-DISPLAY
              GO TO 120-PREMAP-EXIT
           END-IF.
      ** FIND REST OF PAGE
      *
           PERFORM 200-DISPMAP-S01
              THRU 200-DISPMAP-S01-EXIT.
           IF AC99W-FLAG-DISPLAY = AC99W-YES-DISPLAY
              GO TO 120-PREMAP-EXIT
           END-IF.
      *
      ******************************************************************
      *******
      ***                   S U B R O U T I N E S
      ******************************************************************
      *******
      *
      ******************************************************************
      *******

       120-PREMAP-EXIT.
           EXIT.


      *%---------------------------------------------------------------*
      *%                                                               *
      *%                   140-RESPONSE ROUTINE                        *
      *%                                                               *
      *%---------------------------------------------------------------*
       140-RESPONSE.
      *%****************************************************************
      *%       EXAMINE USER RESPONSE                                   *
      *%****************************************************************

           IF AGR-ENTER
             PERFORM 150-FUTRI16
                THRU 150-FUTRI16-EXIT
FCAMH        MOVE AC99W-NO TO AC99W-ERROR-IND2
             GO TO 140-RESPONSE-900
           END-IF.

           IF AGR-PF1
             PERFORM 150-PF1HELP
                THRU 150-PF1HELP-EXIT
             GO TO 140-RESPONSE-EXIT
           END-IF.

FCAMH      IF AGR-PF7
FCAMH        PERFORM 150-FUTRI16
FCAMH           THRU 150-FUTRI16-EXIT
FCAMH        MOVE AC99W-NO TO AC99W-ERROR-IND2
FCAMH        GO TO 140-RESPONSE-900
FCAMH      END-IF.

FCAMH      IF AGR-PF8
FCAMH        PERFORM 150-FUTRI16
FCAMH           THRU 150-FUTRI16-EXIT
FCAMH        MOVE AC99W-NO TO AC99W-ERROR-IND2
FCAMH        GO TO 140-RESPONSE-900
FCAMH      END-IF.

FCAMH      IF AGR-PF12
FCAMH        PERFORM 150-FUTRI16
FCAMH           THRU 150-FUTRI16-EXIT
FCAMH        MOVE AC99W-NO TO AC99W-ERROR-IND2
FCAMH        GO TO 140-RESPONSE-900
           END-IF.

      *%********************************
      *%DEFAULT CONTROL KEY PROCESSING
      *%********************************
           COPY ACDEFCTL.

      *%****************************************************************
      *%       DEFAULT IS TO PERFORM ENTER PROCESS                     *
      *%****************************************************************
FCAMH      IF AC99W-ERROR-IND2 = AC99W-NO
           PERFORM 150-FUTRI16
              THRU 150-FUTRI16-EXIT.

        140-RESPONSE-900.
      *%****************************************************************
      *%       SEND ERROR TO SCREEN IF THERE IS NO VALID RESPONSE      *
      *%****************************************************************
           IF AC99W-ERROR-IND1 = AC99W-NO AND
              AC99W-ERROR-IND2 = AC99W-NO AND
              AC99W-ERROR-IND3 = AC99W-NO
               NEXT SENTENCE
             ELSE
               IF AC99W-ERROR-IND2 = AC99W-YES
      *%           MOVE AC99W-MESSAGE-900002 TO DCLINK-MESSAGE
UCSD1              MOVE '172008' TO AC99W-MC-MESSAGE-NO
                 ELSE
                   IF AC99W-ERROR-IND3 = AC99W-YES
      *%               MOVE AC99W-MESSAGE-900003 TO DCLINK-MESSAGE
UCSD1                  MOVE '177023' TO AC99W-MC-MESSAGE-NO
                   END-IF
               END-IF
UCSD1          PERFORM 399-GET-MESSAGE
UCSD1             THRU 399-GET-MESSAGE-EXIT
               PERFORM 480-BUILD-ERROR
                  THRU 480-BUILD-ERROR-EXIT
      *%       MOVE AC99W-YES TO AC99W-ERROR-IND1
               GO TO 140-RESPONSE-EXIT
           END-IF.


       140-RESPONSE-EXIT.
           EXIT.


       EJECT
      *%---------------------------------------------------------------*
      *%                                                               *
      *%                   150-FUTRI16 ROUTINE                         *
      *%                                                               *
      *%---------------------------------------------------------------*
       150-FUTRI16.

      ******************************************************************
      *******
      **********************  BEGINNING OF MODULE  *********************
      *******
      ******************************************************************
      *******
      *
      ******************************************************************
      *******
      ***  MODULE      : FUTRI16
      ***  DESCRIPTION : MODULE HELP RESPONSE
      ***  WRITTEN BY  : HOLLY CARTWRIGHT - TIERRA SYSTEMS, INC.
      ***  DATE WRITTEN: JAN  1993
      ***  COMMENTS    :
      ***  CURRENCY    :
      ***    EXPECTED  : NONE
      ***    PASSED    : NONE
      ******************************************************************
      *******
      ******************************************************************
      *******
      ***                           CHANGE HISTORY
      *     *
      ***
      *     *
      *** REF  AUTH    DATE                  DESCRIPTION               T
      *SIS  *
      *** ---  ----  --------  --------------------------------------  -
      *---- *
      *** 001  XXX   MM/DD/YY  XXXXXXXXXXXXXXXXXXXXXXXXXXXXXXXXXXXXXX  0
      *0000 *
      ***
      *     *
      ******************************************************************
      *******
      ******************************************************************
      *******
      *
           COMPUTE AC99W-ALPHA05 ROUNDED =
               AC99W-TIME / 100.
           MOVE AC99W-ALPHA05 TO WORK-HH-MM-TIME-SY00.
           IF WORK-HH-MM-TIME-SY00 > '1159'
               MOVE 'P' TO AM-PM-FLAG-SY00
               IF WORK-HH-MM-TIME-SY00 > '1259'
                   COMPUTE AC99W-ALPHA05 ROUNDED =
                       ( AC99W-TIME / 100 ) - 1200
                   MOVE AC99W-ALPHA05 TO WORK-HH-MM-TIME-SY00
               END-IF
           ELSE
               MOVE 'A' TO AM-PM-FLAG-SY00
           END-IF.
      *
           IF AGR-PF12

      **********************************
      * LINK TO 'FUTDU19'
      **********************************
               MOVE 'FUTDU19' TO AC99W-NEXT-PROGRAM
               MOVE +01 TO ACCOMM-LINK-RETURN-ID
               PERFORM 334-LINK-DIALOG
                  THRU 334-LINK-DIALOG-EXIT

           END-IF.
      *
           IF AGR-PF8
               MOVE 11 TO MAIN-SUB-SY00
               PERFORM WITH TEST BEFORE
                       UNTIL NOT ( MAIN-SUB-SY00 NOT > 20 )
                   COMPUTE SUB-1-UT19 ROUNDED =
                       MAIN-SUB-SY00 - 10
                   MOVE HOLD-LONG-DESC-UT19 (MAIN-SUB-SY00) TO
                        HELP-LONG-DESC-UT16 (SUB-1-UT19)
                   ADD 1 TO MAIN-SUB-SY00
               END-PERFORM
               MOVE 2 TO PAGE-NMBR-UT19
               MOVE AC99W-YES-DISPLAY TO AC99W-FLAG-DISPLAY
               MOVE 'LAST PAGE' TO DCLINK-MESSAGE
               GO TO 150-FUTRI16-EXIT
           END-IF.
      *
           IF AGR-PF7
               MOVE 1 TO MAIN-SUB-SY00
               PERFORM WITH TEST BEFORE
                       UNTIL NOT ( MAIN-SUB-SY00 NOT > 10 )
                   COMPUTE SUB-1-UT19 ROUNDED =
                       MAIN-SUB-SY00
                   MOVE HOLD-LONG-DESC-UT19 (MAIN-SUB-SY00) TO
                        HELP-LONG-DESC-UT16 (SUB-1-UT19)
                   ADD 1 TO MAIN-SUB-SY00
               END-PERFORM
               MOVE 1 TO PAGE-NMBR-UT19
               MOVE AC99W-YES-DISPLAY TO AC99W-FLAG-DISPLAY
               MOVE 'FIRST PAGE' TO DCLINK-MESSAGE
               GO TO 150-FUTRI16-EXIT
           END-IF.
      *

      *************************************
      ** RETURN TO AC99W-HIGHER
      *************************************
           MOVE AC99W-NO TO ACCOMM-FLAG-CLEAR.
           MOVE AC99W-NO TO ACCOMM-FLAG-CONTINUE.
           MOVE AC99W-HIGHER TO AC99W-NEXT-PROGRAM.
           PERFORM 395-RETURN
              THRU 395-RETURN-EXIT.
      *
      ******************************************************************
      *******
      *************************  END OF MODULE *************************
      *******
      ******************************************************************
      *******

       150-FUTRI16-EXIT.
           EXIT.


       EJECT
      *%---------------------------------------------------------------*
      *%                                                               *
      *%                   150-PF1HELP ROUTINE                         *
      *%                                                               *
      *%---------------------------------------------------------------*
       150-PF1HELP.

      ******************************************************************
      *******
      ***  INVOKE THE HELP PROGRAM
      ******************************************************************
      *******
      *

      **********************************
      * INVOKE DIALOG 'FPF1HLP'
      **********************************
           MOVE 'FPF1HLP' TO AC99W-NEXT-PROGRAM.
           PERFORM 332-INVOKE
              THRU 332-INVOKE-EXIT.

      *
      ******************************************************************
      *******

       150-PF1HELP-EXIT.
           EXIT.


       EJECT
      *%---------------------------------------------------------------*
      *%                                                               *
      *%                   200-10INIT-S01 ROUTINE                      *
      *%                                                               *
      *%---------------------------------------------------------------*
       200-10INIT-S01.

      ** INIT RECORDS AND MAP
      ******************************************************************
      *******
      *
      ***  REFRESH TIME IN THE MAP
      *
           COMPUTE AC99W-ALPHA05 ROUNDED =
               AC99W-TIME / 100.
           MOVE AC99W-ALPHA05 TO WORK-HH-MM-TIME-SY00.
           IF WORK-HH-MM-TIME-SY00 > '1159'
               MOVE 'P' TO AM-PM-FLAG-SY00
               IF WORK-HH-MM-TIME-SY00 > '1259'
                   COMPUTE AC99W-ALPHA05 ROUNDED =
                       ( AC99W-TIME / 100 ) - 1200
                   MOVE AC99W-ALPHA05 TO WORK-HH-MM-TIME-SY00
               END-IF
           ELSE
               MOVE 'A' TO AM-PM-FLAG-SY00
           END-IF.
      *
           MOVE 'MODULE' TO AGR-PASSED-ONE.
      *
           IF AC99W-FLAG-FIRST-TIME = AC99W-YES
               MOVE 'MODHELP' TO AGR-CURRENT-RESPONSE
           END-IF.
      *
           INITIALIZE FUTWM16.
      *
      ******************************************************************
      *******

       200-10INIT-S01-EXIT.
           EXIT.


       EJECT
      *%---------------------------------------------------------------*
      *%                                                               *
      *%                   200-20CHKKEY-S01 ROUTINE                    *
      *%                                                               *
      *%---------------------------------------------------------------*
       200-20CHKKEY-S01.

      ******************************************************************
      *******
      *
           MOVE AGR-PASSED-FOUR TO DATA-VALUE-UT16.
           MOVE 'MODULE NAME:' TO DATA-DESC-UT16.
           MOVE AGR-PASSED-FOUR TO PROG-NAME-051.
      *%   OBTAIN CALC PROG-051.
           MOVE 0001 TO DBLINK-CURR-IO-NUM
           MOVE DBLINK-OBTAIN TO DBLINK-TYPE-SELECT
           MOVE DBLINK-CALC TO DBLINK-TYPE-GET
           MOVE PROG-NAME-051 OF PROG-051 TO PRO-PROG-NAME
           PERFORM 906-05-PROG-051-3
              THRU 906-05-PROG-051-3-EXIT
           PERFORM 999-SQL-STATUS
              THRU 999-SQL-STATUS-EXIT.
      *
           IF DB-REC-NOT-FOUND
               MOVE AC99W-YES-DISPLAY TO AC99W-FLAG-DISPLAY
               MOVE 'MODULE HELP INFORMATION NOT AVAILABLE' TO
                    DCLINK-MESSAGE
               GO TO 200-20CHKKEY-S01-EXIT
           END-IF.
      *
           MOVE DESCR-051 TO HELP-SHORT-DESC-UT16.
           IF HELP-SHORT-DESC-UT16 = SPACES
               MOVE 'MODULE DEFINITION' TO HELP-SHORT-DESC-UT16
           END-IF.
      *
      *%   OBTAIN FIRST PROGCMT-050 WITHIN PROG-PROGCMT.
           MOVE 0002 TO DBLINK-CURR-IO-NUM
           MOVE DBLINK-OBTAIN TO DBLINK-TYPE-SELECT
           MOVE DBLINK-FIRST TO DBLINK-TYPE-GET
           PERFORM 906-00N-PROG-PROGCMT
              THRU 906-00N-PROG-PROGCMT-EXIT
           PERFORM 999-SQL-STATUS
              THRU 999-SQL-STATUS-EXIT.
      *
      ******************************************************************
      *******

       200-20CHKKEY-S01-EXIT.
           EXIT.


       EJECT
      *%---------------------------------------------------------------*
      *%                                                               *
      *%                   200-40FRWD-S01 ROUTINE                      *
      *%                                                               *
      *%---------------------------------------------------------------*
       200-40FRWD-S01.

      ******************************************************************
      *******
      *
           MOVE 1 TO MAIN-SUB-SY00.
           PERFORM WITH TEST BEFORE
                   UNTIL NOT ( MAIN-SUB-SY00 NOT > 20 AND
              DB-STATUS-OK   )
               IF CMT-ID-050 = -1
                   IF MAIN-SUB-SY00 NOT > 10
                       MOVE SPACE TO HELP-LONG-DESC-UT16 (MAIN-SUB-SY00)
                       STRING CMT-INFO-050( 1 ) DELIMITED SIZE
                              CMT-INFO-050( 2 ) DELIMITED SIZE
                              INTO HELP-LONG-DESC-UT16 (MAIN-SUB-SY00)
                   END-IF
                   MOVE SPACE TO HOLD-LONG-DESC-UT19 (MAIN-SUB-SY00)
                   STRING CMT-INFO-050( 1 ) DELIMITED SIZE
                          CMT-INFO-050( 2 ) DELIMITED SIZE
                          INTO HOLD-LONG-DESC-UT19 (MAIN-SUB-SY00)
                   ADD 1 TO MAIN-SUB-SY00
               END-IF
      *%       OBTAIN NEXT WITHIN PROG-PROGCMT
               MOVE 0003 TO DBLINK-CURR-IO-NUM
               MOVE DBLINK-OBTAIN TO DBLINK-TYPE-SELECT
               MOVE DBLINK-NEXT TO DBLINK-TYPE-GET
               PERFORM 906-00N-PROG-PROGCMT
                  THRU 906-00N-PROG-PROGCMT-EXIT
               PERFORM 999-SQL-STATUS
                  THRU 999-SQL-STATUS-EXIT
           END-PERFORM.
      *
           MOVE 1 TO PAGE-NMBR-UT19.
      *
      ******************************************************************
      *******

       200-40FRWD-S01-EXIT.
           EXIT.


       EJECT
      *%---------------------------------------------------------------*
      *%                                                               *
      *%                   200-DISPMAP-S01 ROUTINE                     *
      *%                                                               *
      *%---------------------------------------------------------------*
       200-DISPMAP-S01.

      ******************************************************************
      *******
      *
           MOVE 'MODHELP' TO AGR-CURRENT-RESPONSE.
      *
           MOVE 'DISPLAY MODULE DEFINITION' TO AGR-FUNC-DESCRIPTION.
      *
           MOVE AC99W-YES-DISPLAY TO AC99W-FLAG-DISPLAY.
           GO TO 200-DISPMAP-S01-EXIT.
      *
      ******************************************************************
      *******
      ************************  END OF MODULE  *************************
      *******
      ******************************************************************
      *******

       200-DISPMAP-S01-EXIT.
           EXIT.



      *%---------------------------------------------------------------*
      *%                                                               *
      *%                   302-RESTORE-CONTEXT-L ROUTINE               *
      *%                                                               *
      *%---------------------------------------------------------------*
       302-RESTORE-CONTEXT-L.

      *%****************************************************************
      *%       LOOP THRU ALL ITEMS IN TEMP STORAGE FOR LOCAL RECORDS   *
      *%****************************************************************
           MOVE ZEROS TO AC99W-ITEM-NO.
           MOVE AC99W-YES TO AC99W-IND1.
           PERFORM WITH TEST BEFORE
             UNTIL NOT (AC99W-IND1 = AC99W-YES)
               ADD +1 TO AC99W-ITEM-NO
               MOVE AC99W-RECORD-LENGTH-MAX TO AC99W-RECORD-LENGTH

               EXEC CICS
                    READQ TS
                    QUEUE(AC99W-CONTEXT-QUEUE-L)
                    INTO(AC99W-CONTEXT-AREA)
                    ITEM(AC99W-ITEM-NO)
                    RESP(DCLINK-CICS-RESP)
                    LENGTH(AC99W-RECORD-LENGTH)
               END-EXEC

               IF DCLINK-CICS-RESP = DFHRESP(ITEMERR)
                OR DCLINK-CICS-RESP = DFHRESP(QIDERR)
                   GO TO 302-RESTORE-CONTEXT-L-EXIT
               END-IF
               PERFORM 895-TEST-CICS-RESPONSE
                  THRU 895-TEST-CICS-RESPONSE-EXIT
      *%****************************************************************
      *%       RESTORE DATA INTO THE LOCAL RECORDS                     *
      *%****************************************************************
               PERFORM 304-RESTORE-CONTEXT-L
                  THRU 304-RESTORE-CONTEXT-L-EXIT
           END-PERFORM.

       302-RESTORE-CONTEXT-L-EXIT.
           EXIT.

      *%---------------------------------------------------------------*
      *%                                                               *
      *%                   304-RESTORE-CONTEXT-L ROUTINE               *
      *%                                                               *
      *%---------------------------------------------------------------*
       304-RESTORE-CONTEXT-L.
      *%****************************************************************
      *%   DETERMINE WHICH CONTEXT RECORDS HAVE BEEN READ AND          *
      *%     WHETHER THEY SHOULD BE RESTORED                           *
      *%****************************************************************

           IF AC99W-CONTEXT-AREA-N = 'DBLINK-CURSOR-CODES'
              AND AC99W-FLAG-RESTORE-GBL = AC99W-NO
              MOVE AC99W-CONTEXT-AREA-R TO DBLINK-CURSOR-CODES
              GO TO 304-RESTORE-CONTEXT-L-EXIT
           END-IF.
           IF AC99W-CONTEXT-AREA-N = 'SUBSCHEMA-CONTROL'
              AND AC99W-FLAG-RESTORE-GBL = AC99W-NO
              MOVE AC99W-CONTEXT-AREA-R TO SUBSCHEMA-CONTROL
              GO TO 304-RESTORE-CONTEXT-L-EXIT
           END-IF.

           IF AC99W-CONTEXT-AREA-N = 'FUTWM16'
            AND (AC99W-FLAG-RESTORE-GBL = AC99W-NO
             OR AC99W-FUTWM16-F = AC99W-YES)
               MOVE AC99W-CONTEXT-AREA-R TO FUTWM16
               MOVE AC99W-YES TO AC99W-FUTWM16-F
               GO TO 304-RESTORE-CONTEXT-L-EXIT
           END-IF.

           IF AC99W-CONTEXT-AREA-N = 'FUTWD19'
            AND (AC99W-FLAG-RESTORE-GBL = AC99W-NO
             OR AC99W-FUTWD19-F = AC99W-YES)
               MOVE AC99W-CONTEXT-AREA-R TO FUTWD19
               MOVE AC99W-YES TO AC99W-FUTWD19-F
               GO TO 304-RESTORE-CONTEXT-L-EXIT
           END-IF.

           IF AC99W-CONTEXT-AREA-N = 'PROG-051'
            AND (AC99W-FLAG-RESTORE-GBL = AC99W-NO
             OR AC99W-PROG-051-F = AC99W-YES)
               MOVE AC99W-CONTEXT-AREA-R TO PROG-051
               MOVE AC99W-YES TO AC99W-PROG-051-F
               GO TO 304-RESTORE-CONTEXT-L-EXIT
           END-IF.

           IF AC99W-CONTEXT-AREA-N = 'PROGCMT-050'
            AND (AC99W-FLAG-RESTORE-GBL = AC99W-NO
             OR AC99W-PROGCMT-050-F = AC99W-YES)
               MOVE AC99W-CONTEXT-AREA-R TO PROGCMT-050
               MOVE AC99W-YES TO AC99W-PROGCMT-050-F
               GO TO 304-RESTORE-CONTEXT-L-EXIT
           END-IF.
       304-RESTORE-CONTEXT-L-EXIT.
           EXIT.


      *%---------------------------------------------------------------*
      *%                                                               *
      *%                   306-RESTORE-CONTEXT-G ROUTINE               *
      *%                                                               *
      *%---------------------------------------------------------------*
       306-RESTORE-CONTEXT-G.

      *%****************************************************************
      *%       RESTORE DATA FROM GLOBAL TEMP STORAGE QUEUE             *
      *%****************************************************************
           MOVE 'G001' TO AC99W-CONTEXT-QUEUE-G-5-8.
           MOVE AC99W-RECORD-LENGTH-MAX TO AC99W-RECORD-LENGTH.

           EXEC CICS
                READQ TS
                QUEUE(AC99W-CONTEXT-QUEUE-G)
                INTO(AC99W-CONTEXT-AREA)
                LENGTH(AC99W-RECORD-LENGTH)
                RESP(DCLINK-CICS-RESP)
           END-EXEC.

           IF DCLINK-CICS-RESP = DFHRESP(NORMAL)
               MOVE AC99W-CONTEXT-AREA
                   TO ADSO-APPLICATION-GLOBAL-RECORD

               EXEC CICS
                    DELETEQ TS
                    QUEUE(AC99W-CONTEXT-QUEUE-G)
                    RESP(DCLINK-CICS-RESP)
               END-EXEC

           END-IF.

           IF DCLINK-CICS-RESP NOT = DFHRESP(NORMAL)  AND
              DCLINK-CICS-RESP NOT = DFHRESP(QIDERR)
               PERFORM 895-TEST-CICS-RESPONSE
                  THRU 895-TEST-CICS-RESPONSE-EXIT
           END-IF.
           MOVE 'G010' TO AC99W-CONTEXT-QUEUE-G-5-8.
           MOVE AC99W-RECORD-LENGTH-MAX TO AC99W-RECORD-LENGTH.

           EXEC CICS
                READQ TS
                QUEUE(AC99W-CONTEXT-QUEUE-G)
                INTO(AC99W-CONTEXT-AREA)
                LENGTH(AC99W-RECORD-LENGTH)
                RESP(DCLINK-CICS-RESP)
           END-EXEC.

           IF DCLINK-CICS-RESP = DFHRESP(NORMAL)
               MOVE AC99W-CONTEXT-AREA
                   TO FISWG00M

               EXEC CICS
                    DELETEQ TS
                    QUEUE(AC99W-CONTEXT-QUEUE-G)
                    RESP(DCLINK-CICS-RESP)
               END-EXEC

           END-IF.

           IF DCLINK-CICS-RESP NOT = DFHRESP(NORMAL)  AND
              DCLINK-CICS-RESP NOT = DFHRESP(QIDERR)
               PERFORM 895-TEST-CICS-RESPONSE
                  THRU 895-TEST-CICS-RESPONSE-EXIT
           END-IF.
       306-RESTORE-CONTEXT-G-EXIT.
           EXIT.

      *%---------------------------------------------------------------*
      *%                                                               *
      *%                   310-DELETE-CONTEXT-M ROUTINE                *
      *%                                                               *
      *%---------------------------------------------------------------*
       310-DELETE-CONTEXT-M.

           CALL DCLINK-DCXMAP USING
                BY REFERENCE DFHEIBLK
                BY REFERENCE ACCOMM
                BY CONTENT 'DELETE-CONTEXT                '
                BY REFERENCE MAP-CONTROL.

       310-DELETE-CONTEXT-M-EXIT.
           EXIT.


      *%---------------------------------------------------------------*
      *%                                                               *
      *%                   312-DELETE-CONTEXT-L ROUTINE                *
      *%                                                               *
      *%---------------------------------------------------------------*
       312-DELETE-CONTEXT-L.

      *%****************************************************************
      *%       ERASE ALL LOCAL TEMP STORAGE                            *
      *%****************************************************************
           EXEC CICS
                DELETEQ TS
                RESP(DCLINK-CICS-RESP)
                QUEUE(AC99W-CONTEXT-QUEUE-L)
           END-EXEC.

           IF DCLINK-CICS-RESP NOT = DFHRESP(QIDERR)
            AND DCLINK-CICS-RESP NOT = DFHRESP(NORMAL)
               PERFORM 895-TEST-CICS-RESPONSE
                  THRU 895-TEST-CICS-RESPONSE-EXIT
           END-IF.

       312-DELETE-CONTEXT-L-EXIT.
           EXIT.

      *%---------------------------------------------------------------*
      *%                                                               *
      *%                   314-SAVE-CURRENCY ROUTINE                   *
      *%                                                               *
      *%---------------------------------------------------------------*
       314-SAVE-CURRENCY.

UCSDX      MOVE '$$ALL' TO DBLINK-CURSOR-NAME-WORK.
           PERFORM 991-CLOSE-CURSORS
UCSDX         THRU 991-CLOSE-CURSORS-EXIT.

           IF AC99W-NOSAVE-OPTION = AC99W-PARTIAL
               MOVE AC99W-NO TO AC99W-NOSAVE-OPTION
           ELSE
               MOVE 'DBLINK-CURSOR-CODES' TO AC99W-CONTEXT-AREA-N
               MOVE LENGTH OF DBLINK-CURSOR-CODES
                         TO AC99W-RECORD-LENGTH
               MOVE DBLINK-CURSOR-CODES TO AC99W-CONTEXT-AREA-R
               ADD +40 TO AC99W-RECORD-LENGTH

               EXEC CICS
                    WRITEQ TS
                    QUEUE(AC99W-CONTEXT-QUEUE-L)
                    FROM(AC99W-CONTEXT-AREA)
                    LENGTH(AC99W-RECORD-LENGTH)
                    RESP(DCLINK-CICS-RESP)
               END-EXEC

               PERFORM 895-TEST-CICS-RESPONSE
                  THRU 895-TEST-CICS-RESPONSE-EXIT
           END-IF.

           MOVE 'SUBSCHEMA-CONTROL' TO AC99W-CONTEXT-AREA-N.
           MOVE LENGTH OF SUBSCHEMA-CONTROL TO AC99W-RECORD-LENGTH.
           MOVE SUBSCHEMA-CONTROL TO AC99W-CONTEXT-AREA-R.
           ADD +40 TO AC99W-RECORD-LENGTH.

           EXEC CICS
                WRITEQ TS
                QUEUE(AC99W-CONTEXT-QUEUE-L)
                FROM(AC99W-CONTEXT-AREA)
                LENGTH(AC99W-RECORD-LENGTH)
                RESP(DCLINK-CICS-RESP)
           END-EXEC.

           PERFORM 895-TEST-CICS-RESPONSE
              THRU 895-TEST-CICS-RESPONSE-EXIT.
       314-SAVE-CURRENCY-EXIT.
           EXIT.

      *%---------------------------------------------------------------*
      *%                                                               *
      *%                   316-DELETE-CONTEXT-G ROUTINE                *
      *%                                                               *
      *%---------------------------------------------------------------*
       316-DELETE-CONTEXT-G SECTION.

           MOVE 'G001' TO AC99W-CONTEXT-QUEUE-G-5-8.

           EXEC CICS
                DELETEQ TS
                RESP(DCLINK-CICS-RESP)
                QUEUE(AC99W-CONTEXT-QUEUE-G)
           END-EXEC.

           IF DCLINK-CICS-RESP NOT = DFHRESP(QIDERR)
            AND DCLINK-CICS-RESP NOT = DFHRESP(NORMAL)
               PERFORM 895-TEST-CICS-RESPONSE
                  THRU 895-TEST-CICS-RESPONSE-EXIT
           END-IF.

           MOVE 'G010' TO AC99W-CONTEXT-QUEUE-G-5-8.

           EXEC CICS
                DELETEQ TS
                RESP(DCLINK-CICS-RESP)
                QUEUE(AC99W-CONTEXT-QUEUE-G)
           END-EXEC.

           IF DCLINK-CICS-RESP NOT = DFHRESP(QIDERR)
            AND DCLINK-CICS-RESP NOT = DFHRESP(NORMAL)
               PERFORM 895-TEST-CICS-RESPONSE
                  THRU 895-TEST-CICS-RESPONSE-EXIT
           END-IF.

       316-DELETE-CONTEXT-G-EXIT.
           EXIT.


      *%---------------------------------------------------------------*
      *%                                                               *
      *%                   322-SAVE-CONTEXT-L ROUTINE                  *
      *%                                                               *
      *%---------------------------------------------------------------*
       322-SAVE-CONTEXT-L.

      *%****************************************************************
      *%       WRITE CURRENCIES TO A TEMP STORAGE AREA                 *
      *%****************************************************************
           IF AC99W-NOSAVE-OPTION = AC99W-YES
              MOVE AC99W-NO TO AC99W-NOSAVE-OPTION
           ELSE
              PERFORM 314-SAVE-CURRENCY
                 THRU 314-SAVE-CURRENCY-EXIT
           END-IF.

      *%****************************************************************
      *%       WRITE LOCAL RECORDS TO A TEMP STORAGE AREA              *
      *%****************************************************************


           MOVE 'FUTWM16' TO AC99W-CONTEXT-AREA-N.
           MOVE LENGTH OF FUTWM16 TO AC99W-RECORD-LENGTH.
           MOVE FUTWM16 TO AC99W-CONTEXT-AREA-R.
           ADD +40 TO AC99W-RECORD-LENGTH.

           EXEC CICS
                WRITEQ TS
                QUEUE(AC99W-CONTEXT-QUEUE-L)
                FROM(AC99W-CONTEXT-AREA)
                LENGTH(AC99W-RECORD-LENGTH)
                RESP(DCLINK-CICS-RESP)
           END-EXEC.

           PERFORM 895-TEST-CICS-RESPONSE
              THRU 895-TEST-CICS-RESPONSE-EXIT.

           MOVE 'FUTWD19' TO AC99W-CONTEXT-AREA-N.
           MOVE LENGTH OF FUTWD19 TO AC99W-RECORD-LENGTH.
           MOVE FUTWD19 TO AC99W-CONTEXT-AREA-R.
           ADD +40 TO AC99W-RECORD-LENGTH.

           EXEC CICS
                WRITEQ TS
                QUEUE(AC99W-CONTEXT-QUEUE-L)
                FROM(AC99W-CONTEXT-AREA)
                LENGTH(AC99W-RECORD-LENGTH)
                RESP(DCLINK-CICS-RESP)
           END-EXEC.

           PERFORM 895-TEST-CICS-RESPONSE
              THRU 895-TEST-CICS-RESPONSE-EXIT.

           MOVE 'PROG-051' TO AC99W-CONTEXT-AREA-N.
           MOVE LENGTH OF PROG-051 TO AC99W-RECORD-LENGTH.
           MOVE PROG-051 TO AC99W-CONTEXT-AREA-R.
           ADD +40 TO AC99W-RECORD-LENGTH.

           EXEC CICS
                WRITEQ TS
                QUEUE(AC99W-CONTEXT-QUEUE-L)
                FROM(AC99W-CONTEXT-AREA)
                LENGTH(AC99W-RECORD-LENGTH)
                RESP(DCLINK-CICS-RESP)
           END-EXEC.

           PERFORM 895-TEST-CICS-RESPONSE
              THRU 895-TEST-CICS-RESPONSE-EXIT.

           MOVE 'PROGCMT-050' TO AC99W-CONTEXT-AREA-N.
           MOVE LENGTH OF PROGCMT-050 TO AC99W-RECORD-LENGTH.
           MOVE PROGCMT-050 TO AC99W-CONTEXT-AREA-R.
           ADD +40 TO AC99W-RECORD-LENGTH.

           EXEC CICS
                WRITEQ TS
                QUEUE(AC99W-CONTEXT-QUEUE-L)
                FROM(AC99W-CONTEXT-AREA)
                LENGTH(AC99W-RECORD-LENGTH)
                RESP(DCLINK-CICS-RESP)
           END-EXEC.

           PERFORM 895-TEST-CICS-RESPONSE
              THRU 895-TEST-CICS-RESPONSE-EXIT.

       322-SAVE-CONTEXT-L-EXIT.
           EXIT.


      *%---------------------------------------------------------------*
      *%                                                               *
      *%                   326-SAVE-CONTEXT-G ROUTINE                  *
      *%                                                               *
      *%---------------------------------------------------------------*
       326-SAVE-CONTEXT-G.

      *%****************************************************************
      *%       WRITE GLOBAL RECORD TO A TEMP STORAGE AREA              *
      *%****************************************************************
           MOVE LENGTH OF ADSO-APPLICATION-GLOBAL-RECORD TO
                AC99W-RECORD-LENGTH.
           MOVE 'G001' TO AC99W-CONTEXT-QUEUE-G-5-8.

           EXEC CICS
                WRITEQ TS
                QUEUE(AC99W-CONTEXT-QUEUE-G)
                FROM(ADSO-APPLICATION-GLOBAL-RECORD)
                LENGTH(AC99W-RECORD-LENGTH)
                RESP(DCLINK-CICS-RESP)
           END-EXEC.

           PERFORM 895-TEST-CICS-RESPONSE
              THRU 895-TEST-CICS-RESPONSE-EXIT.
           MOVE LENGTH OF FISWG00M TO AC99W-RECORD-LENGTH.
           MOVE 'G010' TO AC99W-CONTEXT-QUEUE-G-5-8.

           EXEC CICS
                WRITEQ TS
                QUEUE(AC99W-CONTEXT-QUEUE-G)
                FROM(FISWG00M)
                LENGTH(AC99W-RECORD-LENGTH)
                RESP(DCLINK-CICS-RESP)
           END-EXEC.

           PERFORM 895-TEST-CICS-RESPONSE
              THRU 895-TEST-CICS-RESPONSE-EXIT.
       326-SAVE-CONTEXT-G-EXIT.
           EXIT.


      *%---------------------------------------------------------------*
      *%                                                               *
      *%                   332-INVOKE  ROUTINE                         *
      *%                                                               *
      *%---------------------------------------------------------------*
       332-INVOKE.

           IF ACCOMM-CNT-PGM-STACK NOT LESS THAN
                              AC99W-CNT-PGM-STACK-MAX
               EXEC CICS
                    ABEND
                    ABCODE('9332')
                    CANCEL
               END-EXEC
           END-IF.
           PERFORM 520-COMMIT-DB
              THRU 520-COMMIT-DB-EXIT.
           MOVE AC99W-INVOKE TO ACCOMM-RECALL-CODE.
      *%****************************************************************
      *%       SAVE GLOBAL AND LOCAL RECORDS AND INCREASE STACK COUNT  *
      *%****************************************************************
           PERFORM 326-SAVE-CONTEXT-G
              THRU 326-SAVE-CONTEXT-G-EXIT.
           MOVE ACCOMM-CNT-PGM-STACK TO AC99W-CONTEXT-QUEUE-L-7-8.
           PERFORM 322-SAVE-CONTEXT-L
              THRU 322-SAVE-CONTEXT-L-EXIT.
           ADD +1 TO ACCOMM-CNT-PGM-STACK.
           IF ACCOMM-CNT-PGM-STACK GREATER ACCOMM-CNT-PGM-STACK-HIGH
               MOVE ACCOMM-CNT-PGM-STACK TO ACCOMM-CNT-PGM-STACK-HIGH
           END-IF.
           MOVE ACCOMM-CURRENT-PROGRAM TO
                ACCOMM-PGM-STACK(ACCOMM-CNT-PGM-STACK).
           MOVE AC99W-TRANSID TO
                ACCOMM-TRANSID-STACK(ACCOMM-CNT-PGM-STACK).
           MOVE AGR-CURRENT-FUNCTION TO
                ACCOMM-FUNC-STACK(ACCOMM-CNT-PGM-STACK).
           MOVE AGR-FUNC-DESCRIPTION TO
                ACCOMM-FUNC-DESC-STACK(ACCOMM-CNT-PGM-STACK).
           MOVE ACCOMM-CURRENT-PROGRAM TO AC99W-HIGHER-DIALOG-NAME.
           MOVE ACCOMM-LINK-RETURN-ID TO
                ACCOMM-LINK-RETURN-STACK(ACCOMM-CNT-PGM-STACK).

      *%****************************************************************
      *%       EXECUTE NEXT PROGRAM                                    *
      *%****************************************************************
           MOVE ACCOMM-CURRENT-PROGRAM TO ACCOMM-FROM-PROGRAM.
           MOVE SPACES TO ACCOMM-CURRENT-PROGRAM.

           EXEC CICS
                XCTL
                PROGRAM(AC99W-NEXT-PROGRAM)
                COMMAREA(ACCOMM)
                LENGTH(ACCOMM-LENGTH)
           END-EXEC.

       332-INVOKE-EXIT.
           EXIT.

      *%---------------------------------------------------------------*
      *%                                                               *
      *%                   334-LINK-DIALOG ROUTINE                     *
      *%                                                               *
      *%---------------------------------------------------------------*
       334-LINK-DIALOG.

           IF ACCOMM-CNT-PGM-STACK NOT LESS THAN
                          AC99W-CNT-PGM-STACK-MAX
               EXEC CICS
                    ABEND
                    ABCODE('9334')
                    CANCEL
               END-EXEC
           END-IF.

      *%****************************************************************
      *%       SAVE ALL DATABASE CHANGES                               *
      *%****************************************************************
           IF AC99W-FLAG-COMMIT = 'Y'
              MOVE 'N' TO AC99W-FLAG-COMMIT
              PERFORM 520-COMMIT-DB
                 THRU 520-COMMIT-DB-EXIT
           END-IF.

           IF ACCOMM-LINK-RETURN-ID > +0
              AND ACCOMM-LINK-OPTION NOT = AC99W-YES
              PERFORM 332-INVOKE
                 THRU 332-INVOKE-EXIT
              GO TO 334-LINK-DIALOG-EXIT
           END-IF.

      *%****************************************************************
      *%       SAVE GLOBAL RECORD                                      *
      *%****************************************************************
           MOVE AC99W-LINK TO ACCOMM-RECALL-CODE.
           PERFORM 326-SAVE-CONTEXT-G
              THRU 326-SAVE-CONTEXT-G-EXIT.

      *%****************************************************************
      *%       SAVE LOCAL RECORDS - INCREASE STACK COUNT               *
      *%****************************************************************
           MOVE ACCOMM-CNT-PGM-STACK TO AC99W-CONTEXT-QUEUE-L-7-8.
           PERFORM 322-SAVE-CONTEXT-L
              THRU 322-SAVE-CONTEXT-L-EXIT.
           ADD +1 TO ACCOMM-CNT-PGM-STACK.

      *%****************************************************************
      *%       SAVE VARIABLES FOR RETURN FROM LINKED PROGRAM           *
      *%****************************************************************
           MOVE ACCOMM-CURRENT-PROGRAM TO
                ACCOMM-PGM-STACK(ACCOMM-CNT-PGM-STACK).
           MOVE AC99W-TRANSID TO
                ACCOMM-TRANSID-STACK(ACCOMM-CNT-PGM-STACK).
           MOVE AGR-CURRENT-FUNCTION TO
                ACCOMM-FUNC-STACK(ACCOMM-CNT-PGM-STACK).
           MOVE AGR-FUNC-DESCRIPTION TO
                ACCOMM-FUNC-DESC-STACK(ACCOMM-CNT-PGM-STACK).
           MOVE ACCOMM-CURRENT-PROGRAM TO
                AC99W-HIGHER-DIALOG-NAME.

      *%****************************************************************
      *%       LINK TO THE NEXT PROGRAM                                *
      *%****************************************************************
           EXEC CICS
                LINK
                PROGRAM(AC99W-NEXT-PROGRAM)
                COMMAREA(ACCOMM)
                LENGTH(ACCOMM-LENGTH)
           END-EXEC.

      *%****************************************************************
      *%       AFTER RETURN - PICK UP CHANGES TO GLOBAL RECORD         *
      *%****************************************************************
           MOVE AC99W-SECOND-TIME TO ACCOMM-RECALL-CODE.
           PERFORM 306-RESTORE-CONTEXT-G
              THRU 306-RESTORE-CONTEXT-G-EXIT.

      *%****************************************************************
      *%       AFTER RETURN - PICK UP CHANGES TO LOCAL RECORDS         *
      *%****************************************************************
           MOVE ACCOMM-CNT-PGM-STACK TO AC99W-CONTEXT-QUEUE-L-7-8.
           PERFORM 302-RESTORE-CONTEXT-L
              THRU 302-RESTORE-CONTEXT-L-EXIT.

      *%****************************************************************
      *%       DELETE SAVED TEMP STORAGE AREAS                         *
      *%****************************************************************
           PERFORM 312-DELETE-CONTEXT-L
              THRU 312-DELETE-CONTEXT-L-EXIT.
           SUBTRACT +1 FROM ACCOMM-CNT-PGM-STACK.
           MOVE ACCOMM-CNT-PGM-STACK TO AC99W-CONTEXT-QUEUE-L-7-8.
           PERFORM 312-DELETE-CONTEXT-L
              THRU 312-DELETE-CONTEXT-L-EXIT.

       334-LINK-DIALOG-EXIT.
           EXIT.


      *%---------------------------------------------------------------*
      *%                                                               *
      *%                   340-CONVERT-EIBAID ROUTINE                  *
      *%                                                               *
      *%---------------------------------------------------------------*
       340-CONVERT-EIBAID.

      *%****************************************************************
      *%       DECODE USER SCREEN RESPONSE                             *
      *%****************************************************************
           MOVE 'ENTER' TO ACAPPL-EIBAID.
           EVALUATE EIBAID
             WHEN DFHENTER
               MOVE 'ENTER' TO ACAPPL-EIBAID
             WHEN DFHCLEAR
               MOVE 'CLEAR' TO ACAPPL-EIBAID
             WHEN DFHPA1
               MOVE 'PA1' TO ACAPPL-EIBAID
             WHEN DFHPA2
               MOVE 'PA2' TO ACAPPL-EIBAID
             WHEN DFHPA3
               MOVE 'PA3' TO ACAPPL-EIBAID
             WHEN DFHPF1
               MOVE 'PF1' TO ACAPPL-EIBAID
             WHEN DFHPF2
               MOVE 'PF2' TO ACAPPL-EIBAID
             WHEN DFHPF3
               MOVE 'PF3' TO ACAPPL-EIBAID
             WHEN DFHPF4
               MOVE 'PF4' TO ACAPPL-EIBAID
             WHEN DFHPF5
               MOVE 'PF5' TO ACAPPL-EIBAID
             WHEN DFHPF6
               MOVE 'PF6' TO ACAPPL-EIBAID
             WHEN DFHPF7
               MOVE 'PF7' TO ACAPPL-EIBAID
             WHEN DFHPF8
               MOVE 'PF8' TO ACAPPL-EIBAID
             WHEN DFHPF9
               MOVE 'PF9' TO ACAPPL-EIBAID
             WHEN DFHPF10
               MOVE 'PF10' TO ACAPPL-EIBAID
             WHEN DFHPF11
               MOVE 'PF11' TO ACAPPL-EIBAID
             WHEN DFHPF12
               MOVE 'PF12' TO ACAPPL-EIBAID
             WHEN DFHPF13
               MOVE 'PF13' TO ACAPPL-EIBAID
             WHEN DFHPF14
               MOVE 'PF14' TO ACAPPL-EIBAID
             WHEN DFHPF15
               MOVE 'PF15' TO ACAPPL-EIBAID
             WHEN DFHPF16
               MOVE 'PF16' TO ACAPPL-EIBAID
             WHEN DFHPF17
               MOVE 'PF17' TO ACAPPL-EIBAID
             WHEN DFHPF18
               MOVE 'PF18' TO ACAPPL-EIBAID
             WHEN DFHPF19
               MOVE 'PF19' TO ACAPPL-EIBAID
             WHEN DFHPF20
               MOVE 'PF20' TO ACAPPL-EIBAID
             WHEN DFHPF21
               MOVE 'PF21' TO ACAPPL-EIBAID
             WHEN DFHPF22
               MOVE 'PF22' TO ACAPPL-EIBAID
             WHEN DFHPF23
               MOVE 'PF23' TO ACAPPL-EIBAID
             WHEN DFHPF24
               MOVE 'PF24' TO ACAPPL-EIBAID
           END-EVALUATE.

       340-CONVERT-EIBAID-EXIT.
           EXIT.

      *%---------------------------------------------------------------*
      *%                                                               *
      *%                   395-RETURN ROUTINE                          *
      *%                                                               *
      *%---------------------------------------------------------------*
       395-RETURN.
      *%****************************************************************
      *%       CANNOT RETURN IF AT TOP OF STACK                        *
      *%****************************************************************
           MOVE ACCOMM-CNT-PGM-STACK TO ACCOMM-CNT-PGM-STACK-FROM.
           IF ((AC99W-NEXT-PROGRAM = AC99W-TOP)
            OR AC99W-NEXT-PROGRAM = AC99W-POP
            OR AC99W-NEXT-PROGRAM = AC99W-POPTOP
            OR (AC99W-NEXT-PROGRAM = AC99W-HIGHER))
            AND ACCOMM-CNT-PGM-STACK = ZERO
      *%       MOVE AC99W-MESSAGE-900001 TO AC99W-DISP-MSG
UCSD1          MOVE SPACES TO AC99W-DISP-MSG
               PERFORM 750-DISPLAY
                  THRU 750-DISPLAY-EXIT
               PERFORM 310-DELETE-CONTEXT-M
                  THRU 310-DELETE-CONTEXT-M-EXIT
               EXEC CICS
                   RETURN
               END-EXEC
           END-IF.

           MOVE AC99W-TRANSFER TO ACCOMM-RECALL-CODE.
           MOVE AC99W-RETURN TO ACCOMM-FROM-PROGRAM.
           MOVE SPACES TO ACCOMM-CURRENT-PROGRAM.
      *%****************************************************************
      *%       RETURN TO TOP LEVEL PROGRAM IN STACK                    *
      *%****************************************************************
           IF AC99W-NEXT-PROGRAM = AC99W-TOP
            OR AC99W-NEXT-PROGRAM = AC99W-POPTOP
               MOVE AC99W-PROGRAM-NAME TO ACCOMM-FROM-PROGRAM
               MOVE ACCOMM-CNT-PGM-STACK TO AC99W-CONTEXT-QUEUE-L-7-8
               MOVE ACCOMM-FUNC-STACK(1) TO
                    AGR-NEXT-FUNCTION
               MOVE ACCOMM-FUNC-DESC-STACK(1) TO
                    AGR-NEXT-FUNC-DESCRIPTION
               PERFORM 326-SAVE-CONTEXT-G
                  THRU 326-SAVE-CONTEXT-G-EXIT
DEVDMW*        PERFORM 322-SAVE-CONTEXT-L
DEVDMW*           THRU 322-SAVE-CONTEXT-L-EXIT
               MOVE ACCOMM-PGM-STACK(1) TO AC99W-NEXT-PROGRAM
               MOVE ZEROS TO ACCOMM-CNT-PGM-STACK
               PERFORM 520-COMMIT-DB
                  THRU 520-COMMIT-DB-EXIT
               EXEC CICS
                    XCTL
                    PROGRAM(AC99W-NEXT-PROGRAM)
                    COMMAREA(ACCOMM)
                    LENGTH(ACCOMM-LENGTH)
               END-EXEC
           END-IF.

      *%****************************************************************
      *%       RETURN TO HIGHER PROGRAM IN STACK                       *
      *%****************************************************************
           IF AC99W-NEXT-PROGRAM = AC99W-HIGHER
              OR AC99W-NEXT-PROGRAM = AC99W-POP
               MOVE ACCOMM-CNT-PGM-STACK TO AC99W-CONTEXT-QUEUE-L-7-8
               MOVE ACCOMM-FUNC-STACK(ACCOMM-CNT-PGM-STACK) TO
                    AGR-NEXT-FUNCTION
               MOVE ACCOMM-FUNC-DESC-STACK(ACCOMM-CNT-PGM-STACK) TO
                    AGR-NEXT-FUNC-DESCRIPTION
               PERFORM 326-SAVE-CONTEXT-G
                  THRU 326-SAVE-CONTEXT-G-EXIT
               PERFORM 322-SAVE-CONTEXT-L
                  THRU 322-SAVE-CONTEXT-L-EXIT
               MOVE ACCOMM-PGM-STACK(ACCOMM-CNT-PGM-STACK)
                   TO AC99W-NEXT-PROGRAM
               PERFORM 310-DELETE-CONTEXT-M
                  THRU 310-DELETE-CONTEXT-M-EXIT
               SUBTRACT +1 FROM ACCOMM-CNT-PGM-STACK
               PERFORM 520-COMMIT-DB
                  THRU 520-COMMIT-DB-EXIT
               EXEC CICS
                    XCTL
                    PROGRAM(AC99W-NEXT-PROGRAM)
                    COMMAREA(ACCOMM)
                    LENGTH(ACCOMM-LENGTH)
               END-EXEC
           END-IF.

      *%****************************************************************
      *%       LOOP THRU STACK TO FIND NEXT PROGRAM NAME               *
      *%****************************************************************
           SUBTRACT -1 FROM ACCOMM-CNT-PGM-STACK
              GIVING AC99W-SUB1.
           PERFORM WITH TEST BEFORE
             UNTIL NOT (AC99W-SUB1 GREATER +1)
               ADD -1 TO AC99W-SUB1
               IF AC99W-NEXT-PROGRAM =
                        ACCOMM-PGM-STACK(AC99W-SUB1)
                   MOVE ACCOMM-CNT-PGM-STACK
                       TO AC99W-CONTEXT-QUEUE-L-7-8
                   PERFORM 326-SAVE-CONTEXT-G
                      THRU 326-SAVE-CONTEXT-G-EXIT
                   PERFORM 322-SAVE-CONTEXT-L
                      THRU 322-SAVE-CONTEXT-L-EXIT
                   SUBTRACT +1 FROM AC99W-SUB1
                      GIVING ACCOMM-CNT-PGM-STACK
                   PERFORM 520-COMMIT-DB
                      THRU 520-COMMIT-DB-EXIT

                   EXEC CICS
                        XCTL
                        PROGRAM(AC99W-NEXT-PROGRAM)
                        COMMAREA(ACCOMM)
                        LENGTH(ACCOMM-LENGTH)
                   END-EXEC

               END-IF
           END-PERFORM.


      *%********************************
      *%ERROR - PROGRAM NOT IN STACK
      *%********************************
      *%   MOVE AC99W-MESSAGE-900021 TO AC99W-DISP-MSG.
UCSD1      MOVE '177020' TO AC99W-MC-MESSAGE-NO
UCSD1      PERFORM 399-GET-MESSAGE
UCSD1         THRU 399-GET-MESSAGE-EXIT
UCSD1      MOVE DCLINK-MESSAGE TO AC99W-DISP-MSG
           PERFORM 750-DISPLAY
              THRU 750-DISPLAY-EXIT.
           EXEC CICS
               RETURN
           END-EXEC.

       395-RETURN-EXIT.

UCSD1      EXIT.
UCSD1 *%---------------------------------------------------------------*
UCSD1 *%                                                               *
UCSD1 *%                   399-GET-MESSAGE ROUTINE                     *
UCSD1 *%                                                               *
UCSD1 *%---------------------------------------------------------------*
UCSD1  399-GET-MESSAGE.
UCSD1      EXEC SQL
UCSD1          INCLUDE ACMSGCOD
UCSD1      END-EXEC.
UCSD1  399-GET-MESSAGE-EXIT.
           EXIT.



      *%---------------------------------------------------------------*
      *%                                                               *
      *%                   480-BUILD-ERROR ROUTINE                     *
      *%                                                               *
      *%---------------------------------------------------------------*
       480-BUILD-ERROR.

           IF DCLINK-MESSAGE = SPACES
               MOVE AC99W-ERROR-MESSAGE TO DCLINK-MESSAGE
           END-IF.
           MOVE DCLINK-MESSAGE TO WK01-ZZMESSAGE.

       480-BUILD-ERROR-EXIT.
           EXIT.

      *%---------------------------------------------------------------*
      *%                                                               *
      *%                   500-INIT-PROGRAM ROUTINE                    *
      *%                                                               *
      *%---------------------------------------------------------------*
       500-INIT-PROGRAM.

      *%****************************************************************
      *%       INITIALIZE KEY PROGRAM VARIABLES                        *
      *%****************************************************************
FLT13**    MOVE AC99W-APPLICATION TO AGR-APPLICATION-NAME.
           MOVE EIBAID TO AGR-AID-BYTE.
           MOVE 'D' TO AGR-CURRENT-FUNC-TYPE.
           MOVE AC99W-PROGRAM-NAME TO AGR-DIALOG-NAME.
FLT12      IF ACCOMM-FROM-PROGRAM NOT = 'FPF1HLP'
               MOVE SPACES TO AGR-MAP-RESPONSE
FLT12      END-IF.
           MOVE SPACES TO DCLINK-MESSAGE.
           EXEC CICS
                ASKTIME
                ABSTIME(AC99W-ABSTIME)
           END-EXEC.
           EXEC CICS
                FORMATTIME
                ABSTIME(AC99W-ABSTIME)
                YYMMDD(AC99W-DATE)
                YYYYMMDD(AC99W-DATEX)
                TIME(AC99W-TIME)
           END-EXEC.
           EXEC CICS
                FORMATTIME
                ABSTIME(AC99W-ABSTIME)
                DATESEP
                DATE(AGR-DATE)
           END-EXEC.
           EXEC CICS ASSIGN
                USERID(AC99W-USER-ID)
           END-EXEC.
           INSPECT AC99W-USER-ID CONVERTING
                'abcdefghijklmnopqrstuvwxyz' TO
                'ABCDEFGHIJKLMNOPQRSTUVWXYZ'.

       500-INIT-PROGRAM-EXIT.
           EXIT.

      *%---------------------------------------------------------------*
      *%                                                               *
      *%                   501-INIT-GLOBAL-RECORDS ROUTINE             *
      *%                                                               *
      *%---------------------------------------------------------------*
       501-INIT-GLOBAL-RECORDS.

           INITIALIZE ADSO-APPLICATION-GLOBAL-RECORD.
           INITIALIZE FSYWG00M.
           INITIALIZE FSYWG00D.
           MOVE QUOTE TO AGR-AID-BYTE OF ADSO-APPLICATION-GLOBAL-RECORD.
           MOVE 'N' TO AGR-SIGNON-SWITCH OF
                ADSO-APPLICATION-GLOBAL-RECORD.
           MOVE 'MORE ERRORS...' TO ERROR-TEXT-SY00 OF FSYWG00M.

       501-INIT-GLOBAL-RECORDS-EXIT.
           EXIT.

      *%---------------------------------------------------------------*
      *%                                                               *
      *%                   502-INIT-LOCAL-RECORDS ROUTINE              *
      *%                                                               *
      *%---------------------------------------------------------------*
       502-INIT-LOCAL-RECORDS.

           INITIALIZE FUTWM16.
           INITIALIZE FUTWD19.
           INITIALIZE PROG-051.
           INITIALIZE PROGCMT-050.
           MOVE HIGH-VALUE TO DUMP-THRESH-051 OF PROG-051.
           MOVE HIGH-VALUE TO ERR-THRESH-051 OF PROG-051.
           MOVE HIGH-VALUE TO PROG-FLAG1-051 OF PROG-051.
           MOVE HIGH-VALUE TO PROG-FLAG2-051 OF PROG-051.
           MOVE HIGH-VALUE TO PROG-FLAG3-051 OF PROG-051.
           MOVE HIGH-VALUE TO PUB-ACCESS-FLAG-051 OF PROG-051.
           MOVE HIGH-VALUE TO PROG-FLAG4-051 OF PROG-051.

       502-INIT-LOCAL-RECORDS-EXIT.
           EXIT.



      *%---------------------------------------------------------------*
      *%                                                               *
      *%                   503-INIT-IDMSNTWK ROUTINE                   *
      *%               INITIALIZE SCHEMA IDMSNTWK                      *
      *%                                                               *
      *%---------------------------------------------------------------*
       503-INIT-IDMSNTWK.

           MOVE 'Y' TO AC99W-FLAG-IDMS-BIND.

       503-INIT-IDMSNTWK-EXIT.
           EXIT.


      *%---------------------------------------------------------------*
      *%                                                               *
      *%                   520-COMMIT-DB ROUTINE                       *
      *%               RESET ANY ACTIVE FILES                          *
      *%                                                               *
      *%---------------------------------------------------------------*
       520-COMMIT-DB.

      *%****************************************************************
      *%       COMMIT THE DATABASE UPDATES                             *
      *%****************************************************************
           IF AC99W-FLAG-IDMS-BIND = AC99W-YES
      *%       FINISH
               MOVE 0004 TO DBLINK-CURR-IO-NUM
               MOVE +0 TO SQLCODE
               MOVE ZERO TO ERROR-STATUS
FCAMH          IF AC99W-NOSAVE-OPTION = AC99W-YES
                  PERFORM 986-RESET-KEYS
                     THRU 986-RESET-KEYS-EXIT
FCAMH          END-IF
               MOVE '$$ALL' TO DBLINK-CURSOR-NAME-WORK
               PERFORM 991-CLOSE-CURSORS
                  THRU 991-CLOSE-CURSORS-EXIT
               PERFORM 996-COMMIT
                  THRU 996-COMMIT-EXIT
               PERFORM 999-SQL-STATUS
                  THRU 999-SQL-STATUS-EXIT
           END-IF.

           MOVE AC99W-NO TO AC99W-FLAG-IDMS-BIND.

       520-COMMIT-DB-EXIT.
           EXIT.

      *%---------------------------------------------------------------*
      *%                                                               *
      *%                   750-DISPLAY ROUTINE                         *
      *%                                                               *
      *%---------------------------------------------------------------*
       750-DISPLAY.

      *%   SEND MESSAGE FROM AC99W-DISP-MSG.
FCSAH *    EXEC CICS
FCSAH *      SEND TEXT FROM(AC99W-DISP-MSG)
FCSAH *      LENGTH(79)
FCSAH *      ERASE
FCSAH *    END-EXEC.
FCSAH      EXEC CICS XCTL
FCSAH        PROGRAM ('SDFISE')
           END-EXEC.


       750-DISPLAY-EXIT.
           EXIT.

      *%---------------------------------------------------------------*
      *%                                                               *
      *%                   790-CICS-ABEND ROUTINE                      *
      *%                                                               *
      *%---------------------------------------------------------------*
       790-CICS-ABEND.

           COPY USRABEND.

       790-CICS-ABEND-EXIT.
           EXIT.

      *%   COPY IDMS IDMS-STATUS.
      *
      *%-------------------------------------------------------------- *
      *%                                                               *
      *%                 800-MAPIN-FUTMI16 ROUTINE                     *
      *%                                                               *
      *%-------------------------------------------------------------- *
       800-MAPIN-FUTMI16.

           CALL DCLINK-DCXMAP USING
                BY REFERENCE DFHEIBLK
                BY REFERENCE ACCOMM
                BY CONTENT 'MAPIN                         '
                BY REFERENCE MAP-CONTROL.
           MOVE WK01-FLAG-ANY-FIELDS-ERROR TO AC99W-ERROR-IND1.
           COPY FUTMI160.

       800-MAPIN-FUTMI16-EXIT.
           EXIT.
      *
      *%-------------------------------------------------------------- *
      *%                                                               *
      *%                810-MAPOUT-FUTMI16 ROUTINE                     *
      *%                                                               *
      *%-------------------------------------------------------------- *
       810-MAPOUT-FUTMI16.

           IF WK01-FLAG-OUTPUT-DATA = 'N'
               CALL DCLINK-DCXMAP USING
                    BY REFERENCE DFHEIBLK
                    BY REFERENCE ACCOMM
                    BY CONTENT 'MAPOUT                        '
                    BY REFERENCE MAP-CONTROL
               GO TO 810-MAPOUT-FUTMI16-EXIT
           END-IF.
           COPY FUTMI161.
           CALL DCLINK-DCXMAP USING
                BY REFERENCE DFHEIBLK
                BY REFERENCE ACCOMM
                BY CONTENT 'MAPOUT                        '
                BY REFERENCE MAP-CONTROL.

       810-MAPOUT-FUTMI16-EXIT.
           EXIT.
      *
      *%-------------------------------------------------------------- *
      *%                                                               *
      *%              895-TEST-CICS-RESPONSE ROUTINE                   *
      *%                                                               *
      *%-------------------------------------------------------------- *
       895-TEST-CICS-RESPONSE.
           IF DCLINK-CICS-RESP = DFHRESP(NORMAL)
               GO TO 895-TEST-CICS-RESPONSE-EXIT.
           MOVE DCLINK-CICS-RESP TO DCLINK-ABEND-CODE.
           EXEC CICS
               ABEND ABCODE(DCLINK-ABEND-CODE)
           END-EXEC.
       895-TEST-CICS-RESPONSE-EXIT.
           EXIT.

      /
      *%-------------------------------------------------------------- *
      *%                                                               *
      *%                   900-START-SUBROUTINES                       *
      *%                                                               *
      *%-------------------------------------------------------------- *
       900-START-SUBROUTINES SECTION.
      *    CONVERT/DB SUBROUTINES FOLLOW
       900-START-SUBROUTINES-EXIT.
           EXIT.

      /
      *%-------------------------------------------------------------- *
      *%                                                               *
      *%               906-00N-PROG-PROGCMT ROUTINE                    *
      *%                                                               *
      *%-------------------------------------------------------------- *
       906-00N-PROG-PROGCMT.
           MOVE '906-00N-PROG-PROGCMT' TO DBLINK-CURR-PARAGRAPH.
           MOVE ZERO TO ERROR-STATUS.
           MOVE ' ' TO ERROR-AREA.
           MOVE PROG-PROGCMT TO ERROR-SET.
           MOVE DBLINK-PROG-PROGCMT-N TO DBLINK-CURSOR-NAME-WORK.
           MOVE PROG-PROGCMT TO DBLINK-SET-NAME-WORK.
           MOVE ' ' TO DBLINK-RECORD-MADE-CURRENT.
           IF DBLINK-PROG-PROGCMT-N-CODE NOT = DBLINK-OPEN
               IF DBLINK-PROG-PROGCMT-KEY = LOW-VALUES
                   MOVE DBLINK-NO-CURRENCY TO ERROR-STATUS
                   MOVE DBLINK-NONE TO DBLINK-TYPE-LOCK
                   GO TO 906-00N-PROG-PROGCMT-EXIT
               END-IF
           END-IF.
           IF DBLINK-TYPE-GET = 'F'
             OR DBLINK-PROG-PROGCMT-KEY-M = LOW-VALUES
               PERFORM 991-CLOSE-CURSORS
                  THRU 991-CLOSE-CURSORS-EXIT
               IF ERROR-STATUS = DBLINK-DB2-ERROR
                   GO TO 906-00N-PROG-PROGCMT-EXIT
               END-IF
           END-IF.
           IF DBLINK-PROG-PROGCMT-KEY-M = LOW-VALUES
             OR DBLINK-TYPE-GET = 'F'
               MOVE DBLINK-HIGH-TIMESTAMP TO DBLINK-PROG-PROGCMT-03
           END-IF.
           IF DBLINK-PROG-PROGCMT-N-CODE NOT = DBLINK-OPEN
               EXEC SQL
                   OPEN PROG_PROGCMT_N
               END-EXEC
               IF SQLCODE NOT = 0
                   MOVE DBLINK-DB2-ERROR TO ERROR-STATUS
                   GO TO 906-00N-PROG-PROGCMT-EXIT
               END-IF
               MOVE DBLINK-OPEN TO DBLINK-PROG-PROGCMT-N-CODE
           END-IF.
           EXEC SQL
               FETCH PROG_PROGCMT_N
               INTO
                  :PGC-IDD-SEQ
                 ,:PGC-CMT-INFO-1
                 ,:PGC-CMT-INFO-2
                 ,:PGC-CMT-ID
                 ,:PGC-FK-PRO-PROG-NM
                 ,:PGC-FK-PRO-PKEY-TS
                 ,:PGC-PRO-TS
           END-EXEC.
           IF SQLCODE = +100
               MOVE DBLINK-END-OF-RCDS TO ERROR-STATUS
               MOVE DBLINK-NONE TO DBLINK-TYPE-LOCK
               PERFORM 991-CLOSE-CURSORS
                  THRU 991-CLOSE-CURSORS-EXIT
               IF ERROR-STATUS = DBLINK-DB2-ERROR
                   GO TO 906-00N-PROG-PROGCMT-EXIT
               END-IF
               PERFORM 985-EOS-PROG-PROGCMT
                  THRU 985-EOS-PROG-PROGCMT-EXIT
               MOVE +100 TO SQLCODE
               GO TO 906-00N-PROG-PROGCMT-EXIT
           END-IF.
           IF SQLCODE NOT = 0
               MOVE DBLINK-DB2-ERROR TO ERROR-STATUS
               GO TO 906-00N-PROG-PROGCMT-EXIT
           END-IF.
           PERFORM 985-CURR-PROGCMT-050
              THRU 985-CURR-PROGCMT-050-EXIT.
           IF ERROR-STATUS = DBLINK-DB2-ERROR
               GO TO 906-00N-PROG-PROGCMT-EXIT
           END-IF.
           IF DBLINK-TYPE-SELECT = 'O'
               PERFORM 975-TO-PROGCMT-050
                  THRU 975-TO-PROGCMT-050-EXIT
           END-IF.
       906-00N-PROG-PROGCMT-EXIT.
           EXIT.
      /
      *%-------------------------------------------------------------- *
      *%                                                               *
      *%                 906-05-PROG-051-3 ROUTINE                     *
      *%                                                               *
      *%-------------------------------------------------------------- *
       906-05-PROG-051-3.
           MOVE '906-05-PROG-051-3' TO DBLINK-CURR-PARAGRAPH.
           MOVE 'PROG-051' TO ERROR-RECORD.
           MOVE ZERO TO ERROR-STATUS.
           EXEC SQL
               SELECT
                  PROG_NAME
                 ,PROG_VER
                 ,BUILDER
                 ,ENTRY
                 ,DESCR
                 ,DATE_LU
                 ,DATE_CREATED
                 ,PREP_BY
                 ,REV_BY
                 ,PROG_DATE
                 ,EST_LINES
                 ,ISA_SIZE
                 ,PRO_COUNT
                 ,DUMP_THRESH
                 ,ERR_THRESH
                 ,PROG_FLAG1
                 ,PROG_FLAG2
                 ,PROG_FLAG3
                 ,ADS_SEQ_NUM
                 ,PUB_ACCESS_FLG
                 ,PROG_FLAG4
                 ,USER_COUNT
                 ,PKEY_TS
               INTO
                  :PRO-PROG-NAME
                 ,:PRO-PROG-VER
                 ,:PRO-BUILDER
                 ,:PRO-ENTRY
                 ,:PRO-DESCR
                 ,:PRO-DATE-LU
                 ,:PRO-DATE-CREATED
                 ,:PRO-PREP-BY
                 ,:PRO-REV-BY
                 ,:PRO-PROG-DATE
                 ,:PRO-EST-LINES
                 ,:PRO-ISA-SIZE
                 ,:PRO-PRO-COUNT
                 ,:PRO-DUMP-THRESH
                 ,:PRO-ERR-THRESH
                 ,:PRO-PROG-FLAG1
                 ,:PRO-PROG-FLAG2
                 ,:PRO-PROG-FLAG3
                 ,:PRO-ADS-SEQ-NUM
                 ,:PRO-PUB-ACCESS-FLG
                 ,:PRO-PROG-FLAG4
                 ,:PRO-USER-COUNT
                 ,:PRO-PKEY-TS
               FROM PRO_PROG_V
               WHERE PROG_NAME = :PRO-PROG-NAME
                 AND PKEY_TS = (SELECT MIN (PKEY_TS)
                         FROM PRO_PROG_V
                         WHERE PROG_NAME = :PRO-PROG-NAME
                         )
           END-EXEC.
           IF SQLCODE = +100
               MOVE DBLINK-NOT-FOUND TO ERROR-STATUS
               MOVE DBLINK-NONE TO DBLINK-TYPE-LOCK
               GO TO 906-05-PROG-051-3-EXIT
           END-IF.
           IF SQLCODE NOT = 0
               MOVE DBLINK-DB2-ERROR TO ERROR-STATUS
               GO TO 906-05-PROG-051-3-EXIT
           END-IF.
           MOVE '$$CALC' TO DBLINK-SET-NAME-WORK.
           MOVE DBLINK-PROG-051 TO DBLINK-RECORD-MADE-CURRENT.
           MOVE ' ' TO DBLINK-CURSOR-NAME-WORK.
           PERFORM 985-CURR-PROG-051
              THRU 985-CURR-PROG-051-EXIT.
           IF ERROR-STATUS = DBLINK-DB2-ERROR
               GO TO 906-05-PROG-051-3-EXIT
           END-IF.
           IF DBLINK-TYPE-SELECT = 'O'
               PERFORM 975-TO-PROG-051
                  THRU 975-TO-PROG-051-EXIT
           END-IF.
       906-05-PROG-051-3-EXIT.
           EXIT.

      *%****************************** *
      *% 975-TO-PROG-051 ROUTINE
      *%****************************** *
      *%   COPY CB750051.
CPYNME     COPY HVIDPRO.

      *%****************************** *
      *% 975-TO-PROGCMT-050 ROUTINE
      *%****************************** *
      *%   COPY CB750050.
CPYNME     COPY HVIDPGC.

      /
      *%-------------------------------------------------------------- *
      *%                                                               *
      *%                 985-CURR-PROG-051 ROUTINE                     *
      *%                                                               *
      *%-------------------------------------------------------------- *
       985-CURR-PROG-051.
           MOVE '985-CURR-PROG-051' TO DBLINK-CURR-PARAGRAPH.
      *%   COPY CB850051.
FCSAH *    COPY CURRPRO.
FCSAH      COPY CURRINQ.
       985-CURR-PROG-051-EXIT.
           EXIT.
      /
      *%-------------------------------------------------------------- *
      *%                                                               *
      *%               985-CURR-PROGCMT-050 ROUTINE                    *
      *%                                                               *
      *%-------------------------------------------------------------- *
       985-CURR-PROGCMT-050.
           MOVE '985-CURR-PROGCMT-050' TO DBLINK-CURR-PARAGRAPH.
      *%   COPY CB850050.
FCSAH *    COPY CURRPGC.
FCSAH      COPY CURRELS.
       985-CURR-PROGCMT-050-EXIT.
           EXIT.
      /
      *%-------------------------------------------------------------- *
      *%                                                               *
      *%               985-EOS-PROG-PROGCMT ROUTINE                    *
      *%                                                               *
      *%-------------------------------------------------------------- *
       985-EOS-PROG-PROGCMT.
           MOVE '985-EOS-PROG-PROGCMT' TO DBLINK-CURR-PARAGRAPH.

      *%****************************** *
      *%INITIALIZE DBLINK SUBSCHEMA-CTRL
      *%****************************** *
           MOVE SPACES TO ERROR-AREA.
           MOVE SPACES TO ERROR-RECORD.
           MOVE 'PROG-051' TO RECORD-NAME.

      *%****************************** *
      *%SET OWNER RECORD KEY
      *%****************************** *
           MOVE DBLINK-PROG-PROGCMT-01 TO DBLINK-PROG-051-01.
           MOVE DBLINK-PROG-PROGCMT-02 TO DBLINK-PROG-051-02.

      *%****************************** *
      *%SET CURRENT OF RUN-UNIT
      *%****************************** *
           MOVE DBLINK-PROG-051 TO DBLINK-VIEW-NAME-CURRENT.
           MOVE DBLINK-PROG-051-KEY TO DBLINK-VIEW-200-CURRENT.

      *%****************************** *
      *%SET KEY FOR SET
      *%****************************** *

      *%****************************** *
      *%SET PROG-PROGCMT
      *%****************************** *
           MOVE LOW-VALUES TO DBLINK-PROG-PROGCMT-KEY-M.
       985-EOS-PROG-PROGCMT-EXIT.
           EXIT.
      /
      *%-------------------------------------------------------------- *
      *%                                                               *
      *%                  986-RESET-KEYS ROUTINE                       *
      *%                                                               *
      *%-------------------------------------------------------------- *
       986-RESET-KEYS.
           MOVE '986-RESET-KEYS' TO DBLINK-CURR-PARAGRAPH.
           MOVE SPACES TO DBLINK-RECORD-KEYS.
           MOVE LOW-VALUES TO DBLINK-SET-KEYS.
       986-RESET-KEYS-EXIT.
           EXIT.
      /
      *%-------------------------------------------------------------- *
      *%                                                               *
      *%                 991-CLOSE-CURSORS ROUTINE                     *
      *%                                                               *
      *%-------------------------------------------------------------- *
       991-CLOSE-CURSORS.
           IF DBLINK-PROG-PROGCMT-N-CODE = DBLINK-OPEN
               IF DBLINK-CURSOR-NAME-WORK = DBLINK-PROG-PROGCMT-N
                 OR DBLINK-CURSOR-NAME-WORK = '$$ALL'
                 OR DBLINK-CURSOR-NAME-WORK = PROG-PROGCMT
                 OR DBLINK-RECORD-MADE-CURRENT = DBLINK-PROG-051
                   EXEC SQL
                       CLOSE PROG_PROGCMT_N
                   END-EXEC
                   IF SQLCODE NOT = 0
                       MOVE DBLINK-DB2-ERROR TO ERROR-STATUS
                       GO TO 991-CLOSE-CURSORS-EXIT
                   END-IF
                   MOVE DBLINK-CLOSED TO DBLINK-PROG-PROGCMT-N-CODE
                 ELSE
               IF (DBLINK-RECORD-MADE-CURRENT = DBLINK-PROGCMT-050
                 AND DBLINK-SET-NAME-WORK NOT = PROG-PROGCMT)
                   EXEC SQL
                       CLOSE PROG_PROGCMT_N
                   END-EXEC
                   IF SQLCODE NOT = 0
                       MOVE DBLINK-DB2-ERROR TO ERROR-STATUS
                       GO TO 991-CLOSE-CURSORS-EXIT
                   END-IF
                   MOVE DBLINK-CLOSED TO DBLINK-PROG-PROGCMT-N-CODE
               END-IF
           END-IF.
       991-CLOSE-CURSORS-EXIT.
           EXIT.
      /
      *%-------------------------------------------------------------- *
      *%                                                               *
      *%                    996-COMMIT ROUTINE                         *
      *%                                                               *
      *%-------------------------------------------------------------- *
       996-COMMIT.
           MOVE '996-COMMIT' TO DBLINK-CURR-PARAGRAPH.
           MOVE ALL 'C' TO DBLINK-CURSOR-CODES.
       996-COMMIT-EXIT.
           EXIT.
      /
      *%-------------------------------------------------------------- *
      *%                                                               *
      *%                 998-SET-RUN-DATE ROUTINE                      *
      *%                                                               *
      *%-------------------------------------------------------------- *
       998-SET-RUN-DATE.
           MOVE '998-SET-RUN-DATE' TO DBLINK-CURR-PARAGRAPH.
           EXEC SQL
               INCLUDE CBLINKTM
           END-EXEC.
       998-SET-RUN-DATE-EXIT.
           EXIT.
      /
      *%-------------------------------------------------------------- *
      *%                                                               *
      *%                  999-SQL-STATUS ROUTINE                       *
      *%                                                               *
      *%-------------------------------------------------------------- *
       999-SQL-STATUS.
           EXEC SQL
               INCLUDE ONLNERR
           END-EXEC.
       999-SQL-STATUS-EXIT.
           EXIT.

