       IDENTIFICATION DIVISION.
       PROGRAM-ID. FUTDU32A.
       AUTHOR. FORECROSS CORPORATION.
       INSTALLATION. UCSD - USDFINSYS.
       DATE-WRITTEN.  DEC 11,2000.
       DATE-COMPILED. DEC 11,2000.
      ****----------------------------------------------------------****
      **  AUTHOR    DATE    DESCRIPTION                                *
      **  ------- --------  ----------------------------------------   *
      **  DEVRRE  07/25/01  TSQ PERFORMANCE                            *
      **                                                               *
      ****----------------------------------------------------------****
      *%****************************************************************
      *%  Converted Using Forecross Corporation Redeployment Software  *
      *%                     Convert/ADSO                              *
      *%                     Convert/IDMS-DC                           *
      *%                     Convert/IDMS-DB                           *
      *%****************************************************************
      *%          COPYRIGHT 2000 - FORECROSS CORPORATION               *
      *%                    ALL RIGHTS RESERVED                        *
      *%****************************************************************


           COPY CBCVDBNT.

      /
      *%-------------------------------------------------------------- *
      *%
      *%  *** TABLE VIEWS USED IN THIS PROGRAM
      *%
      *%ACD_ACH_DATA_V        R6200-ACH-DATA                   CBL CPY
      *%ACM_ACH_COMM_V        R6202-ACH-COMM                   CBL CPY
      *%-------------------------------------------------------------- *
       ENVIRONMENT DIVISION.
       CONFIGURATION SECTION.
       SOURCE-COMPUTER.  IBM-3090.
       OBJECT-COMPUTER.  IBM-3090.
       INPUT-OUTPUT SECTION.

      *MAP SECTION.
      *MAP FUTMU32.

       FILE-CONTROL.
       I-O-CONTROL.

       DATA DIVISION.

       WORKING-STORAGE SECTION.
       01  DBLINK-USER-CD   PIC X(8) VALUE SPACES.
       01  FILLER  PIC X(32) VALUE '** FUTDU32A WORKING STRG BEGINS'.

      *%****************************************************************
       01  AC99W.
           COPY AC99W.
      *:****************************************************************
           10  AC99W-SST01                  PIC X(150).
           10  AC99W-SST01-R REDEFINES AC99W-SST01.
               15  AC99W-SST01-POS          PIC X OCCURS 150.
           10  AC99W-SST01-LEN              PIC 9(3).
           10  AC99W-SST02                  PIC X(150).
           10  AC99W-SST02-R REDEFINES AC99W-SST02.
               15  AC99W-SST02-POS          PIC X OCCURS 150.
           10  AC99W-SST02-LEN              PIC 9(3).
           10  AC99W-SST03                  PIC X(150).
           10  AC99W-SST03-R REDEFINES AC99W-SST03.
               15  AC99W-SST03-POS          PIC X OCCURS 150.
           10  AC99W-SST03-LEN              PIC 9(3).
      *%****************************************************************
      *%              AC99W FIELDS UNIQUE TO THIS PROGRAM              *
      *%****************************************************************
      *    10  AC99W-APPLICATION          PIC X(8) VALUE 'FUTDU32A'.
AC99W      10  AC99W-PROGRAM-NAME         PIC X(8) VALUE 'FUTDU32A'.
           10  AC99W-DCGSCRCH-F             PIC X(1)
                                VALUE 'N'.
AC99W      10  AC99W-TRANSID              PIC X(4) VALUE '@   '.
           10  AC99W-FSYWG01M-F             PIC X(1)
                                VALUE 'N'.
           10  AC99W-FUTWK32-F              PIC X(1)
                                VALUE 'N'.
           10  AC99W-FUTWM32-F              PIC X(1)
                                VALUE 'N'.
           10  AC99W-FUTWD32-F              PIC X(1)
                                VALUE 'N'.
           10  AC99W-ZZYWG55D-F             PIC X(1)
                                VALUE 'N'.
           10  AC99W-FSYWG99S-F             PIC X(1)
                                VALUE 'N'.
           10  AC99W-R6200-ACH-DATA-F       PIC X(1)
                                VALUE 'N'.
           10  AC99W-R6202-ACH-COMM-F       PIC X(1)
                                VALUE 'N'.

      *%****************************************************************
      *%              STANDARD CICS COPIES                             *
      *%****************************************************************

      *%****************************************************************
      *%           STANDARD ACGSST PARMS COPYBOOK                      *
      *%****************************************************************
           COPY ACGSST.
CPYNME     COPY ACMSGHT.
      *%****************************************************************
      *%               IDMS RECORD COPIES                              *
      *%****************************************************************
       01  SUBSCHEMA-CONTROL.
           02  SUBSCHEMA-CTRL.
           EXEC SQL
               INCLUDE CBRSKEYS
           END-EXEC.
           COPY CBCURCOD.

CPYNME     COPY ADSOGLBL.
DEVRRE     COPY FISWG00M.
CPYNME     COPY FSYWG01M.
CPYNME     COPY FUTWK32.
CPYNME     COPY FUTWM32.
CPYNME     COPY FUTWD32.
CPYNME     COPY ZZYWG55D.
CPYNME     COPY FSYWG99S.

      *%****************************** *
      *% ACD_ACH_DATA_V DATA VIEW AREAS
      *%****************************** *
CPYNME     COPY R6200.

      *%****************************** *
      *% ACM_ACH_COMM_V DATA VIEW AREAS
      *%****************************** *
CPYNME     COPY R6202.


      *%****************************** *
      *%MAP DATA AREA FOR FUTMU32
      *%****************************** *
           COPY FUTMU32T.

      *%****************************** *
      *%SCRATCH FILE DATA AREA
      *%****************************** *
           COPY DCGSCRCH.

      *%****************************** *
      *%CICS COPIES
      *%****************************** *
           COPY DFHAID.
           COPY DFHBMSCA.

      *%****************************** *
      *%STANDARD MAPPING COPIES
      *%****************************** *
           COPY DCLINKCA.
           COPY ACCOMM.
           COPY ONLWS.

UCSD1      EXEC SQL
UCSD1          INCLUDE HVMSL
UCSD1      END-EXEC.
           EXEC SQL
               INCLUDE CBCVDBCA
           END-EXEC.

      /
      *%-------------------------------------------------------------- *
      *%                                                               *
      *%          STANDARD CONVERT/DB COMMUNICATION AREAS              *
      *%                                                               *
      *%-------------------------------------------------------------- *
           COPY CBCVDBDD.
           COPY CBCVDBXD.
       01  DBLINK-NAMES.
           05  DBLINK-SCHEMA-NAME.
               10  FILLER                   PIC X(8)
                       VALUE 'FIMSNTWN'.
           05  DBLINK-RECORD-NAMES.
               10  DBLINK-R4000-COA         PIC X(16)
                       VALUE 'R4000-COA'.
               10  DBLINK-R4001-FUND        PIC X(16)
                       VALUE 'R4001-FUND'.
               10  DBLINK-R4002-ORGN        PIC X(16)
                       VALUE 'R4002-ORGN'.
               10  DBLINK-R4003-ACCT        PIC X(16)
                       VALUE 'R4003-ACCT'.
               10  DBLINK-R4004-PROG        PIC X(16)
                       VALUE 'R4004-PROG'.
               10  DBLINK-R4006-LCTN        PIC X(16)
                       VALUE 'R4006-LCTN'.
               10  DBLINK-R4008-FNDT        PIC X(16)
                       VALUE 'R4008-FNDT'.
               10  DBLINK-R4011-SYSDAT      PIC X(16)
                       VALUE 'R4011-SYSDAT'.
               10  DBLINK-R4014-ACTT        PIC X(16)
                       VALUE 'R4014-ACTT'.
               10  DBLINK-R4016-BDGT-CTRL   PIC X(16)
                       VALUE 'R4016-BDGT-CTRL'.
               10  DBLINK-R4021-CTRL-ACCTS  PIC X(16)
                       VALUE 'R4021-CTRL-ACCTS'.
               10  DBLINK-R4026-INDRT-COST  PIC X(16)
                       VALUE 'R4026-INDRT-COST'.
               10  DBLINK-R4030-COST-SHARE  PIC X(16)
                       VALUE 'R4030-COST-SHARE'.
               10  DBLINK-R4033-BANK        PIC X(16)
                       VALUE 'R4033-BANK'.
               10  DBLINK-R4035-PAY-MTHD    PIC X(16)
                       VALUE 'R4035-PAY-MTHD'.
               10  DBLINK-R4036-USER-RCRD   PIC X(16)
                       VALUE 'R4036-USER-RCRD'.
               10  DBLINK-R4038-USER-CODES  PIC X(16)
                       VALUE 'R4038-USER-CODES'.
               10  DBLINK-R4040-CLOSE-HDR   PIC X(16)
                       VALUE 'R4040-CLOSE-HDR'.
               10  DBLINK-R4045-ACTI        PIC X(16)
                       VALUE 'R4045-ACTI'.
               10  DBLINK-R4046-BANK-NAME   PIC X(16)
                       VALUE 'R4046-BANK-NAME'.
               10  DBLINK-R4050-ACTV        PIC X(16)
                       VALUE 'R4050-ACTV'.
               10  DBLINK-R4052-XTRN-ENTY   PIC X(16)
                       VALUE 'R4052-XTRN-ENTY'.
               10  DBLINK-R4053-INTR-ENTY   PIC X(16)
                       VALUE 'R4053-INTR-ENTY'.
               10  DBLINK-R4054-XTRN-CODE   PIC X(16)
                       VALUE 'R4054-XTRN-CODE'.
               10  DBLINK-R4056-AGNC        PIC X(16)
                       VALUE 'R4056-AGNC'.
               10  DBLINK-R4057-RQST-ID     PIC X(16)
                       VALUE 'R4057-RQST-ID'.
               10  DBLINK-R4060-RPT         PIC X(16)
                       VALUE 'R4060-RPT'.
               10  DBLINK-R4064-CS-EFCTV    PIC X(16)
                       VALUE 'R4064-CS-EFCTV'.
               10  DBLINK-R4065-IC-EFCTV    PIC X(16)
                       VALUE 'R4065-IC-EFCTV'.
               10  DBLINK-R4069-JRNL-HDR    PIC X(16)
                       VALUE 'R4069-JRNL-HDR'.
               10  DBLINK-R4070-RQST        PIC X(16)
                       VALUE 'R4070-RQST'.
               10  DBLINK-R4071-RQST-DTL    PIC X(16)
                       VALUE 'R4071-RQST-DTL'.
               10  DBLINK-R4072-BUYER       PIC X(16)
                       VALUE 'R4072-BUYER'.
               10  DBLINK-R4073-VENDOR      PIC X(16)
                       VALUE 'R4073-VENDOR'.
               10  DBLINK-R4074-CMDTY       PIC X(16)
                       VALUE 'R4074-CMDTY'.
               10  DBLINK-R4081-AGRMNT      PIC X(16)
                       VALUE 'R4081-AGRMNT'.
               10  DBLINK-R4083-PO-HDR      PIC X(16)
                       VALUE 'R4083-PO-HDR'.
               10  DBLINK-R4084-PO-CLASS    PIC X(16)
                       VALUE 'R4084-PO-CLASS'.
               10  DBLINK-R4085-PO-DTL      PIC X(16)
                       VALUE 'R4085-PO-DTL'.
               10  DBLINK-R4088-BID         PIC X(16)
                       VALUE 'R4088-BID'.
               10  DBLINK-R4089-BID-DTL     PIC X(16)
                       VALUE 'R4089-BID-DTL'.
               10  DBLINK-R4093-RCVNG-HDR   PIC X(16)
                       VALUE 'R4093-RCVNG-HDR'.
               10  DBLINK-R4096-PO-HDR-SEQ  PIC X(16)
                       VALUE 'R4096-PO-HDR-SEQ'.
               10  DBLINK-R4099-RETURNS     PIC X(16)
                       VALUE 'R4099-RETURNS'.
               10  DBLINK-R4104-VENDOR-CMD  PIC X(16)
                       VALUE 'R4104-VENDOR-CMD'.
               10  DBLINK-R4106-AUTO-JRNL   PIC X(16)
                       VALUE 'R4106-AUTO-JRNL'.
               10  DBLINK-R4120-TXT-HDR     PIC X(16)
                       VALUE 'R4120-TXT-HDR'.
               10  DBLINK-R4150-INV-HDR     PIC X(16)
                       VALUE 'R4150-INV-HDR'.
               10  DBLINK-R4151-INV-DTL     PIC X(16)
                       VALUE 'R4151-INV-DTL'.
               10  DBLINK-R4157-CHK-RQST-H  PIC X(16)
                       VALUE 'R4157-CHK-RQST-H'.
               10  DBLINK-R4158-CHK-HDR     PIC X(16)
                       VALUE 'R4158-CHK-HDR'.
               10  DBLINK-R4161-DSCNT-TBLE  PIC X(16)
                       VALUE 'R4161-DSCNT-TBLE'.
               10  DBLINK-R4163-RSBLE-INV   PIC X(16)
                       VALUE 'R4163-RSBLE-INV'.
               10  DBLINK-R4166-VNDR-TYPE   PIC X(16)
                       VALUE 'R4166-VNDR-TYPE'.
               10  DBLINK-R4168-TAX-RATES   PIC X(16)
                       VALUE 'R4168-TAX-RATES'.
               10  DBLINK-R4174-TOF-HDR     PIC X(16)
                       VALUE 'R4174-TOF-HDR'.
               10  DBLINK-R4180-RULE-CLASS  PIC X(16)
                       VALUE 'R4180-RULE-CLASS'.
               10  DBLINK-R4181-RULE-EFCTV  PIC X(16)
                       VALUE 'R4181-RULE-EFCTV'.
               10  DBLINK-R4183-ENCMBR-YRS  PIC X(16)
                       VALUE 'R4183-ENCMBR-YRS'.
               10  DBLINK-R4187-G-FOAPAL    PIC X(16)
                       VALUE 'R4187-G-FOAPAL'.
               10  DBLINK-R4188-TRAN-HIST   PIC X(16)
                       VALUE 'R4188-TRAN-HIST'.
               10  DBLINK-R4190-ENCMBR-DTL  PIC X(16)
                       VALUE 'R4190-ENCMBR-DTL'.
               10  DBLINK-R4191-ENCMBR-HDR  PIC X(16)
                       VALUE 'R4191-ENCMBR-HDR'.
               10  DBLINK-R4192-USER-PRFL   PIC X(16)
                       VALUE 'R4192-USER-PRFL'.
               10  DBLINK-R4197-GNRL-LDGR   PIC X(16)
                       VALUE 'R4197-GNRL-LDGR'.
               10  DBLINK-R4199-ACCT-LDGR   PIC X(16)
                       VALUE 'R4199-ACCT-LDGR'.
               10  DBLINK-R4203-DOCUMENT    PIC X(16)
                       VALUE 'R4203-DOCUMENT'.
               10  DBLINK-R4204-APRVL-J     PIC X(16)
                       VALUE 'R4204-APRVL-J'.
               10  DBLINK-R4205-APRVL-LVL   PIC X(16)
                       VALUE 'R4205-APRVL-LVL'.
               10  DBLINK-R4209-CLAUSE      PIC X(16)
                       VALUE 'R4209-CLAUSE'.
               10  DBLINK-R4212-APRVL-HDR   PIC X(16)
                       VALUE 'R4212-APRVL-HDR'.
               10  DBLINK-R4215-APRV-TMPLT  PIC X(16)
                       VALUE 'R4215-APRV-TMPLT'.
               10  DBLINK-R4224-DLVRY-HDR   PIC X(16)
                       VALUE 'R4224-DLVRY-HDR'.
               10  DBLINK-R4226-EXPR-VNDR   PIC X(16)
                       VALUE 'R4226-EXPR-VNDR'.
               10  DBLINK-R4228-FILE-CNTL   PIC X(16)
                       VALUE 'R4228-FILE-CNTL'.
               10  DBLINK-R4229-RLSE-HDR    PIC X(16)
                       VALUE 'R4229-RLSE-HDR'.
               10  DBLINK-R4230-RLSE-DTL    PIC X(16)
                       VALUE 'R4230-RLSE-DTL'.
               10  DBLINK-R4232-AP-TRANS    PIC X(16)
                       VALUE 'R4232-AP-TRANS'.
               10  DBLINK-R4300-AST         PIC X(16)
                       VALUE 'R4300-AST'.
               10  DBLINK-R4400-TRVL        PIC X(16)
                       VALUE 'R4400-TRVL'.
               10  DBLINK-R4401-EVENT       PIC X(16)
                       VALUE 'R4401-EVENT'.
               10  DBLINK-R4402-TRIP        PIC X(16)
                       VALUE 'R4402-TRIP'.
               10  DBLINK-R4405-EXPNS       PIC X(16)
                       VALUE 'R4405-EXPNS'.
               10  DBLINK-R4406-RECON       PIC X(16)
                       VALUE 'R4406-RECON'.
               10  DBLINK-R4410-TRVL-INV    PIC X(16)
                       VALUE 'R4410-TRVL-INV'.
               10  DBLINK-R6000-SYS         PIC X(16)
                       VALUE 'R6000-SYS'.
               10  DBLINK-R6001-UNVRS       PIC X(16)
                       VALUE 'R6001-UNVRS'.
               10  DBLINK-R6117-PRSN        PIC X(16)
                       VALUE 'R6117-PRSN'.
               10  DBLINK-R6151-STATE       PIC X(16)
                       VALUE 'R6151-STATE'.
               10  DBLINK-R6152-ZIP         PIC X(16)
                       VALUE 'R6152-ZIP'.
               10  DBLINK-R6153-COUNTRY     PIC X(16)
                       VALUE 'R6153-COUNTRY'.
               10  DBLINK-R6200-ACH-DATA    PIC X(16)
                       VALUE 'R6200-ACH-DATA'.
               10  DBLINK-R6202-ACH-COMM    PIC X(16)
                       VALUE 'R6202-ACH-COMM'.
               10  DBLINK-R6257             PIC X(16)
                       VALUE 'R6257'.
               10  DBLINK-R6258             PIC X(16)
                       VALUE 'R6258'.
               10  DBLINK-R6259             PIC X(16)
                       VALUE 'R6259'.
               10  DBLINK-R6260             PIC X(16)
                       VALUE 'R6260'.
               10  DBLINK-R6268             PIC X(16)
                       VALUE 'R6268'.
               10  DBLINK-R6270             PIC X(16)
                       VALUE 'R6270'.
               10  DBLINK-R6273             PIC X(16)
                       VALUE 'R6273'.
               10  DBLINK-R6311-ENTY        PIC X(16)
                       VALUE 'R6311-ENTY'.
               10  DBLINK-R6313-PRSN-CHG    PIC X(16)
                       VALUE 'R6313-PRSN-CHG'.
               10  DBLINK-R6353-ENTY-CHG    PIC X(16)
                       VALUE 'R6353-ENTY-CHG'.
               10  DBLINK-R6600-TABL-HDR    PIC X(16)
                       VALUE 'R6600-TABL-HDR'.
               10  DBLINK-R6605             PIC X(16)
                       VALUE 'R6605'.
               10  DBLINK-R6606             PIC X(16)
                       VALUE 'R6606'.
               10  DBLINK-R8001             PIC X(16)
                       VALUE 'R8001'.
               10  DBLINK-R8002             PIC X(16)
                       VALUE 'R8002'.
               10  DBLINK-R8003             PIC X(16)
                       VALUE 'R8003'.
               10  DBLINK-R8005             PIC X(16)
                       VALUE 'R8005'.
               10  DBLINK-R8007             PIC X(16)
                       VALUE 'R8007'.
               10  DBLINK-R8008             PIC X(16)
                       VALUE 'R8008'.
               10  DBLINK-R8009             PIC X(16)
                       VALUE 'R8009'.
               10  DBLINK-R8010             PIC X(16)
                       VALUE 'R8010'.
               10  DBLINK-R8013             PIC X(16)
                       VALUE 'R8013'.
               10  DBLINK-R8020             PIC X(16)
                       VALUE 'R8020'.
               10  DBLINK-R8030             PIC X(16)
                       VALUE 'R8030'.
               10  DBLINK-R8040             PIC X(16)
                       VALUE 'R8040'.
               10  DBLINK-R8044             PIC X(16)
                       VALUE 'R8044'.
               10  DBLINK-R8050             PIC X(16)
                       VALUE 'R8050'.
               10  DBLINK-R8051             PIC X(16)
                       VALUE 'R8051'.
               10  DBLINK-R8052             PIC X(16)
                       VALUE 'R8052'.
           05  DBLINK-SET-NAMES.
               10  S-6200-6202              PIC X(16)
                       VALUE 'S-6200-6202'.
           05  DBLINK-AREA-NAMES.
               10  FILLER                   PIC X(1)        VALUE SPACE.
           05  DBLINK-RECORD-LOCK-FLAGS.
               10  FILLER                   PIC X(1)        VALUE SPACE.
           05  DBLINK-CURSOR-NAMES.
               10  FILLER                   PIC X(1)        VALUE SPACE.
      /
      *%-------------------------------------------------------------- *
      *%                                                               *
      *%                  CONTROL AREAS AND VIEWS                      *
      *%                                                               *
      *%-------------------------------------------------------------- *

      *%****************************** *
      *%CONVERT/DB COMMAREA
      *%****************************** *
           EXEC SQL
               INCLUDE SQLCA
           END-EXEC.

      *%****************************** *
      *%DBKEY PROCESSING AREAS(HOST VAR INCLUDE)
      *%****************************** *
           EXEC SQL
               INCLUDE CBCVDBKW
           END-EXEC.

      *%****************************** *
      *%ACD_ACH_DATA_V AREAS(HOST VAR INCLUDE)
      *%****************************** *
      *%   EXEC SQL
      *%       INCLUDE CBHV6200
CPYNME     EXEC SQL
CPYNME         INCLUDE HVACD
CPYNME     END-EXEC.
      *%   END-EXEC.

      *%****************************** *
      *%ACM_ACH_COMM_V AREAS(HOST VAR INCLUDE)
      *%****************************** *
      *%   EXEC SQL
      *%       INCLUDE CBHV6202
CPYNME     EXEC SQL
CPYNME         INCLUDE HVACM
CPYNME     END-EXEC.
      *%   END-EXEC.
       LINKAGE SECTION.
       01  DFHCOMMAREA.
           10  DFHCOMMAREAZ PIC X(950).



      *%****************************** *
      *%DECLARE FOR DBKEY TABLE
      *%****************************** *
      *%   EXEC SQL
      *%       INCLUDE CBCVDBKQ
      *%   END-EXEC.

       PROCEDURE DIVISION.
      /
      *%-------------------------------------------------------------- *
      *%                                                               *
      *%              000-SQL-INITIALIZATION ROUTINE                   *
      *%                                                               *
      *%-------------------------------------------------------------- *
       000-SQL-INITIALIZATION.
           MOVE '000-SQL-INITIALIZATION' TO DBLINK-CURR-PARAGRAPH.
           MOVE EIBTIME TO DBLINK-TIME-N.
           PERFORM 998-SET-RUN-DATE
              THRU 998-SET-RUN-DATE-EXIT.
           MOVE DBLINKX-NULL-DB2-DATE-ISO TO DBLINK-DEFAULT-DATE.
           MOVE '0001-01-01' TO DBLINK-LOW-DATE.
           MOVE '9999-12-31' TO DBLINK-HIGH-DATE.
           MOVE DBLINKX-NULL-DB2-TIME-ISO TO DBLINK-DEFAULT-TIME.
           MOVE '00.00.01' TO DBLINK-LOW-TIME.
           MOVE '23.59.59' TO DBLINK-HIGH-TIME.
       000-SQL-INITIALIZATION-EXIT.
           EXIT.







      *%---------------------------------------------------------------*
      *%                                                               *
      *%                 000-RUN-CONTROL ROUTINE                       *
      *%                                                               *
      *%---------------------------------------------------------------*
       000-RUN-CONTROL.

           PERFORM 010-INITIALIZE
              THRU 010-INITIALIZE-EXIT.
           PERFORM 020-MAINLINE
              THRU 020-MAINLINE-EXIT.
           PERFORM 030-WRAPUP
              THRU 030-WRAPUP-EXIT.
       000-RUN-CONTROL-EXIT.
           EXIT.

      *%---------------------------------------------------------------*
      *%                                                               *
      *%                 010-INITIALIZE ROUTINE                        *
      *%                                                               *
      *%---------------------------------------------------------------*
       010-INITIALIZE.

      *%****************************************************************
      *%       INITIALIZE ALL TEMPORARY STORAGE QUEUE NAMES            *
      *%****************************************************************
           MOVE EIBTRMID TO AC99W-CONTEXT-QUEUE-L-1-4.
           MOVE EIBTRMID TO AC99W-CONTEXT-QUEUE-G-1-4.
           MOVE EIBTRMID TO AC99W-DEFAULT-QUEUE-1-4.

      *%****************************************************************
      *%       INITIALIZE ALL PROGRAM RECORDS                          *
      *%****************************************************************
           PERFORM 501-INIT-GLOBAL-RECORDS
              THRU 501-INIT-GLOBAL-RECORDS-EXIT
           PERFORM 502-INIT-LOCAL-RECORDS
              THRU 502-INIT-LOCAL-RECORDS-EXIT.
      *%****************************************************************
      *%              INITIALIZE AGR-TASK-CODE                         *
      *%****************************************************************
           IF EIBCALEN = 0
              MOVE '@' TO AGR-TASK-CODE
           END-IF.

           PERFORM 503-INIT-FIMSNTWN
              THRU 503-INIT-FIMSNTWN-EXIT.

      *%****************************************************************
      *%       PERFORM ALL OTHER DEFAULT INITIALIZATION                *
      *%****************************************************************
      *COPY AC1TMLES.
CPYNME     EXEC SQL
CPYNME         INCLUDE AC1TMLES
CPYNME     END-EXEC.


       010-INITIALIZE-EXIT.
           EXIT.


      *%---------------------------------------------------------------*
      *%                                                               *
      *%                   020-MAINLINE ROUTINE                        *
      *%                                                               *
      *%---------------------------------------------------------------*
       020-MAINLINE.
           MOVE AC99W-SECOND-TIME TO ACCOMM-RECALL-CODE.
           PERFORM 120-PREMAP
               THRU 120-PREMAP-EXIT.
           MOVE SPACES TO AC99W-TRANSID.
           PERFORM 326-SAVE-CONTEXT-G
              THRU 326-SAVE-CONTEXT-G-EXIT.
           PERFORM 322-SAVE-CONTEXT-L
              THRU 322-SAVE-CONTEXT-L-EXIT.
       020-MAINLINE-EXIT.
           EXIT.

      *%---------------------------------------------------------------*
      *%                                                               *
      *%                   030-WRAPUP ROUTINE                          *
      *%                                                               *
      *%---------------------------------------------------------------*
       030-WRAPUP.
      *%****************************************************************
      *%       RETURN TO CICS - WAIT FOR NEXT USER RESPONSE            *
      *%****************************************************************
           EXEC CICS
                RETURN
           END-EXEC.

       030-WRAPUP-EXIT.
           EXIT.


       EJECT
      *%---------------------------------------------------------------*
      *%                                                               *
      *%                   120-PREMAP ROUTINE                          *
      *%                                                               *
      *%---------------------------------------------------------------*
       120-PREMAP.

      ******************************************************************
      ******************************************************************
      **********************  BEGINNING OF MODULE  *********************
      ******************************************************************
      ******************************************************************
      ***  MODULE      : FUTPU32
      ***  DESCRIPTION : ACH COMM UPDATE
      ***  WRITTEN BY  : TIERRA SYSTEMS - HOLLY CARTWRIGHT
      ***  DATE WRITTEN: 02/09
      ***  COMMENTS    :
      ***  CURRENCY    :
      ***    EXPECTED  :
      ***    PASSED    : SAME
      ******************************************************************
      ******************************************************************
      ***                           CHANGE HISTORY
      ***
      *** REF  AUTH    DATE                  DESCRIPTION               T
      *SIS  *
      *** ---  ----  --------  --------------------------------------  -
      *---- *
      *** 001  LJM   03/30/00  CICS CONVERSION- REMOVE FZYAU02 LINK   FI
      *X019*
      ***
      ******************************************************************
      ******************************************************************
      ** READY F-ACH USAGE-MODE IS UPDATE.
      ** READY F-INDX-ACH USAGE-MODE IS UPDATE.
      *
      **** LINK TO PROGRAM 'FZYAU02'.
      *
      *** GET SYSTEM DATE
      *
           MOVE AC99W-DATE TO TODAYS-DATE-SY01.
           IF AGR-DATE(7:2) > YEAR-DATE-SY00
               ADD 19000000 TO TODAYS-DATE-SY01 ROUNDED
           ELSE
               ADD 20000000 TO TODAYS-DATE-SY01 ROUNDED
           END-IF.
      *
           MOVE TODAYS-DATE-SY01 TO WORK-DATE-UT32.
      *
      ***  DATABASE UPDATES
      *
      *%   OBTAIN R6200-ACH-DATA DB-KEY IS SAVE-DBKEY-ID-ACH-UT32.
           MOVE 0001 TO DBLINK-CURR-IO-NUM
           MOVE SAVE-DBKEY-ID-ACH-UT32 TO DBKEY
           MOVE DBLINK-R6200-ACH-DATA TO DBLINK-VIEW-NAME-WORK
           MOVE DBLINK-OBTAIN TO DBLINK-TYPE-SELECT
           MOVE DBLINK-DBKEY TO DBLINK-TYPE-GET
           PERFORM 906-01-R6200-ACH-DATA
              THRU 906-01-R6200-ACH-DATA-EXIT
           PERFORM 999-SQL-STATUS
              THRU 999-SQL-STATUS-EXIT.
      *
           MOVE 1 TO MAIN-SUB-SY00.
           PERFORM WITH TEST BEFORE
                   UNTIL NOT ( MAIN-SUB-SY00 NOT > 10 )
               IF ACTN-CODE-UT32 (MAIN-SUB-SY00) = 'A'
                   PERFORM 200-10ADDREC-S01
                      THRU 200-10ADDREC-S01-EXIT
                   IF AC99W-FLAG-DISPLAY = AC99W-YES-DISPLAY
                      GO TO 120-PREMAP-EXIT
                   END-IF
               END-IF
               IF ACTN-CODE-UT32 (MAIN-SUB-SY00) = 'C'
                   PERFORM 200-20CHGREC-S01
                      THRU 200-20CHGREC-S01-EXIT
                   IF AC99W-FLAG-DISPLAY = AC99W-YES-DISPLAY
                      GO TO 120-PREMAP-EXIT
                   END-IF
               END-IF
               IF ACTN-CODE-UT32 (MAIN-SUB-SY00) = 'D'
                   PERFORM 200-30DELREC-S01
                      THRU 200-30DELREC-S01-EXIT
                   IF AC99W-FLAG-DISPLAY = AC99W-YES-DISPLAY
                      GO TO 120-PREMAP-EXIT
                   END-IF
               END-IF
               ADD 1 TO MAIN-SUB-SY00
           END-PERFORM.
      *
           MOVE SPACES TO ACTN-CODE-GROUP-UT32.
      *
           MOVE FUTWM32 TO SCRTCH-FILLER-SY99.
      **************************************************************
      *******  PERFORM INCLUDE SUBROUTINE FSYSC09                      *
      **************************************************************
               PERFORM 200-FSYSC09
                  THRU 200-FSYSC09-EXIT.
               IF AC99W-FLAG-DISPLAY = AC99W-YES-DISPLAY
                  GO TO 120-PREMAP-EXIT
               END-IF.
           PERFORM 200-DISPMAP-S01
              THRU 200-DISPMAP-S01-EXIT.
           IF AC99W-FLAG-DISPLAY = AC99W-YES-DISPLAY
              GO TO 120-PREMAP-EXIT
           END-IF.
      *
      ******************************************************************
      ***                     S U B R O U T I N E S
      ******************************************************************
      *
      ******************************************************************

       120-PREMAP-EXIT.
           EXIT.


       EJECT
      *%---------------------------------------------------------------*
      *%                                                               *
      *%                   200-10ADDREC-S01 ROUTINE                    *
      *%                                                               *
      *%---------------------------------------------------------------*
       200-10ADDREC-S01.

      ******************************************************************
      *
           INITIALIZE R6202-ACH-COMM.
      *
           PERFORM 200-25FILREC-S01
              THRU 200-25FILREC-S01-EXIT.
           IF AC99W-FLAG-DISPLAY = AC99W-YES-DISPLAY
              GO TO 200-10ADDREC-S01-EXIT
           END-IF.
      *
      *%   OBTAIN CURRENT R6200-ACH-DATA.
           MOVE 0002 TO DBLINK-CURR-IO-NUM
           MOVE DBLINK-OBTAIN TO DBLINK-TYPE-SELECT
           MOVE DBLINK-CURR TO DBLINK-TYPE-GET
           IF DBLINK-R6200-ACH-DATA-KEY = SPACES
               MOVE DBLINK-NO-CURRENCY TO ERROR-STATUS
               MOVE +100 TO SQLCODE
           ELSE
               MOVE ZERO TO ERROR-STATUS
               MOVE 0 TO SQLCODE
               MOVE DBLINK-R6200-ACH-DATA-01 TO ACD-IREF-ID
               MOVE DBLINK-R6200-ACH-DATA-02 TO ACD-ENTPSN-IND
               PERFORM 906-05-R6200-ACH-DATA
                  THRU 906-05-R6200-ACH-DATA-EXIT
           END-IF
           PERFORM 999-SQL-STATUS
              THRU 999-SQL-STATUS-EXIT.
      *%   STORE R6202-ACH-COMM.
           MOVE 0003 TO DBLINK-CURR-IO-NUM
           MOVE DBLINK-STORE TO DBLINK-TYPE-SELECT
           MOVE DBLINK-STORE TO DBLINK-TYPE-GET
           PERFORM 976-FROM-R6202-ACH-COMM
              THRU 976-FROM-R6202-ACH-COMM-EXIT
           PERFORM 903-S-6200-6202
              THRU 903-S-6200-6202-EXIT
           PERFORM 904-ISRT-R6202-ACH-COMM
              THRU 904-ISRT-R6202-ACH-COMM-EXIT
           PERFORM 999-SQL-STATUS
              THRU 999-SQL-STATUS-EXIT.
      *
      ******************************************************************

       200-10ADDREC-S01-EXIT.
           EXIT.


       EJECT
      *%---------------------------------------------------------------*
      *%                                                               *
      *%                   200-20CHGREC-S01 ROUTINE                    *
      *%                                                               *
      *%---------------------------------------------------------------*
       200-20CHGREC-S01.

      ******************************************************************
      *
      *%   OBTAIN R6202-ACH-COMM DB-KEY IS SAVE-DBKEY-ID-COMM-UT32 (
      *%        MAIN-SUB-SY00 )
      *%                                      .
           MOVE 0004 TO DBLINK-CURR-IO-NUM
           MOVE SAVE-DBKEY-ID-COMM-UT32(MAIN-SUB-SY00) TO DBKEY
           MOVE DBLINK-R6202-ACH-COMM TO DBLINK-VIEW-NAME-WORK
           MOVE DBLINK-OBTAIN TO DBLINK-TYPE-SELECT
           MOVE DBLINK-DBKEY TO DBLINK-TYPE-GET
           PERFORM 906-01-R6202-ACH-COMM
              THRU 906-01-R6202-ACH-COMM-EXIT
           PERFORM 999-SQL-STATUS
              THRU 999-SQL-STATUS-EXIT.
      *
           PERFORM 200-25FILREC-S01
              THRU 200-25FILREC-S01-EXIT.
           IF AC99W-FLAG-DISPLAY = AC99W-YES-DISPLAY
              GO TO 200-20CHGREC-S01-EXIT
           END-IF.
      *
      *%   MODIFY R6202-ACH-COMM.
           MOVE 0005 TO DBLINK-CURR-IO-NUM
           MOVE DBLINK-MODIFY TO DBLINK-TYPE-SELECT
           MOVE DBLINK-MODIFY TO DBLINK-TYPE-GET
           PERFORM 976-FROM-R6202-ACH-COMM
              THRU 976-FROM-R6202-ACH-COMM-EXIT
           PERFORM 904-UPDT-R6202-ACH-COMM
              THRU 904-UPDT-R6202-ACH-COMM-EXIT
           PERFORM 999-SQL-STATUS
              THRU 999-SQL-STATUS-EXIT.
      *
      ******************************************************************

       200-20CHGREC-S01-EXIT.
           EXIT.


       EJECT
      *%---------------------------------------------------------------*
      *%                                                               *
      *%                   200-25FILREC-S01 ROUTINE                    *
      *%                                                               *
      *%---------------------------------------------------------------*
       200-25FILREC-S01.

      ******************************************************************
      *
           MOVE COMM-PLAN-CODE-UT32 (MAIN-SUB-SY00) TO
                COMM-PLAN-CODE-6202.
           MOVE TEXT-CODE-UT32 (MAIN-SUB-SY00) TO TEXT-CODE-6202.
           MOVE START-DATE-UT32 (MAIN-SUB-SY00) TO MAP-DATE-SY55.
           PERFORM 200-26MVDATE-S01
              THRU 200-26MVDATE-S01-EXIT.
           IF AC99W-FLAG-DISPLAY = AC99W-YES-DISPLAY
              GO TO 200-25FILREC-S01-EXIT
           END-IF.
           MOVE NMRC-WORK-DATE-SY55 TO START-DATE-6202.
           IF END-DATE-UT32 (MAIN-SUB-SY00) = SPACES
               MOVE 99999999 TO END-DATE-6202
           ELSE
               MOVE END-DATE-UT32 (MAIN-SUB-SY00) TO MAP-DATE-SY55
               PERFORM 200-26MVDATE-S01
                  THRU 200-26MVDATE-S01-EXIT
               IF AC99W-FLAG-DISPLAY = AC99W-YES-DISPLAY
                  GO TO 200-25FILREC-S01-EXIT
               END-IF
               MOVE NMRC-WORK-DATE-SY55 TO END-DATE-6202
           END-IF.
           MOVE WORK-DATE-UT32 TO ACTVY-DATE-6202.
      *
      ******************************************************************

       200-25FILREC-S01-EXIT.
           EXIT.


       EJECT
      *%---------------------------------------------------------------*
      *%                                                               *
      *%                   200-26MVDATE-S01 ROUTINE                    *
      *%                                                               *
      *%---------------------------------------------------------------*
       200-26MVDATE-S01.

      ******************************************************************
      *
           MOVE WORK-YEAR-DATE-SY55 TO DATA-BASE-YEAR-DATE-SY55.
           MOVE WORK-MONTH-DATE-SY55 TO DATA-BASE-MONTH-DATE-SY55.
           MOVE WORK-DAY-DATE-SY55 TO DATA-BASE-DAY-DATE-SY55.
           IF DATA-BASE-YEAR-DATE-SY55 > YEAR-DATE-SY00
               MOVE 19 TO DATA-BASE-CENT-DATE-SY55
           ELSE
               MOVE 20 TO DATA-BASE-CENT-DATE-SY55
           END-IF.
      *
      ******************************************************************

       200-26MVDATE-S01-EXIT.
           EXIT.


       EJECT
      *%---------------------------------------------------------------*
      *%                                                               *
      *%                   200-30DELREC-S01 ROUTINE                    *
      *%                                                               *
      *%---------------------------------------------------------------*
       200-30DELREC-S01.

      ******************************************************************
      *
      *%   OBTAIN R6202-ACH-COMM DB-KEY IS SAVE-DBKEY-ID-COMM-UT32 (
      *%        MAIN-SUB-SY00 )
      *%                                      .
           MOVE 0006 TO DBLINK-CURR-IO-NUM
           MOVE SAVE-DBKEY-ID-COMM-UT32(MAIN-SUB-SY00) TO DBKEY
           MOVE DBLINK-R6202-ACH-COMM TO DBLINK-VIEW-NAME-WORK
           MOVE DBLINK-OBTAIN TO DBLINK-TYPE-SELECT
           MOVE DBLINK-DBKEY TO DBLINK-TYPE-GET
           PERFORM 906-01-R6202-ACH-COMM
              THRU 906-01-R6202-ACH-COMM-EXIT
           PERFORM 999-SQL-STATUS
              THRU 999-SQL-STATUS-EXIT.
      *
           MOVE WORK-DATE-UT32 TO END-DATE-6202.
           COMPUTE NMRC-WORK-DATE-SY55 ROUNDED =
               END-DATE-6202.
           MOVE SPACES TO AC99W-SST01.
           MOVE NMRC-WORK-DATE-SY55(5:2) TO AC99W-SST01.
           COMPUTE AC99W-SST01-LEN = 2 .
           ADD 1  AC99W-SST01-LEN
               GIVING AC99W-SUB1.
           MOVE HIGH-VALUE TO AC99W-SST01-POS(AC99W-SUB1).
           MOVE SPACES TO AC99W-SST02.
           MOVE NMRC-WORK-DATE-SY55(7:2) TO AC99W-SST02.
           COMPUTE AC99W-SST02-LEN = 2 .
           ADD 1  AC99W-SST02-LEN
               GIVING AC99W-SUB1.
           MOVE HIGH-VALUE TO AC99W-SST02-POS(AC99W-SUB1).
           MOVE SPACES TO AC99W-SST03.
           MOVE NMRC-WORK-DATE-SY55(3:2) TO AC99W-SST03.
           COMPUTE AC99W-SST03-LEN = 2 .
           ADD 1  AC99W-SST03-LEN
               GIVING AC99W-SUB1.
           MOVE HIGH-VALUE TO AC99W-SST03-POS(AC99W-SUB1).
           MOVE SPACE TO END-DATE-UT32 (MAIN-SUB-SY00).
           STRING AC99W-SST01 DELIMITED HIGH-VALUE
                  AC99W-SST02 DELIMITED HIGH-VALUE
                  AC99W-SST03 DELIMITED HIGH-VALUE
                  INTO END-DATE-UT32 (MAIN-SUB-SY00).
           IF END-DATE-6202 = 99999999
               MOVE SPACES TO END-DATE-UT32 (MAIN-SUB-SY00)
           END-IF.
      *%   MODIFY R6202-ACH-COMM.
           MOVE 0007 TO DBLINK-CURR-IO-NUM
           MOVE DBLINK-MODIFY TO DBLINK-TYPE-SELECT
           MOVE DBLINK-MODIFY TO DBLINK-TYPE-GET
           PERFORM 976-FROM-R6202-ACH-COMM
              THRU 976-FROM-R6202-ACH-COMM-EXIT
           PERFORM 904-UPDT-R6202-ACH-COMM
              THRU 904-UPDT-R6202-ACH-COMM-EXIT
           PERFORM 999-SQL-STATUS
              THRU 999-SQL-STATUS-EXIT.
      *
      ******************************************************************
      ***    SUBROUTINE RECERROR.
      ******************************************************************
      *
      **INCLUDE MODULE ZZYII02.
      *
      ******************************************************************
      ***    SUBROUTINE GETMESGS.
      ******************************************************************
      *
      **INCLUDE MODULE ZZYII03.
      *
      ******************************************************************

       200-30DELREC-S01-EXIT.
           EXIT.


       EJECT
      *%---------------------------------------------------------------*
      *%                                                               *
      *%                   200-DISPMAP-S01 ROUTINE                     *
      *%                                                               *
      *%---------------------------------------------------------------*
       200-DISPMAP-S01.

      ******************************************************************
      *

      *************************************
      ** RETURN TO AC99W-HIGHER
      *************************************
           MOVE AC99W-NO TO ACCOMM-FLAG-CLEAR.
           MOVE AC99W-NO TO ACCOMM-FLAG-CONTINUE.
           MOVE AC99W-HIGHER TO AC99W-NEXT-PROGRAM.
           PERFORM 395-RETURN
              THRU 395-RETURN-EXIT.
      *
      ******************************************************************
      *************************  END OF MODULE *************************
      ******************************************************************

       200-DISPMAP-S01-EXIT.
           EXIT.


       EJECT
           EXEC SQL
               INCLUDE FSYSC09
           END-EXEC.


      *%---------------------------------------------------------------*
      *%                                                               *
      *%                   302-RESTORE-CONTEXT-L ROUTINE               *
      *%                                                               *
      *%---------------------------------------------------------------*
       302-RESTORE-CONTEXT-L.

      *%****************************************************************
      *%       LOOP THRU ALL ITEMS IN TEMP STORAGE FOR LOCAL RECORDS   *
      *%****************************************************************
           MOVE ZEROS TO AC99W-ITEM-NO.
           MOVE AC99W-YES TO AC99W-IND1.
           PERFORM WITH TEST BEFORE
             UNTIL NOT (AC99W-IND1 = AC99W-YES)
               ADD +1 TO AC99W-ITEM-NO
               MOVE AC99W-RECORD-LENGTH-MAX TO AC99W-RECORD-LENGTH

               EXEC CICS
                    READQ TS
                    QUEUE(AC99W-CONTEXT-QUEUE-L)
                    INTO(AC99W-CONTEXT-AREA)
                    ITEM(AC99W-ITEM-NO)
                    RESP(DCLINK-CICS-RESP)
                    LENGTH(AC99W-RECORD-LENGTH)
               END-EXEC

               IF DCLINK-CICS-RESP = DFHRESP(ITEMERR)
                OR DCLINK-CICS-RESP = DFHRESP(QIDERR)
                   GO TO 302-RESTORE-CONTEXT-L-EXIT
               END-IF
               PERFORM 895-TEST-CICS-RESPONSE
                  THRU 895-TEST-CICS-RESPONSE-EXIT
      *%****************************************************************
      *%       RESTORE DATA INTO THE LOCAL RECORDS                     *
      *%****************************************************************
               PERFORM 304-RESTORE-CONTEXT-L
                  THRU 304-RESTORE-CONTEXT-L-EXIT
           END-PERFORM.

       302-RESTORE-CONTEXT-L-EXIT.
           EXIT.

      *%---------------------------------------------------------------*
      *%                                                               *
      *%                   304-RESTORE-CONTEXT-L ROUTINE               *
      *%                                                               *
      *%---------------------------------------------------------------*
       304-RESTORE-CONTEXT-L.
      *%****************************************************************
      *%   DETERMINE WHICH CONTEXT RECORDS HAVE BEEN READ AND          *
      *%     WHETHER THEY SHOULD BE RESTORED                           *
      *%****************************************************************

           IF AC99W-CONTEXT-AREA-N = 'FCC-DBKEY-WORK-AREA'
              AND AC99W-FLAG-RESTORE-GBL = AC99W-NO
               MOVE AC99W-CONTEXT-AREA-R TO FCC-DBKEY-WORK-AREA
               GO TO 304-RESTORE-CONTEXT-L-EXIT
           END-IF.

           IF AC99W-CONTEXT-AREA-N = 'DBLINK-CURSOR-CODES'
              AND AC99W-FLAG-RESTORE-GBL = AC99W-NO
              MOVE AC99W-CONTEXT-AREA-R TO DBLINK-CURSOR-CODES
              GO TO 304-RESTORE-CONTEXT-L-EXIT
           END-IF.

           IF AC99W-CONTEXT-AREA-N = 'SUBSCHEMA-CONTROL'
              AND AC99W-FLAG-RESTORE-GBL = AC99W-NO
              MOVE AC99W-CONTEXT-AREA-R TO SUBSCHEMA-CONTROL
              GO TO 304-RESTORE-CONTEXT-L-EXIT
           END-IF.

           IF AC99W-CONTEXT-AREA-N = 'FUTMU32-MAP-CONTROL'
              AND AC99W-FLAG-RESTORE-GBL = AC99W-NO
              MOVE AC99W-CONTEXT-AREA-R TO FUTMU32-MAP-CONTROL
              GO TO 304-RESTORE-CONTEXT-L-EXIT
           END-IF.

           IF AC99W-CONTEXT-AREA-N = 'FSYWG01M'
            AND (AC99W-FLAG-RESTORE-GBL = AC99W-NO
             OR AC99W-FSYWG01M-F = AC99W-YES)
               MOVE AC99W-CONTEXT-AREA-R TO FSYWG01M
               MOVE AC99W-YES TO AC99W-FSYWG01M-F
               GO TO 304-RESTORE-CONTEXT-L-EXIT
           END-IF.

           IF AC99W-CONTEXT-AREA-N = 'FUTWK32'
            AND (AC99W-FLAG-RESTORE-GBL = AC99W-NO
             OR AC99W-FUTWK32-F = AC99W-YES)
               MOVE AC99W-CONTEXT-AREA-R TO FUTWK32
               MOVE AC99W-YES TO AC99W-FUTWK32-F
               GO TO 304-RESTORE-CONTEXT-L-EXIT
           END-IF.

           IF AC99W-CONTEXT-AREA-N = 'FUTWM32'
            AND (AC99W-FLAG-RESTORE-GBL = AC99W-NO
             OR AC99W-FUTWM32-F = AC99W-YES)
               MOVE AC99W-CONTEXT-AREA-R TO FUTWM32
               MOVE AC99W-YES TO AC99W-FUTWM32-F
               GO TO 304-RESTORE-CONTEXT-L-EXIT
           END-IF.

           IF AC99W-CONTEXT-AREA-N = 'FUTWD32'
            AND (AC99W-FLAG-RESTORE-GBL = AC99W-NO
             OR AC99W-FUTWD32-F = AC99W-YES)
               MOVE AC99W-CONTEXT-AREA-R TO FUTWD32
               MOVE AC99W-YES TO AC99W-FUTWD32-F
               GO TO 304-RESTORE-CONTEXT-L-EXIT
           END-IF.

           IF AC99W-CONTEXT-AREA-N = 'ZZYWG55D'
            AND (AC99W-FLAG-RESTORE-GBL = AC99W-NO
             OR AC99W-ZZYWG55D-F = AC99W-YES)
               MOVE AC99W-CONTEXT-AREA-R TO ZZYWG55D
               MOVE AC99W-YES TO AC99W-ZZYWG55D-F
               GO TO 304-RESTORE-CONTEXT-L-EXIT
           END-IF.

           IF AC99W-CONTEXT-AREA-N = 'FSYWG99S'
            AND (AC99W-FLAG-RESTORE-GBL = AC99W-NO
             OR AC99W-FSYWG99S-F = AC99W-YES)
               MOVE AC99W-CONTEXT-AREA-R TO FSYWG99S
               MOVE AC99W-YES TO AC99W-FSYWG99S-F
               GO TO 304-RESTORE-CONTEXT-L-EXIT
           END-IF.

           IF AC99W-CONTEXT-AREA-N = 'R6200-ACH-DATA'
            AND (AC99W-FLAG-RESTORE-GBL = AC99W-NO
             OR AC99W-R6200-ACH-DATA-F = AC99W-YES)
               MOVE AC99W-CONTEXT-AREA-R TO R6200-ACH-DATA
               MOVE AC99W-YES TO AC99W-R6200-ACH-DATA-F
               GO TO 304-RESTORE-CONTEXT-L-EXIT
           END-IF.

           IF AC99W-CONTEXT-AREA-N = 'R6202-ACH-COMM'
            AND (AC99W-FLAG-RESTORE-GBL = AC99W-NO
             OR AC99W-R6202-ACH-COMM-F = AC99W-YES)
               MOVE AC99W-CONTEXT-AREA-R TO R6202-ACH-COMM
               MOVE AC99W-YES TO AC99W-R6202-ACH-COMM-F
               GO TO 304-RESTORE-CONTEXT-L-EXIT
           END-IF.

           IF AC99W-CONTEXT-AREA-N = 'DCGSCRCH'
            AND (AC99W-FLAG-RESTORE-GBL = AC99W-NO
             OR AC99W-DCGSCRCH-F = AC99W-YES)
               MOVE AC99W-CONTEXT-AREA-R TO DCGSCRCH-RECORD
               MOVE AC99W-YES TO AC99W-DCGSCRCH-F
               GO TO 304-RESTORE-CONTEXT-L-EXIT
           END-IF.

       304-RESTORE-CONTEXT-L-EXIT.
           EXIT.

      *%---------------------------------------------------------------*
      *%                                                               *
      *%                   306-RESTORE-CONTEXT-G ROUTINE               *
      *%                                                               *
      *%---------------------------------------------------------------*
       306-RESTORE-CONTEXT-G.

      *%****************************************************************
      *%       RESTORE DATA FROM GLOBAL TEMP STORAGE QUEUE             *
      *%****************************************************************
           MOVE 'G001' TO AC99W-CONTEXT-QUEUE-G-5-8.
           MOVE AC99W-RECORD-LENGTH-MAX TO AC99W-RECORD-LENGTH.

           EXEC CICS
                READQ TS
                QUEUE(AC99W-CONTEXT-QUEUE-G)
                INTO(AC99W-CONTEXT-AREA)
                LENGTH(AC99W-RECORD-LENGTH)
                RESP(DCLINK-CICS-RESP)
           END-EXEC.

           IF DCLINK-CICS-RESP = DFHRESP(NORMAL)
               MOVE AC99W-CONTEXT-AREA
                   TO ADSO-APPLICATION-GLOBAL-RECORD

               EXEC CICS
                    DELETEQ TS
                    QUEUE(AC99W-CONTEXT-QUEUE-G)
                    RESP(DCLINK-CICS-RESP)
               END-EXEC

           END-IF.

           IF DCLINK-CICS-RESP NOT = DFHRESP(NORMAL) AND
              DCLINK-CICS-RESP NOT = DFHRESP(QIDERR)
               PERFORM 895-TEST-CICS-RESPONSE
                  THRU 895-TEST-CICS-RESPONSE-EXIT
           END-IF.
           MOVE 'G010' TO AC99W-CONTEXT-QUEUE-G-5-8.
           MOVE AC99W-RECORD-LENGTH-MAX TO AC99W-RECORD-LENGTH.

           EXEC CICS
                READQ TS
                QUEUE(AC99W-CONTEXT-QUEUE-G)
                INTO(AC99W-CONTEXT-AREA)
                LENGTH(AC99W-RECORD-LENGTH)
                RESP(DCLINK-CICS-RESP)
           END-EXEC.

           IF DCLINK-CICS-RESP = DFHRESP(NORMAL)
               MOVE AC99W-CONTEXT-AREA
                   TO FISWG00M

               EXEC CICS
                    DELETEQ TS
                    QUEUE(AC99W-CONTEXT-QUEUE-G)
                    RESP(DCLINK-CICS-RESP)
               END-EXEC

           END-IF.

           IF DCLINK-CICS-RESP NOT = DFHRESP(NORMAL) AND
              DCLINK-CICS-RESP NOT = DFHRESP(QIDERR)
               PERFORM 895-TEST-CICS-RESPONSE
                  THRU 895-TEST-CICS-RESPONSE-EXIT
           END-IF.
       306-RESTORE-CONTEXT-G-EXIT.
           EXIT.

      *%---------------------------------------------------------------*
      *%                                                               *
      *%                   312-DELETE-CONTEXT-L ROUTINE                *
      *%                                                               *
      *%---------------------------------------------------------------*
       312-DELETE-CONTEXT-L.

      *%****************************************************************
      *%       ERASE ALL LOCAL TEMP STORAGE                            *
      *%****************************************************************

           EXEC CICS
                DELETEQ TS
                RESP(DCLINK-CICS-RESP)
                QUEUE(AC99W-CONTEXT-QUEUE-L)
           END-EXEC

           IF DCLINK-CICS-RESP NOT = DFHRESP(QIDERR)
            AND DCLINK-CICS-RESP NOT = DFHRESP(NORMAL)
               PERFORM 895-TEST-CICS-RESPONSE
                  THRU 895-TEST-CICS-RESPONSE-EXIT
           END-IF.
       312-DELETE-CONTEXT-L-EXIT.
           EXIT.


      *%---------------------------------------------------------------*
      *%                                                               *
      *%                   314-SAVE-CURRENCY ROUTINE                   *
      *%                                                               *
      *%---------------------------------------------------------------*
       314-SAVE-CURRENCY SECTION.

DEVRRE     MOVE '$$ALL' TO DBLINK-CURSOR-NAME-WORK.
DEVRRE     PERFORM 991-CLOSE-CURSORS
DEVRRE        THRU 991-CLOSE-CURSORS-EXIT.

           MOVE 'FCC-DBKEY-WORK-AREA' TO AC99W-CONTEXT-AREA-N
           MOVE LENGTH OF FCC-DBKEY-WORK-AREA
             TO AC99W-RECORD-LENGTH
           MOVE FCC-DBKEY-WORK-AREA TO AC99W-CONTEXT-AREA-R
           ADD +40 TO AC99W-RECORD-LENGTH

           EXEC CICS
                WRITEQ TS
                QUEUE(AC99W-CONTEXT-QUEUE-L)
                FROM(AC99W-CONTEXT-AREA)
                LENGTH(AC99W-RECORD-LENGTH)
                RESP(DCLINK-CICS-RESP)
           END-EXEC

           PERFORM 895-TEST-CICS-RESPONSE
              THRU 895-TEST-CICS-RESPONSE-EXIT.

       314-SAVE-CURRENCY-010.

           IF AC99W-NOSAVE-OPTION = AC99W-PARTIAL
               MOVE AC99W-NO TO AC99W-NOSAVE-OPTION
           ELSE
               MOVE 'DBLINK-CURSOR-CODES' TO AC99W-CONTEXT-AREA-N
               MOVE LENGTH OF DBLINK-CURSOR-CODES
                         TO AC99W-RECORD-LENGTH
               MOVE DBLINK-CURSOR-CODES TO AC99W-CONTEXT-AREA-R
               ADD +40 TO AC99W-RECORD-LENGTH

               EXEC CICS
                    WRITEQ TS
                    QUEUE(AC99W-CONTEXT-QUEUE-L)
                    FROM(AC99W-CONTEXT-AREA)
                    LENGTH(AC99W-RECORD-LENGTH)
                    RESP(DCLINK-CICS-RESP)
               END-EXEC

               PERFORM 895-TEST-CICS-RESPONSE
                  THRU 895-TEST-CICS-RESPONSE-EXIT
           END-IF.


           MOVE 'SUBSCHEMA-CONTROL' TO AC99W-CONTEXT-AREA-N.
           MOVE LENGTH OF SUBSCHEMA-CONTROL TO AC99W-RECORD-LENGTH.
           MOVE SUBSCHEMA-CONTROL TO AC99W-CONTEXT-AREA-R.
           ADD +40 TO AC99W-RECORD-LENGTH.

           EXEC CICS
                WRITEQ TS
                QUEUE(AC99W-CONTEXT-QUEUE-L)
                FROM(AC99W-CONTEXT-AREA)
                LENGTH(AC99W-RECORD-LENGTH)
                RESP(DCLINK-CICS-RESP)
           END-EXEC.

           PERFORM 895-TEST-CICS-RESPONSE
              THRU 895-TEST-CICS-RESPONSE-EXIT.

       314-SAVE-CURRENCY-EXIT.
           EXIT.

      *%---------------------------------------------------------------*
      *%                                                               *
      *%                   316-DELETE-CONTEXT-G ROUTINE                *
      *%                                                               *
      *%---------------------------------------------------------------*
       316-DELETE-CONTEXT-G SECTION.

           MOVE 'G001' TO AC99W-CONTEXT-QUEUE-G-5-8.

           EXEC CICS
                DELETEQ TS
                RESP(DCLINK-CICS-RESP)
                QUEUE(AC99W-CONTEXT-QUEUE-G)
           END-EXEC.

           IF DCLINK-CICS-RESP NOT = DFHRESP(QIDERR)
            AND DCLINK-CICS-RESP NOT = DFHRESP(NORMAL)
               PERFORM 895-TEST-CICS-RESPONSE
              THRU 895-TEST-CICS-RESPONSE-EXIT
           END-IF.

           MOVE 'G010' TO AC99W-CONTEXT-QUEUE-G-5-8.

           EXEC CICS
                DELETEQ TS
                RESP(DCLINK-CICS-RESP)
                QUEUE(AC99W-CONTEXT-QUEUE-G)
           END-EXEC.

           IF DCLINK-CICS-RESP NOT = DFHRESP(QIDERR)
            AND DCLINK-CICS-RESP NOT = DFHRESP(NORMAL)
               PERFORM 895-TEST-CICS-RESPONSE
              THRU 895-TEST-CICS-RESPONSE-EXIT
           END-IF.

       316-DELETE-CONTEXT-G-EXIT.
           EXIT.

      *%---------------------------------------------------------------*
      *%                                                               *
      *%                   322-SAVE-CONTEXT-L ROUTINE                  *
      *%                                                               *
      *%---------------------------------------------------------------*
       322-SAVE-CONTEXT-L.

      *%****************************************************************
      *%       WRITE CURRENCIES TO A TEMP STORAGE AREA                 *
      *%****************************************************************
           IF AC99W-NOSAVE-OPTION = AC99W-YES
              MOVE AC99W-NO TO AC99W-NOSAVE-OPTION
           ELSE
              PERFORM 314-SAVE-CURRENCY
                 THRU 314-SAVE-CURRENCY-EXIT
           END-IF.
      *%****************************************************************
      *%       WRITE LOCAL RECORDS TO A TEMP STORAGE AREA              *
      *%****************************************************************


           MOVE 'FSYWG01M' TO AC99W-CONTEXT-AREA-N.
           MOVE LENGTH OF FSYWG01M TO AC99W-RECORD-LENGTH.
           MOVE FSYWG01M TO AC99W-CONTEXT-AREA-R.
           ADD +40 TO AC99W-RECORD-LENGTH.

           EXEC CICS
                WRITEQ TS
                QUEUE(AC99W-CONTEXT-QUEUE-L)
                FROM(AC99W-CONTEXT-AREA)
                LENGTH(AC99W-RECORD-LENGTH)
                RESP(DCLINK-CICS-RESP)
           END-EXEC.

           PERFORM 895-TEST-CICS-RESPONSE
              THRU 895-TEST-CICS-RESPONSE-EXIT.

           MOVE 'FUTWK32' TO AC99W-CONTEXT-AREA-N.
           MOVE LENGTH OF FUTWK32 TO AC99W-RECORD-LENGTH.
           MOVE FUTWK32 TO AC99W-CONTEXT-AREA-R.
           ADD +40 TO AC99W-RECORD-LENGTH.

           EXEC CICS
                WRITEQ TS
                QUEUE(AC99W-CONTEXT-QUEUE-L)
                FROM(AC99W-CONTEXT-AREA)
                LENGTH(AC99W-RECORD-LENGTH)
                RESP(DCLINK-CICS-RESP)
           END-EXEC.

           PERFORM 895-TEST-CICS-RESPONSE
              THRU 895-TEST-CICS-RESPONSE-EXIT.

           MOVE 'FUTWM32' TO AC99W-CONTEXT-AREA-N.
           MOVE LENGTH OF FUTWM32 TO AC99W-RECORD-LENGTH.
           MOVE FUTWM32 TO AC99W-CONTEXT-AREA-R.
           ADD +40 TO AC99W-RECORD-LENGTH.

           EXEC CICS
                WRITEQ TS
                QUEUE(AC99W-CONTEXT-QUEUE-L)
                FROM(AC99W-CONTEXT-AREA)
                LENGTH(AC99W-RECORD-LENGTH)
                RESP(DCLINK-CICS-RESP)
           END-EXEC.

           PERFORM 895-TEST-CICS-RESPONSE
              THRU 895-TEST-CICS-RESPONSE-EXIT.

           MOVE 'FUTWD32' TO AC99W-CONTEXT-AREA-N.
           MOVE LENGTH OF FUTWD32 TO AC99W-RECORD-LENGTH.
           MOVE FUTWD32 TO AC99W-CONTEXT-AREA-R.
           ADD +40 TO AC99W-RECORD-LENGTH.

           EXEC CICS
                WRITEQ TS
                QUEUE(AC99W-CONTEXT-QUEUE-L)
                FROM(AC99W-CONTEXT-AREA)
                LENGTH(AC99W-RECORD-LENGTH)
                RESP(DCLINK-CICS-RESP)
           END-EXEC.

           PERFORM 895-TEST-CICS-RESPONSE
              THRU 895-TEST-CICS-RESPONSE-EXIT.

           MOVE 'ZZYWG55D' TO AC99W-CONTEXT-AREA-N.
           MOVE LENGTH OF ZZYWG55D TO AC99W-RECORD-LENGTH.
           MOVE ZZYWG55D TO AC99W-CONTEXT-AREA-R.
           ADD +40 TO AC99W-RECORD-LENGTH.

           EXEC CICS
                WRITEQ TS
                QUEUE(AC99W-CONTEXT-QUEUE-L)
                FROM(AC99W-CONTEXT-AREA)
                LENGTH(AC99W-RECORD-LENGTH)
                RESP(DCLINK-CICS-RESP)
           END-EXEC.

           PERFORM 895-TEST-CICS-RESPONSE
              THRU 895-TEST-CICS-RESPONSE-EXIT.

           MOVE 'FSYWG99S' TO AC99W-CONTEXT-AREA-N.
           MOVE LENGTH OF FSYWG99S TO AC99W-RECORD-LENGTH.
           MOVE FSYWG99S TO AC99W-CONTEXT-AREA-R.
           ADD +40 TO AC99W-RECORD-LENGTH.

           EXEC CICS
                WRITEQ TS
                QUEUE(AC99W-CONTEXT-QUEUE-L)
                FROM(AC99W-CONTEXT-AREA)
                LENGTH(AC99W-RECORD-LENGTH)
                RESP(DCLINK-CICS-RESP)
           END-EXEC.

           PERFORM 895-TEST-CICS-RESPONSE
              THRU 895-TEST-CICS-RESPONSE-EXIT.

           MOVE 'R6200-ACH-DATA' TO AC99W-CONTEXT-AREA-N.
           MOVE LENGTH OF R6200-ACH-DATA TO AC99W-RECORD-LENGTH.
           MOVE R6200-ACH-DATA TO AC99W-CONTEXT-AREA-R.
           ADD +40 TO AC99W-RECORD-LENGTH.

           EXEC CICS
                WRITEQ TS
                QUEUE(AC99W-CONTEXT-QUEUE-L)
                FROM(AC99W-CONTEXT-AREA)
                LENGTH(AC99W-RECORD-LENGTH)
                RESP(DCLINK-CICS-RESP)
           END-EXEC.

           PERFORM 895-TEST-CICS-RESPONSE
              THRU 895-TEST-CICS-RESPONSE-EXIT.

           MOVE 'R6202-ACH-COMM' TO AC99W-CONTEXT-AREA-N.
           MOVE LENGTH OF R6202-ACH-COMM TO AC99W-RECORD-LENGTH.
           MOVE R6202-ACH-COMM TO AC99W-CONTEXT-AREA-R.
           ADD +40 TO AC99W-RECORD-LENGTH.

           EXEC CICS
                WRITEQ TS
                QUEUE(AC99W-CONTEXT-QUEUE-L)
                FROM(AC99W-CONTEXT-AREA)
                LENGTH(AC99W-RECORD-LENGTH)
                RESP(DCLINK-CICS-RESP)
           END-EXEC.

           PERFORM 895-TEST-CICS-RESPONSE
              THRU 895-TEST-CICS-RESPONSE-EXIT.

           MOVE 'FUTMU32-MAP-CONTROL' TO AC99W-CONTEXT-AREA-N.
           MOVE LENGTH OF FUTMU32-MAP-CONTROL TO AC99W-RECORD-LENGTH.
           MOVE FUTMU32-MAP-CONTROL TO AC99W-CONTEXT-AREA-R.
           ADD +40 TO AC99W-RECORD-LENGTH.

           EXEC CICS
                WRITEQ TS
                QUEUE(AC99W-CONTEXT-QUEUE-L)
                FROM(AC99W-CONTEXT-AREA)
                LENGTH(AC99W-RECORD-LENGTH)
                RESP(DCLINK-CICS-RESP)
           END-EXEC.

           PERFORM 895-TEST-CICS-RESPONSE
              THRU 895-TEST-CICS-RESPONSE-EXIT.

           MOVE 'DCGSCRCH' TO AC99W-CONTEXT-AREA-N.
           MOVE LENGTH OF DCGSCRCH-RECORD TO AC99W-RECORD-LENGTH.
           MOVE DCGSCRCH-RECORD TO AC99W-CONTEXT-AREA-R.
           ADD +40 TO AC99W-RECORD-LENGTH.

           EXEC CICS
                WRITEQ TS
                QUEUE(AC99W-CONTEXT-QUEUE-L)
                FROM(AC99W-CONTEXT-AREA)
                LENGTH(AC99W-RECORD-LENGTH)
                RESP(DCLINK-CICS-RESP)
           END-EXEC.

           PERFORM 895-TEST-CICS-RESPONSE
              THRU 895-TEST-CICS-RESPONSE-EXIT.

       322-SAVE-CONTEXT-L-EXIT.
           EXIT.


      *%---------------------------------------------------------------*
      *%                                                               *
      *%                   326-SAVE-CONTEXT-G ROUTINE                  *
      *%                                                               *
      *%---------------------------------------------------------------*
       326-SAVE-CONTEXT-G.

      *%****************************************************************
      *%       WRITE GLOBAL RECORD TO A TEMP STORAGE AREA              *
      *%****************************************************************
           MOVE LENGTH OF ADSO-APPLICATION-GLOBAL-RECORD TO
                AC99W-RECORD-LENGTH.
           MOVE 'G001' TO AC99W-CONTEXT-QUEUE-G-5-8.

           EXEC CICS
                WRITEQ TS
                QUEUE(AC99W-CONTEXT-QUEUE-G)
                FROM(ADSO-APPLICATION-GLOBAL-RECORD)
                LENGTH(AC99W-RECORD-LENGTH)
                RESP(DCLINK-CICS-RESP)
           END-EXEC.

           PERFORM 895-TEST-CICS-RESPONSE
              THRU 895-TEST-CICS-RESPONSE-EXIT.
           MOVE LENGTH OF FISWG00M TO AC99W-RECORD-LENGTH.
           MOVE 'G010' TO AC99W-CONTEXT-QUEUE-G-5-8.

           EXEC CICS
                WRITEQ TS
                QUEUE(AC99W-CONTEXT-QUEUE-G)
                FROM(FISWG00M)
                LENGTH(AC99W-RECORD-LENGTH)
                RESP(DCLINK-CICS-RESP)
           END-EXEC.

           PERFORM 895-TEST-CICS-RESPONSE
              THRU 895-TEST-CICS-RESPONSE-EXIT.

       326-SAVE-CONTEXT-G-EXIT.
           EXIT.


      *%---------------------------------------------------------------*
      *%                                                               *
      *%                 395-RETURN ROUTINE                            *
      *%                                                               *
      *%---------------------------------------------------------------*
       395-RETURN.
           MOVE '$$ALL' TO DBLINK-CURSOR-NAME-WORK.
           PERFORM 991-CLOSE-CURSORS
              THRU 991-CLOSE-CURSORS-EXIT.

      *%****************************************************************
      *%       CANNOT RETURN IF AT TOP OF STACK                        *
      *%****************************************************************
           MOVE ACCOMM-CNT-PGM-STACK TO ACCOMM-CNT-PGM-STACK-FROM.
           MOVE AC99W-TRANSFER TO ACCOMM-RECALL-CODE.
           MOVE ACCOMM-CNT-PGM-STACK TO AC99W-CONTEXT-QUEUE-L-7-8
           MOVE SPACES TO ACCOMM-FROM-PROGRAM.
           PERFORM 326-SAVE-CONTEXT-G
              THRU 326-SAVE-CONTEXT-G-EXIT.
           PERFORM 322-SAVE-CONTEXT-L
              THRU 322-SAVE-CONTEXT-L-EXIT.
           EXEC CICS
                RETURN
           END-EXEC.

       395-RETURN-EXIT.
           EXIT.



       EJECT
      *%---------------------------------------------------------------*
      *%                                                               *
      *%                   399-GET-MESSAGE ROUTINE                     *
      *%                                                               *
      *%---------------------------------------------------------------*
       399-GET-MESSAGE SECTION.

       399-GET-MESSAGE-010.
           EXEC SQL
                INCLUDE ACMSGCOD
           END-EXEC.
       399-GET-MESSAGE-EXIT.
           EXIT.


      *%---------------------------------------------------------------*
      *%                                                               *
      *%                   500-INIT-PROGRAM ROUTINE                    *
      *%                                                               *
      *%---------------------------------------------------------------*
       500-INIT-PROGRAM.

      *%****************************************************************
      *%       INITIALIZE KEY PROGRAM VARIABLES                        *
      *%****************************************************************
      *    MOVE AC99W-APPLICATION TO AGR-APPLICATION-NAME.
           MOVE EIBAID TO AGR-AID-BYTE.
           MOVE 'D' TO AGR-CURRENT-FUNC-TYPE.
           MOVE AC99W-PROGRAM-NAME TO AGR-DIALOG-NAME.
           MOVE SPACES TO AGR-MAP-RESPONSE.
           MOVE SPACES TO DCLINK-MESSAGE.
           EXEC CICS
                ASKTIME
                ABSTIME(AC99W-ABSTIME)
           END-EXEC.
           EXEC CICS
                FORMATTIME
                ABSTIME(AC99W-ABSTIME)
                YYMMDD(AC99W-DATE)
                YYYYMMDD(AC99W-DATEX)
                TIME(AC99W-TIME)
           END-EXEC.
           EXEC CICS
                FORMATTIME
                ABSTIME(AC99W-ABSTIME)
                DATESEP
                DATE(AGR-DATE)
           END-EXEC.
           EXEC CICS ASSIGN
                USERID(AC99W-USER-ID)
           END-EXEC.
           INSPECT AC99W-USER-ID CONVERTING
                'abcdefghijklmnopqrstuvwxyz' TO
                'ABCDEFGHIJKLMNOPQRSTUVWXYZ'.

       500-INIT-PROGRAM-EXIT.
           EXIT.

      *%---------------------------------------------------------------*
      *%                                                               *
      *%                   501-INIT-GLOBAL-RECORDS ROUTINE             *
      *%                                                               *
      *%---------------------------------------------------------------*
       501-INIT-GLOBAL-RECORDS.

           INITIALIZE ADSO-APPLICATION-GLOBAL-RECORD.

           INITIALIZE FSYWG00M.

           INITIALIZE FUTWG00D.

           INITIALIZE FSYWG00D.

           INITIALIZE FSYWG01D.

           MOVE QUOTE TO AGR-AID-BYTE OF ADSO-APPLICATION-GLOBAL-RECORD.
           MOVE 'N' TO AGR-SIGNON-SWITCH OF
                ADSO-APPLICATION-GLOBAL-RECORD.
           MOVE 'MORE ERRORS...' TO ERROR-TEXT-SY00 OF FSYWG00M.

       501-INIT-GLOBAL-RECORDS-EXIT.
           EXIT.

      *%---------------------------------------------------------------*
      *%                                                               *
      *%                   502-INIT-LOCAL-RECORDS ROUTINE              *
      *%                                                               *
      *%---------------------------------------------------------------*
       502-INIT-LOCAL-RECORDS.


           INITIALIZE FSYWG01M.

           INITIALIZE FUTWK32.

           INITIALIZE FUTWM32.

           INITIALIZE FUTWD32.

           INITIALIZE ZZYWG55D.

           INITIALIZE FSYWG99S.

           INITIALIZE R6200-ACH-DATA.

           INITIALIZE R6202-ACH-COMM.
           MOVE 'DECEASED' TO DCSD-TEXT-SY01 OF FSYWG01M.
           MOVE 'CONFID INFO' TO CNFDL-TEXT-SY01 OF FSYWG01M.
           MOVE 'HOLDS' TO HOLDS-TEXT-SY01 OF FSYWG01M.

       502-INIT-LOCAL-RECORDS-EXIT.
           EXIT.
      *%---------------------------------------------------------------*
      *%                                                               *
      *%                 503-INIT-FIMSNTWN ROUTINE                     *
      *%               INITIALIZE SCHEMA FIMSNTWN                      *
      *%                                                               *
      *%---------------------------------------------------------------*
       503-INIT-FIMSNTWN.

           MOVE 'Y' TO AC99W-FLAG-IDMS-BIND.

       503-INIT-FIMSNTWN-EXIT.
                                       EXIT.


      *%---------------------------------------------------------------*
      *%                                                               *
      *%                   520-FINISH-DB ROUTINE                       *
      *%               RESET ANY ACTIVE FILES                          *
      *%                                                               *
      *%---------------------------------------------------------------*
       520-FINISH-DB.
      *%****************************************************************
      *%       COMMIT THE DATABASE UPDATES                             *
      *%****************************************************************
           IF AC99W-FLAG-IDMS-BIND = AC99W-YES
      *%       FINISH
               MOVE 0008 TO DBLINK-CURR-IO-NUM
               MOVE +0 TO SQLCODE
               MOVE ZERO TO ERROR-STATUS
               IF AC99W-NOSAVE-OPTION = AC99W-YES
                   PERFORM 986-RESET-KEYS
                      THRU 986-RESET-KEYS-EXIT
               END-IF
               MOVE '$$ALL' TO DBLINK-CURSOR-NAME-WORK
               PERFORM 991-CLOSE-CURSORS
                  THRU 991-CLOSE-CURSORS-EXIT
               PERFORM 996-COMMIT
                  THRU 996-COMMIT-EXIT
               PERFORM 999-SQL-STATUS
                  THRU 999-SQL-STATUS-EXIT
           END-IF.

           MOVE AC99W-NO TO AC99W-FLAG-IDMS-BIND.

       520-FINISH-DB-EXIT.
           EXIT.

      *%---------------------------------------------------------------*
      *%                                                               *
      *%                   750-DISPLAY ROUTINE                         *
      *%                                                               *
      *%---------------------------------------------------------------*
       750-DISPLAY.

           EXEC CICS XCTL
             PROGRAM('SDFISE')
           END-EXEC.

       750-DISPLAY-EXIT.
           EXIT.

      *%---------------------------------------------------------------*
      *%                                                               *
      *%                   790-CICS-ABEND ROUTINE                      *
      *%                                                               *
      *%---------------------------------------------------------------*
       790-CICS-ABEND.

           COPY USRABEND.

       790-CICS-ABEND-EXIT.
           EXIT.

      *%   COPY IDMS IDMS-STATUS.
      /
      *%-------------------------------------------------------------- *
      *%                                                               *
      *%                 800-MAPIN-FUTMU32 ROUTINE                     *
      *%                                                               *
      *%-------------------------------------------------------------- *
       800-MAPIN-FUTMU32.

           CALL DCLINK-DCXMAP USING
                BY REFERENCE DFHEIBLK
                BY REFERENCE ACCOMM
                BY CONTENT 'MAPIN                         '
                BY REFERENCE MAP-CONTROL.
           MOVE WK01-FLAG-ANY-FIELDS-ERROR TO AC99W-ERROR-IND1.
           COPY FUTMU320.

       800-MAPIN-FUTMU32-EXIT.
           EXIT.
      /
      *%-------------------------------------------------------------- *
      *%                                                               *
      *%                810-MAPOUT-FUTMU32 ROUTINE                     *
      *%                                                               *
      *%-------------------------------------------------------------- *
       810-MAPOUT-FUTMU32.

           IF WK01-FLAG-OUTPUT-DATA = 'N'
               CALL DCLINK-DCXMAP USING
                    BY REFERENCE DFHEIBLK
                    BY REFERENCE ACCOMM
                    BY CONTENT 'MAPOUT                        '
                    BY REFERENCE MAP-CONTROL
               GO TO 810-MAPOUT-FUTMU32-EXIT
           END-IF.
           COPY FUTMU321.
           CALL DCLINK-DCXMAP USING
                BY REFERENCE DFHEIBLK
                BY REFERENCE ACCOMM
                BY CONTENT 'MAPOUT                        '
                BY REFERENCE MAP-CONTROL.

       810-MAPOUT-FUTMU32-EXIT.
           EXIT.
      /
      *%-------------------------------------------------------------- *
      *%                                                               *
      *%                  860-PUT-SCRATCH ROUTINE                      *
      *%                                                               *
      *%-------------------------------------------------------------- *
       860-PUT-SCRATCH.
           EXEC SQL
               INCLUDE DCSWRITE
           END-EXEC.
       860-PUT-SCRATCH-EXIT.
           EXIT.
      /
      *%-------------------------------------------------------------- *
      *%                                                               *
      *%              895-TEST-CICS-RESPONSE ROUTINE                   *
      *%                                                               *
      *%-------------------------------------------------------------- *
       895-TEST-CICS-RESPONSE.
           IF DCLINK-CICS-RESP = DFHRESP(NORMAL)
               GO TO 895-TEST-CICS-RESPONSE-EXIT.
           MOVE DCLINK-CICS-RESP TO DCLINK-ABEND-CODE.
           EXEC CICS
               ABEND ABCODE(DCLINK-ABEND-CODE)
           END-EXEC.
       895-TEST-CICS-RESPONSE-EXIT.
           EXIT.

      /
      *%-------------------------------------------------------------- *
      *%                                                               *
      *%                   900-START-SUBROUTINES                       *
      *%                                                               *
      *%-------------------------------------------------------------- *
       900-START-SUBROUTINES SECTION.
      *    CONVERT/DB SUBROUTINES FOLLOW
       900-START-SUBROUTINES-EXIT.
           EXIT.

      /
      *%-------------------------------------------------------------- *
      *%                                                               *
      *%                  903-S-6200-6202 ROUTINE                      *
      *%                                                               *
      *%-------------------------------------------------------------- *
       903-S-6200-6202.
           MOVE '903-S-6200-6202' TO DBLINK-CURR-PARAGRAPH.
           MOVE 'R6202-ACH-COMM' TO ERROR-RECORD.
           MOVE DBLINK-S-6200-6202-01 TO ACM-FK-ACD-IREF-ID.
           MOVE DBLINK-S-6200-6202-02 TO ACM-FK-ACD-ENTPSN-IND.
       903-S-6200-6202-EXIT.
           EXIT.
      /
      *%-------------------------------------------------------------- *
      *%                                                               *
      *%              904-ISRT-R6202-ACH-COMM ROUTINE                  *
      *%                                                               *
      *%-------------------------------------------------------------- *
       904-ISRT-R6202-ACH-COMM.
           MOVE '904-ISRT-R6202-ACH-COMM' TO DBLINK-CURR-PARAGRAPH.
           MOVE 'R6202-ACH-COMM' TO ERROR-RECORD.
           MOVE ZERO TO ERROR-STATUS.
           MOVE ' ' TO DBLINK-SET-NAME-WORK.
           MOVE ' ' TO DBLINK-CURSOR-NAME-WORK.
           EXEC SQL
               INSERT INTO ACM_ACH_COMM_V
                 (USER_CD
                 ,LAST_ACTVY_DT
                 ,COMM_PLAN_CD
                 ,TEXT_CD
                 ,END_DT
                 ,START_DT
                 ,ACTVY_DT
                 ,FK_ACD_IREF_ID
                 ,FK_ACD_ENTPSN_IND
               )
               VALUES
                 (:ACM-USER-CD
                 ,:ACM-LAST-ACTVY-DT
                 ,:ACM-COMM-PLAN-CD
                 ,:ACM-TEXT-CD
                 ,:ACM-END-DT
                 ,:ACM-START-DT
                 ,:ACM-ACTVY-DT
                 ,:ACM-FK-ACD-IREF-ID
                 ,:ACM-FK-ACD-ENTPSN-IND
               )
           END-EXEC.
           IF SQLCODE = -803
               MOVE DBLINK-STORE-DUP TO ERROR-STATUS
               GO TO 904-ISRT-R6202-ACH-COMM-EXIT
           END-IF.
           IF SQLCODE NOT = 0
               MOVE DBLINK-DB2-ERROR TO ERROR-STATUS
               GO TO 904-ISRT-R6202-ACH-COMM-EXIT
           END-IF.
           MOVE 'R6202-ACH-COMM' TO DBLINK-RECORD-MADE-CURRENT.
           PERFORM 985-CURR-R6202-ACH-COMM
              THRU 985-CURR-R6202-ACH-COMM-EXIT.
       904-ISRT-R6202-ACH-COMM-EXIT.
           EXIT.
      /
      *%-------------------------------------------------------------- *
      *%                                                               *
      *%              904-UPDT-R6202-ACH-COMM ROUTINE                  *
      *%                                                               *
      *%-------------------------------------------------------------- *
       904-UPDT-R6202-ACH-COMM.
           MOVE '904-UPDT-R6202-ACH-COMM' TO DBLINK-CURR-PARAGRAPH.
           MOVE 'R6202-ACH-COMM' TO ERROR-RECORD.
           MOVE ZERO TO ERROR-STATUS.
           EXEC SQL
               UPDATE ACM_ACH_COMM_V
               SET  USER_CD =
                 :ACM-USER-CD
                   ,LAST_ACTVY_DT =
                 :ACM-LAST-ACTVY-DT
                   ,COMM_PLAN_CD =
                 :ACM-COMM-PLAN-CD
                   ,TEXT_CD =
                 :ACM-TEXT-CD
                   ,END_DT =
                 :ACM-END-DT
                   ,START_DT =
                 :ACM-START-DT
                   ,ACTVY_DT =
                 :ACM-ACTVY-DT
               WHERE FK_ACD_IREF_ID = :DBLINK-R6202-ACH-COMM-01
                 AND FK_ACD_ENTPSN_IND = :DBLINK-R6202-ACH-COMM-02
                 AND COMM_PLAN_CD = :DBLINK-R6202-ACH-COMM-03
                 AND TEXT_CD = :DBLINK-R6202-ACH-COMM-04
                 AND END_DT = :DBLINK-R6202-ACH-COMM-05
           END-EXEC.
           IF SQLCODE = -803
               MOVE DBLINK-MODIFY-DUP TO ERROR-STATUS
               GO TO 904-UPDT-R6202-ACH-COMM-EXIT
           END-IF.
           IF SQLCODE NOT = 0
               MOVE DBLINK-DB2-ERROR TO ERROR-STATUS
               GO TO 904-UPDT-R6202-ACH-COMM-EXIT
           END-IF.
           PERFORM 985-CURR-R6202-ACH-COMM
              THRU 985-CURR-R6202-ACH-COMM-EXIT.
       904-UPDT-R6202-ACH-COMM-EXIT.
           EXIT.
      /
      *%-------------------------------------------------------------- *
      *%                                                               *
      *%               906-01-R6200-ACH-DATA ROUTINE                   *
      *%                                                               *
      *%-------------------------------------------------------------- *
       906-01-R6200-ACH-DATA.
           MOVE '906-01-R6200-ACH-DATA' TO DBLINK-CURR-PARAGRAPH.
           MOVE 'R6200-ACH-DATA' TO ERROR-RECORD.
           MOVE ZERO TO ERROR-STATUS.
           PERFORM 980-GET-DBKEY-ENTRY
              THRU 980-GET-DBKEY-ENTRY-EXIT.
           IF ERROR-STATUS NOT = ZERO
               MOVE DBLINK-NONE TO DBLINK-TYPE-LOCK
               GO TO 906-01-R6200-ACH-DATA-EXIT
           END-IF.
           MOVE FCC-PRIMARY-KEY TO DBLINK-R6200-ACH-DATA-KEY.
           MOVE DBLINK-R6200-ACH-DATA-01 TO ACD-IREF-ID.
           MOVE DBLINK-R6200-ACH-DATA-02 TO ACD-ENTPSN-IND.
           PERFORM 906-05-R6200-ACH-DATA
              THRU 906-05-R6200-ACH-DATA-EXIT.
       906-01-R6200-ACH-DATA-EXIT.
           EXIT.
      /
      *%-------------------------------------------------------------- *
      *%                                                               *
      *%               906-01-R6202-ACH-COMM ROUTINE                   *
      *%                                                               *
      *%-------------------------------------------------------------- *
       906-01-R6202-ACH-COMM.
           MOVE '906-01-R6202-ACH-COMM' TO DBLINK-CURR-PARAGRAPH.
           MOVE 'R6202-ACH-COMM' TO ERROR-RECORD.
           MOVE ZERO TO ERROR-STATUS.
           PERFORM 980-GET-DBKEY-ENTRY
              THRU 980-GET-DBKEY-ENTRY-EXIT.
           IF ERROR-STATUS NOT = ZERO
               MOVE DBLINK-NONE TO DBLINK-TYPE-LOCK
               GO TO 906-01-R6202-ACH-COMM-EXIT
           END-IF.
           MOVE FCC-PRIMARY-KEY TO DBLINK-R6202-ACH-COMM-KEY.
           MOVE DBLINK-R6202-ACH-COMM-01 TO ACM-FK-ACD-IREF-ID.
           MOVE DBLINK-R6202-ACH-COMM-02 TO ACM-FK-ACD-ENTPSN-IND.
           MOVE DBLINK-R6202-ACH-COMM-03 TO ACM-COMM-PLAN-CD.
           MOVE DBLINK-R6202-ACH-COMM-04 TO ACM-TEXT-CD.
           MOVE DBLINK-R6202-ACH-COMM-05 TO ACM-END-DT.
           PERFORM 906-05-R6202-ACH-COMM
              THRU 906-05-R6202-ACH-COMM-EXIT.
       906-01-R6202-ACH-COMM-EXIT.
           EXIT.
      /
      *%-------------------------------------------------------------- *
      *%                                                               *
      *%               906-05-R6200-ACH-DATA ROUTINE                   *
      *%                                                               *
      *%-------------------------------------------------------------- *
       906-05-R6200-ACH-DATA.
           MOVE '906-05-R6200-ACH-DATA' TO DBLINK-CURR-PARAGRAPH.
           MOVE 'R6200-ACH-DATA' TO ERROR-RECORD.
           MOVE ZERO TO ERROR-STATUS.
           EXEC SQL
               SELECT
                  USER_CD
                 ,LAST_ACTVY_DT
                 ,UNVRS_CD
                 ,IREF_ID
                 ,ENTPSN_IND
                 ,ACH_ID_DGT_ONE
                 ,ACH_ID_LST_NINE
                 ,ACH_STOP_IND
               INTO
                  :ACD-USER-CD
                 ,:ACD-LAST-ACTVY-DT
                 ,:ACD-UNVRS-CD
                 ,:ACD-IREF-ID
                 ,:ACD-ENTPSN-IND
                 ,:ACD-ACH-ID-DGT-ONE
                 ,:ACD-ACH-ID-LST-NINE
                 ,:ACD-ACH-STOP-IND
               FROM ACD_ACH_DATA_V
               WHERE IREF_ID = :ACD-IREF-ID
                 AND ENTPSN_IND = :ACD-ENTPSN-IND
           END-EXEC.
           IF SQLCODE = +100
               EVALUATE DBLINK-TYPE-GET
                   WHEN DBLINK-CALC
                       MOVE DBLINK-NOT-FOUND TO ERROR-STATUS
                   WHEN DBLINK-CURR
                       MOVE DBLINK-NO-CURRENCY TO ERROR-STATUS
                   WHEN DBLINK-DBKEY
                       MOVE DBLINK-DBKEY-ERROR TO ERROR-STATUS
                   WHEN OTHER
                       MOVE DBLINK-DB2-ERROR TO ERROR-STATUS
               END-EVALUATE
               GO TO 906-05-R6200-ACH-DATA-EXIT
           END-IF.
           IF SQLCODE NOT = 0
               MOVE DBLINK-DB2-ERROR TO ERROR-STATUS
               GO TO 906-05-R6200-ACH-DATA-EXIT
           END-IF.
           MOVE DBLINK-R6200-ACH-DATA TO DBLINK-RECORD-MADE-CURRENT.
           MOVE ' ' TO DBLINK-SET-NAME-WORK.
           MOVE ' ' TO DBLINK-CURSOR-NAME-WORK.
           PERFORM 985-CURR-R6200-ACH-DATA
              THRU 985-CURR-R6200-ACH-DATA-EXIT.
           IF ERROR-STATUS = DBLINK-DB2-ERROR
               GO TO 906-05-R6200-ACH-DATA-EXIT
           END-IF.
           IF DBLINK-TYPE-SELECT = 'O'
               PERFORM 975-TO-R6200-ACH-DATA
                  THRU 975-TO-R6200-ACH-DATA-EXIT
           END-IF.
       906-05-R6200-ACH-DATA-EXIT.
           EXIT.
      /
      *%-------------------------------------------------------------- *
      *%                                                               *
      *%               906-05-R6202-ACH-COMM ROUTINE                   *
      *%                                                               *
      *%-------------------------------------------------------------- *
       906-05-R6202-ACH-COMM.
           MOVE '906-05-R6202-ACH-COMM' TO DBLINK-CURR-PARAGRAPH.
           MOVE 'R6202-ACH-COMM' TO ERROR-RECORD.
           MOVE ZERO TO ERROR-STATUS.
           EXEC SQL
               SELECT
                  USER_CD
                 ,LAST_ACTVY_DT
                 ,COMM_PLAN_CD
                 ,TEXT_CD
                 ,END_DT
                 ,START_DT
                 ,ACTVY_DT
                 ,FK_ACD_IREF_ID
                 ,FK_ACD_ENTPSN_IND
               INTO
                  :ACM-USER-CD
                 ,:ACM-LAST-ACTVY-DT
                 ,:ACM-COMM-PLAN-CD
                 ,:ACM-TEXT-CD
                 ,:ACM-END-DT
                 ,:ACM-START-DT
                 ,:ACM-ACTVY-DT
                 ,:ACM-FK-ACD-IREF-ID
                 ,:ACM-FK-ACD-ENTPSN-IND
               FROM ACM_ACH_COMM_V
               WHERE FK_ACD_IREF_ID = :ACM-FK-ACD-IREF-ID
                 AND FK_ACD_ENTPSN_IND = :ACM-FK-ACD-ENTPSN-IND
                 AND COMM_PLAN_CD = :ACM-COMM-PLAN-CD
                 AND TEXT_CD = :ACM-TEXT-CD
                 AND END_DT = :ACM-END-DT
           END-EXEC.
           IF SQLCODE = +100
               EVALUATE DBLINK-TYPE-GET
                   WHEN DBLINK-CALC
                       MOVE DBLINK-NOT-FOUND TO ERROR-STATUS
                   WHEN DBLINK-CURR
                       MOVE DBLINK-NO-CURRENCY TO ERROR-STATUS
                   WHEN DBLINK-DBKEY
                       MOVE DBLINK-DBKEY-ERROR TO ERROR-STATUS
                   WHEN OTHER
                       MOVE DBLINK-DB2-ERROR TO ERROR-STATUS
               END-EVALUATE
               GO TO 906-05-R6202-ACH-COMM-EXIT
           END-IF.
           IF SQLCODE NOT = 0
               MOVE DBLINK-DB2-ERROR TO ERROR-STATUS
               GO TO 906-05-R6202-ACH-COMM-EXIT
           END-IF.
           MOVE DBLINK-R6202-ACH-COMM TO DBLINK-RECORD-MADE-CURRENT.
           MOVE ' ' TO DBLINK-SET-NAME-WORK.
           MOVE ' ' TO DBLINK-CURSOR-NAME-WORK.
           PERFORM 985-CURR-R6202-ACH-COMM
              THRU 985-CURR-R6202-ACH-COMM-EXIT.
           IF ERROR-STATUS = DBLINK-DB2-ERROR
               GO TO 906-05-R6202-ACH-COMM-EXIT
           END-IF.
           IF DBLINK-TYPE-SELECT = 'O'
               PERFORM 975-TO-R6202-ACH-COMM
                  THRU 975-TO-R6202-ACH-COMM-EXIT
           END-IF.
       906-05-R6202-ACH-COMM-EXIT.
           EXIT.

      *%****************************** *
      *% 975-TO-R6200-ACH-DATA ROUTINE
      *%****************************** *
      *%   COPY CB756200.
CPYNME     COPY HVIDACD.

      *%****************************** *
      *% 975-TO-R6202-ACH-COMM ROUTINE
      *%****************************** *
      *%   COPY CB756202.
CPYNME     COPY HVIDACM.

      *%****************************** *
      *% 976-FROM-R6200-ACH-DATA ROUTINE
      *%****************************** *
      *%   COPY CB766200.
CPYNME     COPY IDHVACD.

      *%****************************** *
      *% 976-FROM-R6202-ACH-COMM ROUTINE
      *%****************************** *
      *%   COPY CB766202.
CPYNME     COPY IDHVACM.
      /
      *%-------------------------------------------------------------- *
      *%                                                               *
      *%                980-GET-DBKEY-ENTRY ROUTINE                    *
      *%                                                               *
      *%-------------------------------------------------------------- *
       980-GET-DBKEY-ENTRY.
           MOVE '980-GET-DBKEY-ENTRY' TO DBLINK-CURR-PARAGRAPH.
           EXEC SQL
               INCLUDE CBCVDBKF
           END-EXEC.
       980-GET-DBKEY-ENTRY-EXIT.
           EXIT.
      /
      *%-------------------------------------------------------------- *
      *%                                                               *
      *%                981-PUT-DBKEY-ENTRY ROUTINE                    *
      *%                                                               *
      *%-------------------------------------------------------------- *
       981-PUT-DBKEY-ENTRY.
           MOVE '981-PUT-DBKEY-ENTRY' TO DBLINK-CURR-PARAGRAPH.
           EXEC SQL
               INCLUDE CBCVDBKT
           END-EXEC.
       981-PUT-DBKEY-ENTRY-EXIT.
           EXIT.
      /
      *%-------------------------------------------------------------- *
      *%                                                               *
      *%              985-CURR-R6200-ACH-DATA ROUTINE                  *
      *%                                                               *
      *%-------------------------------------------------------------- *
       985-CURR-R6200-ACH-DATA.
           MOVE '985-CURR-R6200-ACH-DATA' TO DBLINK-CURR-PARAGRAPH.
      *%   COPY CB856200.
CPYNME     COPY CURRACD.
       985-CURR-R6200-ACH-DATA-EXIT.
           EXIT.
      /
      *%-------------------------------------------------------------- *
      *%                                                               *
      *%              985-CURR-R6202-ACH-COMM ROUTINE                  *
      *%                                                               *
      *%-------------------------------------------------------------- *
       985-CURR-R6202-ACH-COMM.
           MOVE '985-CURR-R6202-ACH-COMM' TO DBLINK-CURR-PARAGRAPH.
      *%   COPY CB856202.
CPYNME     COPY CURRACM.
       985-CURR-R6202-ACH-COMM-EXIT.
           EXIT.
      /
      *%-------------------------------------------------------------- *
      *%                                                               *
      *%                  986-RESET-KEYS ROUTINE                       *
      *%                                                               *
      *%-------------------------------------------------------------- *
       986-RESET-KEYS.
           MOVE '986-RESET-KEYS' TO DBLINK-CURR-PARAGRAPH.
           MOVE SPACES TO DBLINK-RECORD-KEYS.
           MOVE LOW-VALUES TO DBLINK-SET-KEYS.
       986-RESET-KEYS-EXIT.
           EXIT.
      /
      *%-------------------------------------------------------------- *
      *%                                                               *
      *%                 991-CLOSE-CURSORS ROUTINE                     *
      *%                                                               *
      *%-------------------------------------------------------------- *
       991-CLOSE-CURSORS.
       991-CLOSE-CURSORS-EXIT.
           EXIT.
      /
      *%-------------------------------------------------------------- *
      *%                                                               *
      *%                    996-COMMIT ROUTINE                         *
      *%                                                               *
      *%-------------------------------------------------------------- *
       996-COMMIT.
           MOVE '996-COMMIT' TO DBLINK-CURR-PARAGRAPH.
           MOVE ALL 'C' TO DBLINK-CURSOR-CODES.
       996-COMMIT-EXIT.
           EXIT.
      /
      *%-------------------------------------------------------------- *
      *%                                                               *
      *%                 998-SET-RUN-DATE ROUTINE                      *
      *%                                                               *
      *%-------------------------------------------------------------- *
       998-SET-RUN-DATE.
           MOVE '998-SET-RUN-DATE' TO DBLINK-CURR-PARAGRAPH.
           EXEC SQL
               INCLUDE CBLINKTM
           END-EXEC.
       998-SET-RUN-DATE-EXIT.
           EXIT.
      /
      *%-------------------------------------------------------------- *
      *%                                                               *
      *%                  999-SQL-STATUS ROUTINE                       *
      *%                                                               *
      *%-------------------------------------------------------------- *
       999-SQL-STATUS.
           EXEC SQL
               INCLUDE ONLNERR
           END-EXEC.
       999-SQL-STATUS-EXIT.
           EXIT.

