       IDENTIFICATION DIVISION.
       PROGRAM-ID. FUTDI11.
       AUTHOR. FORECROSS CORPORATION.
       INSTALLATION. UCSD - USDFINSYS.
       DATE-WRITTEN.  DEC 11,2000.
       DATE-COMPILED. DEC 11,2000.
      ****----------------------------------------------------------****
      **  AUTHOR    DATE    DESCRIPTION                                *
      **  ------- --------  ----------------------------------------   *
DEVBWS**  DEVBWS  06/29/01  DELETE SYNCPOINTS, 976-, ADD "FOR FETCH    *
DEVBWS**                    ONLY" TO DECLARES                          *
      **                                                               *
      **  DEVDMW  07/25/01  GLBL TSQ PERFORMANCE FINE TUNING
      **  DEVDMW  11/07/03  SSN
      ****----------------------------------------------------------****
      *%****************************************************************
      *%                                                               *
      *%  Converted Using Forecross Corporation Redeployment Software  *
      *%                                                               *
      *%                     Convert/ADSO                              *
      *%                     Convert/IDMS-DC                           *
      *%                     Convert/IDMS-DB                           *
      *%                                                               *
      *%****************************************************************
      *%          COPYRIGHT 2000 - FORECROSS CORPORATION               *
      *%                    ALL RIGHTS RESERVED                        *
      *%****************************************************************


           COPY CBCVDBNT.

      /
      *%-------------------------------------------------------------- *
      *%
      *%  *** TABLE VIEWS USED IN THIS PROGRAM
      *%
      *%FNM_FIMS_NAME_V       R4173-FIMS-NAME                  CBL CPY
      *%
      *%  *** CURSORS DECLARED IN THIS PROGRAM
      *%
      *%
      *%  *** SUBROUTINES GENERATED FOR THIS PROGRAM
      *%
      *%000-SQL-INITIALIZATION
      *%998-SET-RUN-DATE
      *%986-RESET-KEYS
      *%906-05-R4173-FIMS-NAME
      *%985-CURR-R4173-FIMS-NAME
      *%996-COMMIT
      *%
      *%-------------------------------------------------------------- *
       ENVIRONMENT DIVISION.
       CONFIGURATION SECTION.
       SOURCE-COMPUTER.  IBM-3090.
       OBJECT-COMPUTER.  IBM-3090.
       INPUT-OUTPUT SECTION.

       FILE-CONTROL.
       I-O-CONTROL.
      *IDMS-CONTROL SECTION.
      *PROTOCOL. MODE IS CICS-AUTOSTATUS DEBUG
      *%         IDMS-RECORDS MANUAL.


       DATA DIVISION.

      *SCHEMA SECTION.
      *%  DB FUTSBA01 WITHIN FIMSNTWN.


       WORKING-STORAGE SECTION.
       01  DBLINK-USER-CD   PIC X(8) VALUE SPACES.
       01  FILLER  PIC X(32) VALUE '** FUTDI11 WORKING STRG BEGINS'.

      *%****************************************************************
       01  AC99W.
           COPY AC99W.
      *:****************************************************************
      *%****************************************************************
      *%              AC99W FIELDS UNIQUE TO THIS PROGRAM              *
      *%****************************************************************
      *    10  AC99W-APPLICATION          PIC X(8) VALUE 'FUTDI11'.
AC99W      10  AC99W-PROGRAM-NAME         PIC X(8) VALUE 'FUTDI11'.
AC99W      10  AC99W-TRANSID              PIC X(4) VALUE 'F295'.
           10  AC99W-XUTWD11-F              PIC X(1)
                                VALUE 'N'.
           10  AC99W-R4173-FIMS-NAME-F      PIC X(1)
                                VALUE 'N'.
       COPY ADSOGLBL.


      *%****************************************************************
      *%              STANDARD CICS COPIES                             *
      *%****************************************************************

      *%   EXEC SQL
      *%        INCLUDE ACMSGHT
CPYNME     COPY ACMSGHT.
      *%   END-EXEC.
      *%****************************************************************
      *%               IDMS RECORD COPIES                              *
      *%****************************************************************
      *%   COPY IDMS SUBSCHEMA-CONTROL.
       01  SUBSCHEMA-CONTROL.
           02  SUBSCHEMA-CTRL.
           EXEC SQL
               INCLUDE CBRSKEYS
           END-EXEC.
           COPY CBCURCOD.
      *%   COPY IDMS SUBSCHEMA-SSNAME.
      *%   COPY IDMS SUBSCHEMA-AREANAMES.
      *%   COPY IDMS SUBSCHEMA-RECNAMES.
      *%   COPY IDMS SUBSCHEMA-SETNAMES.

      *%   COPY IDMS RECORD XUTWD11.
CPYNME     COPY XUTWD11.

      *%****************************** *
      *% FNM_FIMS_NAME_V DATA VIEW AREAS
      *%****************************** *
      *%   COPY CBID4173.
CPYNME     COPY R4173.
      *%   COPY IDMS RECORD R4173-FIMS-NAME.


      *%****************************** *
      *%CICS COPIES
      *%****************************** *
           COPY DFHAID.
           COPY DFHBMSCA.

      *%****************************** *
      *%STANDARD MAPPING COPIES
      *%****************************** *
           COPY DCLINKCA.
           COPY ACCOMM.
           COPY ONLWS.

UCSD1      EXEC SQL
UCSD1          INCLUDE HVMSL
UCSD1      END-EXEC.
           EXEC SQL
               INCLUDE CBCVDBCA
           END-EXEC.

      /
      *%-------------------------------------------------------------- *
      *%                                                               *
      *%          STANDARD CONVERT/DB COMMUNICATION AREAS              *
      *%                                                               *
      *%-------------------------------------------------------------- *
           COPY CBCVDBDD.
           COPY CBCVDBXD.
       01  DBLINK-NAMES.
           05  DBLINK-SCHEMA-NAME.
               10  FILLER                   PIC X(8)
                       VALUE 'FIMSNTWN'.
           05  DBLINK-RECORD-NAMES.
               10  DBLINK-R4000-COA         PIC X(16)
                       VALUE 'R4000-COA'.
               10  DBLINK-R4001-FUND        PIC X(16)
                       VALUE 'R4001-FUND'.
               10  DBLINK-R4002-ORGN        PIC X(16)
                       VALUE 'R4002-ORGN'.
               10  DBLINK-R4003-ACCT        PIC X(16)
                       VALUE 'R4003-ACCT'.
               10  DBLINK-R4004-PROG        PIC X(16)
                       VALUE 'R4004-PROG'.
               10  DBLINK-R4006-LCTN        PIC X(16)
                       VALUE 'R4006-LCTN'.
               10  DBLINK-R4008-FNDT        PIC X(16)
                       VALUE 'R4008-FNDT'.
               10  DBLINK-R4011-SYSDAT      PIC X(16)
                       VALUE 'R4011-SYSDAT'.
               10  DBLINK-R4014-ACTT        PIC X(16)
                       VALUE 'R4014-ACTT'.
               10  DBLINK-R4016-BDGT-CTRL   PIC X(16)
                       VALUE 'R4016-BDGT-CTRL'.
               10  DBLINK-R4021-CTRL-ACCTS  PIC X(16)
                       VALUE 'R4021-CTRL-ACCTS'.
               10  DBLINK-R4026-INDRT-COST  PIC X(16)
                       VALUE 'R4026-INDRT-COST'.
               10  DBLINK-R4030-COST-SHARE  PIC X(16)
                       VALUE 'R4030-COST-SHARE'.
               10  DBLINK-R4033-BANK        PIC X(16)
                       VALUE 'R4033-BANK'.
               10  DBLINK-R4035-PAY-MTHD    PIC X(16)
                       VALUE 'R4035-PAY-MTHD'.
               10  DBLINK-R4036-USER-RCRD   PIC X(16)
                       VALUE 'R4036-USER-RCRD'.
               10  DBLINK-R4038-USER-CODES  PIC X(16)
                       VALUE 'R4038-USER-CODES'.
               10  DBLINK-R4040-CLOSE-HDR   PIC X(16)
                       VALUE 'R4040-CLOSE-HDR'.
               10  DBLINK-R4045-ACTI        PIC X(16)
                       VALUE 'R4045-ACTI'.
               10  DBLINK-R4046-BANK-NAME   PIC X(16)
                       VALUE 'R4046-BANK-NAME'.
               10  DBLINK-R4050-ACTV        PIC X(16)
                       VALUE 'R4050-ACTV'.
               10  DBLINK-R4052-XTRN-ENTY   PIC X(16)
                       VALUE 'R4052-XTRN-ENTY'.
               10  DBLINK-R4053-INTR-ENTY   PIC X(16)
                       VALUE 'R4053-INTR-ENTY'.
               10  DBLINK-R4054-XTRN-CODE   PIC X(16)
                       VALUE 'R4054-XTRN-CODE'.
               10  DBLINK-R4056-AGNC        PIC X(16)
                       VALUE 'R4056-AGNC'.
               10  DBLINK-R4057-RQST-ID     PIC X(16)
                       VALUE 'R4057-RQST-ID'.
               10  DBLINK-R4060-RPT         PIC X(16)
                       VALUE 'R4060-RPT'.
               10  DBLINK-R4064-CS-EFCTV    PIC X(16)
                       VALUE 'R4064-CS-EFCTV'.
               10  DBLINK-R4065-IC-EFCTV    PIC X(16)
                       VALUE 'R4065-IC-EFCTV'.
               10  DBLINK-R4069-JRNL-HDR    PIC X(16)
                       VALUE 'R4069-JRNL-HDR'.
               10  DBLINK-R4070-RQST        PIC X(16)
                       VALUE 'R4070-RQST'.
               10  DBLINK-R4071-RQST-DTL    PIC X(16)
                       VALUE 'R4071-RQST-DTL'.
               10  DBLINK-R4072-BUYER       PIC X(16)
                       VALUE 'R4072-BUYER'.
               10  DBLINK-R4073-VENDOR      PIC X(16)
                       VALUE 'R4073-VENDOR'.
               10  DBLINK-R4074-CMDTY       PIC X(16)
                       VALUE 'R4074-CMDTY'.
               10  DBLINK-R4081-AGRMNT      PIC X(16)
                       VALUE 'R4081-AGRMNT'.
               10  DBLINK-R4083-PO-HDR      PIC X(16)
                       VALUE 'R4083-PO-HDR'.
               10  DBLINK-R4084-PO-CLASS    PIC X(16)
                       VALUE 'R4084-PO-CLASS'.
               10  DBLINK-R4085-PO-DTL      PIC X(16)
                       VALUE 'R4085-PO-DTL'.
               10  DBLINK-R4088-BID         PIC X(16)
                       VALUE 'R4088-BID'.
               10  DBLINK-R4089-BID-DTL     PIC X(16)
                       VALUE 'R4089-BID-DTL'.
               10  DBLINK-R4093-RCVNG-HDR   PIC X(16)
                       VALUE 'R4093-RCVNG-HDR'.
               10  DBLINK-R4096-PO-HDR-SEQ  PIC X(16)
                       VALUE 'R4096-PO-HDR-SEQ'.
               10  DBLINK-R4099-RETURNS     PIC X(16)
                       VALUE 'R4099-RETURNS'.
               10  DBLINK-R4104-VENDOR-CMD  PIC X(16)
                       VALUE 'R4104-VENDOR-CMD'.
               10  DBLINK-R4106-AUTO-JRNL   PIC X(16)
                       VALUE 'R4106-AUTO-JRNL'.
               10  DBLINK-R4120-TXT-HDR     PIC X(16)
                       VALUE 'R4120-TXT-HDR'.
               10  DBLINK-R4150-INV-HDR     PIC X(16)
                       VALUE 'R4150-INV-HDR'.
               10  DBLINK-R4151-INV-DTL     PIC X(16)
                       VALUE 'R4151-INV-DTL'.
               10  DBLINK-R4157-CHK-RQST-H  PIC X(16)
                       VALUE 'R4157-CHK-RQST-H'.
               10  DBLINK-R4158-CHK-HDR     PIC X(16)
                       VALUE 'R4158-CHK-HDR'.
               10  DBLINK-R4161-DSCNT-TBLE  PIC X(16)
                       VALUE 'R4161-DSCNT-TBLE'.
               10  DBLINK-R4163-RSBLE-INV   PIC X(16)
                       VALUE 'R4163-RSBLE-INV'.
               10  DBLINK-R4166-VNDR-TYPE   PIC X(16)
                       VALUE 'R4166-VNDR-TYPE'.
               10  DBLINK-R4168-TAX-RATES   PIC X(16)
                       VALUE 'R4168-TAX-RATES'.
               10  DBLINK-R4173-FIMS-NAME   PIC X(16)
                       VALUE 'R4173-FIMS-NAME'.
               10  DBLINK-R4174-TOF-HDR     PIC X(16)
                       VALUE 'R4174-TOF-HDR'.
               10  DBLINK-R4180-RULE-CLASS  PIC X(16)
                       VALUE 'R4180-RULE-CLASS'.
               10  DBLINK-R4181-RULE-EFCTV  PIC X(16)
                       VALUE 'R4181-RULE-EFCTV'.
               10  DBLINK-R4183-ENCMBR-YRS  PIC X(16)
                       VALUE 'R4183-ENCMBR-YRS'.
               10  DBLINK-R4187-G-FOAPAL    PIC X(16)
                       VALUE 'R4187-G-FOAPAL'.
               10  DBLINK-R4188-TRAN-HIST   PIC X(16)
                       VALUE 'R4188-TRAN-HIST'.
               10  DBLINK-R4190-ENCMBR-DTL  PIC X(16)
                       VALUE 'R4190-ENCMBR-DTL'.
               10  DBLINK-R4191-ENCMBR-HDR  PIC X(16)
                       VALUE 'R4191-ENCMBR-HDR'.
               10  DBLINK-R4192-USER-PRFL   PIC X(16)
                       VALUE 'R4192-USER-PRFL'.
               10  DBLINK-R4197-GNRL-LDGR   PIC X(16)
                       VALUE 'R4197-GNRL-LDGR'.
               10  DBLINK-R4199-ACCT-LDGR   PIC X(16)
                       VALUE 'R4199-ACCT-LDGR'.
               10  DBLINK-R4203-DOCUMENT    PIC X(16)
                       VALUE 'R4203-DOCUMENT'.
               10  DBLINK-R4204-APRVL-J     PIC X(16)
                       VALUE 'R4204-APRVL-J'.
               10  DBLINK-R4205-APRVL-LVL   PIC X(16)
                       VALUE 'R4205-APRVL-LVL'.
               10  DBLINK-R4209-CLAUSE      PIC X(16)
                       VALUE 'R4209-CLAUSE'.
               10  DBLINK-R4212-APRVL-HDR   PIC X(16)
                       VALUE 'R4212-APRVL-HDR'.
               10  DBLINK-R4215-APRV-TMPLT  PIC X(16)
                       VALUE 'R4215-APRV-TMPLT'.
               10  DBLINK-R4224-DLVRY-HDR   PIC X(16)
                       VALUE 'R4224-DLVRY-HDR'.
               10  DBLINK-R4226-EXPR-VNDR   PIC X(16)
                       VALUE 'R4226-EXPR-VNDR'.
               10  DBLINK-R4228-FILE-CNTL   PIC X(16)
                       VALUE 'R4228-FILE-CNTL'.
               10  DBLINK-R4229-RLSE-HDR    PIC X(16)
                       VALUE 'R4229-RLSE-HDR'.
               10  DBLINK-R4230-RLSE-DTL    PIC X(16)
                       VALUE 'R4230-RLSE-DTL'.
               10  DBLINK-R4232-AP-TRANS    PIC X(16)
                       VALUE 'R4232-AP-TRANS'.
               10  DBLINK-R4300-AST         PIC X(16)
                       VALUE 'R4300-AST'.
               10  DBLINK-R4400-TRVL        PIC X(16)
                       VALUE 'R4400-TRVL'.
               10  DBLINK-R4401-EVENT       PIC X(16)
                       VALUE 'R4401-EVENT'.
               10  DBLINK-R4402-TRIP        PIC X(16)
                       VALUE 'R4402-TRIP'.
               10  DBLINK-R4405-EXPNS       PIC X(16)
                       VALUE 'R4405-EXPNS'.
               10  DBLINK-R4406-RECON       PIC X(16)
                       VALUE 'R4406-RECON'.
               10  DBLINK-R4410-TRVL-INV    PIC X(16)
                       VALUE 'R4410-TRVL-INV'.
               10  DBLINK-R6000-SYS         PIC X(16)
                       VALUE 'R6000-SYS'.
               10  DBLINK-R6001-UNVRS       PIC X(16)
                       VALUE 'R6001-UNVRS'.
               10  DBLINK-R6117-PRSN        PIC X(16)
                       VALUE 'R6117-PRSN'.
               10  DBLINK-R6151-STATE       PIC X(16)
                       VALUE 'R6151-STATE'.
               10  DBLINK-R6152-ZIP         PIC X(16)
                       VALUE 'R6152-ZIP'.
               10  DBLINK-R6153-COUNTRY     PIC X(16)
                       VALUE 'R6153-COUNTRY'.
               10  DBLINK-R6200-ACH-DATA    PIC X(16)
                       VALUE 'R6200-ACH-DATA'.
               10  DBLINK-R6257             PIC X(16)
                       VALUE 'R6257'.
               10  DBLINK-R6258             PIC X(16)
                       VALUE 'R6258'.
               10  DBLINK-R6259             PIC X(16)
                       VALUE 'R6259'.
               10  DBLINK-R6260             PIC X(16)
                       VALUE 'R6260'.
               10  DBLINK-R6268             PIC X(16)
                       VALUE 'R6268'.
               10  DBLINK-R6270             PIC X(16)
                       VALUE 'R6270'.
               10  DBLINK-R6273             PIC X(16)
                       VALUE 'R6273'.
               10  DBLINK-R6311-ENTY        PIC X(16)
                       VALUE 'R6311-ENTY'.
               10  DBLINK-R6313-PRSN-CHG    PIC X(16)
                       VALUE 'R6313-PRSN-CHG'.
               10  DBLINK-R6353-ENTY-CHG    PIC X(16)
                       VALUE 'R6353-ENTY-CHG'.
               10  DBLINK-R6600-TABL-HDR    PIC X(16)
                       VALUE 'R6600-TABL-HDR'.
               10  DBLINK-R6605             PIC X(16)
                       VALUE 'R6605'.
               10  DBLINK-R6606             PIC X(16)
                       VALUE 'R6606'.
               10  DBLINK-R8001             PIC X(16)
                       VALUE 'R8001'.
               10  DBLINK-R8002             PIC X(16)
                       VALUE 'R8002'.
               10  DBLINK-R8003             PIC X(16)
                       VALUE 'R8003'.
               10  DBLINK-R8005             PIC X(16)
                       VALUE 'R8005'.
               10  DBLINK-R8007             PIC X(16)
                       VALUE 'R8007'.
               10  DBLINK-R8008             PIC X(16)
                       VALUE 'R8008'.
               10  DBLINK-R8009             PIC X(16)
                       VALUE 'R8009'.
               10  DBLINK-R8010             PIC X(16)
                       VALUE 'R8010'.
               10  DBLINK-R8013             PIC X(16)
                       VALUE 'R8013'.
               10  DBLINK-R8020             PIC X(16)
                       VALUE 'R8020'.
               10  DBLINK-R8030             PIC X(16)
                       VALUE 'R8030'.
               10  DBLINK-R8040             PIC X(16)
                       VALUE 'R8040'.
               10  DBLINK-R8044             PIC X(16)
                       VALUE 'R8044'.
               10  DBLINK-R8050             PIC X(16)
                       VALUE 'R8050'.
               10  DBLINK-R8051             PIC X(16)
                       VALUE 'R8051'.
               10  DBLINK-R8052             PIC X(16)
                       VALUE 'R8052'.
           05  DBLINK-SET-NAMES.
               10  FILLER                   PIC X(1)        VALUE SPACE.
           05  DBLINK-AREA-NAMES.
               10  FILLER                   PIC X(1)        VALUE SPACE.
           05  DBLINK-RECORD-LOCK-FLAGS.
               10  FILLER                   PIC X(1)        VALUE SPACE.
           05  DBLINK-CURSOR-NAMES.
               10  FILLER                   PIC X(1)        VALUE SPACE.
      /
      *%-------------------------------------------------------------- *
      *%                                                               *
      *%                  CONTROL AREAS AND VIEWS                      *
      *%                                                               *
      *%-------------------------------------------------------------- *

      *%****************************** *
      *%CONVERT/DB COMMAREA
      *%****************************** *
           EXEC SQL
               INCLUDE SQLCA
           END-EXEC.

      *%****************************** *
      *%FNM_FIMS_NAME_V AREAS(HOST VAR INCLUDE)
      *%****************************** *
      *%   EXEC SQL
      *%       INCLUDE CBHV4173
CPYNME     EXEC SQL
CPYNME         INCLUDE HVFNM
CPYNME     END-EXEC.
      *%   END-EXEC.
       LINKAGE SECTION.
       01  DFHCOMMAREA.
           10  DFHCOMMAREAZ PIC X(950).



       PROCEDURE DIVISION.
      /
      *%-------------------------------------------------------------- *
      *%                                                               *
      *%              000-SQL-INITIALIZATION ROUTINE                   *
      *%                                                               *
      *%-------------------------------------------------------------- *
       000-SQL-INITIALIZATION.
           MOVE '000-SQL-INITIALIZATION' TO DBLINK-CURR-PARAGRAPH.
           MOVE EIBTIME TO DBLINK-TIME-N.
           PERFORM 998-SET-RUN-DATE
              THRU 998-SET-RUN-DATE-EXIT.
           MOVE DBLINKX-NULL-DB2-DATE-ISO TO DBLINK-DEFAULT-DATE.
           MOVE '0001-01-01' TO DBLINK-LOW-DATE.
           MOVE '9999-12-31' TO DBLINK-HIGH-DATE.
           MOVE DBLINKX-NULL-DB2-TIME-ISO TO DBLINK-DEFAULT-TIME.
           MOVE '00.00.01' TO DBLINK-LOW-TIME.
           MOVE '23.59.59' TO DBLINK-HIGH-TIME.
       000-SQL-INITIALIZATION-EXIT.
           EXIT.







      *%---------------------------------------------------------------*
      *%                                                               *
      *%                 000-RUN-CONTROL ROUTINE                       *
      *%                                                               *
      *%---------------------------------------------------------------*
       000-RUN-CONTROL.

           PERFORM 010-INITIALIZE
              THRU 010-INITIALIZE-EXIT.
           PERFORM 020-MAINLINE
              THRU 020-MAINLINE-EXIT.
           PERFORM 030-WRAPUP
              THRU 030-WRAPUP-EXIT.
       000-RUN-CONTROL-EXIT.
           EXIT.

      *%---------------------------------------------------------------*
      *%                                                               *
      *%                 010-INITIALIZE ROUTINE                        *
      *%                                                               *
      *%---------------------------------------------------------------*
       010-INITIALIZE.

      *%****************************************************************
      *%       INITIALIZE ALL TEMPORARY STORAGE QUEUE NAMES            *
      *%****************************************************************
           MOVE EIBTRMID TO AC99W-CONTEXT-QUEUE-L-1-4.
           MOVE EIBTRMID TO AC99W-CONTEXT-QUEUE-G-1-4.
           MOVE EIBTRMID TO AC99W-DEFAULT-QUEUE-1-4.

      *%****************************************************************
      *%       INITIALIZE ALL PROGRAM RECORDS                          *
      *%****************************************************************
           PERFORM 501-INIT-GLOBAL-RECORDS
              THRU 501-INIT-GLOBAL-RECORDS-EXIT
           PERFORM 502-INIT-LOCAL-RECORDS
              THRU 502-INIT-LOCAL-RECORDS-EXIT.
           PERFORM 503-INIT-FIMSNTWN
              THRU 503-INIT-FIMSNTWN-EXIT.

      *%****************************************************************
      *%       PERFORM ALL OTHER DEFAULT INITIALIZATION                *
      *%****************************************************************
      *COPY AC1TMLES.
CPYNME     EXEC SQL
CPYNME         INCLUDE AC1TMLES
CPYNME     END-EXEC.


       010-INITIALIZE-EXIT.
           EXIT.


      *%---------------------------------------------------------------*
      *%                                                               *
      *%                   020-MAINLINE ROUTINE                        *
      *%                                                               *
      *%---------------------------------------------------------------*
       020-MAINLINE.
           MOVE AC99W-SECOND-TIME TO ACCOMM-RECALL-CODE.
           PERFORM 120-PREMAP
               THRU 120-PREMAP-EXIT.
           MOVE SPACES TO AC99W-TRANSID.
           PERFORM 326-SAVE-CONTEXT-G
              THRU 326-SAVE-CONTEXT-G-EXIT.
           PERFORM 322-SAVE-CONTEXT-L
              THRU 322-SAVE-CONTEXT-L-EXIT.
       020-MAINLINE-EXIT.
           EXIT.

      *%---------------------------------------------------------------*
      *%                                                               *
      *%                   030-WRAPUP ROUTINE                          *
      *%                                                               *
      *%---------------------------------------------------------------*
       030-WRAPUP.
      *%****************************************************************
      *%       RETURN TO CICS - WAIT FOR NEXT USER RESPONSE            *
      *%****************************************************************
           EXEC CICS
                RETURN
           END-EXEC.

       030-WRAPUP-EXIT.
           EXIT.


       EJECT
      *%---------------------------------------------------------------*
      *%                                                               *
      *%                   120-PREMAP ROUTINE                          *
      *%                                                               *
      *%---------------------------------------------------------------*
       120-PREMAP.

      ******************************************************************
      **********************  BEGINNING OF MODULE  *********************
      ******************************************************************
      **************************************************************
      *******  PERFORM INCLUDE SUBROUTINE ZZYID01                      *
      **************************************************************
               PERFORM 200-ZZYID01
                  THRU 200-ZZYID01-EXIT.
               IF AC99W-FLAG-DISPLAY = AC99W-YES-DISPLAY
                  GO TO 120-PREMAP-EXIT
               END-IF.
      *** COPYRIGHT STATEMENT
      ******************************************************************
      ***  MODULE      : FUTPI11
      ***  DESCRIPTION : FINANCE SYSTEM INQUIRY PREMAP
      ***  WRITTEN BY  : RICHARD LANDER
      ***  DATE WRITTEN: 08/90
      ***  COMMENTS    :
      ***  CURRENCY    :
      ***    EXPECTED  : NONE
      ***    PASSED    : NONE
      ******************************************************************
      ******************************************************************
      ***                           CHANGE HISTORY
      ***
      *** REF  AUTH    DATE                  DESCRIPTION               C
      *SR   *
      *** ---  ----  --------  ------------------------------------  ---
      *---- *
      *** 001  XXX   MM/DD/YY  XXXXXXXXXXXXXXXXXXXXXXXXXXXXXXXXXXXX  99-
      *9999 *
      ***
      ******************************************************************
      ******************************************************************
           MOVE UNVRS-CODE-UT11 TO UNVRS-CODE-4173.
           MOVE INTRL-REF-ID-UT11 TO INTRL-REF-ID-4173.
           MOVE ENTY-PRSN-IND-UT11 TO ENTY-PRSN-IND-4173.
      *% OBTAIN CALC R4173-FIMS-NAME.
           MOVE 0001 TO DBLINK-CURR-IO-NUM
           MOVE DBLINK-OBTAIN TO DBLINK-TYPE-SELECT
           MOVE DBLINK-CALC TO DBLINK-TYPE-GET
           MOVE INTRL-REF-ID-4173 OF R4173-FIMS-NAME TO FNM-IREF-ID
           MOVE ENTY-PRSN-IND-4173 OF R4173-FIMS-NAME TO FNM-ENTPSN-IND
           PERFORM 906-05-R4173-FIMS-NAME
              THRU 906-05-R4173-FIMS-NAME-EXIT
           PERFORM 999-SQL-STATUS
              THRU 999-SQL-STATUS-EXIT.
           IF DB-STATUS-OK
DMWSSN         IF FNM-IDX-TRVL-SETF = 'Y' OR
                  FNM-IDX-VNDR-SETF = 'Y' OR
                  FNM-IDX-BUYR-SETF = 'Y' OR
                  FNM-IDX-AGNT-SETF = 'Y' OR
                  FNM-IDX-FNCL-SETF = 'Y' OR
                  FNM-IDX-BNK-SETF = 'Y'
                  MOVE 'Y' TO FIMS-USED-FLAG-UT11
              END-IF
           END-IF.
      *

      *************************************
      ** RETURN TO AC99W-HIGHER
      *************************************
           MOVE AC99W-NO TO ACCOMM-FLAG-CLEAR.
           MOVE AC99W-NO TO ACCOMM-FLAG-CONTINUE.
           MOVE AC99W-HIGHER TO AC99W-NEXT-PROGRAM.
           PERFORM 395-RETURN
              THRU 395-RETURN-EXIT.
      *
      ******************************************************************
      ************************  END OF MODULE  *************************
      ******************************************************************

       120-PREMAP-EXIT.
           EXIT.


       EJECT
           EXEC SQL
               INCLUDE ZZYID01
           END-EXEC.


      *%---------------------------------------------------------------*
      *%                                                               *
      *%                   302-RESTORE-CONTEXT-L ROUTINE               *
      *%                                                               *
      *%---------------------------------------------------------------*
       302-RESTORE-CONTEXT-L.

      *%****************************************************************
      *%       LOOP THRU ALL ITEMS IN TEMP STORAGE FOR LOCAL RECORDS   *
      *%****************************************************************
           MOVE ZEROS TO AC99W-ITEM-NO.
           MOVE AC99W-YES TO AC99W-IND1.
           PERFORM WITH TEST BEFORE
             UNTIL NOT (AC99W-IND1 = AC99W-YES)
               ADD +1 TO AC99W-ITEM-NO
               MOVE AC99W-RECORD-LENGTH-MAX TO AC99W-RECORD-LENGTH

               EXEC CICS
                    READQ TS
                    QUEUE(AC99W-CONTEXT-QUEUE-L)
                    INTO(AC99W-CONTEXT-AREA)
                    ITEM(AC99W-ITEM-NO)
                    RESP(DCLINK-CICS-RESP)
                    LENGTH(AC99W-RECORD-LENGTH)
               END-EXEC

               IF DCLINK-CICS-RESP = DFHRESP(ITEMERR)
                OR DCLINK-CICS-RESP = DFHRESP(QIDERR)
                   GO TO 302-RESTORE-CONTEXT-L-EXIT
               END-IF
               PERFORM 895-TEST-CICS-RESPONSE
                  THRU 895-TEST-CICS-RESPONSE-EXIT
      *%****************************************************************
      *%       RESTORE DATA INTO THE LOCAL RECORDS                     *
      *%****************************************************************
               PERFORM 304-RESTORE-CONTEXT-L
                  THRU 304-RESTORE-CONTEXT-L-EXIT
           END-PERFORM.

       302-RESTORE-CONTEXT-L-EXIT.
           EXIT.

      *%---------------------------------------------------------------*
      *%                                                               *
      *%                   304-RESTORE-CONTEXT-L ROUTINE               *
      *%                                                               *
      *%---------------------------------------------------------------*
       304-RESTORE-CONTEXT-L.
      *%****************************************************************
      *%   DETERMINE WHICH CONTEXT RECORDS HAVE BEEN READ AND          *
      *%     WHETHER THEY SHOULD BE RESTORED                           *
      *%****************************************************************

           IF AC99W-CONTEXT-AREA-N = 'DBLINK-CURSOR-CODES'
              AND AC99W-FLAG-RESTORE-GBL = AC99W-NO
              MOVE AC99W-CONTEXT-AREA-R TO DBLINK-CURSOR-CODES
              GO TO 304-RESTORE-CONTEXT-L-EXIT
           END-IF.

           IF AC99W-CONTEXT-AREA-N = 'SUBSCHEMA-CONTROL'
              AND AC99W-FLAG-RESTORE-GBL = AC99W-NO
              MOVE AC99W-CONTEXT-AREA-R TO SUBSCHEMA-CONTROL
              GO TO 304-RESTORE-CONTEXT-L-EXIT
           END-IF.

           IF AC99W-CONTEXT-AREA-N = 'XUTWD11'
            AND (AC99W-FLAG-RESTORE-GBL = AC99W-NO
             OR AC99W-XUTWD11-F = AC99W-YES)
               MOVE AC99W-CONTEXT-AREA-R TO XUTWD11
               MOVE AC99W-YES TO AC99W-XUTWD11-F
               GO TO 304-RESTORE-CONTEXT-L-EXIT
           END-IF.

           IF AC99W-CONTEXT-AREA-N = 'R4173-FIMS-NAME'
            AND (AC99W-FLAG-RESTORE-GBL = AC99W-NO
             OR AC99W-R4173-FIMS-NAME-F = AC99W-YES)
               MOVE AC99W-CONTEXT-AREA-R TO R4173-FIMS-NAME
               MOVE AC99W-YES TO AC99W-R4173-FIMS-NAME-F
               GO TO 304-RESTORE-CONTEXT-L-EXIT
           END-IF.
       304-RESTORE-CONTEXT-L-EXIT.
           EXIT.

      *%---------------------------------------------------------------*
      *%                                                               *
      *%                   306-RESTORE-CONTEXT-G ROUTINE               *
      *%                                                               *
      *%---------------------------------------------------------------*
       306-RESTORE-CONTEXT-G.

      *%****************************************************************
      *%       RESTORE DATA FROM GLOBAL TEMP STORAGE QUEUE             *
      *%****************************************************************
       306-RESTORE-CONTEXT-G-EXIT.
           EXIT.

      *%---------------------------------------------------------------*
      *%                                                               *
      *%                   312-DELETE-CONTEXT-L ROUTINE                *
      *%                                                               *
      *%---------------------------------------------------------------*
       312-DELETE-CONTEXT-L.

      *%****************************************************************
      *%       ERASE ALL LOCAL TEMP STORAGE                            *
      *%****************************************************************

           EXEC CICS
                DELETEQ TS
                RESP(DCLINK-CICS-RESP)
                QUEUE(AC99W-CONTEXT-QUEUE-L)
           END-EXEC

           IF DCLINK-CICS-RESP NOT = DFHRESP(QIDERR)
            AND DCLINK-CICS-RESP NOT = DFHRESP(NORMAL)
               PERFORM 895-TEST-CICS-RESPONSE
                  THRU 895-TEST-CICS-RESPONSE-EXIT
           END-IF.
       312-DELETE-CONTEXT-L-EXIT.
           EXIT.


      *%---------------------------------------------------------------*
      *%                                                               *
      *%                   314-SAVE-CURRENCY ROUTINE                   *
      *%                                                               *
      *%---------------------------------------------------------------*
       314-SAVE-CURRENCY SECTION.

       314-SAVE-CURRENCY-010.

           IF AC99W-NOSAVE-OPTION = AC99W-PARTIAL
               MOVE AC99W-NO TO AC99W-NOSAVE-OPTION
           ELSE
               MOVE 'DBLINK-CURSOR-CODES' TO AC99W-CONTEXT-AREA-N
               MOVE LENGTH OF DBLINK-CURSOR-CODES
                         TO AC99W-RECORD-LENGTH
               MOVE DBLINK-CURSOR-CODES TO AC99W-CONTEXT-AREA-R
               ADD +40 TO AC99W-RECORD-LENGTH

               EXEC CICS
                    WRITEQ TS
                    QUEUE(AC99W-CONTEXT-QUEUE-L)
                    FROM(AC99W-CONTEXT-AREA)
                    LENGTH(AC99W-RECORD-LENGTH)
                    RESP(DCLINK-CICS-RESP)
               END-EXEC

               PERFORM 895-TEST-CICS-RESPONSE
                  THRU 895-TEST-CICS-RESPONSE-EXIT
           END-IF.


           MOVE 'SUBSCHEMA-CONTROL' TO AC99W-CONTEXT-AREA-N.
           MOVE LENGTH OF SUBSCHEMA-CONTROL TO AC99W-RECORD-LENGTH.
           MOVE SUBSCHEMA-CONTROL TO AC99W-CONTEXT-AREA-R.
           ADD +40 TO AC99W-RECORD-LENGTH.

           EXEC CICS
                WRITEQ TS
                QUEUE(AC99W-CONTEXT-QUEUE-L)
                FROM(AC99W-CONTEXT-AREA)
                LENGTH(AC99W-RECORD-LENGTH)
                RESP(DCLINK-CICS-RESP)
           END-EXEC.

           PERFORM 895-TEST-CICS-RESPONSE
              THRU 895-TEST-CICS-RESPONSE-EXIT.

       314-SAVE-CURRENCY-EXIT.
           EXIT.

      *%---------------------------------------------------------------*
      *%                                                               *
      *%                   316-DELETE-CONTEXT-G ROUTINE                *
      *%                                                               *
      *%---------------------------------------------------------------*
       316-DELETE-CONTEXT-G SECTION.

       316-DELETE-CONTEXT-G-EXIT.
           EXIT.

      *%---------------------------------------------------------------*
      *%                                                               *
      *%                   322-SAVE-CONTEXT-L ROUTINE                  *
      *%                                                               *
      *%---------------------------------------------------------------*
       322-SAVE-CONTEXT-L.

      *%****************************************************************
      *%       WRITE CURRENCIES TO A TEMP STORAGE AREA                 *
      *%****************************************************************
           IF AC99W-NOSAVE-OPTION = AC99W-YES
              MOVE AC99W-NO TO AC99W-NOSAVE-OPTION
           ELSE
              PERFORM 314-SAVE-CURRENCY
                 THRU 314-SAVE-CURRENCY-EXIT
           END-IF.
      *%****************************************************************
      *%       WRITE LOCAL RECORDS TO A TEMP STORAGE AREA              *
      *%****************************************************************


           MOVE 'XUTWD11' TO AC99W-CONTEXT-AREA-N.
           MOVE LENGTH OF XUTWD11 TO AC99W-RECORD-LENGTH.
           MOVE XUTWD11 TO AC99W-CONTEXT-AREA-R.
           ADD +40 TO AC99W-RECORD-LENGTH.

           EXEC CICS
                WRITEQ TS
                QUEUE(AC99W-CONTEXT-QUEUE-L)
                FROM(AC99W-CONTEXT-AREA)
                LENGTH(AC99W-RECORD-LENGTH)
                RESP(DCLINK-CICS-RESP)
           END-EXEC.

           PERFORM 895-TEST-CICS-RESPONSE
              THRU 895-TEST-CICS-RESPONSE-EXIT.

           MOVE 'R4173-FIMS-NAME' TO AC99W-CONTEXT-AREA-N.
           MOVE LENGTH OF R4173-FIMS-NAME TO AC99W-RECORD-LENGTH.
           MOVE R4173-FIMS-NAME TO AC99W-CONTEXT-AREA-R.
           ADD +40 TO AC99W-RECORD-LENGTH.

           EXEC CICS
                WRITEQ TS
                QUEUE(AC99W-CONTEXT-QUEUE-L)
                FROM(AC99W-CONTEXT-AREA)
                LENGTH(AC99W-RECORD-LENGTH)
                RESP(DCLINK-CICS-RESP)
           END-EXEC.

           PERFORM 895-TEST-CICS-RESPONSE
              THRU 895-TEST-CICS-RESPONSE-EXIT.

       322-SAVE-CONTEXT-L-EXIT.
           EXIT.


      *%---------------------------------------------------------------*
      *%                                                               *
      *%                   326-SAVE-CONTEXT-G ROUTINE                  *
      *%                                                               *
      *%---------------------------------------------------------------*
       326-SAVE-CONTEXT-G.

      *%****************************************************************
      *%       WRITE GLOBAL RECORD TO A TEMP STORAGE AREA              *
      *%****************************************************************

       326-SAVE-CONTEXT-G-EXIT.
           EXIT.


      *%---------------------------------------------------------------*
      *%                                                               *
      *%                 395-RETURN ROUTINE                            *
      *%                                                               *
      *%---------------------------------------------------------------*
       395-RETURN.
           MOVE '$$ALL' TO DBLINK-CURSOR-NAME-WORK.
           PERFORM 991-CLOSE-CURSORS
              THRU 991-CLOSE-CURSORS-EXIT.

      *%****************************************************************
      *%       CANNOT RETURN IF AT TOP OF STACK                        *
      *%****************************************************************
           MOVE ACCOMM-CNT-PGM-STACK TO ACCOMM-CNT-PGM-STACK-FROM.
           MOVE AC99W-TRANSFER TO ACCOMM-RECALL-CODE.
           MOVE ACCOMM-CNT-PGM-STACK TO AC99W-CONTEXT-QUEUE-L-7-8
           MOVE SPACES TO ACCOMM-FROM-PROGRAM.
           PERFORM 326-SAVE-CONTEXT-G
              THRU 326-SAVE-CONTEXT-G-EXIT.
           PERFORM 322-SAVE-CONTEXT-L
              THRU 322-SAVE-CONTEXT-L-EXIT.
           EXEC CICS
                RETURN
           END-EXEC.

       395-RETURN-EXIT.
           EXIT.



       EJECT
      *%---------------------------------------------------------------*
      *%                                                               *
      *%                   399-GET-MESSAGE ROUTINE                     *
      *%                                                               *
      *%---------------------------------------------------------------*
       399-GET-MESSAGE SECTION.

       399-GET-MESSAGE-010.
           EXEC SQL
                INCLUDE ACMSGCOD
           END-EXEC.
       399-GET-MESSAGE-EXIT.
           EXIT.


      *%---------------------------------------------------------------*
      *%                                                               *
      *%                   500-INIT-PROGRAM ROUTINE                    *
      *%                                                               *
      *%---------------------------------------------------------------*
       500-INIT-PROGRAM.

      *%****************************************************************
      *%       INITIALIZE KEY PROGRAM VARIABLES                        *
      *%****************************************************************
      *    MOVE AC99W-APPLICATION TO AGR-APPLICATION-NAME.
           MOVE EIBAID TO AGR-AID-BYTE.
           MOVE 'D' TO AGR-CURRENT-FUNC-TYPE.
           MOVE AC99W-PROGRAM-NAME TO AGR-DIALOG-NAME.
           MOVE SPACES TO AGR-MAP-RESPONSE.
           MOVE SPACES TO DCLINK-MESSAGE.
           EXEC CICS
                ASKTIME
                ABSTIME(AC99W-ABSTIME)
           END-EXEC.
           EXEC CICS
                FORMATTIME
                ABSTIME(AC99W-ABSTIME)
                YYMMDD(AC99W-DATE)
                YYYYMMDD(AC99W-DATEX)
                TIME(AC99W-TIME)
           END-EXEC.
           EXEC CICS
                FORMATTIME
                ABSTIME(AC99W-ABSTIME)
                DATESEP
                DATE(AGR-DATE)
           END-EXEC.
           EXEC CICS ASSIGN
                USERID(AC99W-USER-ID)
           END-EXEC.
           INSPECT AC99W-USER-ID CONVERTING
                'abcdefghijklmnopqrstuvwxyz' TO
                'ABCDEFGHIJKLMNOPQRSTUVWXYZ'.

       500-INIT-PROGRAM-EXIT.
           EXIT.

      *%---------------------------------------------------------------*
      *%                                                               *
      *%                   501-INIT-GLOBAL-RECORDS ROUTINE             *
      *%                                                               *
      *%---------------------------------------------------------------*
       501-INIT-GLOBAL-RECORDS.


       501-INIT-GLOBAL-RECORDS-EXIT.
           EXIT.

      *%---------------------------------------------------------------*
      *%                                                               *
      *%                   502-INIT-LOCAL-RECORDS ROUTINE              *
      *%                                                               *
      *%---------------------------------------------------------------*
       502-INIT-LOCAL-RECORDS.


           INITIALIZE XUTWD11.

           INITIALIZE R4173-FIMS-NAME.

       502-INIT-LOCAL-RECORDS-EXIT.
           EXIT.
      *%---------------------------------------------------------------*
      *%                                                               *
      *%                 503-INIT-FIMSNTWN ROUTINE                     *
      *%               INITIALIZE SCHEMA FIMSNTWN                      *
      *%                                                               *
      *%---------------------------------------------------------------*
       503-INIT-FIMSNTWN.

           MOVE 'Y' TO AC99W-FLAG-IDMS-BIND.

       503-INIT-FIMSNTWN-EXIT.
                                       EXIT.


      *%---------------------------------------------------------------*
      *%                                                               *
      *%                   520-FINISH-DB ROUTINE                       *
      *%               RESET ANY ACTIVE FILES                          *
      *%                                                               *
      *%---------------------------------------------------------------*
       520-FINISH-DB.
      *%****************************************************************
      *%       COMMIT THE DATABASE UPDATES                             *
      *%****************************************************************
           IF AC99W-FLAG-IDMS-BIND = AC99W-YES
      *%       FINISH
               MOVE 0002 TO DBLINK-CURR-IO-NUM
               MOVE +0 TO SQLCODE
               MOVE ZERO TO ERROR-STATUS
               IF AC99W-NOSAVE-OPTION = AC99W-YES
                   PERFORM 986-RESET-KEYS
                      THRU 986-RESET-KEYS-EXIT
               END-IF
               MOVE '$$ALL' TO DBLINK-CURSOR-NAME-WORK
               PERFORM 991-CLOSE-CURSORS
                  THRU 991-CLOSE-CURSORS-EXIT
               PERFORM 996-COMMIT
                  THRU 996-COMMIT-EXIT
               PERFORM 999-SQL-STATUS
                  THRU 999-SQL-STATUS-EXIT
           END-IF.

           MOVE AC99W-NO TO AC99W-FLAG-IDMS-BIND.

       520-FINISH-DB-EXIT.
           EXIT.

      *%---------------------------------------------------------------*
      *%                                                               *
      *%                   750-DISPLAY ROUTINE                         *
      *%                                                               *
      *%---------------------------------------------------------------*
       750-DISPLAY.

           EXEC CICS XCTL
             PROGRAM('SDFISE')
           END-EXEC.

       750-DISPLAY-EXIT.
           EXIT.

      *%---------------------------------------------------------------*
      *%                                                               *
      *%                   790-CICS-ABEND ROUTINE                      *
      *%                                                               *
      *%---------------------------------------------------------------*
       790-CICS-ABEND.

           COPY USRABEND.

       790-CICS-ABEND-EXIT.
           EXIT.

      *%   COPY IDMS IDMS-STATUS.
      /
      *%-------------------------------------------------------------- *
      *%                                                               *
      *%              895-TEST-CICS-RESPONSE ROUTINE                   *
      *%                                                               *
      *%-------------------------------------------------------------- *
       895-TEST-CICS-RESPONSE.
           IF DCLINK-CICS-RESP = DFHRESP(NORMAL)
               GO TO 895-TEST-CICS-RESPONSE-EXIT.
           MOVE DCLINK-CICS-RESP TO DCLINK-ABEND-CODE.
           EXEC CICS
               ABEND ABCODE(DCLINK-ABEND-CODE)
           END-EXEC.
       895-TEST-CICS-RESPONSE-EXIT.
           EXIT.

      /
      *%-------------------------------------------------------------- *
      *%                                                               *
      *%                   900-START-SUBROUTINES                       *
      *%                                                               *
      *%-------------------------------------------------------------- *
       900-START-SUBROUTINES SECTION.
      *    CONVERT/DB SUBROUTINES FOLLOW
       900-START-SUBROUTINES-EXIT.
           EXIT.

      /
      *%-------------------------------------------------------------- *
      *%                                                               *
      *%              906-05-R4173-FIMS-NAME ROUTINE                   *
      *%                                                               *
      *%-------------------------------------------------------------- *
       906-05-R4173-FIMS-NAME.
           MOVE '906-05-R4173-FIMS-NAME' TO DBLINK-CURR-PARAGRAPH.
           MOVE 'R4173-FIMS-NAME' TO ERROR-RECORD.
           MOVE ZERO TO ERROR-STATUS.
           EXEC SQL
               SELECT
                  USER_CD
                 ,LAST_ACTVY_DT
                 ,UNVRS_CD
                 ,IREF_ID
                 ,ENTPSN_IND
                 ,NAME_KEY
                 ,IDX_TRVL_SETF
                 ,IDX_TRVL_TS
                 ,IDX_AGNT_SETF
                 ,IDX_AGNT_TS
                 ,IDX_BUYR_SETF
                 ,IDX_BUYR_TS
                 ,IDX_VNDR_SETF
                 ,IDX_VNDR_TS
                 ,IDX_CUST_SETF
                 ,IDX_CUST_TS
                 ,IDX_FNCL_SETF
                 ,IDX_FNCL_TS
                 ,IDX_BNK_SETF
                 ,IDX_BNK_TS
               INTO
                  :FNM-USER-CD
                 ,:FNM-LAST-ACTVY-DT
                 ,:FNM-UNVRS-CD
                 ,:FNM-IREF-ID
                 ,:FNM-ENTPSN-IND
                 ,:FNM-NAME-KEY
                 ,:FNM-IDX-TRVL-SETF
                 ,:FNM-IDX-TRVL-TS
                 ,:FNM-IDX-AGNT-SETF
                 ,:FNM-IDX-AGNT-TS
                 ,:FNM-IDX-BUYR-SETF
                 ,:FNM-IDX-BUYR-TS
                 ,:FNM-IDX-VNDR-SETF
                 ,:FNM-IDX-VNDR-TS
                 ,:FNM-IDX-CUST-SETF
                 ,:FNM-IDX-CUST-TS
                 ,:FNM-IDX-FNCL-SETF
                 ,:FNM-IDX-FNCL-TS
                 ,:FNM-IDX-BNK-SETF
                 ,:FNM-IDX-BNK-TS
               FROM FNM_FIMS_NAME_V
               WHERE IREF_ID = :FNM-IREF-ID
                 AND ENTPSN_IND = :FNM-ENTPSN-IND
           END-EXEC.
           IF SQLCODE = +100
               EVALUATE DBLINK-TYPE-GET
                   WHEN DBLINK-CALC
                       MOVE DBLINK-NOT-FOUND TO ERROR-STATUS
                   WHEN DBLINK-CURR
                       MOVE DBLINK-NO-CURRENCY TO ERROR-STATUS
                   WHEN DBLINK-DBKEY
                       MOVE DBLINK-DBKEY-ERROR TO ERROR-STATUS
                   WHEN OTHER
                       MOVE DBLINK-DB2-ERROR TO ERROR-STATUS
               END-EVALUATE
               GO TO 906-05-R4173-FIMS-NAME-EXIT
           END-IF.
           IF SQLCODE NOT = 0
               MOVE DBLINK-DB2-ERROR TO ERROR-STATUS
               GO TO 906-05-R4173-FIMS-NAME-EXIT
           END-IF.
           MOVE DBLINK-R4173-FIMS-NAME TO DBLINK-RECORD-MADE-CURRENT.
           MOVE ' ' TO DBLINK-SET-NAME-WORK.
           MOVE ' ' TO DBLINK-CURSOR-NAME-WORK.
           PERFORM 985-CURR-R4173-FIMS-NAME
              THRU 985-CURR-R4173-FIMS-NAME-EXIT.
           IF ERROR-STATUS = DBLINK-DB2-ERROR
               GO TO 906-05-R4173-FIMS-NAME-EXIT
           END-IF.
           IF DBLINK-TYPE-SELECT = 'O'
               PERFORM 975-TO-R4173-FIMS-NAME
                  THRU 975-TO-R4173-FIMS-NAME-EXIT
           END-IF.
       906-05-R4173-FIMS-NAME-EXIT.
           EXIT.

      *%****************************** *
      *% 975-TO-R4173-FIMS-NAME ROUTINE
      *%****************************** *
      *%   COPY CB754173.
CPYNME     COPY HVIDFNM.

      /
      *%-------------------------------------------------------------- *
      *%                                                               *
      *%             985-CURR-R4173-FIMS-NAME ROUTINE                  *
      *%                                                               *
      *%-------------------------------------------------------------- *
       985-CURR-R4173-FIMS-NAME.
           MOVE '985-CURR-R4173-FIMS-NAME' TO DBLINK-CURR-PARAGRAPH.
      *%   COPY CB854173.
CPYNME     COPY CURRFNM.
       985-CURR-R4173-FIMS-NAME-EXIT.
           EXIT.
      /
      *%-------------------------------------------------------------- *
      *%                                                               *
      *%                  986-RESET-KEYS ROUTINE                       *
      *%                                                               *
      *%-------------------------------------------------------------- *
       986-RESET-KEYS.
           MOVE '986-RESET-KEYS' TO DBLINK-CURR-PARAGRAPH.
           MOVE SPACES TO DBLINK-RECORD-KEYS.
           MOVE LOW-VALUES TO DBLINK-SET-KEYS.
       986-RESET-KEYS-EXIT.
           EXIT.
      /
      *%-------------------------------------------------------------- *
      *%                                                               *
      *%                 991-CLOSE-CURSORS ROUTINE                     *
      *%                                                               *
      *%-------------------------------------------------------------- *
       991-CLOSE-CURSORS.
       991-CLOSE-CURSORS-EXIT.
           EXIT.
      /
      *%-------------------------------------------------------------- *
      *%                                                               *
      *%                    996-COMMIT ROUTINE                         *
      *%                                                               *
      *%-------------------------------------------------------------- *
       996-COMMIT.
           MOVE '996-COMMIT' TO DBLINK-CURR-PARAGRAPH.
           MOVE ALL 'C' TO DBLINK-CURSOR-CODES.
       996-COMMIT-EXIT.
           EXIT.
      /
      *%-------------------------------------------------------------- *
      *%                                                               *
      *%                 998-SET-RUN-DATE ROUTINE                      *
      *%                                                               *
      *%-------------------------------------------------------------- *
       998-SET-RUN-DATE.
           MOVE '998-SET-RUN-DATE' TO DBLINK-CURR-PARAGRAPH.
           EXEC SQL
               INCLUDE CBLINKTM
           END-EXEC.
       998-SET-RUN-DATE-EXIT.
           EXIT.
      /
      *%-------------------------------------------------------------- *
      *%                                                               *
      *%                  999-SQL-STATUS ROUTINE                       *
      *%                                                               *
      *%-------------------------------------------------------------- *
       999-SQL-STATUS.
           EXEC SQL
               INCLUDE ONLNERR
           END-EXEC.
       999-SQL-STATUS-EXIT.
           EXIT.

