       IDENTIFICATION DIVISION.
       PROGRAM-ID.    WGAI20U.
      ******************************************************************
      *    TITLE ........... ACCOUNT INDEX MAINTENANCE FROM WEB
      *                     (ACCTINDX)
      *    LANGUAGE ........ COBOL Z/OS, DB2, CICS
      *    AUTHOR .......... H. VANDERWEIT
      *    DATE-WRITTEN .... DECEMBER, 2006
      *
      *                      DESCRIPTION
      *                      -----------
      *    WHEN REQUESTED FROM THE WEBSPHERE CLIENT APPLICATION,
      *    THIS PROGRAM PROCESSES EDIT/UPDATE FUNCTIONS PREVIOUSLY
      *    PERFORMED BY EQUIVALENT CICS/MAPPING PROGRAMS FCHDU43A
      *    (INDEXCPY) AND FCHDU00A (INDEXTBL).
      *
      *    THIS PROGRAM RECEIVES A COMMAREA FROM THE WEBSPHERE CLIENT,
      *    PERFORMS ONE OF THE FOLLOWING REQUESTED FUNCTIONS, AND
      *    RETURNS THE RETURN-STATUS-CODE AND UP TO FOUR MESSAGES
      *    BACK TO THE CLIENT:
      *
      *    1) COPYINDX - COPY ACCT-INDX-CD TO NEW-ACCT-INDX-CD
      *    2) UPDTITLE - UPDATE TITLE FOR ACCT-INDX-CD
      *    3) UPDEIDTE - UPDATE EARLY-INCTV-DT FOR ACCT-INDX-CD
      *    4) REACTIVE - REACTIVATE THE ACCT-INDX-CD
      *    5) VALINDEX - VALIDATE ACCT-INDX-CD/IFOAPAL DISTRIBUTION
      *
      *    DB2 TABLE(S)      HOW ACCESSED
      *    ------------------------------------------------
      *    ATI_ACTI_V        SELECT, INSERT, UPDATE
      *    ACI_ACTI_EFCTV_V  SELECT, INSERT
      *    MSL_MSG_LINE_V    SELECT
      *    YED_CNT_EXCD_V    SELECT
      *    YUS_SEC_USR_V     SELECT
      *    YTS_UNT_PMS_V     SELECT
      *
      ******************************************************************
      *                      MAINTENANCE HISTORY                       *
      ******************************************************************
      *    MODIFIED BY ..... H.VANDERWEIT
      *    DATE MODIFIED ... 11/12/09
      *    MODIFICATION .... ADDED TEMPLATE PERMISSION (YUS/YTS TABLES)
      *                      TO THE SECURITY AUTHORIZATION EDIT.
      ******************************************************************
FP3206*    MODIFIED BY ..... M.MCGILL
FP3206*    DATE MODIFIED ... 02/09/11
FP3206*    MODIFICATION .... ADDED NEW ACCT INDEX EDIT TO NOT ALLOW
FP3206*                      4 ZEROES IN DIGITS 4 - 7.  RESERVED FOR
FP3206*                      BUDGET AND PAYROLL.
      ******************************************************************
FP3976*    MODIFIED BY ..... M.MCGILL
FP3976*    DATE MODIFIED ... 05/24/12
FP3976*    MODIFICATION .... WHEN UPDATING THE ??????????????????? TABLE
FP3976*                      FOR AN INACTIVATION, USE THE PASSED USER ID
      ******************************************************************
NDP001*    MODIFIED BY ..... N.PENALOSA
NDP001*    DATE MODIFIED ... 08/14/2012
NDP001*    MODIFICATION .... FP4530 - Additional editing for index title
      ******************************************************************
S43174*    MODIFIED BY ..... M.RUSSELL
S43174*    DATE MODIFIED ... 08/29/2017
S43174*    MODIFICATION .... S43174 - New Ivory version.
      ******************************************************************
FP5148*    MODIFIED BY ..... M.RUSSELL
FP5148*    DATE MODIFIED ... 12/12/2018
FP5148*    MODIFICATION .... FP5148 - ADDED DEBUGGING DISPLAYS.
      ******************************************************************
      /
       ENVIRONMENT DIVISION.

       DATA DIVISION.

       WORKING-STORAGE SECTION.
       01  FILLER                      PIC X(36)       VALUE
           'WGAI20U WORKING-STORAGE BEGINS HERE'.

       01  WS-CONSTANTS.
           05  WS-VALINDEX-PROGRAM     PIC X(08)       VALUE 'WGA003'.
           05  WS-DUMMY-COMMAREA       PIC X(01)       VALUE SPACES.

       01  WS-MISCELLANEOUS.
           05  WS-SQLCOUNT             PIC S9(8) COMP  VALUE ZEROES.
           05  WS-COUNT                PIC S9(8) COMP  VALUE ZEROES.
           05  WS-SUB                  PIC S9(4) COMP  VALUE ZEROES.
           05  WS-UPDATE-COUNT         PIC S9(4) COMP  VALUE ZEROES.
           05  WS-SQL-PARAGRAPH.
               10  FILLER              PIC X(04)       VALUE 'I/O#'.
               10  WS-SQL-NBR          PIC 9(04)       VALUE ZEROES.
               10  FILLER              PIC X(02)       VALUE SPACES.
               10  WS-PARAGRAPH        PIC X(30)       VALUE SPACES.
           05  WS-CURR-DATE-ISO        PIC X(10)       VALUE ZEROES.
           05  WS-CURR-TIME            PIC X(08)       VALUE SPACES.
           05  WS-HIGH-DATE-ISO        PIC X(10)       VALUE
                                                           '2999-12-31'.
           05  WS-LOW-TIME             PIC X(08)       VALUE '00.00.00'.

           05  WS-START-DT-ISO         PIC X(10)       VALUE SPACES.
           05  WS-EARLY-INCTV-DT-ISO   PIC X(10)       VALUE SPACES.
           05  WS-TWO-PLUS-SYSTEM-DATE PIC X(10)       VALUE SPACES.
           05  WS-CHARACTER            PIC X(01)       VALUE SPACES.

       01  DB2-HOST-VARIABLES.
           05  HV-START-DT             PIC X(10)       VALUE SPACES.
           05  HV-ANY-DATE             PIC X(10)       VALUE SPACES.
           05  HV-ISO-DATE             PIC X(10)       VALUE SPACES.
           05  HV-ACCT-INDX-CD         PIC X(10)       VALUE SPACES.

       01  COMMON-IFIS-FIELDS-SY00.
      *    *************************************************************
      *    *   FIELD NAMES RETAINED TO SIMPLIFY CUT/PASTING OF
      *    *   EDITING LOGIC FROM IFIS/ISIS/FORECROSS PROGRAMS.
      *    *************************************************************
           05  MSG-QTY-SY00            PIC S9(4) COMP  SYNC
                                                       VALUE ZEROES.
           05  MSG-ID-SY00             PIC 9(06)       VALUE ZEROES.
           05  MAP-ELMNT-NAME-SY00     PIC X(30)       VALUE SPACES.
      /
      ******************************************************************
      *01  ACCTINDX-PARM-AREA.
      ******************************************************************
           COPY WGAI20U.
      /
      ******************************************************************
      *01  VALINDEX-PARM-AREA.                                         *
      *    PARAMETER AREA USED BY DUALCOB (BATCH OR CICS) SUBROUTINE   *
      *    WGA003 TO VALIDATE ACCOUNT INDEX/IFOAPAL DISTRIBUTION.      *
      ******************************************************************
           COPY WGA003.
      /
       01  WSLG-USING-LIST.
           05  WSLG-CONSOLE-MSG-IND    PIC X(01)       VALUE SPACES.
           05  WSLG-MSG-ID             PIC X(08)       VALUE SPACES.
           05  WSLG-MSG-DATE           PIC X(10)       VALUE SPACES.
           05  WSLG-MSG-TIME           PIC X(08)       VALUE SPACES.
           05  WSLG-PROGRAM-NAME       PIC X(08)       VALUE SPACES.
           05  WSLG-MSG-SEQ-NUM        PIC X(01)       VALUE SPACES.
           05  WSLG-MSG-TEXT           PIC X(80)       VALUE SPACES.

       01  WSLG-DIAGNOSTIC-AREA.
           05  FILLER                  PIC X(05)       VALUE 'PARA:'.
           05  WSLG-PARAGRAPH          PIC X(30)       VALUE SPACES.
           05  FILLER                  PIC X(05)       VALUE 'TASK:'.
           05  WSLG-CICS-TASK-NUMBER   PIC X(08)       VALUE SPACES.
           05  FILLER                  PIC X(02)       VALUE SPACES.
           05  WSLG-DIAGNOSTIC-INFO    PIC X(30)       VALUE SPACES.

       01  WSLG-MISC-AREA.
           05  WSLG-PROGRAM-UIS000W    PIC X(08)       VALUE 'UIS000W '.
           05  WSLG-CICS-RESP          PIC S9(8) COMP  VALUE ZEROES.
           05  WSLG-CICS-RESP2         PIC S9(8) COMP  VALUE ZEROES.
           05  WSLG-EIBCALEN-NUMEDIT   PIC ZZZZ9       VALUE ZEROES.
           05  WSLG-CHANLLEN-NUMEDIT   PIC ZZZZ9       VALUE ZEROES.
           05  WSLG-DB2-STATEMENT      PIC X(08)       VALUE SPACES.
           05  WSLG-DB2-TABLE          PIC X(16)       VALUE SPACES.
           05  WSLG-SQL-NBR            PIC 9(04)       VALUE ZEROES.
           05  WSLG-SQL-CODE           PIC +++++9      VALUE ZEROES.

       01  WSLG-MESSAGE-AREA.
           05  WSLG-SUCCESSFUL-MSG-ID  PIC X(08)       VALUE 'WFGA000I'.
           05  WSLG-SUCCESSFUL-MSG-TEXT
                                       PIC X(40)       VALUE
               'The request was successfully completed. '.

           05  WSLG-CHNL-ID-MSG-ID     PIC X(08)       VALUE 'WFGA001E'.
           05  WSLG-CHNL-ID-MSG-TEXT   PIC X(80)       VALUE
               'The received channel ID value is unrecognized.'.

           05  WSLG-CHNL-VERS-MSG-ID   PIC X(08)       VALUE 'WFGA002E'.
           05  WSLG-CHNL-VERS-MSG-TEXT PIC X(80)       VALUE
               'The received channel version value is unrecognized.'.

           05  WSLG-CHNL-LGTH-MSG-ID   PIC X(08)       VALUE 'WFGA003E'.
           05  WSLG-CHNL-LGTH-MSG-TEXT PIC X(80)       VALUE
               'The received channel length is not equal to the defined
      -        'channel version length. '.

           05  WSLG-FATAL-DB2-MSG-ID   PIC X(08)       VALUE 'WFGA004S'.
           05  WSLG-FATAL-DB2-MSG-TEXT.
               10  FILLER              PIC X(49)       VALUE
                   'DB2 returned a severe SQL error on an attempt to '.
               10  WSLG-FATAL-DB2-MSG-FIELDS.
                   15  WSLG-FATAL-DB2-STATEMENT
                                       PIC X(08)       VALUE SPACES.
                   15  FILLER          PIC X(06)       VALUE 'table '.
                   15  WSLG-FATAL-DB2-TABLE
                                       PIC X(16)       VALUE SPACES.

           05  WSLG-DATETIME-FIELD     PIC X(30)       VALUE
               'Date, Time, or Timestamp field'.

           05  WSLG-DATETIME-FORMAT-ERR-MSG
                                       PIC X(40)       VALUE
               'A datetime format or syntax is invalid  '.

           05  WSLG-DATETIME-VALUE-ERR-MSG
                                       PIC X(40)       VALUE
               'A datetime value is invalid             '.

           05  WSLG-MULTIPLE-ROWS-ERR-MSG
                                       PIC X(40)       VALUE
               'Multiple rows found for key field(s)    '.
      /
      ******************************************************************
      *    SQL COMMAREA
      ******************************************************************
           EXEC SQL INCLUDE SQLCA
           END-EXEC.
      /
      ******************************************************************
      *    ACI_ACTI_EFCTV_V
      ******************************************************************
       01  ACI-SQLAREA.
           05  FILLER                  PIC X(04)       VALUE 'ACI*'.
           05  ACI-SQLCODE             PIC S9(9)       COMP-4
                                                       VALUE +0.
           EXEC SQL INCLUDE HVACI
           END-EXEC.
      /
      ******************************************************************
      *    ATI_ACTI_V
      ******************************************************************
       01  ATI-SQLAREA.
           05  FILLER                  PIC X(04)       VALUE 'ATI*'.
           05  ATI-SQLCODE             PIC S9(9)       COMP-4
                                                       VALUE +0.
           EXEC SQL INCLUDE HVATI
           END-EXEC.
      /
      ******************************************************************
      *    LTN_LCTN_V
      ******************************************************************
       01  LTN-SQLAREA.
           05  FILLER                  PIC X(04)       VALUE 'LTN*'.
           05  LTN-SQLCODE             PIC S9(9)       COMP-4
                                                       VALUE +0.
           EXEC SQL INCLUDE HVLTN
           END-EXEC.
      /
      ******************************************************************
      *    MSL_MSG_LINE_V
      ******************************************************************
       01  MSL-SQLAREA.
           05  FILLER                  PIC X(04)       VALUE 'MSL*'.
           05  MSL-SQLCODE             PIC S9(9)       COMP-4
                                                       VALUE +0.
           EXEC SQL INCLUDE HVMSL
           END-EXEC.
      /
      ******************************************************************
      *    YED_CNT_EXCD_V
      ******************************************************************
       01  YED-SQLAREA.
           05  FILLER                  PIC X(04)       VALUE 'YED*'.
           05  YED-SQLCODE             PIC S9(9)       COMP-4
                                                       VALUE +0.
           EXEC SQL INCLUDE HVYED
           END-EXEC.
      /
      ******************************************************************
      *    YTS_UNT_PMS_V
      ******************************************************************
       01  YTS-SQLAREA.
           05  FILLER                  PIC X(04)       VALUE 'YTS*'.
           05  YTS-SQLCODE             PIC S9(9)       COMP-4
                                                       VALUE +0.
           EXEC SQL INCLUDE HVYTS
           END-EXEC.
      /
      ******************************************************************
      *    YUS_SEC_USR_V
      ******************************************************************
       01  YUS-SQLAREA.
           05  FILLER                  PIC X(04)       VALUE 'YUS*'.
           05  YUS-SQLCODE             PIC S9(9)       COMP-4
                                                       VALUE +0.
           EXEC SQL INCLUDE HVYUS
           END-EXEC.
      /
       LINKAGE SECTION.
      /
       01  DFHCOMMAREA.
           05  COMM-CHANNEL-HEADER.
               10  COMM-CHANNEL-ID     PIC X(08).
                   88  COMM-CHANNEL-ID-OK              VALUE 'ACCTINDX'.
               10  COMM-VERS-RESP-CD   PIC X(08).
                   88  COMM-VERSION-01-00-00           VALUE '01.00.00'.
           05  COMM-ACCTINDX-INPUT-PARMS
                                       PIC X(1000).

       PROCEDURE DIVISION.

      /
       A0000-MAINLINE-ROUTINE.
      ******************************************************************
      *    PERFORM ROUTINE TO EDIT THE COMMAREA ID, VERSION, AND LENGTH.
      *    PERFORM ROUTINE TO GET CURRENT DATE AND TIME.
      *    DEPENDING ON THE REQUESTED FUNCTION, PERFORM
      *    B1000-COPYINDX, C1000-UPDFIELD, I1000-VALINDEX, OR
      *    R1000-REACTIVATE.
      ******************************************************************

           MOVE 'A0000-MAINLINE-ROUTINE'
                                       TO WSLG-PARAGRAPH.

MATTR      DISPLAY 'INTO WGAI20U...'.

           PERFORM A0500-EDIT-COMMAREA-VERSION.

           MOVE DFHCOMMAREA            TO ACCTINDX-PARM-AREA.
           INITIALIZE                     ACCTINDX-RETURN-STATUS-PARMS.

MATTR      DISPLAY 'ACCTINDX-FUNCTION: ', ACCTINDX-FUNCTION.
MATTR      DISPLAY 'ACCTINDX-LOCATION: ', ACCTINDX-LOCATION.

           INSPECT ACCTINDX-USER-CD CONVERTING
                                'abcdefghijklmnopqrstuvwxyz' TO
                                'ABCDEFGHIJKLMNOPQRSTUVWXYZ'.

           PERFORM X0500-SELECT-CURRENT-DATE-TIME.

           EVALUATE ACCTINDX-FUNCTION

             WHEN 'COPYINDX'
               PERFORM B1000-COPYINDX-ROUTINE
                  THRU B1000-COPYINDX-ROUTINE-EXIT

             WHEN 'UPDTITLE'
             WHEN 'UPDEIDTE'
               PERFORM C1000-UPDFIELD-ROUTINE
                  THRU C1000-UPDFIELD-ROUTINE-EXIT

             WHEN 'VALINDEX'
               PERFORM I1000-VALINDEX-ROUTINE
                  THRU I1000-VALINDEX-ROUTINE-EXIT

             WHEN 'REACTIVE'
               PERFORM R1000-REACTIVATE-ROUTINE
                  THRU R1000-REACTIVATE-ROUTINE-EXIT

             WHEN OTHER
               MOVE 'FUNCTION'         TO MAP-ELMNT-NAME-SY00
               MOVE 000703             TO MSG-ID-SY00
      *        **** REQUEST INVALID
               PERFORM Z9999-ZZYII03-GETMESGS
                  THRU Z9999-ZZYII03-GETMESGS-EXIT
           END-EVALUATE.

           IF MSG-QTY-SY00 > 0
               GO TO Z9999-RETURN-DATA-ERROR
           ELSE
               GO TO Z9999-RETURN-SUCCESSFUL
           END-IF.

           GOBACK.

       A0000-MAINLINE-ROUTINE-EXIT.
           EXIT.
      /
       A0500-EDIT-COMMAREA-VERSION.
      ******************************************************************
      *    EDIT THE COMMAREA ID, VERSION, AND LENGTH.
      ******************************************************************

           MOVE 'A0500-EDIT-COMMAREA-VERSION'
                                       TO WSLG-PARAGRAPH.
           INSPECT COMM-CHANNEL-ID
                   CONVERTING 'abcdefghijklmnopqrstuvwxyz'
                           TO 'ABCDEFGHIJKLMNOPQRSTUVWXYZ'.

           INITIALIZE                     ACCTINDX-PARM-AREA.
           MOVE COMM-CHANNEL-HEADER    TO ACCTINDX-CHANNEL-HEADER.

           IF COMM-CHANNEL-ID-OK
               EVALUATE TRUE
               WHEN COMM-VERSION-01-00-00

                   IF EIBCALEN = LENGTH OF ACCTINDX-PARM-AREA
                       NEXT SENTENCE
                   ELSE
                       SET ACCTINDX-RESPONSE-ERROR
                                       TO TRUE
                       MOVE 'E'        TO ACCTINDX-RETURN-STATUS-CODE
                       MOVE 'A05001'   TO ACCTINDX-RETURN-MSG-NUM
                       MOVE 'CHANNEL-ID'
                                       TO ACCTINDX-RETURN-MSG-FIELD
                       MOVE 'The channel length is invalid           '
                                       TO ACCTINDX-RETURN-MSG-TEXT
                       MOVE WSLG-CHNL-LGTH-MSG-ID
                                       TO WSLG-MSG-ID
                       MOVE WSLG-CHNL-LGTH-MSG-TEXT
                                       TO WSLG-MSG-TEXT
                       MOVE 'N'        TO WSLG-CONSOLE-MSG-IND
                       MOVE SPACES     TO WSLG-DIAGNOSTIC-INFO
                       MOVE EIBCALEN   TO WSLG-EIBCALEN-NUMEDIT
                       MOVE LENGTH OF ACCTINDX-PARM-AREA
                                       TO WSLG-CHANLLEN-NUMEDIT
                       STRING 'EIBCALEN '     WSLG-EIBCALEN-NUMEDIT
                              ' VERSUS '      WSLG-CHANLLEN-NUMEDIT
                       DELIMITED BY LENGTH OF WSLG-DIAGNOSTIC-INFO
                                         INTO WSLG-DIAGNOSTIC-INFO
                       PERFORM Z9998-LOG-ERROR-VIA-UIS000W
                       GO TO Z9999-RETURN-TO-CALLING-PGM
                   END-IF

               WHEN OTHER
                   SET ACCTINDX-RESPONSE-ERROR
                                       TO TRUE
                   MOVE 'E'            TO ACCTINDX-RETURN-STATUS-CODE   E
                   MOVE 'A05002'       TO ACCTINDX-RETURN-MSG-NUM
                   MOVE 'CHANNEL-ID'   TO ACCTINDX-RETURN-MSG-FIELD
                   MOVE 'The channel version is invalid          '
                                       TO ACCTINDX-RETURN-MSG-TEXT
                   MOVE WSLG-CHNL-VERS-MSG-ID
                                       TO WSLG-MSG-ID
                   MOVE WSLG-CHNL-VERS-MSG-TEXT
                                       TO WSLG-MSG-TEXT
                   MOVE 'N'            TO WSLG-CONSOLE-MSG-IND
                   MOVE SPACES         TO WSLG-DIAGNOSTIC-INFO
                   STRING 'Received version: ' COMM-VERS-RESP-CD
                       DELIMITED BY LENGTH OF WSLG-DIAGNOSTIC-INFO
                                         INTO WSLG-DIAGNOSTIC-INFO
                   PERFORM Z9998-LOG-ERROR-VIA-UIS000W
                   GO TO Z9999-RETURN-TO-CALLING-PGM
               END-EVALUATE
           ELSE
               SET ACCTINDX-RESPONSE-ERROR
                                       TO TRUE
               MOVE 'E'                TO ACCTINDX-RETURN-STATUS-CODE
               MOVE 'A05003'           TO ACCTINDX-RETURN-MSG-NUM
               MOVE 'Channel-Id'       TO ACCTINDX-RETURN-MSG-FIELD
               MOVE 'The channel id value is invalid         '
                                       TO ACCTINDX-RETURN-MSG-TEXT
               MOVE WSLG-CHNL-ID-MSG-ID
                                       TO WSLG-MSG-ID
               MOVE WSLG-CHNL-ID-MSG-TEXT
                                       TO WSLG-MSG-TEXT
               MOVE 'N'                TO WSLG-CONSOLE-MSG-IND
               MOVE SPACES             TO WSLG-DIAGNOSTIC-INFO
               STRING 'Received Channel Id: ' COMM-CHANNEL-ID
                       DELIMITED BY LENGTH OF WSLG-DIAGNOSTIC-INFO
                                         INTO WSLG-DIAGNOSTIC-INFO
               PERFORM Z9998-LOG-ERROR-VIA-UIS000W
               GO TO Z9999-RETURN-TO-CALLING-PGM
           END-IF.
      /
       B1000-COPYINDX-ROUTINE.
      ******************************************************************
      *    EDIT USER-CD/ACCT-INDX-CD FOR CONTENT SECURITY PERMISSION.
      *    EDIT THE EFFECTIVE START-DT.
      *    RETRIEVE/EDIT ACCT-INDX-CD EXISTENCE/EFFECTIVITY (ATI/ACI).
      *    EDIT NEW-ACCT-INDX-CD AND VERIFY IT DOESN'T ALREADY EXIST.
      *    EDIT START-DT/EARLY-INCTV-DT/ACI-END-DT COMPARISONS.
      *    EDIT/VALIDATE THE ACCOUNT INDEX/IFOAPAL DISTRIBUTION.
      *    INSERT ATI_ACTI_V FOR NEW-ACCT-INDX-CD.
      *    INSERT ACI_ACTI_EFCTV_V FOR NEW-ACCT-INDX-CD/START-DT.
      *    (NOTE THAT BOTH TABLES ARE PRE-POPULATED FROM ACCT-INDX-CD.)
      ******************************************************************

           MOVE 'B1000-COPYINDX-ROUTINE' TO WSLG-PARAGRAPH.

           PERFORM V0100-EDIT-CONTENT-SECURITY.

           PERFORM V1000-EDIT-START-DT
              THRU V1000-EDIT-START-DT-EXIT.

           PERFORM V2000-GET-EDIT-ACCT-INDX
              THRU V2000-GET-EDIT-ACCT-INDX-EXIT.

           PERFORM V3000-EDIT-NEW-ACCT-INDX
              THRU V3000-EDIT-NEW-ACCT-INDX-EXIT.

           PERFORM V4000-EDIT-DATES
              THRU V4000-EDIT-DATES-EXIT.

           PERFORM V4500-EDIT-LOCATION
              THRU V4500-EDIT-LOCATION-EXIT.

           IF MSG-QTY-SY00 > 0
               GO TO Z9999-RETURN-DATA-ERROR
           END-IF.

           PERFORM V5000-EDIT-ACCT-DISTRIBUTION
              THRU V5000-EDIT-ACCT-DIST-EXIT.

           IF MSG-QTY-SY00 > 0
               GO TO Z9999-RETURN-DATA-ERROR
           END-IF.

           MOVE ACCTINDX-USER-CD       TO ATI-USER-CD.
           MOVE ACCTINDX-NEW-ACCT-INDX-CD
                                       TO ATI-ACCT-INDX-CD.
           MOVE WS-CURR-DATE-ISO       TO ATI-ACTVY-DT.

           PERFORM X6100-INSERT-ATI.

           IF ATI-SQLCODE = -803
               MOVE 'NEW-ACCT-INDX-CD' TO MAP-ELMNT-NAME-SY00
               MOVE 000053             TO MSG-ID-SY00
      *        **** RECORD ALREADY EXISTS - CANNOT ADD.
               PERFORM Z9999-ZZYII03-GETMESGS
                  THRU Z9999-ZZYII03-GETMESGS-EXIT
               GO TO Z9999-RETURN-DATA-ERROR
           END-IF.

           MOVE ACCTINDX-USER-CD       TO ACI-USER-CD.
           MOVE ACCTINDX-NEW-ACCT-INDX-CD
                                       TO ACI-FK-ATI-ACCT-INDXCD.
           MOVE ACCTINDX-ACCT-INDX-TTL TO ACI-ACCT-INDX-TTL.
           MOVE WS-START-DT-ISO        TO ACI-START-DT.
           MOVE 'A'                    TO ACI-STATUS.

           IF ACCTINDX-EARLY-INCTV-DT = SPACES
               MOVE ACI-END-DT         TO ACI-EARLY-INCTV-DT
           ELSE
               MOVE WS-EARLY-INCTV-DT-ISO
                                       TO ACI-EARLY-INCTV-DT
           END-IF.

           IF ACCTINDX-LOCATION NOT = SPACES
MATTR         DISPLAY 'UPDATING LOCATION: ', ACCTINDX-LOCATION
              MOVE ACCTINDX-LOCATION   TO ACI-LCTN-CD.

           IF WS-START-DT-ISO = WS-CURR-DATE-ISO
               MOVE WS-CURR-TIME       TO ACI-TIME-STMP
           ELSE
               MOVE WS-LOW-TIME        TO ACI-TIME-STMP
           END-IF.

           PERFORM X6300-INSERT-ACI-EFCTV.

       B1000-COPYINDX-ROUTINE-EXIT.
           EXIT.
      /
       C1000-UPDFIELD-ROUTINE.
      ******************************************************************
      *    EDIT USER-CD/ACCT-INDX-CD FOR CONTENT SECURITY PERMISSION.
      *    EDIT THE EFFECTIVE START-DT.
      *    RETRIEVE/EDIT ACCT-INDX-CD EXISTENCE/EFFECTIVITY (ATI/ACI).
      *    VERIFY ACCT-INDX-CD/START-DT IS THE LATEST EFFECTIVE DATE.
      *    EDIT CHANGED FIELDS FOR THE UPDATE REQUEST.
      *    EDIT START-DT/EARLY-INCTV-DT/ACI-END-DT COMPARISONS.
      *    UPDATE ATI_ACTI_V ACTVY-DT TO CURRENT DATE.
      *    INSERT ACI_ACTI_EFCTV_V FOR CHANGED ACCT-INDX-CD/START-DT.
      ******************************************************************

           MOVE 'C1000-UPDFIELD-ROUTINE' TO WSLG-PARAGRAPH.

           PERFORM V0100-EDIT-CONTENT-SECURITY.

           PERFORM V1000-EDIT-START-DT
              THRU V1000-EDIT-START-DT-EXIT.

           PERFORM V2000-GET-EDIT-ACCT-INDX
              THRU V2000-GET-EDIT-ACCT-INDX-EXIT.

           PERFORM X1200-COUNT-ACI-NEXT.
           IF WS-SQLCOUNT > +0
               MOVE 'START-DT'         TO MAP-ELMNT-NAME-SY00
               MOVE 000312             TO MSG-ID-SY00
      *        **** SUBSEQNT RECORDS EXIST - CANNOT CHANGE
               PERFORM Z9999-ZZYII03-GETMESGS
                  THRU Z9999-ZZYII03-GETMESGS-EXIT
               GO TO Z9999-RETURN-DATA-ERROR
           END-IF.

           IF   (ACCTINDX-FUNCTION       = 'UPDTITLE'
             AND ACCTINDX-ACCT-INDX-TTL  = SPACES)
           OR
                (ACCTINDX-FUNCTION       = 'UPDEIDTE'
             AND ACCTINDX-EARLY-INCTV-DT = SPACES)
               MOVE 'FUNCTION'         TO MAP-ELMNT-NAME-SY00
               MOVE 990242             TO MSG-ID-SY00
      *        **** NO DATA HAS BEEN CHANGED
               PERFORM Z9999-ZZYII03-GETMESGS
                  THRU Z9999-ZZYII03-GETMESGS-EXIT
               GO TO Z9999-RETURN-DATA-ERROR
           END-IF.

           PERFORM V4000-EDIT-DATES
              THRU V4000-EDIT-DATES-EXIT.

           IF MSG-QTY-SY00 > 0
               GO TO Z9999-RETURN-DATA-ERROR
           END-IF.

HVW********PERFORM V5000-EDIT-ACCT-DISTRIBUTION
HVW********   THRU V5000-EDIT-ACCT-DIST-EXIT.
HVW********
HVW********IF MSG-QTY-SY00 > 0
HVW********    GO TO Z9999-RETURN-DATA-ERROR
HVW********END-IF.

           IF ATI-ACTVY-DT NOT = WS-CURR-DATE-ISO
FP3976         MOVE ACCTINDX-USER-CD   TO ATI-USER-CD
               MOVE WS-CURR-DATE-ISO   TO ATI-ACTVY-DT
               MOVE ACCTINDX-USER-CD   TO ATI-USER-CD
               PERFORM X6200-UPDATE-ATI
           END-IF.

           MOVE ACCTINDX-USER-CD       TO ACI-USER-CD.
           MOVE WS-START-DT-ISO        TO ACI-START-DT.
           MOVE 'A'                    TO ACI-STATUS.

           EVALUATE ACCTINDX-FUNCTION
             WHEN 'UPDTITLE'
NDP001         INSPECT ACCTINDX-ACCT-INDX-TTL REPLACING ALL
NDP001                        LOW-VALUES  BY  SPACE
NDP001
               INSPECT ACCTINDX-ACCT-INDX-TTL CONVERTING
                              'abcdefghijklmnopqrstuvwxyz' TO
                              'ABCDEFGHIJKLMNOPQRSTUVWXYZ'

FP3976         MOVE ACCTINDX-USER-CD   TO ACI-USER-CD
               MOVE ACCTINDX-ACCT-INDX-TTL
                                       TO ACI-ACCT-INDX-TTL

             WHEN 'UPDEIDTE'
FP3976         MOVE ACCTINDX-USER-CD   TO ACI-USER-CD
               MOVE WS-EARLY-INCTV-DT-ISO
                                       TO ACI-EARLY-INCTV-DT
           END-EVALUATE.

           IF WS-START-DT-ISO = WS-CURR-DATE-ISO
               MOVE WS-CURR-TIME       TO ACI-TIME-STMP
           ELSE
               MOVE WS-LOW-TIME        TO ACI-TIME-STMP
           END-IF.

           PERFORM X6300-INSERT-ACI-EFCTV.

       C1000-UPDFIELD-ROUTINE-EXIT.
           EXIT.
      /
       I1000-VALINDEX-ROUTINE.
      ******************************************************************
      *    EDIT THE EFFECTIVE START-DT.
      *    RETRIEVE/EDIT ACCT-INDX-CD EXISTENCE/EFFECTIVITY (ATI/ACI).
      *    VERIFY ACCT-INDX-CD IS ACTIVE.
      *    EDIT/VALIDATE THE ACCOUNT INDEX/IFOAPAL DISTRIBUTION.
      ******************************************************************

           MOVE 'I1000-VALINDEX-ROUTINE' TO WSLG-PARAGRAPH.

           PERFORM V1000-EDIT-START-DT
              THRU V1000-EDIT-START-DT-EXIT.

           IF MSG-QTY-SY00 > 0
               GO TO Z9999-RETURN-DATA-ERROR
           END-IF.

           PERFORM V2000-GET-EDIT-ACCT-INDX
              THRU V2000-GET-EDIT-ACCT-INDX-EXIT.

           IF ACI-STATUS = 'I'
               MOVE 'ACCT-INDX-CD'     TO MAP-ELMNT-NAME-SY00
               MOVE 000206             TO MSG-ID-SY00
      *        **** ACCOUNT INDEX INACTIVE
               PERFORM Z9999-ZZYII03-GETMESGS
                  THRU Z9999-ZZYII03-GETMESGS-EXIT
           END-IF.

           PERFORM V5000-EDIT-ACCT-DISTRIBUTION
              THRU V5000-EDIT-ACCT-DIST-EXIT.

           IF MSG-QTY-SY00 > 0
               GO TO Z9999-RETURN-DATA-ERROR
           END-IF.

       I1000-VALINDEX-ROUTINE-EXIT.
           EXIT.
      /
       R1000-REACTIVATE-ROUTINE.
      ******************************************************************
      *    EDIT USER-CD/ACCT-INDX-CD FOR CONTENT SECURITY PERMISSION.
      *    EDIT THE EFFECTIVE START-DT.
      *    RETRIEVE/EDIT ACCT-INDX-CD EXISTENCE/EFFECTIVITY (ATI/ACI).
      *    VERIFY ACCT-INDX-CD IS NOT ACTIVE.
      *    VERIFY ACCT-INDX-CD/START-DT IS THE LATEST EFFECTIVE DATE.
      *    EDIT START-DT/EARLY-INCTV-DT/ACI-END-DT COMPARISONS.
      *    EDIT/VALIDATE THE ACCOUNT INDEX/IFOAPAL DISTRIBUTION.
      *    UPDATE ATI_ACTI_V ACTVY-DT TO CURRENT DATE.
      *    INSERT ACI_ACTI_EFCTV_V FOR REACTIVATED ACCT-INDX-CD/START-DT
      ******************************************************************

           MOVE 'R1000-REACTIVATE-ROUTINE' TO WSLG-PARAGRAPH.

           PERFORM V0100-EDIT-CONTENT-SECURITY.

           PERFORM V1000-EDIT-START-DT
              THRU V1000-EDIT-START-DT-EXIT.

           PERFORM V2000-GET-EDIT-ACCT-INDX
              THRU V2000-GET-EDIT-ACCT-INDX-EXIT.

           IF ACI-STATUS = 'A'
               MOVE 'ACCT-INDX-CD'     TO MAP-ELMNT-NAME-SY00
               MOVE 000331             TO MSG-ID-SY00
      *        **** RECORD ACTIVE - CANNOT REACTIVATE
               PERFORM Z9999-ZZYII03-GETMESGS
                  THRU Z9999-ZZYII03-GETMESGS-EXIT
               GO TO Z9999-RETURN-DATA-ERROR
           END-IF.

           PERFORM X1200-COUNT-ACI-NEXT.
           IF WS-SQLCOUNT > +0
               MOVE 'START-DT'         TO MAP-ELMNT-NAME-SY00
               MOVE 000196             TO MSG-ID-SY00
      *        **** SUBSEQNT RECS EXIST - CANNOT REACTIVATE
               PERFORM Z9999-ZZYII03-GETMESGS
                  THRU Z9999-ZZYII03-GETMESGS-EXIT
               GO TO Z9999-RETURN-DATA-ERROR
           END-IF.

           PERFORM V4000-EDIT-DATES
              THRU V4000-EDIT-DATES-EXIT.

           IF ACI-START-DT > WS-CURR-DATE-ISO
               IF WS-START-DT-ISO > ACI-START-DT
                   NEXT SENTENCE
               ELSE
                   MOVE 'FUNCTION'     TO MAP-ELMNT-NAME-SY00
                   MOVE 000438         TO MSG-ID-SY00
      *            **** EFCTV DATE INVALID AS DATE OF REACT
                   PERFORM Z9999-ZZYII03-GETMESGS
                      THRU Z9999-ZZYII03-GETMESGS-EXIT
               END-IF
           ELSE
               IF WS-START-DT-ISO < WS-CURR-DATE-ISO
                   MOVE 'FUNCTION'     TO MAP-ELMNT-NAME-SY00
                   MOVE 000438         TO MSG-ID-SY00
      *            **** EFCTV DATE INVALID AS DATE OF REACT
                   PERFORM Z9999-ZZYII03-GETMESGS
                      THRU Z9999-ZZYII03-GETMESGS-EXIT
               END-IF
           END-IF.

           IF MSG-QTY-SY00 > 0
               GO TO Z9999-RETURN-DATA-ERROR
           END-IF.

           PERFORM V5000-EDIT-ACCT-DISTRIBUTION
              THRU V5000-EDIT-ACCT-DIST-EXIT.

           IF MSG-QTY-SY00 > 0
               GO TO Z9999-RETURN-DATA-ERROR
           END-IF.

           IF ATI-ACTVY-DT NOT = WS-CURR-DATE-ISO
               MOVE WS-CURR-DATE-ISO   TO ATI-ACTVY-DT
               MOVE ACCTINDX-USER-CD   TO ATI-USER-CD
               PERFORM X6200-UPDATE-ATI
           END-IF.

           MOVE ACCTINDX-USER-CD       TO ACI-USER-CD.
           MOVE 'A'                    TO ACI-STATUS.
           MOVE WS-START-DT-ISO        TO ACI-START-DT.
           MOVE WS-HIGH-DATE-ISO       TO ACI-END-DT.
           MOVE WS-HIGH-DATE-ISO       TO ACI-EARLY-INCTV-DT.

           IF WS-START-DT-ISO = WS-CURR-DATE-ISO
               MOVE WS-CURR-TIME       TO ACI-TIME-STMP
           ELSE
               MOVE WS-LOW-TIME        TO ACI-TIME-STMP
           END-IF.

           PERFORM X6300-INSERT-ACI-EFCTV.

       R1000-REACTIVATE-ROUTINE-EXIT.
           EXIT.
      /
       V0100-EDIT-CONTENT-SECURITY.
      ******************************************************************
      *    CHECK IF USER HAS ADD PERMISSION FOR THE GA/INDEXCPY/MSTRINDX
      *    FIELD VALUE PASSED IN ACCT-INDX-CD.
      *    IF NOT, CHECK IF USER HAS PERMISSION VIA A SECURITY TEMPLATE.
      ******************************************************************

           MOVE 'V0100-EDIT-CONTENT-SECURITY'
                                       TO WSLG-PARAGRAPH.

           MOVE ACCTINDX-USER-CD       TO YED-FK-YEH-SCR-USER-CD.
           MOVE ACCTINDX-ACCT-INDX-CD  TO HV-ACCT-INDX-CD.
           PERFORM X0100-COUNT-YED-PRMSN.

           IF WS-SQLCOUNT = +0
               MOVE ACCTINDX-USER-CD   TO YUS-SCRTY-USER-CD
               PERFORM X0200-COUNT-YTS-PRMSN
           END-IF.

           IF WS-SQLCOUNT = +0
               MOVE 'V0100'            TO ACCTINDX-RETURN-MSG-NUM
               MOVE 'USER-CD/ACCT-INDX-CD'
                                       TO ACCTINDX-RETURN-MSG-FIELD
               MOVE 'NO AUTHORIZATION' TO ACCTINDX-RETURN-MSG-TEXT
               GO TO Z9999-RETURN-DATA-ERROR
           END-IF.
      /
       V1000-EDIT-START-DT.
      ******************************************************************
      *    IF BLANK, DEFAULT THE PASSED START-DT TO THE CURRENT DATE.
      *    OTHERWISE, EDIT/RETRIEVE START-DT IN ISO FORMAT (YYYY-MM-DD)
      *    AND ENSURE THAT IT IS NOT A FUTURE DATE.
      ******************************************************************

           MOVE 'V1000-EDIT-START-DT'  TO WSLG-PARAGRAPH.

           IF ACCTINDX-START-DT = SPACES
               MOVE WS-CURR-DATE-ISO   TO ACCTINDX-START-DT
               MOVE WS-CURR-DATE-ISO   TO WS-START-DT-ISO
MATTR              DISPLAY 'START DT1 = ', WS-START-DT-ISO
           ELSE
               MOVE ACCTINDX-START-DT  TO HV-ANY-DATE
               PERFORM X0800-SELECT-DATE-ISO-FORMAT

               IF  SQLCODE         = 0
      *** TOOK OUT FUTURE DATE CHECK...
MATTR *        AND HV-ISO-DATE NOT > WS-CURR-DATE-ISO
                   MOVE HV-ISO-DATE    TO WS-START-DT-ISO
MATTR              DISPLAY 'START DT2 = ', WS-START-DT-ISO
               ELSE
                   MOVE 'START-DT'     TO MAP-ELMNT-NAME-SY00
                   MOVE 000006         TO MSG-ID-SY00
      *            **** EFFECTIVE DATE INVALID
                   PERFORM Z9999-ZZYII03-GETMESGS
                      THRU Z9999-ZZYII03-GETMESGS-EXIT
                   GO TO Z9999-RETURN-DATA-ERROR
               END-IF
           END-IF.

       V1000-EDIT-START-DT-EXIT.
           EXIT.
      /
       V2000-GET-EDIT-ACCT-INDX.
      ******************************************************************
      *    RETRIEVE/EDIT ACCT-INDX-CD EXISTENCE/EFFECTIVITY (ATI/ACI).
      ******************************************************************

           MOVE 'V2000-GET-EDIT-ACCT-INDX' TO WSLG-PARAGRAPH.
MATTR      DISPLAY 'INTO V2000-GET-EDIT-ACCT-INDX...'.
MATTR      DISPLAY 'ACCTINDX-ACCT-INDX-CD: ', ACCTINDX-ACCT-INDX-CD.

           MOVE ACCTINDX-ACCT-INDX-CD  TO HV-ACCT-INDX-CD.
           PERFORM X1000-SELECT-ATI.

           IF ATI-SQLCODE = +100
               MOVE 'ACCT-INDX-CD'     TO MAP-ELMNT-NAME-SY00
               MOVE 000205             TO MSG-ID-SY00
      *        **** ACCOUNT INDEX INVALID
               PERFORM Z9999-ZZYII03-GETMESGS
                  THRU Z9999-ZZYII03-GETMESGS-EXIT
               GO TO Z9999-RETURN-DATA-ERROR
           END-IF.

           MOVE WS-START-DT-ISO        TO HV-START-DT.
           PERFORM X1100-SELECT-ACI-EFCTV.

           IF ACI-SQLCODE = +100
               MOVE 'ACCT-INDX-CD'     TO MAP-ELMNT-NAME-SY00
               MOVE 000198             TO MSG-ID-SY00
      *        **** REC NOT IN EFFECT FOR DATE REQUESTED
               PERFORM Z9999-ZZYII03-GETMESGS
                  THRU Z9999-ZZYII03-GETMESGS-EXIT
               GO TO Z9999-RETURN-DATA-ERROR
           END-IF.

           IF ACI-END-DT < WS-CURR-DATE-ISO
               MOVE 'ACCT-INDX-CD'     TO MAP-ELMNT-NAME-SY00
               MOVE 500006             TO MSG-ID-SY00
      *        **** TERM DATE EXPRD COPY NOT ALLOWED
               PERFORM Z9999-ZZYII03-GETMESGS
                  THRU Z9999-ZZYII03-GETMESGS-EXIT
               GO TO Z9999-RETURN-DATA-ERROR
           END-IF.

       V2000-GET-EDIT-ACCT-INDX-EXIT.
           EXIT.
      /
       V3000-EDIT-NEW-ACCT-INDX.
      ******************************************************************
      *    PREVENT COPYING INDEX WITH FUND CODE 79600A (CLINICAL TRIAL).
      *    EDIT NEW ACCT INDEX CODE FORMAT AND MATCHING TO MASTER INDEX.
      ******************************************************************

           MOVE 'V3000-EDIT-NEW-ACCT-INDX' TO WSLG-PARAGRAPH.
MATTR      DISPLAY 'INTO V3000-EDIT-NEW-ACCT-INDX...'.

           IF ACI-FUND-CD = '79600A'
               MOVE 'ACCT-INDX-CD'     TO MAP-ELMNT-NAME-SY00
               MOVE 570431             TO MSG-ID-SY00
      *        **** PLS USE INDEX2 SCREEN FOR FUND 79600A
               PERFORM Z9999-ZZYII03-GETMESGS
                  THRU Z9999-ZZYII03-GETMESGS-EXIT
               GO TO V3000-EDIT-NEW-ACCT-INDX-EXIT
           END-IF.

           INSPECT ACCTINDX-NEW-ACCT-INDX-CD CONVERTING
                              'abcdefghijklmnopqrstuvwxyz' TO
                              'ABCDEFGHIJKLMNOPQRSTUVWXYZ'.

NDP001     INSPECT ACCTINDX-ACCT-INDX-TTL REPLACING ALL
NDP001                        LOW-VALUES  BY  SPACE.

           INSPECT ACCTINDX-ACCT-INDX-TTL CONVERTING
                              'abcdefghijklmnopqrstuvwxyz' TO
                              'ABCDEFGHIJKLMNOPQRSTUVWXYZ'.

           IF ACCTINDX-ACCT-INDX-TTL = SPACES
               MOVE 'ACCT-INDX-TTL'    TO MAP-ELMNT-NAME-SY00
               MOVE 000208             TO MSG-ID-SY00
      *        **** ACCOUNT INDEX TITLE MISSING
               PERFORM Z9999-ZZYII03-GETMESGS
                  THRU Z9999-ZZYII03-GETMESGS-EXIT
               GO TO V3000-EDIT-NEW-ACCT-INDX-EXIT
           END-IF.

           IF ACCTINDX-NEW-ACCT-INDX-CD = SPACES
               MOVE 'NEW-ACCT-INDX-CD' TO MAP-ELMNT-NAME-SY00
               MOVE 000207             TO MSG-ID-SY00
      *        **** ACCOUNT INDEX MISSING
               PERFORM Z9999-ZZYII03-GETMESGS
                  THRU Z9999-ZZYII03-GETMESGS-EXIT
               GO TO V3000-EDIT-NEW-ACCT-INDX-EXIT
           END-IF.

           IF ACCTINDX-NEW-ACCT-INDX-CD(1:3) NOT =
              ACCTINDX-ACCT-INDX-CD(1:3)
               MOVE 'NEW-ACCT-INDX-CD' TO MAP-ELMNT-NAME-SY00
               MOVE 002375             TO MSG-ID-SY00
      *        **** FIRST 3 CHAR MUST MATCH MASTER INDEX
               PERFORM Z9999-ZZYII03-GETMESGS
                  THRU Z9999-ZZYII03-GETMESGS-EXIT
               GO TO V3000-EDIT-NEW-ACCT-INDX-EXIT
           END-IF.

           IF ACCTINDX-NEW-ACCT-INDX-CD(4:2) = 'BD'
               MOVE 'NEW-ACCT-INDX-CD' TO MAP-ELMNT-NAME-SY00
               MOVE 510319             TO MSG-ID-SY00
      *        **** BUDGET INDEX NOT ALLOWED
               PERFORM Z9999-ZZYII03-GETMESGS
                  THRU Z9999-ZZYII03-GETMESGS-EXIT
               GO TO V3000-EDIT-NEW-ACCT-INDX-EXIT
           END-IF.

FP3206
           IF ACCTINDX-NEW-ACCT-INDX-CD(4:4) = '0000'
               MOVE 'NEW-ACCT-INDX-CD' TO MAP-ELMNT-NAME-SY00
               MOVE 510351             TO MSG-ID-SY00
      *        **** ZEROS NOT ALLOWED.  BDGT OR PAYROLL ONLY
               PERFORM Z9999-ZZYII03-GETMESGS
                  THRU Z9999-ZZYII03-GETMESGS-EXIT
               GO TO V3000-EDIT-NEW-ACCT-INDX-EXIT
           END-IF.
FP3206

           INSPECT ACCTINDX-NEW-ACCT-INDX-CD(1:7)
                   TALLYING WS-COUNT FOR ALL SPACES.
           IF WS-COUNT > 0
               MOVE 'NEW-ACCT-INDX-CD' TO MAP-ELMNT-NAME-SY00
               MOVE 002372             TO MSG-ID-SY00
      *        **** SEVEN POSITIONS REQUIRED FOR INDEX
               PERFORM Z9999-ZZYII03-GETMESGS
                  THRU Z9999-ZZYII03-GETMESGS-EXIT
               GO TO V3000-EDIT-NEW-ACCT-INDX-EXIT
           END-IF.

           PERFORM WITH TEST BEFORE
                   VARYING WS-SUB FROM +1 BY +1
                     UNTIL WS-SUB    > +7

               MOVE ACCTINDX-NEW-ACCT-INDX-CD(WS-SUB:1)
                                       TO WS-CHARACTER
               IF WS-CHARACTER IS NUMERIC
               OR WS-CHARACTER IS ALPHABETIC-UPPER
               OR WS-CHARACTER  = ('@' OR '#')
                   CONTINUE
               ELSE
                   MOVE 'NEW-ACCT-INDX-CD'
                                   TO MAP-ELMNT-NAME-SY00
                   MOVE 510307     TO MSG-ID-SY00
      *            **** SPECIAL CHARACTERS NOT ALLWD FOR INDEX
                   PERFORM Z9999-ZZYII03-GETMESGS
                      THRU Z9999-ZZYII03-GETMESGS-EXIT
                   GO TO V3000-EDIT-NEW-ACCT-INDX-EXIT
               END-IF
           END-PERFORM.

       V3000-EDIT-NEW-ACCT-INDX-EXIT.
           EXIT.
      /
       V4000-EDIT-DATES.
      ******************************************************************
      *    EDIT START-DT/EARLY-INCTV-DT/ACI-END-DT COMPARISONS.
      ******************************************************************

           MOVE 'V4000-EDIT-DATES'     TO WSLG-PARAGRAPH.
MATTR      DISPLAY 'INTO V4000-EDIT-DATES...'.

           IF WS-START-DT-ISO > ACI-END-DT
               MOVE 'START-DT'         TO MAP-ELMNT-NAME-SY00
               MOVE 000217             TO MSG-ID-SY00
      *        **** TERM DATE MUST BE => THAN EFCTV DATE.
               PERFORM Z9999-ZZYII03-GETMESGS
                  THRU Z9999-ZZYII03-GETMESGS-EXIT
           END-IF.

           IF  ACCTINDX-FUNCTION  = 'UPDTITLE'
           AND ACI-EARLY-INCTV-DT < WS-START-DT-ISO
               MOVE 'EARLY-INCTV-DT'   TO MAP-ELMNT-NAME-SY00
               MOVE 500002             TO MSG-ID-SY00
      *        **** INACTV DATE MUST BE => THAN EFCTV DATE
               PERFORM Z9999-ZZYII03-GETMESGS
                  THRU Z9999-ZZYII03-GETMESGS-EXIT
           END-IF.

           IF ACCTINDX-FUNCTION = 'COPYINDX' OR 'UPDEIDTE'
               NEXT SENTENCE
           ELSE
               GO TO V4000-EDIT-DATES-EXIT
           END-IF.

      *    ************************************************
      *    *  THE FOLLOWING EDITS ARE FOR EARLY-INCTV-DT  *
      *    ************************************************
           IF ACCTINDX-EARLY-INCTV-DT = SPACES
           OR ACCTINDX-FUNCTION   NOT = ('COPYINDX' AND 'UPDEIDTE')
               MOVE WS-HIGH-DATE-ISO   TO WS-EARLY-INCTV-DT-ISO
               GO TO V4000-EDIT-DATES-EXIT
           END-IF.

           MOVE ACCTINDX-EARLY-INCTV-DT
                                       TO HV-ANY-DATE.
           PERFORM X0800-SELECT-DATE-ISO-FORMAT.

           IF SQLCODE = 0
               MOVE HV-ISO-DATE        TO WS-EARLY-INCTV-DT-ISO
           ELSE
               MOVE 'EARLY-INCTV-DT'   TO MAP-ELMNT-NAME-SY00
               MOVE 500001             TO MSG-ID-SY00
      *        **** INACTIVATION DATE INVALID
               PERFORM Z9999-ZZYII03-GETMESGS
                  THRU Z9999-ZZYII03-GETMESGS-EXIT
               GO TO V4000-EDIT-DATES-EXIT
           END-IF.

           IF WS-EARLY-INCTV-DT-ISO < WS-START-DT-ISO
               MOVE 'EARLY-INCTV-DT'   TO MAP-ELMNT-NAME-SY00
               MOVE 500002             TO MSG-ID-SY00
      *        **** INACTV DATE MUST BE => THAN EFCTV DATE
               PERFORM Z9999-ZZYII03-GETMESGS
                  THRU Z9999-ZZYII03-GETMESGS-EXIT
           END-IF.

           IF WS-EARLY-INCTV-DT-ISO > ACI-END-DT
               MOVE 'EARLY-INCTV-DT'
                                   TO MAP-ELMNT-NAME-SY00
               MOVE 500003         TO MSG-ID-SY00
      *        **** TERM DATE MUST BE => INACTIV DATE
               PERFORM Z9999-ZZYII03-GETMESGS
                  THRU Z9999-ZZYII03-GETMESGS-EXIT
           END-IF.

           PERFORM X1900-SELECT-CURR-DATE-PLUS-2.

           IF WS-EARLY-INCTV-DT-ISO < WS-TWO-PLUS-SYSTEM-DATE
               MOVE 'EARLY-INCTV-DT'   TO MAP-ELMNT-NAME-SY00
               MOVE 500007             TO MSG-ID-SY00
      *          **** EARLY INCTV DATE NOT 2+ DAYS IN FUTURE
               PERFORM Z9999-ZZYII03-GETMESGS
                  THRU Z9999-ZZYII03-GETMESGS-EXIT
           END-IF.

       V4000-EDIT-DATES-EXIT.
           EXIT.
      /
       V4500-EDIT-LOCATION.
      ******************************************************************
      *    EDIT LOCATION.
      ******************************************************************

           MOVE 'V4500-EDIT-LOCATION'  TO WSLG-PARAGRAPH.
MATTR      DISPLAY 'INTO V4500-EDIT-LOCATION...'.

           IF ACCTINDX-FUNCTION = 'COPYINDX'
               NEXT SENTENCE
           ELSE
               GO TO V4500-EDIT-LOCATION-EXIT
           END-IF.

           IF ACCTINDX-LOCATION = SPACES
               GO TO V4500-EDIT-LOCATION-EXIT
           END-IF.

           INSPECT ACCTINDX-LOCATION CONVERTING
                              'abcdefghijklmnopqrstuvwxyz' TO
                              'ABCDEFGHIJKLMNOPQRSTUVWXYZ'.

           MOVE ACCTINDX-LOCATION      TO LTN-LCTN-CD.
           PERFORM X6500-SELECT-LTN.

           IF SQLCODE = 0
               NEXT SENTENCE
           ELSE
               MOVE 'LOCATION      '   TO MAP-ELMNT-NAME-SY00
               MOVE 000097             TO MSG-ID-SY00
      *        **** LOCATION INVALID
               PERFORM Z9999-ZZYII03-GETMESGS
                  THRU Z9999-ZZYII03-GETMESGS-EXIT
               GO TO V4500-EDIT-LOCATION-EXIT
           END-IF.

       V4500-EDIT-LOCATION-EXIT.
           EXIT.
      /
       V5000-EDIT-ACCT-DISTRIBUTION.
      ******************************************************************
      *    CALL VALINDEX SUBROUTINE 'WGA003' TO VALIDATE THE COMPLETE
      *    ACCOUNT INDEX/IFOAPAL DISTRIBUTION.
      *    IF VALINDEX-RETURN-STATUS-CODE IS NOT 'S' (SUCCESSFUL),
      *    MOVE THE VALINDEX-RETURN-STATUS-PARMS TO THIS PROGRAM'S
      *    ACCTINDX-RETURN-STATUS-PARMS AND RETURN TO THE CALLING PGM
      *    WITH THE 'E' (DATA ERROR) OR 'F' (FATAL ERROR) STATUS INFO.
      ******************************************************************

           MOVE 'V5000-EDIT-ACCT-DISTRIBUTION' TO WSLG-PARAGRAPH.

           INITIALIZE                     VALINDEX-PARM-AREA.
           MOVE 'VALINDEX'             TO VALINDEX-CHANNEL-ID.
           MOVE '01.00.00'             TO VALINDEX-VERS-RESP-CD.
           MOVE ACCTINDX-SOURCE-SYSTEM TO VALINDEX-SOURCE-SYSTEM.

           IF ACCTINDX-FUNCTION = 'COPYINDX'
               MOVE ACCTINDX-NEW-ACCT-INDX-CD
                                       TO VALINDEX-ACCT-INDX-CD
           ELSE
               MOVE ACCTINDX-ACCT-INDX-CD
                                       TO VALINDEX-ACCT-INDX-CD
           END-IF.

           MOVE ACCTINDX-START-DT      TO VALINDEX-START-DT.
           MOVE ACI-FUND-CD            TO VALINDEX-FUND-CD.
           MOVE ACI-ORGN-CD            TO VALINDEX-ORGN-CD.
           MOVE ACI-ACCT-CD            TO VALINDEX-ACCT-CD.
           MOVE ACI-PRGRM-CD           TO VALINDEX-PRGRM-CD.
           MOVE ACI-ACTVY-CD           TO VALINDEX-ACTVY-CD.
           MOVE ACI-LCTN-CD            TO VALINDEX-LCTN-CD.

           MOVE 'WGA003'               TO WS-VALINDEX-PROGRAM.

           CALL WS-VALINDEX-PROGRAM USING DFHEIBLK
                                          WS-DUMMY-COMMAREA
                                          VALINDEX-PARM-AREA.
MATTR      DISPLAY 'WGA003 CALLED - VALINDEX-RETURN-STATUS-CODE: ',
MATTR               VALINDEX-RETURN-STATUS-CODE.
MATTR      DISPLAY 'VALINDEX-PARM-AREA: ', VALINDEX-PARM-AREA.

           IF VALINDEX-RETURN-STATUS-CODE = 'S'
               NEXT SENTENCE
           ELSE
               MOVE VALINDEX-RETURN-STATUS-CODE
                                       TO ACCTINDX-RETURN-STATUS-CODE
                   MOVE VALINDEX-RETURN-MSG-NUM (1)
                                       TO ACCTINDX-RETURN-MSG-NUM

                   MOVE VALINDEX-RETURN-MSG-FIELD (1)
                                       TO ACCTINDX-RETURN-MSG-FIELD

                   MOVE VALINDEX-RETURN-MSG-TEXT (1)
                                       TO ACCTINDX-RETURN-MSG-TEXT

               GO TO Z9999-RETURN-TO-CALLING-PGM
           END-IF.

       V5000-EDIT-ACCT-DIST-EXIT.
           EXIT.
      /
       X0100-COUNT-YED-PRMSN.
      ******************************************************************
      *    CHECK IF USER HAS ADD PERMISSION FOR THE GA/INDEXCPY/MSTRINDX
      *    FIELD VALUE PASSED IN ACCT-INDX-CD.
      ******************************************************************

           MOVE 'X0100-COUNT-YED-PRMSN'
                                       TO WSLG-PARAGRAPH.
           MOVE   0100                 TO WSLG-SQL-NBR.
           MOVE 'SELECT'               TO WSLG-DB2-STATEMENT.
           MOVE 'YED_CNT_EXCD_V'       TO WSLG-DB2-TABLE.

           EXEC SQL
               SELECT COUNT(*)
                 INTO :WS-SQLCOUNT
                 FROM YED_CNT_EXCD_V YED
                WHERE YED.FK_YEH_SCR_USER_CD = :YED-FK-YEH-SCR-USER-CD
                  AND YED.FK_YEH_MODULE_CD   = 'GA'
                  AND YED.FK_YEH_SCRN_CD     = 'INDEXCPY'
                  AND YED.FK_YEH_FIELD_CD    = 'MSTRINDX'
                  AND YED.ADD_PRMSN_FLAG     = 'Y'
                  AND :HV-ACCT-INDX-CD BETWEEN YED.LOW_VALUE
                                           AND YED.HIGH_VALUE
           END-EXEC.

           MOVE SQLCODE                TO YED-SQLCODE.

           EVALUATE SQLCODE
             WHEN +0
               CONTINUE
             WHEN OTHER
               GO TO Z9999-RETURN-DB2-ABEND
           END-EVALUATE.
      /
       X0200-COUNT-YTS-PRMSN.
      ******************************************************************
      *    CHECK IF USER HAS ADD PERMISSION FOR THE GA/INDEXCPY SCREEN
      *    VIA A TEMPLATE CODE.
      ******************************************************************

           MOVE 'X0200-COUNT-YTS-PRMSN'
                                       TO WSLG-PARAGRAPH.
           MOVE   0200                 TO WSLG-SQL-NBR.
           MOVE 'SELECT'               TO WSLG-DB2-STATEMENT.
           MOVE 'YTS_UNT_PMS_V'        TO WSLG-DB2-TABLE.

           EXEC SQL
               SELECT COUNT(*)
                 INTO :WS-SQLCOUNT
                 FROM YUS_SEC_USR_V YUS
                     ,YTS_UNT_PMS_V YTS
                WHERE YUS.SCRTY_USER_CD     = :YUS-SCRTY-USER-CD
                  AND YTS.FK_YTH_SCRTY_UNIT =  YUS.FK1_YTH_SCRTY_UNIT
                  AND YTS.FK_YTH_TMPLT_CD   =  YUS.FK1_YTH_TMPLT_CD
                  AND YTS.MODULE_CD         = 'GA'
                  AND YTS.SCRN_CD           = 'INDEXCPY'
                  AND YTS.ADD_PRMSN_FLAG    = 'Y'
           END-EXEC.

           MOVE SQLCODE                TO YTS-SQLCODE.

           EVALUATE YTS-SQLCODE
             WHEN +0
               CONTINUE
             WHEN OTHER
               GO TO Z9999-RETURN-DB2-ABEND
           END-EVALUATE.
      /
       X0500-SELECT-CURRENT-DATE-TIME.
      ******************************************************************
      *    GET THE CURRENT DATE.
      ******************************************************************

           MOVE 'X0500-SELECT-CURRENT-DATE-TIME'
                                       TO WSLG-PARAGRAPH.
           MOVE   0500                 TO WSLG-SQL-NBR.
           MOVE 'SELECT'               TO WSLG-DB2-STATEMENT.
           MOVE 'SYSIBM.SYSDUMMY1'     TO WSLG-DB2-TABLE.

           EXEC SQL
               SELECT CHAR(CURRENT_DATE,ISO)
                     ,CHAR(CURRENT_TIME,ISO)
                 INTO :WS-CURR-DATE-ISO
                     ,:WS-CURR-TIME
                 FROM SYSIBM.SYSDUMMY1
           END-EXEC.

           EVALUATE SQLCODE
             WHEN +0
               CONTINUE
             WHEN OTHER
               GO TO Z9999-RETURN-DB2-ABEND
           END-EVALUATE.
      /
       X0800-SELECT-DATE-ISO-FORMAT.
      ******************************************************************
      *    GET THE DATE IN ISO FORMAT.
      ******************************************************************

           MOVE 'X0800-SELECT-DATE-ISO-FORMAT'
                                       TO WSLG-PARAGRAPH.
           MOVE   0800                 TO WSLG-SQL-NBR.
           MOVE 'SELECT'               TO WSLG-DB2-STATEMENT.
           MOVE 'SYSIBM.SYSDUMMY1'     TO WSLG-DB2-TABLE.

           EXEC SQL
               SELECT CHAR(DATE(:HV-ANY-DATE),ISO)
                 INTO :HV-ISO-DATE
                 FROM SYSIBM.SYSDUMMY1
           END-EXEC.

           EVALUATE SQLCODE
             WHEN +0
             WHEN -180
             WHEN -181
               CONTINUE
             WHEN OTHER
               GO TO Z9999-RETURN-DB2-ABEND
           END-EVALUATE.
      /
       X1000-SELECT-ATI.
      ******************************************************************
      *    SELECT ATI_ACTI_V (ALL COLUMNS FOR COPY)
      ******************************************************************

           MOVE 'X1000-SELECT-ATI'     TO WSLG-PARAGRAPH.
           MOVE   1000                 TO WSLG-SQL-NBR.
           MOVE 'SELECT'               TO WSLG-DB2-STATEMENT.
           MOVE 'ATI_ACTI_V'           TO WSLG-DB2-TABLE.

           EXEC SQL
               SELECT
                  USER_CD
                 ,LAST_ACTVY_DT
                 ,UNVRS_CD
                 ,COA_CD
                 ,ACCT_INDX_CD
                 ,CHAR(ACTVY_DT,ISO)
               INTO
                  :ATI-USER-CD
                 ,:ATI-LAST-ACTVY-DT
                 ,:ATI-UNVRS-CD
                 ,:ATI-COA-CD
                 ,:ATI-ACCT-INDX-CD
                 ,:ATI-ACTVY-DT
               FROM ATI_ACTI_V
               WHERE ACCT_INDX_CD = :HV-ACCT-INDX-CD
           END-EXEC.

           MOVE SQLCODE                TO ATI-SQLCODE.

           EVALUATE SQLCODE
             WHEN +0
             WHEN +100
               CONTINUE
             WHEN OTHER
               GO TO Z9999-RETURN-DB2-ABEND
           END-EVALUATE.
      /
       X1100-SELECT-ACI-EFCTV.
      ******************************************************************
      *    SELECT ACI_ACTI_EFCTV_V (ALL COLUMNS FOR COPY)
      ******************************************************************

           MOVE 'X1100-SELECT-ACI-EFCTV' TO WSLG-PARAGRAPH.
           MOVE   1100                   TO WSLG-SQL-NBR.
           MOVE 'SELECT'                 TO WSLG-DB2-STATEMENT.
           MOVE 'ACI_ACTI_EFCTV_V'       TO WSLG-DB2-TABLE.

           EXEC SQL
               SELECT
                  USER_CD
                 ,LAST_ACTVY_DT
                 ,CHAR(START_DT,ISO)
                 ,CHAR(TIME_STMP,ISO)
                 ,CHAR(END_DT,ISO)
                 ,STATUS
                 ,ACCT_INDX_TTL
                 ,FUND_OVRDE
                 ,ORGN_OVRDE
                 ,ACCT_OVRDE
                 ,PRGRM_OVRDE
                 ,ACTVY_OVRDE
                 ,LCTN_OVRDE
                 ,FUND_CD
                 ,ORGN_CD
                 ,ACCT_CD
                 ,PRGRM_CD
                 ,ACTVY_CD
                 ,LCTN_CD
                 ,CHAR(EARLY_INCTV_DT,ISO)
                 ,FK_ATI_ACCT_INDXCD
               INTO
                  :ACI-USER-CD
                 ,:ACI-LAST-ACTVY-DT
                 ,:ACI-START-DT
                 ,:ACI-TIME-STMP
                 ,:ACI-END-DT
                 ,:ACI-STATUS
                 ,:ACI-ACCT-INDX-TTL
                 ,:ACI-FUND-OVRDE
                 ,:ACI-ORGN-OVRDE
                 ,:ACI-ACCT-OVRDE
                 ,:ACI-PRGRM-OVRDE
                 ,:ACI-ACTVY-OVRDE
                 ,:ACI-LCTN-OVRDE
                 ,:ACI-FUND-CD
                 ,:ACI-ORGN-CD
                 ,:ACI-ACCT-CD
                 ,:ACI-PRGRM-CD
                 ,:ACI-ACTVY-CD
                 ,:ACI-LCTN-CD
                 ,:ACI-EARLY-INCTV-DT
                 ,:ACI-FK-ATI-ACCT-INDXCD
                FROM ACI_ACTI_EFCTV_V     A
               WHERE A.FK_ATI_ACCT_INDXCD = :HV-ACCT-INDX-CD
                 AND A.END_DT            >= :HV-START-DT
                 AND A.START_DT =
                    (SELECT MAX(B.START_DT)
                       FROM ACI_ACTI_EFCTV_V     B
                      WHERE B.FK_ATI_ACCT_INDXCD = :HV-ACCT-INDX-CD
                        AND B.END_DT            >= :HV-START-DT
                        AND B.START_DT          <= :HV-START-DT)
                 AND A.TIME_STMP =
                    (SELECT MAX(C.TIME_STMP)
                       FROM ACI_ACTI_EFCTV_V     C
                      WHERE C.FK_ATI_ACCT_INDXCD = :HV-ACCT-INDX-CD
                        AND C.END_DT            >= :HV-START-DT
                        AND C.START_DT           = A.START_DT)
           END-EXEC.

           MOVE SQLCODE                TO ACI-SQLCODE.

           EVALUATE SQLCODE
             WHEN +0
             WHEN +100
               CONTINUE
             WHEN OTHER
               GO TO Z9999-RETURN-DB2-ABEND
           END-EVALUATE.
      /
       X1200-COUNT-ACI-NEXT.
      ******************************************************************
      *    VERIFY START-DT/TIME-STMP IS THE LATEST EFFECTIVE DATE
      *    FOR ACCT-INDX-CD BY COUNTING SUBSEQUENT ROWS.
      ******************************************************************

           MOVE 'X1200-COUNT-ACI-NEXT'   TO WSLG-PARAGRAPH.
           MOVE   1200                   TO WSLG-SQL-NBR.
           MOVE 'COUNT'                  TO WSLG-DB2-STATEMENT.
           MOVE 'ACI_ACTI_EFCTV_V'       TO WSLG-DB2-TABLE.

           EXEC SQL
               SELECT  COUNT(*)
                INTO  :WS-SQLCOUNT
                FROM   ACI_ACTI_EFCTV_V
               WHERE   FK_ATI_ACCT_INDXCD = :ACI-FK-ATI-ACCT-INDXCD
               AND   (
                       START_DT           > :ACI-START-DT
                  OR  (START_DT           = :ACI-START-DT
                   AND TIME_STMP          > :ACI-TIME-STMP)
                     )
           END-EXEC.

           MOVE SQLCODE                TO ACI-SQLCODE.

           EVALUATE SQLCODE
             WHEN +0
               CONTINUE
             WHEN OTHER
               GO TO Z9999-RETURN-DB2-ABEND
           END-EVALUATE.
      /
       X1900-SELECT-CURR-DATE-PLUS-2.
      ******************************************************************
      *    SELECT CURRENT DATE PLUS 2 DAYS
      ******************************************************************

           MOVE 'X1900-SELECT-CURR-DATE-PLUS-2'  TO WSLG-PARAGRAPH.
           MOVE   1900                           TO WSLG-SQL-NBR.
           MOVE 'SELECT'                         TO WSLG-DB2-STATEMENT.
           MOVE 'SYSIBM.SYSDUMMY1'               TO WSLG-DB2-TABLE.

           EXEC SQL
               SELECT CHAR((DATE(CURRENT DATE) + 2 DAYS),ISO)
                 INTO :WS-TWO-PLUS-SYSTEM-DATE
                 FROM SYSIBM.SYSDUMMY1
           END-EXEC.

           EVALUATE SQLCODE
             WHEN +0
               CONTINUE
             WHEN OTHER
               GO TO Z9999-RETURN-DB2-ABEND
           END-EVALUATE.
      /
       X6100-INSERT-ATI.
      ******************************************************************
      *    INSERT ATI_ACTI_V FOR NEW-ACCT-INDX-CD.
      ******************************************************************

           MOVE 'X6100-INSERT-ATI'     TO WSLG-PARAGRAPH.
           MOVE   6100                 TO WSLG-SQL-NBR.
           MOVE 'INSERT'               TO WSLG-DB2-STATEMENT.
           MOVE 'ATI_ACTI_V'           TO WSLG-DB2-TABLE.

           EXEC SQL
               INSERT INTO ATI_ACTI_V
                 (USER_CD
                 ,LAST_ACTVY_DT
                 ,UNVRS_CD
                 ,COA_CD
                 ,ACCT_INDX_CD
                 ,ACTVY_DT
               )
               VALUES
                 (:ATI-USER-CD
                 ,:ATI-LAST-ACTVY-DT
                 ,:ATI-UNVRS-CD
                 ,:ATI-COA-CD
                 ,:ATI-ACCT-INDX-CD
                 ,:ATI-ACTVY-DT
               )
           END-EXEC.

           MOVE SQLCODE                TO ATI-SQLCODE.

           EVALUATE SQLCODE
             WHEN +0
               ADD +1                  TO WS-UPDATE-COUNT
             WHEN -803
               CONTINUE
             WHEN OTHER
               GO TO Z9999-RETURN-DB2-ABEND
           END-EVALUATE.
      /
       X6200-UPDATE-ATI.
      ******************************************************************
      *    UPDATE ATI_ACTI_V
      ******************************************************************

           MOVE 'X6200-UPDATE-ATI'     TO WSLG-PARAGRAPH.
           MOVE   6200                 TO WSLG-SQL-NBR.
           MOVE 'UPDATE'               TO WSLG-DB2-STATEMENT.
           MOVE 'ATI_ACTI_V'           TO WSLG-DB2-TABLE.

           EXEC SQL
               UPDATE ATI_ACTI_V
                  SET USER_CD        = :ATI-USER-CD
                     ,LAST_ACTVY_DT  = :ATI-LAST-ACTVY-DT
                     ,ACTVY_DT       = :ATI-ACTVY-DT
               WHERE ACCT_INDX_CD    = :ATI-ACCT-INDX-CD
           END-EXEC.

           MOVE SQLCODE                TO ATI-SQLCODE.

           EVALUATE SQLCODE
             WHEN +0
               ADD +1                  TO WS-UPDATE-COUNT
             WHEN OTHER
               GO TO Z9999-RETURN-DB2-ABEND
           END-EVALUATE.
      /
       X6300-INSERT-ACI-EFCTV.
      ******************************************************************
      *    INSERT ACI_ACTI_EFCTV_V FOR THE REQUESTED CHANGE FUNCTION.
      ******************************************************************

           MOVE 'X6300-INSERT-ACI-EFCTV' TO WSLG-PARAGRAPH.
           MOVE   6300                   TO WSLG-SQL-NBR.
           MOVE 'INSERT'                 TO WSLG-DB2-STATEMENT.
           MOVE 'ACI_ACTI_EFCTV_V'       TO WSLG-DB2-TABLE.

           EXEC SQL
               INSERT INTO ACI_ACTI_EFCTV_V
                 (USER_CD
                 ,LAST_ACTVY_DT
                 ,START_DT
                 ,TIME_STMP
                 ,END_DT
                 ,STATUS
                 ,ACCT_INDX_TTL
                 ,FUND_OVRDE
                 ,ORGN_OVRDE
                 ,ACCT_OVRDE
                 ,PRGRM_OVRDE
                 ,ACTVY_OVRDE
                 ,LCTN_OVRDE
                 ,FUND_CD
                 ,ORGN_CD
                 ,ACCT_CD
                 ,PRGRM_CD
                 ,ACTVY_CD
                 ,LCTN_CD
                 ,EARLY_INCTV_DT
                 ,FK_ATI_ACCT_INDXCD
                 )
               VALUES
                 (:ACI-USER-CD
                 ,:ACI-LAST-ACTVY-DT
                 ,:ACI-START-DT
                 ,:ACI-TIME-STMP
                 ,:ACI-END-DT
                 ,:ACI-STATUS
                 ,:ACI-ACCT-INDX-TTL
                 ,:ACI-FUND-OVRDE
                 ,:ACI-ORGN-OVRDE
                 ,:ACI-ACCT-OVRDE
                 ,:ACI-PRGRM-OVRDE
                 ,:ACI-ACTVY-OVRDE
                 ,:ACI-LCTN-OVRDE
                 ,:ACI-FUND-CD
                 ,:ACI-ORGN-CD
                 ,:ACI-ACCT-CD
                 ,:ACI-PRGRM-CD
                 ,:ACI-ACTVY-CD
                 ,:ACI-LCTN-CD
                 ,:ACI-EARLY-INCTV-DT
                 ,:ACI-FK-ATI-ACCT-INDXCD
                 )
           END-EXEC.

           MOVE SQLCODE                TO ACI-SQLCODE.

           EVALUATE SQLCODE
             WHEN +0
               ADD +1                  TO WS-UPDATE-COUNT
             WHEN OTHER
               GO TO Z9999-RETURN-DB2-ABEND
           END-EVALUATE.
      /
       X6500-SELECT-LTN.
      ******************************************************************
      *    SELECT LTN_LCTN_V
      ******************************************************************

           MOVE 'X6500-SELECT-LTN'     TO WSLG-PARAGRAPH.
           MOVE   6500                 TO WSLG-SQL-NBR.
           MOVE 'SELECT'               TO WSLG-DB2-STATEMENT.
           MOVE 'LTN_LCTN_V'           TO WSLG-DB2-TABLE.

MATTR      DISPLAY 'INTO X6500-SELECT-LTN...'.
MATTR      DISPLAY 'LTN-LCTN-CD: ', LTN-LCTN-CD.

           EXEC SQL
               SELECT
                  USER_CD
                 ,LAST_ACTVY_DT
                 ,UNVRS_CD
                 ,COA_CD
                 ,LCTN_CD
                 ,ACTVY_DT
               INTO
                  :LTN-USER-CD
                 ,:LTN-LAST-ACTVY-DT
                 ,:LTN-UNVRS-CD
                 ,:LTN-COA-CD
                 ,:LTN-LCTN-CD
                 ,:LTN-ACTVY-DT
               FROM LTN_LCTN_V
               WHERE LCTN_CD = :LTN-LCTN-CD
           END-EXEC.

           MOVE SQLCODE                TO LTN-SQLCODE.

           EVALUATE SQLCODE
             WHEN +0
             WHEN +100
               CONTINUE
             WHEN OTHER
               GO TO Z9999-RETURN-DB2-ABEND
           END-EVALUATE.
      /
       Z9998-LOG-ERROR-VIA-UIS000W.
      ******************************************************************
      *    LINK TO PROGRAM UIS000W TO LOG 2 ERROR MESSAGES TO THE WSLG
      *    TRANSIENT DATA QUEUE AND, IF REQUESTED, TO THE Z/OS CONSOLE.
      *    THE FIRST MESSAGE (SEQ# 0) CONTAINS DESCRIPTIVE ERROR TEXT.
      *    THE SECOND MESSAGE (SEQ# 1) CONTAINS DIAGNOSTIC INFORMATION.
      *    ROLLBACK ANY DB2 UPDATES THAT MAY HAVE OCCURRED THIS TASK.
      ******************************************************************

           DISPLAY 'INTO Z9998-LOG-ERROR-VIA-UIS000W...'.
           MOVE '0'                    TO WSLG-MSG-SEQ-NUM.
           MOVE 'WGAI20U'              TO WSLG-PROGRAM-NAME.
           DISPLAY 'WSLG-PROGRAM-NAME: ', WSLG-PROGRAM-NAME.
           PERFORM Z9998-LINK-TO-PROGRAM-UIS000W.

           MOVE '1'                    TO WSLG-MSG-SEQ-NUM.
           MOVE EIBTASKN               TO WSLG-CICS-TASK-NUMBER.
           MOVE WSLG-DIAGNOSTIC-AREA   TO WSLG-MSG-TEXT.
           DISPLAY 'WSLG-MSG-TEXT    : ', WSLG-MSG-TEXT.
           PERFORM Z9998-LINK-TO-PROGRAM-UIS000W.

           IF WS-UPDATE-COUNT > 0
               MOVE 0                  TO WS-UPDATE-COUNT
               EXEC CICS SYNCPOINT ROLLBACK
               END-EXEC
           END-IF.


       Z9998-LINK-TO-PROGRAM-UIS000W.
      ******************************************************************
      *    LINK TO PROGRAM UIS000W.  IF THE LINK FAILS,
      *    ABEND THE TASK WITH A 'WCIX' DUMP CODE.
      ******************************************************************

           EXEC CICS LINK
                PROGRAM (WSLG-PROGRAM-UIS000W)
                COMMAREA(WSLG-USING-LIST)
                RESP    (WSLG-CICS-RESP)
                RESP2   (WSLG-CICS-RESP2)
           END-EXEC.

           IF WSLG-CICS-RESP NOT = DFHRESP(NORMAL)
               EXEC CICS ABEND
                    ABCODE('WCIX')
               END-EXEC
           END-IF.
      /
       Z9999-ZZYII03-GETMESGS.
      ******************************************************************
      *    GET UP TO 4 ERROR MESSAGES FROM MSL_MSG_LINE_V
      *    AND STORE ERROR INFORMATION IN THE COMMAREA RETURN FIELDS.
      ******************************************************************

           MOVE 'Z9999-ZZYII03-GETMESGS' TO WSLG-PARAGRAPH.
           MOVE   9999                   TO WSLG-SQL-NBR.
           MOVE 'SELECT'                 TO WSLG-DB2-STATEMENT.
           MOVE 'MSL_MSG_LINE_V'         TO WSLG-DB2-TABLE.

           ADD +1                   TO MSG-QTY-SY00.

           IF MSG-QTY-SY00 > +4
               GO TO Z9999-ZZYII03-GETMESGS-EXIT
           END-IF.

           MOVE MSG-QTY-SY00        TO WS-SUB.
           MOVE MSG-ID-SY00         TO ACCTINDX-RETURN-MSG-NUM.

           MOVE MAP-ELMNT-NAME-SY00 TO ACCTINDX-RETURN-MSG-FIELD.

           MOVE 'FS'                TO MSL-FK-MSG-MSG-KEY(1:2).
           MOVE MSG-ID-SY00         TO MSL-FK-MSG-MSG-KEY(3:6).

           EXEC SQL
               SELECT  MSG_1
                 INTO :MSL-MSG-1
                 FROM  MSL_MSG_LINE_V
                WHERE  FK_MSG_MSG_KEY = :MSL-FK-MSG-MSG-KEY
           END-EXEC.

           MOVE SQLCODE             TO MSL-SQLCODE.

           EVALUATE SQLCODE
             WHEN +0
               MOVE MSL-MSG-1       TO ACCTINDX-RETURN-MSG-TEXT

             WHEN OTHER
               GO TO Z9999-RETURN-DB2-ABEND
           END-EVALUATE.

       Z9999-ZZYII03-GETMESGS-EXIT.
           EXIT.
      /
       Z9999-RETURN-DATA-ERROR.
      ******************************************************************
      *    RETURN TO THE CALLING PROGRAM WITH DATA ERROR(S).
      *    ROLLBACK ANY DB2 UPDATES THAT MAY HAVE OCCURRED THIS TASK.
      ******************************************************************

           SET ACCTINDX-RESPONSE-ERROR TO TRUE.
           MOVE 'E'                    TO ACCTINDX-RETURN-STATUS-CODE.

           IF WS-UPDATE-COUNT > 0
               MOVE 0                  TO WS-UPDATE-COUNT
               EXEC CICS SYNCPOINT ROLLBACK
               END-EXEC
           END-IF.

           GO TO Z9999-RETURN-TO-CALLING-PGM.


       Z9999-RETURN-DB2-ABEND.
      ******************************************************************
      *    IF CALLED FROM THE WEB, LOG THE FATAL DB2 ERROR VIA PROGRAM
      *    UIS000W AND ABEND THE TASK WITH A 'WSQL' DUMP CODE.
      *    OTHERWISE RETURN TO THE CALLING PROGRAM WITH FATAL DB2 ERROR.
      ******************************************************************

           DISPLAY 'INTO Z9999-RETURN-DB2-ABEND...'.
           SET ACCTINDX-RESPONSE-ERROR TO TRUE.

           IF ACCTINDX-SOURCE-SYSTEM = 'WEB'
               MOVE WSLG-FATAL-DB2-MSG-ID
                                       TO WSLG-MSG-ID
               MOVE WSLG-DB2-STATEMENT TO WSLG-FATAL-DB2-STATEMENT
               MOVE WSLG-DB2-TABLE     TO WSLG-FATAL-DB2-TABLE
               MOVE WSLG-FATAL-DB2-MSG-TEXT
                                       TO WSLG-MSG-TEXT
               MOVE 'Y'                TO WSLG-CONSOLE-MSG-IND
               MOVE SPACES             TO WSLG-DIAGNOSTIC-INFO
               MOVE SQLCODE            TO WSLG-SQL-CODE
               STRING 'SQL#: '            WSLG-SQL-NBR
                      '  SQLCODE: '       WSLG-SQL-CODE
                   DELIMITED BY LENGTH OF WSLG-DIAGNOSTIC-INFO
                                     INTO WSLG-DIAGNOSTIC-INFO
               PERFORM Z9998-LOG-ERROR-VIA-UIS000W

               EXEC CICS ABEND
                    ABCODE('WSQL')
               END-EXEC

           ELSE
               MOVE 'F'                TO ACCTINDX-RETURN-STATUS-CODE
               MOVE SQLCODE            TO WSLG-SQL-CODE
               MOVE WSLG-SQL-CODE      TO ACCTINDX-RETURN-MSG-NUM
               MOVE WSLG-DB2-STATEMENT TO WSLG-FATAL-DB2-STATEMENT
               MOVE WSLG-DB2-TABLE     TO WSLG-FATAL-DB2-TABLE
               MOVE WSLG-FATAL-DB2-MSG-FIELDS
                                       TO ACCTINDX-RETURN-MSG-FIELD
               MOVE WSLG-SQL-NBR       TO WS-SQL-NBR
               MOVE WSLG-PARAGRAPH     TO WS-PARAGRAPH
               MOVE WS-SQL-PARAGRAPH   TO ACCTINDX-RETURN-MSG-TEXT
           END-IF.

           GO TO Z9999-RETURN-TO-CALLING-PGM.


       Z9999-RETURN-SUCCESSFUL.
      ******************************************************************
      *    RETURN TO THE CALLING PROGRAM WITH SUCCESSFUL STATUS.
      ******************************************************************

           SET ACCTINDX-RESPONSE-SUCCESSFUL
                                       TO TRUE.
           MOVE 'S'                    TO ACCTINDX-RETURN-STATUS-CODE.
           MOVE SPACES                 TO ACCTINDX-RETURN-MSG-NUM.
           MOVE SPACES                 TO ACCTINDX-RETURN-MSG-FIELD.
           MOVE WSLG-SUCCESSFUL-MSG-TEXT
                                       TO ACCTINDX-RETURN-MSG-TEXT.
           GO TO Z9999-RETURN-TO-CALLING-PGM.


       Z9999-RETURN-TO-CALLING-PGM.
      ******************************************************************
      *    RETURN TO THE CALLING PROGRAM.
      ******************************************************************

           DISPLAY 'ACCTINDX-RETURN-STATUS-CODE: ',
                    ACCTINDX-RETURN-STATUS-CODE.
           DISPLAY 'ACCTINDX-RETURN-MSG-NUM    : ',
                    ACCTINDX-RETURN-MSG-NUM.
           DISPLAY 'ACCTINDX-RETURN-MSG-FIELD  : ',
                    ACCTINDX-RETURN-MSG-FIELD.
           DISPLAY 'ACCTINDX-RETURN-MSG-TEXT   : ',
                    ACCTINDX-RETURN-MSG-TEXT.
           MOVE ACCTINDX-PARM-AREA     TO DFHCOMMAREA (1:LENGTH OF
                ACCTINDX-PARM-AREA).

           EXEC CICS RETURN
           END-EXEC.
